node id	node name
A0A024R493	efhd1
A0AUL9	ATG2A_2
A0FGR8	ESYT2
A0MZ66	shtn1
A1L306	tnr_2
A1L4H1	SSC5D
A2ABF9	ehmt2_2
A2RRN7	cadps_2
A2RRP1	nbas
A3KMH1	vwa8
A3KMH1-3	vwa8_2
A4D0S4	lamb4
A4D1W7	inhba
A5PKW4	PSD
A5YKK6-2	cnot1_2
A6ND01	IZUMO1R
A6NK89	RASSF10
A6NMY6	ANXA2P2
A6ZKI3	RTL8C
A8K2U0	A2ML1
A8K571	bmp7_2
A8K660	ADIPOQ
B2RNN3	C1QTNF9B
B2RUY7	VWC2L
B3KTP4	ApoL6
B4DJ51	CALM1
D3W0D1	KLRF2
D6RA96	RTEL1-TNFRSF6B
F8VY35	nap1l1
H0Y507	SH3PXD2A
H7BXI1	ESYT2_2
I3WAC9	ins
I4AY87	MIF_2
J3QT77	pon2
O00139	KIF2A
O00161	SNAP23
O00165	hax1
O00167-2	eya2
O00175	CCL24
O00182	LGALS9
O00187	masp2
O00189	ap4m1
O00193	SMAP
O00212	RHOD
O00238	bmpr1b
O00254	f2rl2
O00257	cbx4
O00267	supt5h
O00273	dffa
O00292	Lefty2
O00294	TULP1
O00295	TULP2
O00300	tnfrsf11b
O00303	eif3f
O00308	wwp2
O00322	upk1a
O00339	MATN2
O00391	qsox1
O00400	slc33a1
O00409	foxn3
O00421	CCRL2
O00429	dnm1l
O00459	pik3r2
O00463	traf5
O00468	agrn
O00469	plod2
O00471	exoc5
O00478	BTN3A3
O00499	bin1
O00505	kpna3
O00515	lad1
O00522	krit1
O00533	CHL1
O00548	DLL1
O00585	CCL21
O00590	ACKR2
O00592	podxl
O00602	FCN1
O00622	cyr61
O00626	CCL22
O00634	NTN3
O00755	wnt7a
O14493	CLDN4
O14508	SOCS2
O14519	CDK2AP1
O14543	socs3
O14545	trafd1
O14558	hspb6
O14625	CXCL11
O14641	dvl2
O14649	KCNK3
O14654	IRS4
O14656	TOR1A
O14669	prrg2
O14672	ADAM10
O14713	itgb1bp1
O14717	trdmt1
O14727	apaf1
O14744	prmt5
O14770	Meis2
O14775	GNB5
O14786	NRP1_2
O14786-2	NRP1
O14791	apol1
O14793	mstn
O14796	SH2D1B
O14807	mras
O14836	TNFRSF13B
O14862	AIM2
O14880	mgst3
O14896	irf6
O14908	gipc1
O14931	NCR3
O14933	UBE2L6
O14936-2	cask_3
O14936-3	cask
O14948	tfec
O14950	MYL12B
O14957	Uqcr11
O14964	hgs
O14976	gak
O14980	XPO1
O15018	pdzd2
O15027	sec16a_3
O15031	plxnB2
O15041	sema3e
O15047	setd1a
O15062	ZBTB5
O15067	pfas
O15068	mcf2l
O15078-2	cep290
O15084	ANKRD28
O15085	arhgef11
O15118	NPC1
O15123	angpt2
O15127	scamp2
O15145	arpc3
O15197	ephb6_2
O15197-2	ephb6
O15198	smad9
O15230	lama5
O15232	MATN3
O15235	MRPS12
O15243	LEPROT
O15244	slc22a2
O15260	SURF4
O15263	DEFB4A
O15269	sptlc1
O15273	tcap
O15294	ogt
O15297	ppm1d
O15304	siva1
O15320	ctage5
O15353	foxn1
O15355	ppm1g
O15357	INPPL1
O15372	EIF3H
O15382	bcat2
O15389	SIGLEC5
O15403	SLC16A6
O15440	abcc5
O15444	CCL25
O15455	tlr3
O15460	p4ha2_2
O15460-2	p4ha2
O15467	CCL16
O15481	MAGEB4
O15492	rgs16
O15496	PLA2G10
O15530	PDPK1
O15537	rs1
O15551	CLDN3
O43147	sgsm2
O43150	ASAP2
O43155	flrt2
O43157	PLXNB1
O43157-2	PLXNB1_2
O43167	zbtb24
O43172	prpf4
O43184	adam12_2
O43184-2	adam12
O43186	crx
O43240	KLK10
O43255	SIAH2
O43278	SPINT1
O43281	efs
O43294	TGFB1I1
O43301	hspa12a
O43318	map3k7_2
O43323	dhh
O43374	rasa4
O43379	wdr62_2
O43405	coch
O43439	cbfa2t2
O43463	SUV39H1
O43464	HTRA2
O43490	PROM1
O43493	TGOLN2
O43502	rad51c
O43504	lamtor5
O43508	tnfsf12
O43521	bcl2l11_2
O43543	xrcc2
O43557	tnfsf14
O43570	ca12
O43586	PSTPIP1
O43597	spry2
O43598	dnph1
O43603	GALR2
O43609	spry1
O43612	hcrt
O43615	timm44
O43617	trappc3_2
O43633	CHMP2A
O43639	NCK2
O43653	PSCA
O43681	asna1
O43683	bub1
O43699	SIGLEC6
O43709	bud23
O43715	triap1
O43734	TRAF3IP2
O43741	prkab2
O43781	DYRK3
O43790	KRT86
O43809	nudt21
O43820	hyal3
O43852-2	CALU
O43854	edil3
O43889-2	CREB3_2
O43913	orc5
O43914	tyrobp
O43915	VEGFD
O43927	CXCL13
O43929	orc4
O60216	rad21
O60218	AKR1B10
O60231	dhx16
O60232	sssca1
O60234	gmfg
O60235	TMPRSS11D
O60238	bnip3l
O60259	KLK8
O60285	NUAK1
O60303	KIAA0556
O60306	aqr
O60307	MAST3
O60308	cep104
O60333	kif1b_2
O60341	kdm1a
O60353	fzd6
O60437	ppl
O60462	NRP2
O60486	plxnc1
O60494	cubn
O60496	dok2
O60551	nmt2
O60565	grem1
O60609	gfra3
O60610	DIAPH1
O60674	jak2
O60684	kpna6
O60733	pla2g6
O60749	snx2
O60760	HPGDS
O60763	uso1
O60814	HIST1H2BK
O60826	ccdc22
O60840	cacna1f
O60840-5	cacna1f_2
O60844	ZG16
O60880	SH2D1A
O60882	MMP20
O60894	RAMP1
O60911	CTSV
O60925	PFDN1
O60941	dtnb
O75030	Mitf
O75037	kif21b
O75051	plxna2
O75052	nos1ap_2
O75056	sdc3
O75063	fam20b
O75077	ADAM23
O75081	cbfa2t3
O75084	FZD7
O75095	MEGF6
O75096	LRP4
O75154	RAB11FIP3
O75173	ADAMTS4
O75190	dnajb6
O75197	lrp5
O75325	lrrn2
O75326	sema7a
O75330	hmmr
O75340	pdcd6
O75342	ALOX12B
O75346	ZNF253
O75354-2	entpd6_2
O75356	ENTPD5
O75365	ptp4a3
O75369-8	flnb_2
O75380	ndufs6
O75381	pex14
O75396	SEC22B
O75400	prpf40a
O75400-2	prpf40a_2
O75436	vps26a
O75445	ush2a
O75461	E2F6
O75462	crlf1
O75478	tada2a
O75487	gpc4
O75489	ndufs3
O75496	gmnn
O75528	TADA3
O75553	dab1
O75556	Scgb2a1
O75558	STX11
O75582	rps6ka5
O75593	foxh1
O75594	PGLYRP1
O75618	dedd
O75643	snrnp200
O75694	nup155_2
O75711	SCRG1
O75716	stk16
O75718	crtap
O75746	slc25a12
O75787	atp6ap2
O75792	rnaseh2a
O75807	ppp1r15a
O75828	CBR3
O75829-2	CNMD
O75830	SERPINI2
O75874	idh1
O75888	tnfsf13
O75899	gabbr2
O75900	MMP23A
O75901	rassf9
O75909	ccnk
O75923	dysf
O75928	pias2
O75953	dnajb5
O75973	C1QL1
O75976	CPD
O76003	glrx3
O76009	KRT33A
O76011	KRT34
O76015	KRT38
O76027	ANXA9
O76036	NCR1
O76038	SCGN
O76081	rgs20
O76081-6	rgs20_2
O76083	pde9a
O76096	CST7
O94762	recql5
O94763	uri1
O94772	LY6H
O94776	mta2
O94782	usp1
O94813	slit2
O94817	Atg12
O94822	LTN1
O94842	tox4
O94855	sec24d
O94875	SORBS2
O94907	dkk1
O94919	ENDOD1
O94921	cdk14
O94964	soga1_2
O94964-2	soga1
O94966	usp19
O94993	SOX30
O95150	TNFSF15
O95163	ikbkap
O95180	CACNA1H
O95185	unc5c
O95218	zranb2
O95229	ZWINT
O95255	ABCC6
O95257	gadd45g
O95271	tnks
O95273	ccndbp1
O95274	LYPD3
O95295	Snapin
O95342	ABCB11
O95376	arih2
O95388	WISP1
O95390	gdf11
O95393	bmp10
O95395	gcnt3
O95400	cd2bp2
O95405	ZFYVE9
O95407	TNFRSF6B
O95427	pign
O95429	bag4
O95445	apom
O95450	adamts2
O95471	CLDN7
O95503	CBX6
O95613	pcnt
O95619	yeats4
O95630	stambp
O95631	ntn1
O95633	fstl3
O95684	fgfr1op
O95711	ly86
O95714	herc2
O95715	cxcl14
O95721	snap29
O95747	OXSR1
O95760	IL33
O95777	lsm8
O95793	stau1_2
O95810	CAVIN2
O95817	bag3
O95819	map4k4
O95832	cldn1
O95859	tspan12
O95897	olfm2
O95980	reck_2
O95989	NUDT3
O95994	AGR2
O95998	IL18BP
O95999	bcl10
O96008	tomm40
O96014	wnt11
P00325	ADH1B
P00367	GLUD1
P00387	cyb5r3
P00450	cp
P00451	f8
P00488	f13a1
P00491	PNP
P00505	got2
P00734	f2
P00736	c1r
P00740	f9
P00742	f10
P00747-PRO_0000028057	Angiostatin
P00748	F12
P00749	PLAU
P00750	plat
P00751	cfb
P00797	ren
P00813	ada
P00973	OAS1_2
P00973-2	OAS1
P01008	serpinc1
P01011	SERPINA3
P01019	agt
P01031	c5
P01033	TIMP1
P01036	Cst4
P01037	CST1
P01040	CSTA
P01042	kng1
P01112	hras
P01116	kras
P01127	PDGFB
P01130	ldlr
P01133	egf
P01135	tgfa
P01138	ngf
P01160	nppa
P01185	avp
P01210	penk
P01215	cga
P01222	tshb
P01225	fshb
P01229	lhb
P01236	prl
P01258	calca
P01270	PTH
P01275	GCG
P01282	vip
P01286	GHRH
P01303	npy
P01308	ins_2
P01344	igf2
P01350	GAST
P01374	lta
P01562	IFNA1
P01579	ifng
P01583	IL1A
P01584	il1b
P01588	epo
P01589	IL2RA
P01615	IGKV2D-28
P01619	IGKV3-20
P01709	IGLV2-8
P01730	cd4
P01732	cd8a
P01772	IGHV3-33
P01833	pigr
P01834	IGKC
P01854	IGHE
P01859	IGHG2
P01860	IGHG3
P01861	IGHG4
P01877	IGHA2
P01880	ighd
P01892	HLA-A_6
P01909	HLA-DQA1
P02008	hbz
P02452	Collagen-I
P02458	Collagen-II
P02462	Collagen-IV_4
P02462-2	Collagen-IV_9
P02462-PRO_0000390482	Arresten
P02511	cryab
P02545-2	lmna
P02652	apoa2
P02654	apoc1
P02655	apoc2
P02656	APOC3
P02671	fga
P02671-2	fga_2
P02675	fgb
P02679	fgg
P02741	CRP
P02743	APCS
P02746	c1qb
P02747	c1qc
P02748	c9
P02749	APOH
P02750	LRG1
P02751-12	fn1
P02760	ambp
P02763	ORM1
P02765	ahsg
P02771	AFP
P02774	gc
P02776	PF4
P02778	CXCL10
P02788	LTF
P02790	HPX
P02795	MT2A
P02808	STATH
P02810	PRH1
P02814	SMR3B
P03886	MT-ND1
P03950	ANG
P03952	KLKB1
P03956	MMP1
P03971	amh
P03973	SLPI
P03989	HLA-B
P04003	C4BPA
P04054	pla2g1b
P04062	gba
P04066	fuca1
P04070	proc
P04075-2	aldoa
P04080	CSTB
P04085	pdgfa
P04141	CSF2
P04150	nr3c1
P04156	prnp
P04179	sod2
P04196	HRG
P04217	A1BG
P04275	vwf
P04279	SEMG1
P04424	asl
P04628	wnt1
P04629	ntrk1_2
P04632	capns1
P04745	AMY1A
P04746	amy2a
P04798	cyp1a1
P04844	rpn2
P04908	HIST1H2AB
P05000	IFNW1
P05014	Ifna4
P05015	IFNA16
P05019	igf1
P05062	aldob
P05067-8	app_2
P05067-PRO_0000000093	Beta-amyloid peptide 1-40
P05090	apod
P05106	ITGB3_2
P05107	ITGB2
P05111	inha
P05112	il4
P05113	IL5
P05121	serpine1
P05154	SERPINA5
P05155	serping1
P05156	cfi
P05162	LGALS2
P05164	MPO
P05186	alpl
P05187	ALPP
P05204	hmgn2
P05230	FGF1
P05231	il6
P05305	edn1
P05362	ICAM1
P05408	scg5
P05413	fabp3
P05452	CLEC3B
P05455	ssb
P05534	HLA-A_9
P05771	PRKCB
P05783	krt18
P05814	CSN2
P06213	INSR_2
P06213-2	INSR
P06280	gla
P06307	CCK
P06312	IGKV4-1
P06396-2	gsn_2
P06400	rb1
P06401	pgr
P06493	cdk1
P06681	C2
P06703	S100A6
P06727	apoa4
P06729	CD2
P06731	CEACAM5
P06734	FCER2
P06737	pygl
P06744	GPI
P06756	ITGAV
P06850	crh
P06858	lpl
P06865	hexa
P06881	calca_2
P06899	HIST1H2BJ
P07093	serpine2
P07098	lipf
P07199	CENPB
P07204	thbd
P07225	pros1
P07288	KLK3
P07306	ASGR1
P07333	csf1r
P07357	c8a
P07359	GP1BA
P07477	PRSS1
P07498	CSN3
P07585	dcn
P07686	hexb
P07711	CTSL
P07738	bpgm
P07741	aprt
P07900-2	HSP90AA1
P07911	umod
P07942	lamb1
P07947	YES1
P07948	lyn_2
P07998	RNASE1
P08047	sp1
P08069	IGF1R
P08133	anxa6
P08183	ABCB1
P08195	slc3a2
P08236	gusb
P08237	pfkm
P08253-PRO_0000391626	PEX
P08254	MMP3
P08263	GSTA1
P08311	Ctsg
P08476	inhba_2
P08519	LPA
P08567	plek
P08572	Collagen-IV_6
P08572-PRO_0000283775	Canstatin
P08575	ptprc
P08582-2	MELTF
P08631	hck
P08637	FCGR3A
P08648	ITGA5
P08697	serpinf2
P08700	IL3
P08709	f7
P08754	gnai3
P08833	igfbp1
P08865	RPSA_2
P08887	il6r
P08962	cd63
P09012	snrpa
P09038-2	fgf2_2
P09110	acaa1
P09172	dbh
P09228	CST2
P09234	SNRPC
P09237	MMP7
P09238	MMP10
P09326	CD48
P09341	CXCL1
P09466	PAEP
P09493	tpm1_2
P09525	anxa4
P09529	inhbb
P09543	cnp
P09544	WNT2
P09601	hmox1
P09603	CSF1
P09619	pdgfrb
P09651	hnrnpa1
P09681	gip
P09758	TACSTD2
P09871	c1s
P09874	parp1
P09919	csf3
P09923	alpi
P09936	uchl1
P09958	FURIN
P09960	lta4h
P09972	aldoc
P0C0L4	C4A
P0C0L5	C4B
P0C0S8	HIST1H2AG
P0C7H8	KRTAP2-3
P0CG04	IGLC1
P0CG38	POTEI
P0DJI9	SAA2
P0DML2	CSH1
P0DML3	CSH2
P0DN86	CGB3
P10074	zbtb48
P10082	PYY
P10124	srgn
P10144	GZMB
P10147	CCL3
P10176	cox8a
P10242	myb
P10275	ar_2
P10398	ARAF
P10412	HIST1H1E
P10415	bcl2
P10600	tgfb3
P10619	ctsa
P10636	MAPT_3
P10636-8	MAPT_5
P10644	prkar1a
P10645	chga
P10909-4	clu_2
P10909-5	clu
P10911	mcf2
P10916	myl2
P10997	IAPP
P11047	lamc1
P11150	lipc
P11172	umps
P11215	ITGAM
P11216	pygb
P11226	MBL2
P11233	rala
P11362-7	FGFR1_3
P11441	UBL4A
P11464	PSG1
P11473	VDR
P11532	dmd
P11532-5	dmd_2
P11597	cetp
P11684	SCGB1A1
P11686	SFTPC
P11717	igf2r
P11802	cdk4
P11831	srf
P11836	MS4A1
P12034	fgf5
P12104	fabp2
P12109	Collagen-VI
P12110	Collagen-VI_3
P12111	Collagen-VI_4
P12273	PIP
P12314	FCGR1A
P12318	FCGR2A
P12319	FCER1A
P12429	anxa3
P12544	gzma
P12644	BMP4
P12645	bmp3
P12757	SKIL
P12821	ace
P12883	MYH7
P13196	alas1
P13232	IL7
P13236	CCL4
P13284	ifi30
P13385	tdgf1
P13473	lamp2
P13489	rnh1
P13497	BMP1_2
P13497-2	BMP1
P13497-4	BMP1_3
P13500	CCL2
P13521	SCG2
P13591	ncam1
P13612	ITGA4
P13637	ATP1A3
P13640	MT1G
P13671	c6
P13674-2	p4ha1_2
P13688	ceacam1
P13725	OSM
P13726	F3
P13727	PRG2
P13760	HLA-DRB1_2
P13796	lcp1
P13798	apeh
P13805	tnnt1
P13807	gys1
P13928	ANXA8
P13942	Collagen-XI
P13984	gtf2f2
P13987	cd59
P13995	mthfd2
P14091	Ctse
P14136	gfap
P14151	SELL
P14210-6	HGF_3
P14222	PRF1
P14316	irf2
P14373	TRIM27
P14384	cpm
P14415	ATP1B2
P14543	NID1
P14550	AKR1A1
P14555	PLA2G2A
P14618-2	PKM
P14735	ide
P14770	gp9
P14784	il2rb
P14921	ets1
P15018	lif
P15056	BRAF
P15090	FABP4
P15121	akr1b1
P15151	PVR
P15153	rac2
P15248	IL9
P15260	ifngr1
P15289	arsa
P15328	FOLR1
P15391	CD19
P15407	fosl1
P15498	VAV1_2
P15502	ELN
P15502-2	ELN_2
P15509	CSF2RA
P15514	areg
P15515	HTN1
P15516	HTN3
P15529	CD46
P15586	Gns
P15692	VEGFA_2
P15692-12	VEGFA_4
P15692-14	VEGFA_3
P15692-4	VEGFA
P15735	phkg2
P15813	CD1D
P15822	hivep1
P15884	tcf4
P15927	rpa2
P16070	CD44
P16109	selp
P16112	acan
P16144	ITGB4
P16150	SPN
P16152	cbr1
P16220	creb1
P16234	pdgfra
P16278	glb1
P16278-3	glb1_2
P16383	gcfc2
P16403	HIST1H1C
P16444	dpep1
P16452	EPB42
P16471	prlr
P16471-7	prlr_2
P16581	sele
P16671	CD36
P16860	nppb
P16870	cpe
P16885	plcg2
P17020	ZNF16
P17096	hmga1
P17174	got1
P17181	IFNAR1
P17252	prkca
P17275	junb
P17301	ITGA2
P17405	smpd1
P17540	ckmt2
P17544	ATF7
P17612	PRKACA
P17693	HLA-G
P17706	ptpn2
P17787	CHRNB2
P17813	ENG
P17900	gm2a
P17927	CR1
P17948-2	flt1
P17987	Tcp1
P18054	alox12
P18065	IGFBP2
P18075	bmp7
P18084	ITGB5
P18085	arf4
P18206-2	vcl
P18428	LBP
P18433-4	ptpra
P18465	HLA-B_10
P18509	ADCYAP1
P18510	IL1RN
P18669	PGAM1
P18827	SDC1
P18848	ATF4
P18850	atf6
P19012	krt15
P19013	krt4
P19021	pam
P19022	cdh2
P19256	CD58
P19338	NCL
P19440	ggt1
P19525	eif2ak2
P19532	TFE3
P19544	wt1
P19652	Orm2
P19784	CSNK2A2
P19823	itih2
P19827	itih1
P19835	CEL
P19838-2	nfkb1_2
P19875	CXCL2
P19876	CXCL3
P19883	fst_2
P19883-2	fst
P20023	CR2
P20062	tcn2
P20138	CD33_2
P20138-3	CD33
P20142	PGC
P20226	TBP
P20248	ccna2
P20339	rab5a
P20366	tac1
P20393	nr1d1
P20645	m6pr
P20700	lmnb1
P20701	ITGAL
P20742	PZP
P20783	ntf3
P20794	mak_2
P20809	IL11
P20823	hnf1a
P20827	efna1
P20839	IMPDH1
P20908	Collagen-V_2
P20930	FLG
P20936	RASA1
P20963	cd247
P21145	mal
P21452	tacr2
P21583	KITLG
P21673	sat1
P21741	MDK
P21781	fgf7
P21802-3	fgfr2_3
P21810	bgn
P21964	COMT
P22004	bmp6
P22105	tnxb
P22301	il10
P22303	ache_2
P22303-2	ache
P22314	uba1
P22362	ccl1
P22413	enpp1
P22466	GAL
P22612	PRKACG
P22626-2	HNRNPA2B1
P22681	cbl
P22692	IGFBP4
P22735	tgm1
P22894	MMP8
P23229	ITGA6
P23297	S100A1
P23443	rps6kb1
P23458	jak1
P23469	PTPRE
P23471	PTPRZ1
P23510	TNFSF4
P23560	bdnf
P23634	atp2b4
P23743	DGKA
P23759	pax7
P23771	gata3
P23945	fshr
P23946	CMA1
P24001	IL32_2
P24001-2	IL32
P24001-4	IL32_3
P24043	Lama2
P24071	FCAR
P24158	PRTN3
P24278	zbtb25
P24385	ccnd1
P24386	chm
P24394	il4r
P24522	gadd45a
P24530	EDNRB
P24534	EEF1B2
P24593	igfbp5
P24821	tnc
P24863	ccnc
P25024	CXCR1
P25025	cxcr2
P25067	Collagen-VIII
P25101	ednra
P25103	TACR1
P25106	ACKR3
P25116	f2r
P25311	AZGP1
P25391	lama1
P25774	CTSS
P25786	psma1_2
P25788	psma3_2
P25791	LMO2
P25815	S100P
P25929	Npy1r
P26006	ITGA3
P26045	ptpn3
P26441	cntf
P26639	tars
P26651	ZFP36
P26678	PLN
P26718	KLRK1
P26842	cd27
P26927	mst1
P26951	IL3RA
P26992	cntfr
P27037	acvr2a
P27352	GIF
P27361	mapk3
P27448	mark3
P27449	atp6v0c
P27540	arnt
P27694	RPA1
P27695	apex1
P27918	cfp
P27930	IL1R2
P27987	itpkb
P28223	htr2a
P28288	ABCD3
P28676	GCA_2
P28702	rxrb
P28749	rbl1
P28838	lap3
P28908	TNFRSF8
P29033	GJB2
P29034	S100A2
P29074	ptpn4
P29122	pcsk6
P29274	ADORA2A
P29279	ctgf
P29317	epha2
P29320	epha3
P29323	EPHB2
P29350-3	ptpn6
P29371	TACR3
P29376	ltk
P29400	Collagen-IV_3
P29459	IL12A
P29460	IL12B
P29474	NOS3
P29508	SERPINB3
P29590	PML_2
P29597	tyk2_2
P29622	SERPINA4
P29965	cd40lg
P29972	AQP1
P30043	blvrb
P30044	prdx5
P30044-2	prdx5_2
P30048	prdx3
P30203	CD6
P30260	cdc27
P30273	fcer1g
P30281	ccnd3
P30291	wee1
P30304	cdc25A
P30305	cdc25b_2
P30411	bdkrb2_2
P30411-2	bdkrb2
P30447	HLA-A_2
P30504	HLA-C
P30508	HLA-C_3
P30519	HMOX2
P30532	chrna5
P30533	lrpap1
P30556	AGTR1
P30566	adsl
P30613	pklr
P30626	sri
P30838	aldh3a1
P30926	chrnb4
P30989	ntsr1
P30990	nts
P31025	LCN1
P31146	coro1a
P31150	gdi1
P31431	SDC4
P31751	akt2
P31785	IL2RG
P31942	hnrnph3
P31944	CASP14
P31947-2	SFN_2
P31949	s100a11
P31995	FCGR2C
P31997	CEACAM8
P32119	prdx2
P32189	GK
P32239	CCKBR
P32241	vipr1
P32242	otx1
P32246	CCR1
P32248	ccr7
P32297	chrna3
P32302	cxcr5
P32320	CDA
P32321	dctd
P32856	STX2
P32881	IFNA8
P32927	csf2rb
P32971	TNFSF8
P33176	KIF5B
P33241	lsp1
P33527	abcc1
P33763	S100A5
P33993	mcm7_2
P34130	NTF4
P34820	BMP8B
P34897	shmt2
P34931	HSPA1L
P34998	crhr1
P35030	PRSS3_2
P35052	gpc1
P35070	btc
P35080	pfn2
P35221	ctnna1
P35225	il13
P35232	phb
P35237	SERPINB6
P35241	rdx
P35243	RCVRN
P35247	SFTPD
P35318	ADM
P35348	ADRA1A
P35367	hrh1
P35372	oprm1
P35498	scn1a
P35556	fbn2
P35558	pck1
P35568	irs1
P35573	AGL
P35590	tie1
P35611	add1_2
P35613-3	bsg
P35625	TIMP3
P35637	fus
P35638	ddit3
P35638-2	ddit3_2
P35749	myh11
P35754	glrx
P35914	hmgcl
P35916	flt4
P36405	arl3
P36406	trim23
P36542	atp5c1
P36544	chrna7
P36575	arr3
P36776	LONP1
P36871	pgm1
P36873-2	ppp1cc
P36894	bmpr1a
P36897	tgfbr1
P36915	gnl1
P36941	LTBR
P36952	SERPINB5
P36955	serpinf1
P36956	SREBF1
P37023	acvrl1
P37173	tgfbr2_2
P37173-2	tgfbr2
P37198	NUP62
P37235	hpcal1
P37288	avpr1a
P38432	coil
P38484	IFNGR2
P38919	eif4a3
P39060	Collagen-XVIII
P39060-PRO_0000441861	NC1-XVIII
P39656	ddost
P39687	anp32a
P39900	MMP12
P39905	gdnf_2
P39905-3	gdnf
P40121	capg
P40197	GP5
P40199	CEACAM6
P40225	thpo
P40238	mpl
P40313	ctrl
P40337-3	vhl_2
P40425	pbx2
P40429	rpl13a
P40855	pex19
P40925	MDH1_2
P40933	il15
P41146	oprl1
P41159	lep
P41161	etv5
P41182	bcl6
P41208	cetn2
P41217	CD200
P41220	rgs2
P41221	wnt5a
P41222	ptgds
P41240	csk
P41271	NBL1
P41273	TNFSF9
P41567	EIF1
P41586	adcyap1r1_2
P41586-3	adcyap1r1
P41597	CCR2
P42025	ACTR1B
P42166	tmpo
P42226	stat6
P42229	stat5a
P42336	pik3ca
P42566	eps15
P42574	casp3
P42685	FRK
P42695	ncapd3
P42701	IL12RB1
P42702	LIFR
P42768	was
P42773	cdkn2c
P42785	prcp
P42830	CXCL5_2
P43026	gdf5
P43115-12	ptger3
P43121	mcam
P43146	dcc
P43235	ctsk
P43243	MATR3
P43251	btd
P43307	ssr1
P43355	MAGEA1
P43360	MAGEA6
P43361	MAGEA8
P43363	MAGEA10
P43364	MAGEA11_2
P43364-2	MAGEA11
P43365	MAGEA12
P43405	syk
P43489	TNFRSF4
P43490	NAMPT
P43627	KIR2DL2
P43628	KIR2DL3
P43632	KIR2DS4
P43681	chrna4
P43686	psmc4_2
P45452	mmp13
P45877	ppic
P45973	cbx5
P45984	mapk9
P46013-2	mki67_2
P46092	ccr10
P46094	XCR1
P46109	crkl
P46379-2	bag6
P46459	nsf
P46663	bdkrb1
P46734	MAP2K3
P46821	map1b
P46937	YAP1
P46939	utrn
P46976	gyg1
P47211	GALR1
P47710	CSN1S1
P47712	PLA2G4A
P47929	LGALS7
P47992	XCL1
P48059	lims1_2
P48061	CXCL12
P48061-2	CXCL12_2
P48307	tfpi2
P48357	lepr
P48506	gclc
P48509	cd151
P48546	gipr
P48552	NRIP1
P48594	SERPINB4
P48634	prrc2a
P48645	nmu
P48735	idh2
P48745	NOV
P48960-2	cd97
P49006	marcksl1
P49023	pxn
P49146	npy2r
P49238	CX3CR1
P49257	lman1
P49281	slc11a2
P49336	cdk8
P49354	fnta
P49366	dhps
P49368	cct3
P49447	cyb561
P49459	ube2a
P49639	HOXA1
P49674	csnk1e
P49682	CXCR3
P49703	arl4d
P49715	cebpa
P49747	comp
P49750	ylpm1
P49763	PGF
P49765	VEGFB
P49767	vegfc
P49768	psen1
P49770	eif2b2_2
P49771	FLT3LG
P49790	nup153
P49792	RANBP2
P49810	psen2
P49862	KLK7
P49863	gzmk
P49888	SULT1E1
P49913	cAMP
P49915	gmps
P49917	lig4
P50052	agtr2
P50053	khk
P50148	gnaq
P50502	st13
P50539	mxi1_2
P50542	pex5
P50897	ppt1
P50991	cct4
P50995	ANXA11
P51116	fxr2
P51124	GZMM
P51148	rab5c
P51149	RAB7A
P51159	rab27a
P51398	dap3
P51511	MMP15
P51572	bcap31
P51608-2	mecp2_2
P51654	gpc3
P51659	hsd17b4
P51671	CCL11
P51677	CCR3
P51679	CCR4
P51681	CCR5
P51684	CCR6
P51685	CCR8
P51692	stat5b
P51784	usp11
P51788	clcn2
P51798	clcn7
P51878	CASP5
P51884	lum
P51955	nek2
P51956	NEK3
P51959	ccng1
P51965	ube2e1
P52209	pgd
P52272-2	hnrnpm_2
P52292	kpna2
P52333	jak3
P52564	map2k6
P52565	arhgdia
P52732	kif11
P52735	vav2
P52758	RIDA
P52788	sms
P52790	HK3
P52798	EFNA4
P52799	EFNB2
P52803	EFNA5
P52961	ART1
P53041	ppp5c_2
P53355	dapk1
P53365	ARFIP2
P53420	Collagen-IV_8
P53611	rabggtb
P53634	ctsc
P53667	limk1
P53680	ap2s1
P53778	mapk12
P53779	mapk10
P53990	ist1_3
P53990-2	ist1
P53990-4	ist1_2
P54136	rars
P54198	hira
P54257	HAP1
P54619	prkag1
P54646	prkaa2
P54707	ATP12A
P54725	rad23a
P54727	rad23b
P54753	EPHB3
P54760	EPHB4
P54762	ephb1
P54764	ephA4
P54829	ptpn5
P54852	EMP3
P55000	SLURP1
P55001	mfap2
P55040	GEM
P55055	NR1H2
P55058	pltp_2
P55058-2	pltp
P55064	AQP5
P55084	hadhb
P55085	f2rl1
P55196	AFDN
P55199	ell
P55210	casp7
P55211	casp9
P55212	casp6
P55259	GP2
P55268	lamb2
P55290	cdh13
P55317	foxa1
P55345	prmt2
P55774	CCL18
P55789	gfer
P55795	HNRNPH2
P55854	SUMO3
P55957	Bid
P56134	atp5j2
P56159	GFRA1
P56159-2	GFRA1_2
P56180-2	tpte
P56199	itga1
P56470	LGALS4
P56645	per3
P56703	wnt3
P56704	wnt3a
P56705	WNT4
P56706	WNT7B
P56730	prss12
P56851	EDDM3B
P57073	sox8
P57076	c21orf59
P57087	jam2
P57105	synj2bp
P57740	nup107
P57764	GSDMD
P57796	cabp4
P57796-2	cabp4_2
P58062	SPINK7
P58215	LOXL3
P58397	adamts12
P58753	tirap_2
P59665	Defa1
P59991	KRTAP12-2
P60006	ANAPC15
P60022	DEFB1
P60059	sec61g
P60228	EIF3E
P60370	KRTAP10-5
P60372	KRTAP10-4
P60411	KRTAP10-9
P60510	PPP4C
P60568	IL2
P60660-2	myl6
P60827	C1QTNF8
P60880	SNAP25
P60903	S100A10
P61020	rab5b
P61073	CXCR4
P61077	ube2d3
P61086	ube2k
P61088	ube2n
P61201	cops2
P61244	max
P61289	psme3
P61328	fgf12_2
P61328-2	fgf12
P61457	pcbd1
P61586	rhoa
P61587	rnd3
P61601	NCALD
P61812	tgfb2
P61916	NPC2
P61927	rpl37
P61956	SUMO2
P61962	dcaf7
P61968	LMO4
P61978-2	hnrnpk_2
P62070	rras2
P62166	ncs1
P62191	PSMC1
P62256	ube2h
P62316	snrpd2
P62341	SELENOT
P62491	rab11a
P62714	ppp2cb
P62736	acta2
P62753	rps6
P62820	rab1a
P62837	ube2d2
P62841	rps15
P62873	GNB1
P62877	rbx1
P62891	rpl39
P62917	rpl8
P62995	tra2b
P63096	gnai1
P63151	ppp2r2a
P63165	sumo1
P63167	dynll1
P63208	skp1
P68363	tuba1b
P68871	HBB
P78310	cxadr
P78314	sh3bp2
P78318	igbp1
P78325	adam8
P78333	GPC5
P78347	GTF2I
P78362	srpk2
P78380	OLR1
P78385	KRT83
P78423	CX3CL1
P78504	JAG1
P78536	ADAM17
P78537	bloc1s1
P78539	srpx
P78552	il13ra1
P78556	CCL20
P78560	cradd
P80075	CCL8
P80098	CCL7
P80162	CXCL6
P80188	LCN2
P80294	MT1H
P80303	NUCB2
P81534	DEFB103A
P81877	ssbp2
P82279	crb1
P82933	mrps9
P82987	adamtsl3
P83105	htra4
P84077	arf1
P84085	arf5
P84090	ERH
P84101	serf2
P84996	gnas_2
P85037	foxk1
P98073	tmprss15
P98095	fbln2
P98155	vldlr
P98160-PRO_0000391621	Endorepellin
P98160-PRO_0000391622	LG3
P98164	lrp2
P98170	xiap
P98173	fam3a_2
P98187	CYP4F8
P99999	cycs
Q00005-7	ppp2r2b_2
Q00013	mpp1
Q00532	cdkl1
Q00534	cdk6
Q00604	ndp
Q00765	reep5
Q00796	sord
Q00839-2	hnrnpu_2
Q00887	PSG9
Q00978	irf9
Q00994	BEX3
Q01081	u2af1
Q01094	e2f1
Q01105	SET
Q01113	IL9R
Q01344	IL5RA_2
Q01344-2	IL5RA
Q01518	cap1
Q01523	Defa5
Q01628	Ifitm3
Q01638	il1rl1_2
Q01638-2	il1rl1
Q01780	exosc10
Q01804	otud4
Q01814	atp2b2
Q01844	EWSR1
Q01955	Collagen-IV_5
Q01955-PRO_0000279684	Tumstatin
Q01973	ror1
Q01995	tagln
Q02078	mef2a
Q02221	cox6a2
Q02223	TNFRSF17
Q02224	cenpe
Q02383	SEMG2
Q02388	Collagen-VII_2
Q02505	MUC3A
Q02543	rpl18a
Q02742	GCNT1
Q02790	fkbp4
Q02817	MUC2
Q02818	nucb1
Q02833	RASSF7
Q02930	CREB5_2
Q02962	PAX2
Q03001-8	DST_3
Q03164	kmt2a
Q03167	tgfbr3
Q03403	TFF2
Q03405	PLAUR
Q03692	Collagen-X
Q04446	GBE1
Q04656	atp7a
Q04724	TLE1
Q04725	tle2
Q04726	TLE3
Q04756	HGFAC
Q04900	cd164
Q04912	MST1R
Q04917	ywhah
Q05084	ica1_2
Q05209	ptpn12
Q05397	PTK2
Q05516	zbtb16
Q05707	Collagen-XIV
Q06141	REG3A
Q06330	RBPJ
Q06413	mef2c
Q06418	tyro3
Q06481	aplp2
Q06587	RING1
Q06609	rad51
Q06643	LTB
Q06710	Pax8
Q07002	CDK18
Q07011	TNFRSF9
Q07092	Collagen-XVI
Q07157	tjp1
Q07283	TCHH
Q07325	CXCL9
Q07654	TFF3
Q07666	khdrbs1
Q07812	bax
Q07817	bcl2l1
Q07820	MCL1_2
Q07912	tnk2
Q07954	lrp1
Q08117	aes
Q08117-2	aes_2
Q08188	TGM3
Q08334	il10rb
Q08345-2	ddr1_3
Q08379	golga2
Q08397	loxl1
Q08493-3	PDE4C
Q08495	dmtn
Q08722	CD47
Q08830	fgl1
Q08AM6	vac14
Q09019	DMWD
Q09028	rbbp4
Q09161	NCBP1
Q09666	ahnak
Q0P5P2	C17orf67
Q0P6H9	tmem62
Q0VD86	INCA1
Q0VDF9	hspa14
Q0WX57	USP17L24
Q10471	galnt2
Q10472	galnt1
Q10588	BST1
Q10713	pmpca
Q11201	st3gal1
Q11203	st3gal3
Q12789	GTF3C1
Q12794	hyal1
Q12800	tfcp2
Q12824	smarcb1
Q12829	rab40b
Q12834	cdc20
Q12851	map4k2
Q12860	CNTN1
Q12866	MERTK
Q12873	chd3
Q12884	fap
Q12889	ovgp1
Q12891	HYAL2
Q12894	ifrd2
Q12899	TRIM26
Q12904	aimp1
Q12907	lman2
Q12913	PTPRJ
Q12918	KLRB1
Q12929	eps8
Q12931	trap1
Q12950	FOXD4
Q12952	foxl1
Q12959-2	dlg1
Q12959-5	dlg1_3
Q12974	ptp4a2
Q12982	bnip2
Q12988	HSPB3
Q13009	TIAM1
Q13011	ech1
Q13033	strn3
Q13049	trim32
Q13064	MKRN3
Q13085	acaca
Q13094	lcp2
Q13098	gps1
Q13099	ift88
Q13112	chaf1b
Q13114	traf3
Q13131	prkaa1_2
Q13148	tardbp
Q13153	pak1
Q13155	aimp2
Q13164	mapk7
Q13177	pak2
Q13188	stk3
Q13201	MMRN1
Q13214	sema3b_2
Q13214-2	sema3b
Q13217	dnajc3
Q13219	PAPPA
Q13228	selenbp1
Q13243	SRSF5
Q13253	Nog
Q13257	mad2l1
Q13261	IL15RA
Q13275	SEMA3F
Q13283	g3bp1
Q13285	NR5A1
Q13286	cln3
Q13287	nmi
Q13291	SLAMF1
Q13310	pabpc4_2
Q13315	atm
Q13316	DMP1
Q13322	grb10
Q13330	mta1_2
Q13352	ITGB3BP
Q13363-2	ctbp1
Q13368	MPP3
Q13398	ZNF211
Q13404	ube2v1
Q13410	BTN1A1
Q13421	MSLN
Q13422	ikzf1
Q13424	SNTA1
Q13432	UNC119
Q13442	pdap1
Q13443	adam9
Q13449	lsamp
Q13451	fkbp5
Q13467	fzd5
Q13478	IL18R1
Q13503	MED21
Q13508	ART3
Q13510	asah1
Q13519	pnoc
Q13522	PPP1R1A
Q13526	pin1
Q13530	SERINC3
Q13554	CAMK2B
Q13557	CAMK2D
Q13561	dctn2
Q13568	irf5
Q13586	STIM1
Q13595	tra2a
Q13596	snx1
Q13609	dnase1l3
Q13618	cul3
Q13620	cul4b
Q13635	ptch1
Q13642	FHL1
Q13643	fhl3
Q13651	il10ra
Q13705	acvr2b
Q13740	alcam
Q13753	lamc2
Q13769	thoc5
Q13813-2	SPTAN1_3
Q13813-3	SPTAN1
Q13873	BMPR2
Q13936	cacna1c_2
Q13936-20	cacna1c
Q13951	cbfb
Q13952	nfyc
Q13956	pde6h
Q13976	prkg1
Q14002	CEACAM7
Q14004	cdk13_3
Q14011	cirbp
Q14019	COTL1
Q14031	Collagen-IV
Q14055	Collagen-IX
Q14112	NID2
Q14116	IL18
Q14118	dag1
Q14134	TRIM29
Q14145	keap1
Q14152	EIF3A
Q14157	ubap2l
Q14160	scrib
Q14161	GIT2
Q14181	pola2
Q14186	tfdp1
Q14192	FHL2
Q14194	crmp1
Q14195	dpysl3
Q14195-2	dpysl3_2
Q14210	LY6D
Q14213	ebi3
Q14240	eif4a2_2
Q14242	selplg
Q14324	MYBPC2
Q14344	gna13
Q14393	gas6
Q14451	GRB7
Q14469	HES1
Q14494	nfe2l1
Q14515	sparcl1_2
Q14520	habp2
Q14524	SCN5A
Q14527	hltf
Q14533	KRT81
Q14534	SQLE
Q14563	SEMA3A
Q14566	Mcm6
Q14592	ZNF460
Q14623	IHH
Q14624	ITIH4
Q14626	il11ra
Q14627	il13ra2
Q14642	INPP5A
Q14667-2	KIAA0100
Q14669	trip12
Q14683	smc1a
Q14689	dip2a_2
Q14766	ltbp1_2
Q14766-2	ltbp1
Q14767	LTBP2
Q14773	ICAM4
Q14807	kif22
Q14896	mybpc3
Q14999	CUL7
Q14BN4	slmap
Q14CS0	UBXN2B
Q14CZ7	fastkd3
Q15006	EMC2
Q15020	sart3
Q15025	tnip1
Q15034	herc3
Q15036	snx17
Q15038	dazap2
Q15047	SETDB1
Q15063	postn
Q15075	eea1
Q15116	PDCD1
Q15118	pdk1
Q15131	cdk10
Q15149-4	PLEC_2
Q15165	pon2_2
Q15223	NECTIN1
Q15223-2	NECTIN1_2
Q15238	PSG5
Q15256	ptprr
Q15286	rab35
Q15287	RNPS1
Q15303-3	ErbB4_2
Q15311	ralbp1
Q15334	llgl1
Q15363	tmed2
Q15369	ELOC
Q15375	epha7
Q15382	rheb
Q15404	rsu1
Q15427	sf3b4
Q15428	sf3a2
Q15435	ppp1r7
Q15436	sec23a
Q15459	sf3a1
Q15465	SHH
Q15468	stil
Q15485	FCN2
Q15527	surf2
Q15545	taf7
Q15554	TERF2
Q15555	mapre2
Q15562	TEAD2
Q15582	tgfbi
Q15637	SF1
Q15645	trip13
Q15762	cd226
Q15782	CHI3L2
Q15797	smad1
Q15811	itsn1
Q15825	chrna6
Q15828	CST6
Q15833	stxbp2
Q15834	ccdc85b
Q15836	vamp3
Q15848	ADIPOQ_2
Q15853	usf2
Q15904	atp6ap1
Q15907	rab11b
Q15942	zyx
Q16206	enox2
Q16206-2	enox2_2
Q16270	igfbp7
Q16288	NTRK3
Q16352	INA
Q16378	PRR4
Q16394	EXT1
Q16526	CRY1
Q16539-3	MAPK14_2
Q16552	il17a
Q16555	dpysl2
Q16557	PSG3
Q16568	CARTPT
Q16570	ACKR1
Q16576	RBBP7
Q16594	taf9
Q16602	CALCRL
Q16609	LPAL2
Q16610	ECM1
Q16611	BAK1
Q16619	CTF1
Q16620	NTRK2
Q16623	stx1a
Q16625	ocln
Q16627	CCL14
Q16629	srsf7
Q16658	fscn1
Q16663	CCL15
Q16665	hif1a
Q16666-2	IFI16_3
Q16667-2	cdkn3
Q16740	clpp
Q16762	TST
Q16778	HIST2H2BE
Q16787	lama3
Q16795	ndufa9
Q16820	mep1b
Q16822	pck2
Q16827	ptpro
Q16829	dusp7
Q16832	ddr2
Q16853	AOC3
Q16891	immt_2
Q17RF5	C4orf26
Q17RW2	Collagen-XXIV
Q29960	HLA-C_2
Q29983	MICA
Q2KJY2	KIF26B
Q2MKA7	rspo1
Q2PPJ7	ralgapa2
Q2TAC2	ccdc57
Q30201	HFE
Q309B1	TRIM16L
Q31604	DMA
Q3B7J2	gfod2
Q3B8N2	LGALS9B
Q3B8N2-2	LGALS9B_2
Q3V6T2	CCDC88A
Q3YEC7	RABL6
Q3ZCW2	LGALSL
Q495A1	TIGIT
Q49A88	ccdc14
Q49AN0	cry2
Q4ACW9	TWEAK
Q4G0F5	vps26b
Q4LDE5	svep1
Q4VC05	bcl7a
Q4VCS5	amot
Q53EL9	SEZ6
Q53EZ4	CEP55
Q53FD0	zc2hc1c_2
Q53G59	klhl12
Q53GC0	SERTAD1
Q53GI4	TEAD4
Q53GQ0	HSD17B12
Q53GS7	gle1
Q53H96	pycr3
Q53SE7	FLJ13057
Q53XC2	eif2b2
Q53ZZ1	TNFSF6
Q562E7	wdr81
Q567U6	ccdc93
Q58DX5	NAALADL2
Q59H18	tnni3k
Q5BIV9	sprn
Q5BJF6	odf2
Q5D1E8	zc3h12a
Q5D862	FLG2
Q5EB52	mest
Q5EBL8	pdzd11
Q5FBB7	SGO1
Q5H9J7	BEX5
Q5HYA8	tmem67
Q5HYK7	sh3d19
Q5J5C9	DEFB121
Q5JR59	mtus2
Q5JRA6	mia3
Q5JRX3	pitrm1
Q5JSJ4	INTS6L
Q5JTB6	PLAC9
Q5JU00	tcte1
Q5JY77	GPRASP1
Q5JZY3-3	epha10
Q5KU26	colec12
Q5MNZ9	wipi1
Q5RL73	rbm48
Q5SW96	LDLRAP1
Q5T3F8	TMEM63B
Q5T4S7	ubr4
Q5T4W7	ARTN
Q5T5A8	LCE3C
Q5T5C0	STXBP5
Q5T653	mrpl2
Q5T655	cfap58
Q5T6C5	atxn7l2
Q5T700	LDLRAD1
Q5T7Y6	S100A1_2
Q5TA50	cptp
Q5TAX3	zcchc11
Q5TBB1	rnaseh2b
Q5TCQ9	MAGI3
Q5TF85	fam46a
Q5TGY1	tmco4
Q5TZZ9	ANXA1_2
Q5U649	C12orf60
Q5UCC4-2	emc10
Q5VU69	C1orf189
Q5VUJ6	lrch2
Q5VVQ6	yod1
Q5VWK5	il23r
Q5VYS8	ZCCHC6
Q5VYX0	rnls
Q5VYY2	LIPM
Q5VZM2	RRAGB
Q5W0Q7	USPL1
Q63HN8	RNF213
Q63HR2	TNS2
Q641Q3	metrnl
Q66GS9	cep135
Q68CZ1	rpgrip1l
Q6AHZ1	ZNF518A
Q6DKI2	LGALS9C
Q6E0U4	DMKN
Q6EIG7	CLEC6A
Q6EMK4	vasn
Q6FG55	lta_2
Q6FHL7	LEPROTL1
Q6GTX8	LAIR1
Q6H3X3	RAET1G
Q6IBW4	NCAPH2
Q6ICB0	DESI1
Q6IPW1	C11orf71
Q6IQ55	ttbk2
Q6ISB3	GRHL2
Q6ISS4	LAIR2
Q6MZP7	lin54
Q6N063	OGFOD2
Q6NSX1	CCDC70
Q6NT76	hmbox1
Q6NXE6	armc6
Q6NYC1	JMJD6
Q6P1J9	cdc73
Q6P1M3	llgl2
Q6P2C6	MLLT6_2
Q6P2C8	med27
Q6P499	nipal3
Q6P4R8	nfrkb
Q6P597	klc3
Q6P5S2	Leg1
Q6P988	NOTUM
Q6PCD5	rfwd3
Q6PD62	ctr9
Q6PF11	CSH1_2
Q6PGN9	PSRC1
Q6PIV2	FOXR1
Q6PJE2	POMZP3
Q6PKC3	txndc11
Q6PL45	bricd5
Q6Q788	APOA5
Q6QNY0	bloc1s3
Q6QNY1	bloc1s2
Q6RFH8	DUX4L9
Q6RW13	agtrap
Q6RW13-2	agtrap_2
Q6SZW1	sarm1
Q6UN15	fip1l1
Q6UVK1	cspg4
Q6UVW9	CLEC2A
Q6UVY6	moxd1
Q6UW32	IGFL1
Q6UWF7	NXPE4
Q6UWP8	SBSN
Q6UWQ5	LYZL1
Q6UWQ7	IGFL2
Q6UWU2	glb1l
Q6UX06	OLFM4
Q6UX07-2	dhrs13
Q6UX39	AMTN
Q6UX46	ALKAL2
Q6UX71	plxdc2
Q6UXB0	fam131a
Q6UXB1	Igfl3
Q6UXH0	ANGPTL8
Q6UXH8	ccbe1
Q6UXL0	IL20RB
Q6UXM1	lrig3
Q6UXN8	CLEC9A
Q6UXT8	Alkal1
Q6UXV4	apool
Q6UXX9	rspo2
Q6V1X1	DPP8
Q6VN20	ranbp10
Q6W2J9	bcor
Q6XQN6	naprt
Q6XQN6-2	naprt_2
Q6YHK3	cd109
Q6ZMI0	ppp1r21
Q6ZMJ4	il34
Q6ZMK1	cyhr1
Q6ZMM2	adamtsl5
Q6ZN17	lin28b
Q6ZN18	AEBP2
Q6ZNC8	mboat1
Q6ZNJ1-3	nbeal2
Q6ZQN5	foxi2
Q6ZRP7	qsox2
Q6ZTQ3	rassf6
Q6ZU65	ubn2
Q6ZU80	cep128_2
Q6ZVD8	phlpp2
Q6ZVN8	hfe2
Q6ZW49	paxip1
Q70CQ1	usp49
Q70EK8	USP53
Q70EL2	usp45
Q70IA8	mob3c
Q71F23	CENPU
Q75N90	FBN3
Q76I76	SSH2
Q76L83	asxl2
Q76LX8	adamts13
Q76M96	ccdc80
Q7KZI7	MARK2
Q7L2E3	dhx30
Q7L5Y9	MAEA
Q7L775	EPM2AIP1
Q7L8A9	vash1
Q7L9L4	MOB1B
Q7LAP4	VEGFB_2
Q7LBR1	chmp1b
Q7Z3B1	negr1
Q7Z404	tmc4
Q7Z417	nufip2
Q7Z434	mavs
Q7Z465	bnipl
Q7Z479	capn7_2
Q7Z4G1	commd6
Q7Z4N8	p4ha3
Q7Z4Q2	heatr3
Q7Z4R8	C6orf120
Q7Z4S6	kif21a
Q7Z569	brap
Q7Z5A9	FAM19A1
Q7Z6E9	rbbp6
Q7Z6G3	necab2_2
Q7Z6G3-2	necab2
Q7Z6J0	sh3rf1
Q7Z6J6	frmd5
Q7Z6L1	TECPR1
Q7Z6Z7-2	huwe1_2
Q7Z7E8	ube2q1
Q7Z7G0	abi3bp
Q7Z7G1	CLNK
Q86SE9	PCGF5
Q86SQ9	dhdds
Q86TE4	LUZP2
Q86TH1	adamtsl2
Q86TI0	tbc1d1
Q86TW2	adck1_2
Q86TW2-2	adck1
Q86UK5	EVC2
Q86UL8	MAGI2
Q86UN3	RTN4RL2
Q86UP2	ktn1
Q86UX2	itih5
Q86VK4-3	znf410_2
Q86VN1	vps36
Q86VP1	TAX1BP1
Q86VQ0	lca5
Q86VR8	fjx1
Q86W26	NLRP10
Q86WJ1	chd1l
Q86WT6	TRIM69
Q86WU2	ldhd
Q86WV6	tmem173
Q86X10	ralgapb
Q86X52	chsy1
Q86XS5	angptl5
Q86XU0	ZNF677
Q86XX4	fras1
Q86Y01	dtx1
Q86Y22	Collagen-XXIII
Q86Y26	NUTM1
Q86Y38	xylt1
Q86Y78	LYPD6
Q86YC2	palb2
Q86YD3	tmem25
Q86YJ6	thnsl2
Q86YL7	PDPN
Q86YS3	rab11fip4
Q86YS7	c2cd5
Q86YT9	JAML
Q86YW7	gphb5
Q86YZ3	Hrnr
Q86Z14	klb
Q8IU54	IFNL1
Q8IU57	ifnlr1
Q8IU80	TMPRSS6
Q8IU80-4	TMPRSS6_2
Q8IU85	camk1d
Q8IUI8	crlf3
Q8IUQ4	siah1
Q8IUQ4-2	siah1_2
Q8IUR7-6	armc8
Q8IUX8	egfl6
Q8IV16	GPIHBP1
Q8IVD9	nudcd3
Q8IVG9	MT-RNR2
Q8IVL1	NAV2
Q8IVL5	p3h2
Q8IVV7	GID4
Q8IW00	VSTM4
Q8IWF7	UBE2DNL
Q8IWK6-3	adgra3_2
Q8IWL1	SFTPA2
Q8IWL2	SFTPA1
Q8IWR0	zc3h7a
Q8IWT3	CUL9
Q8IWV7	ubr1
Q8IWW8	adhfe1
Q8IWX8	cherp
Q8IX21	slf2
Q8IX30	scube3
Q8IXJ6	sirt2_2
Q8IXJ9	asxl1
Q8IXN4	mak
Q8IY31	ift20
Q8IY67	raver1
Q8IY81	FTSJ3
Q8IYD9	Las2
Q8IYE0-2	ccdc146
Q8IYF3	tex11
Q8IYJ3	sytl1
Q8IYM1	sept12
Q8IYS0	gramd1c
Q8IYT8	ulk2
Q8IYV9	IZUMO1
Q8IYX8	cep57l1
Q8IZH2	xrn1
Q8IZH2-2	xrn1_2
Q8IZJ1	unc5b_2
Q8IZJ1-2	unc5b
Q8IZP0	abi1
Q8IZR5	cmtm4
Q8IZT6	aspm
Q8IZU0	FAM9B
Q8IZW8	TNS4
Q8J025	APCDD1
Q8N0S2	SYCE1
Q8N0Z3	spice1
Q8N104	DEFB106A
Q8N122	rptor
Q8N129	cnpy4
Q8N137	CNTROB
Q8N157	ahi1
Q8N1F8	stk11ip
Q8N1N4	KRT78
Q8N205	SYNE4
Q8N205-2	SYNE4_2
Q8N239	klhl34
Q8N2S1	LTBP4_3
Q8N2W9	pias4
Q8N2X6	EXOC3-AS1
Q8N302	aggf1
Q8N307	MUC20
Q8N398	vwa5b2
Q8N3R9	MPP5
Q8N3X1	FNBP4
Q8N423	LILRB2
Q8N443	ribc1
Q8N448	lnx2
Q8N474	sfrp1
Q8N4L8	ccdc24
Q8N4P2	Ttc30b
Q8N4S1	sparcl1
Q8N4V1	mmgt1
Q8N5I4	dhrsx
Q8N5N7	MRPL50
Q8N5U6	rnf10
Q8N668	commd1
Q8N6C5	IGSF1
Q8N6C8	LILRA3
Q8N6G6	ADAMTSL1
Q8N6L0	CCDC155
Q8N6P7	IL22RA1
Q8N6T3	arfgap1
Q8N726	CDKN2A_2
Q8N7B6	PACRGL
Q8N8R5	C2orf69
Q8N9M1	C19orf47
Q8N9N5	banp
Q8NA19	L3MBTL4
Q8NAC3	il17rc
Q8NB14	usp38
Q8NB16	MLKL
Q8NB25	fam184a
Q8NB37	gatd1
Q8NBF2	nhlrc2
Q8NBF2-2	nhlrc2_2
Q8NBI3	Draxin
Q8NBJ4-2	GOLM1
Q8NBP7	pcsk9
Q8NBQ5	HSD17B11
Q8NBS9	txndc5_2
Q8NBT0	poc1a
Q8NC24	rell2
Q8NC44	retreg2
Q8NC51	serbp1
Q8NC56	LEMD2
Q8NC60	noa1
Q8NC69	KCTD6
Q8NCC3	pla2g15
Q8NCF0	CLEC18C
Q8NCN4	RNF169
Q8ND30	PPFIBP2
Q8ND90	PNMA1
Q8NDC4	morn4
Q8NE62	chdh
Q8NEB9	pik3c3
Q8NEC5	CatSper1
Q8NER5	ACVR1C
Q8NEU8	appl2
Q8NEV9	IL27
Q8NF50	dock8_2
Q8NF64-2	zmiz2
Q8NFC6	bod1l1
Q8NFJ9	bbs1
Q8NFM7	il17rd
Q8NFR9	IL17RE
Q8NG31	KNL1
Q8NHH9	atl2
Q8NHL6	LILRB1
Q8NHQ1	cep70
Q8NHQ8	rassf8
Q8NHV4	nedd1
Q8NHW4	CCL4L1
Q8NI16	fgfr3
Q8NI22	mcfd2
Q8NI35	PATJ
Q8NI37	pptc7
Q8NI60	COQ8A
Q8NI77	kif18a
Q8TAA9	vangl1
Q8TAF3	WDR48
Q8TAG5	VSTM2A
Q8TAG9	exoc6
Q8TAK6	olig1
Q8TAM1	bbs10
Q8TAP6	cep76
Q8TAS3	prrg2_2
Q8TAX7	MUC7
Q8TAX9	GSDMB
Q8TAZ6	CMTM2
Q8TB22	spata20
Q8TB24	rin3
Q8TB52	fbxo30
Q8TB96	itfg1
Q8TBB1	lnx1
Q8TBC3	shkbp1
Q8TBE7	slc35g2
Q8TBP0	tbc1d16
Q8TBU1	OSTCL
Q8TBZ3	WDR20
Q8TC92	enox1
Q8TCG1	KIAA1524
Q8TCT0	cerk
Q8TD08	mapk15
Q8TD46	CD200R1
Q8TD84	dscaml1
Q8TDD1	ddx54_2
Q8TDH9	bloc1s5
Q8TDJ6	dmxl2
Q8TDQ0	havcr2
Q8TDU9	RXFP4
Q8TDX7	nek7
Q8TDY2	rb1cc1
Q8TER5	arhgef40
Q8TEU8	WFIKKN2
Q8TEV9	SMCR8
Q8TEW0	pard3
Q8TEY5	CREB3L4
Q8TEY7	usp33_2
Q8TEY7-2	usp33
Q8TF09	DYNLRB2
Q8TF50	znf526
Q8WTP9	XAGE3
Q8WTS6	setd7
Q8WTT0	CLEC4C
Q8WTU0	DDI1
Q8WTV0	scarb1
Q8WUA4	gtf3c2
Q8WUA8	tsku
Q8WUF8	fam172a
Q8WUG5	slc22a17
Q8WUH6	TMEM263
Q8WUJ3	cemip
Q8WUW1	brk1
Q8WUY1	THEM6
Q8WVJ2	nudcd2
Q8WVS4	wdr60
Q8WW35	tctex1d2
Q8WWG1	NRG4
Q8WWW0	RASSF5
Q8WWY3	prpf31
Q8WX94	NLRP7
Q8WXA2	PATE1
Q8WXD2	SCG3
Q8WXD9	caskin1
Q8WXE1	atrip
Q8WXF3	rln3
Q8WXH5	socs4
Q8WXI2	cnksr2
Q8WXI7	MUC16
Q8WXI8	CLEC4D
Q8WXI9	gatad2b
Q8WXS4	tmem37
Q8WYR1	pik3r5
Q8WZ19	kctd13
Q8WZ42-3	ttn_2
Q8WZ75	robo4
Q92484	smpdl3a
Q92496	CFHR4
Q92520	fam3c
Q92542	ncstn
Q92544	tm9sf4
Q92561	PHYHIP
Q92563	spock2
Q92565	RAPGEF5
Q92569	pik3r3
Q92574	TSC1
Q92583	CCL17
Q92619	ARHGAP45
Q92624	appbp2
Q92625	ANKS1A
Q92626	pxdn
Q92629	sgcd
Q92673	sorl1
Q92692	NECTIN2
Q92730	rnd1
Q92731-3	ESR2
Q92734	tfg
Q92743	htra1
Q92764	KRT35
Q92765	frzb
Q92769	HDAC2
Q92796-3	dlg3
Q92797	sympk
Q92823	nrcam
Q92824	PCSK5
Q92830-2	kat2a
Q92835	inpp5d
Q92837	FRAT1
Q92838	eda
Q92844	tank
Q92845	kifap3
Q92854	sema4d
Q92859	neo1
Q92876	Klk6
Q92882	ostf1
Q92890	UFD1
Q92896	GLG1
Q92900	upf1_2
Q92900-2	upf1
Q92913	fgf13_2
Q92913-2	fgf13
Q92918	MAP4K1
Q92956	TNFRSF14
Q92979	emg1
Q92993	KAT5
Q92997	dvl3
Q93038	TNFRSF25
Q93045	stmn2
Q93062	rbpms_2
Q93063	ext2
Q93091	RNASE6
Q93096	ptp4a1
Q93097	wnt2b
Q95460	MR1
Q969D9	TSLP
Q969F0	FATE1
Q969F2	NKD2
Q969H0	fbxw7
Q969J5	il22ra2_3
Q969J5-2	il22ra2
Q969J5-3	il22ra2_2
Q969Q1	trim63
Q969Q5	rab24
Q969S3	znf622
Q969S8	hdac10
Q969Z0	tbrg4
Q96A83	Collagen-XXVI
Q96A84	emid1
Q96AH0	NABP1
Q96AP0	acd
Q96AW1	vopp1
Q96B21	tmem45b
Q96B26	exosc8
Q96B97	sh3kbp1
Q96BA8	creb3l1
Q96BD8	SKA1
Q96BI3	APH1A
Q96BK8	C8orf30A
Q96BQ3	TRIM43
Q96C86	dcps
Q96CG3	TIFA
Q96CN9	gcc1
Q96CS7	plekhb2
Q96CV9	optn
Q96CW1	AP2M1
Q96CW9	NTNG2
Q96D31	ORAI1
Q96DA0	ZG16B
Q96DB2	hdac11
Q96DF8	dgcr14
Q96DN2	VWCE
Q96DR5	BPIFA2
Q96DT6	atg4c
Q96DX4	rspry1
Q96DX5	ASB9
Q96DZ9-2	CMTM5_2
Q96E03	MAGEA2B
Q96E35	zmynd19
Q96EB6	sirt1
Q96ED9	hook2
Q96EE3	seh1l
Q96EK5	kif1bp
Q96EP0-3	RNF31_2
Q96EP1	CHFR
Q96EQ0	sgtb
Q96ER3	SAAL1
Q96EV8	DTNBP1
Q96EX3	wdr34
Q96F15	GIMAP5
Q96F46	IL17RA
Q96F86	edc3
Q96FE5	LINGO1
Q96FF9	cdca5
Q96FJ2	dynll2
Q96FQ6	S100A16
Q96FV9	thoc1
Q96FZ7	CHMP6
Q96G03	pgm2
Q96G23	CERS2
Q96G75	rmnd5b
Q96GM5	smarcd1
Q96GM8	toe1
Q96GS6	ABHD17A
Q96GW7	bcan
Q96GY3	lin37
Q96H12	MSANTD3
Q96H35	rbm18
Q96HA1	pom121
Q96HA8	WDYHV1
Q96HD1	CRELD1
Q96HF1	sfrp2
Q96HH9	GRAMD2B
Q96HP0	dock6
Q96I34	ppp1r16a
Q96IJ6	GMPPA
Q96IP4	fam46a_2
Q96IV0	ngly1
Q96IW7	sec22a_2
Q96IY4	cpb2
Q96J02-2	ITCH_2
Q96JB5	cdk5rap3
Q96JB6	loxl4
Q96JG6	vps50
Q96JM2	ZNF462
Q96JN0	lcor_2
Q96JN8	neurl4
Q96JP5	ZFP91_2
Q96JP5-2	ZFP91
Q96JZ2	hsh2d
Q96K37	slc35e1
Q96KC8	dnajc1
Q96KG7	megf10
Q96KM6	ZNF512B
Q96KQ7	ehmt2
Q96KR7	PHACTR3
Q96KS0	egln2
Q96L11	C7orf34
Q96L14	CEP170P1
Q96L34	MARK4_2
Q96LA8	prmt6
Q96LB8	PGLYRP4
Q96LB9	PGLYRP3
Q96LC9	BMF
Q96LR4	FAM19A4
Q96LT7	C9orf72
Q96M32	ak7
Q96MK3	fam20a
Q96MS0	robo3_2
Q96MT8	cep63_2
Q96MU7	ythdc1
Q96MU8	kremen1
Q96MX0	cmtm3
Q96N03	vstm2l
Q96N21	TEPSIN
Q96N67	dock7
Q96NC0	zmat2
Q96NL6	sclt1
Q96NR8	rdh12
Q96NT3	gucd1
Q96NW7	lrrc7
Q96NY8	NECTIN4
Q96NZ8	wfikkn1
Q96P63	SERPINB12
Q96PB7	olfm3
Q96PC2	IP6K3
Q96PD4	IL17F
Q96PE1	adgra2
Q96PE7	mcee
Q96PJ5	FCRL4
Q96PK6	RBM14
Q96PL1	SCGB3A2
Q96PM5	rchy1
Q96PN8	TSSK3
Q96PQ0	sorcs2
Q96PU4	UHRF2
Q96PZ7	csmd1
Q96Q77	cib3
Q96QB1	dlc1
Q96QF0	rab3ip
Q96QF0-2	rab3ip_2
Q96QG7	mtmr9
Q96QK1	vps35
Q96QR1	SCGB3A1
Q96QV1	hhip
Q96R06	SPAG5
Q96RG2	pask
Q96RJ3	TNFRSF13C
Q96RK4	bbs4
Q96RL1	uimc1
Q96RS6	nudcd1
Q96RT1-2	Erbin_2
Q96RT1-5	Erbin_3
Q96RT8	tubgcp5
Q96RU7	trib3
Q96S59	ranbp9
Q96S82	ubl7
Q96S94	CCNL2
Q96SB8	smc6
Q96SI1	KCTD15
Q96SL4	gpx7
Q96SM3	CPXM1
Q96SN7	orai2
Q96ST3	SIN3A
Q96T49	ppp1r16b
Q96T51	rufy1
Q96T60	pnkp
Q96T91	gpha2
Q96TC7	rmdn3
Q99062	csf3r
Q99435	NELL2
Q99439	cnn2
Q99447	pcyt2
Q99467	cd180
Q99470	sdf2
Q99519	neu1
Q99536	vat1
Q99541	plin2
Q99569	pkp4_2
Q99571	P2RX4
Q99572	p2rx7
Q99574	serpini1
Q99584	S100A13
Q99598	tsnax
Q99608	NDN
Q99612	KLF6
Q99614	ttc1
Q99615	dnajc7
Q99616	CCL13
Q99623	phb2
Q99624	slc38a3
Q99627	COPS8
Q99645	epyc
Q99661	kif2c
Q99665	il12rb2
Q99684	gfi1
Q99689	fez1
Q99700	atxn2
Q99708	rbbp8
Q99715	Collagen-XII
Q99720	sigmar1
Q99727	TIMP4
Q99731	CCL19
Q99750	MDFI
Q99758	ABCA3
Q99784-5	OLFM1
Q99814	epas1
Q99816	tsg101
Q99832	cct7
Q99853	FOXB1
Q99933	bag1
Q99944	EGFL8
Q99961	SH3GL1
Q99962	sh3gl2
Q99963	sh3gl3_2
Q99969	RARRES2
Q99972	myoc
Q99988	GDF15
Q9BPW8	nipsnap1
Q9BPX4	eif2b2_3
Q9BPY3	fam118b
Q9BQ51	PDCD1LG2
Q9BQ66	KRTAP4-12
Q9BQ75	cmss1
Q9BQ95	ECSIT
Q9BQB4	sost
Q9BQC3	dph2
Q9BQD3	kxd1
Q9BQE5	APOL2
Q9BQF6	SENP7
Q9BQI6	slf1
Q9BQY9	DBNDD2
Q9BRG1	vps25
Q9BRI3	slc30a2
Q9BRK4	lzts2
Q9BRP4	PAAF1
Q9BRQ5	ORAI3
Q9BRQ8	aifm2
Q9BRR6	adpgk
Q9BRR9	ARHGAP9
Q9BRT2	UQCC2
Q9BRV8	SIKE1
Q9BS31	ZNF649
Q9BSE2	TMEM79
Q9BSF8	BTBD10
Q9BSG0	PRADC1
Q9BSM1	pcgf1
Q9BSQ5	ccm2
Q9BSW2	CRACR2A
Q9BT40	INPP5K
Q9BT67	ndfip1
Q9BTM9	URM1
Q9BU20	rsg1
Q9BU40	CHRDL1
Q9BU64	cenpo
Q9BU76	Mmtag2
Q9BUG6	ZSCAN5A
Q9BUH8	BEGAIN
Q9BUI4	polr3c
Q9BUL8	PDCD10
Q9BUR5	APOO
Q9BUW7	C9orf16
Q9BUZ4	traf4
Q9BV36	MLPH
Q9BV57	ADI1
Q9BVJ6	UTP14A
Q9BVJ7	DUSP23
Q9BVL2	nup58
Q9BVV2	FNDC11
Q9BW61	dda1
Q9BW83	ift27
Q9BW85	ccdc94
Q9BWF3	RBM4
Q9BWG4	ssbp4
Q9BWU1	cdk19
Q9BWW4	ssbp3
Q9BX10	gtpbp2
Q9BX10-4	gtpbp2_2
Q9BX66	sorbs1
Q9BX67	jam3
Q9BXI9	C1QTNF6
Q9BXJ1	c1qtnf1_2
Q9BXJ1-2	c1qtnf1
Q9BXJ5	c1qtnf2
Q9BXJ7	amn
Q9BXP8	pappa2
Q9BXR6	CFHR5
Q9BXW4	map1lc3c
Q9BXW6	osbpl1a
Q9BXY4	rspo3
Q9BY43	CHMP4A
Q9BY44	eif2a_2
Q9BY44-2	eif2a
Q9BY76	angptl4
Q9BYD2	mrpl9
Q9BYF1	ace2
Q9BYG5	pard6b
Q9BYJ1	ALOXE3
Q9BYR5	KRTAP4-2
Q9BYR7	Krtap3-2
Q9BYT8	nln
Q9BYV2	trim54
Q9BYX4	ifih1
Q9BYX7	POTEKP
Q9BZ11-2	ADAM33_2
Q9BZ71	pitpnm3
Q9BZD4	nuf2
Q9BZD6	prrg4
Q9BZE4	gtpbp4
Q9BZL3	SMIM3
Q9BZL6	prkd2
Q9BZM1	pla2g12a
Q9BZM5	ULBP2
Q9BZW8	CD244
Q9C010	pkib
Q9C086	ino80b
Q9C0C4	sema4c
Q9C0C9	ube2o
Q9C0E4	GRIP2
Q9C0F1	cep44
Q9GZM7	tinagl1_2
Q9GZM7-3	tinagl1
Q9GZQ3	commd5
Q9GZR7	ddx24
Q9GZT6	ccdc90b
Q9GZT8	nif3l1
Q9GZV9	fgf23
Q9GZX6	il22
Q9GZX9	TWSG1
Q9GZZ8	LACRT
Q9GZZ9	uba5
Q9H013	ADAM19
Q9H081	mis12
Q9H0B6	klc2
Q9H0F6	SHARPIN
Q9H0H5	racgap1
Q9H0Q3	fxyd6
Q9H171	ZBP1
Q9H173	SIL1
Q9H190	sdcbp2
Q9H1B7	irf2bpl
Q9H1C4	unc93b1
Q9H1I8	ascc2
Q9H1J7	wnt5b
Q9H1M0	NUP62CL
Q9H1M4	DEFB127
Q9H204	med28
Q9H213	MAGEH1
Q9H221	abcg8
Q9H223	ehd4
Q9H239	mmp28
Q9H269	vps16
Q9H293	IL25
Q9H2E6	sema6a
Q9H2F3	hsd3b7
Q9H2H8	ppil3
Q9H2H9	SLC38A1
Q9H2K2	TNKS2
Q9H2R5	KLK15
Q9H2X3	CLEC4M
Q9H324	adamts10
Q9H330	tmem245
Q9H3R2	MUC13
Q9H3S1	SEMA4A
Q9H3U7	smoc2
Q9H422	HIPK3
Q9H444	chmp4b
Q9H461	Fzd8
Q9H4A3	wnk1_2
Q9H4A4	rnpep
Q9H4A6	golph3
Q9H4F1	st6galnac4
Q9H4F8	smoc1
Q9H4G1	CST9L
Q9H4P4	rnf41
Q9H501	esf1
Q9H582	ZNF644
Q9H5I1	SUV39H2
Q9H5J8	TAF1D
Q9H5V8	CDCP1
Q9H665	igflr1
Q9H6R3	acss3
Q9H741	C12orf49
Q9H788	sh2d4a_2
Q9H788-2	sh2d4a
Q9H7D7	WDR26
Q9H7E9	C8orf33
Q9H7U1	CCSER2
Q9H7Z7	PTGES2
Q9H814	phax
Q9H832	ube2z
Q9H871	RMND5A
Q9H8L6	MMRN2
Q9H8S9	mob1a
Q9H8T0	aktip
Q9H8W4	plekhf2
Q9H8Y8	gorasp2
Q9H972	C14orf93
Q9H9G7	AGO3
Q9H9J2	mrpl44
Q9H9Z2	lin28a
Q9HA47	uck1
Q9HAR2	ADGRL3
Q9HAT8	peli2
Q9HAU0	plekha5_2
Q9HAU4	SMURF2
Q9HAV5	EDA2R
Q9HAW0	brf2
Q9HB03	ELOVL3
Q9HB63	ntn4
Q9HB71	cacybp
Q9HB75	pidd1
Q9HB90	rragc
Q9HBE4	il21
Q9HBH9	MKNK2
Q9HBW1	LRRC4
Q9HC29	nod2
Q9HC52	cbx8
Q9HC57	wfdc1
Q9HC73	crlf2
Q9HCB6	SPON1
Q9HCE6	arhgef10l
Q9HCJ2	lrrc4c
Q9HCK4	robo2
Q9HCM3	KIAA1549
Q9HCM9	TRIM39
Q9HCS7	xab2
Q9HCU9	brms1
Q9HCY8	S100A14
Q9HD26	gopc
Q9HD36	bcl2l10
Q9HD67	myo10
Q9HD90	neurod4
Q9HDC9	apmap
Q9NNX1	TUFT1
Q9NNX6	cd209
Q9NP59	slc40a1
Q9NP70	AMBN
Q9NP84	TNFRSF12A
Q9NP99	TREM1
Q9NPB6	pard6a
Q9NPB9	ACKR4
Q9NPD3	exosc4
Q9NPE2	ngrn
Q9NPF7	il23A
Q9NPH9	il26
Q9NPI1	brd7
Q9NPI5	nmrk2
Q9NPI8	fancf
Q9NPL8	timmdc1
Q9NPY3	CD93
Q9NQ11	atp13a2
Q9NQ38	SPINK5
Q9NQ79	crtac1
Q9NQ84	gprc5c
Q9NQC3	rtn4
Q9NQR4	nit2
Q9NQS1	aven
Q9NQS3	NECTIN3
Q9NQT4	exosc5
Q9NQT8	KIF13B
Q9NQU5	pak6
Q9NQX4	myo5c
Q9NR12	pdlim7
Q9NR28	diablo
Q9NR56	mbnl1
Q9NRA1	pdgfc
Q9NRD5	pick1
Q9NRG1	prtfdc1
Q9NRH1	YAE1D1
Q9NRJ3	CCL28
Q9NRL3	strn4
Q9NRM1	ENAM
Q9NRM6	IL17RB
Q9NRN5	OLFML3
Q9NRP0	ostc
Q9NRR4	DROSHA
Q9NRX1	pno1
Q9NRX3	NDUFA4L2
Q9NS15	ltbp3
Q9NS71	GKN1
Q9NS91	rad18
Q9NSA1	fgf21
Q9NSA3	ctnnbip1
Q9NSB8	homer2
Q9NSC5	homer3
Q9NSK0	klc4
Q9NTK5	ola1
Q9NTN9	SEMA4G
Q9NTN9-3	SEMA4G_2
Q9NTU7	cbln4
Q9NUP1	bloc1s4
Q9NUQ9	fam49b
Q9NV70	exoc1
Q9NVD3	setd4
Q9NVD7	parva
Q9NVI1	Fanci
Q9NVJ2	ARL8B
Q9NVS9	pnpo
Q9NVV9	thap1
Q9NWB1	rbfox1
Q9NWD8	tmem248
Q9NWT6	hif1an
Q9NWU2	GID8
Q9NWV8	babam1
Q9NX08	commd8
Q9NXC2	GFOD1
Q9NXG0-2	cntln
Q9NY12	gar1
Q9NY61	aatf
Q9NY93	ddx56
Q9NYA1	SPHK1_2
Q9NYA1-2	SPHK1
Q9NYA4	mtmr4
Q9NYB9	ABI2
Q9NYL5	cyp39a1
Q9NYL9	TMOD3
Q9NYU2	uggt1_2
Q9NYY1	IL20
Q9NYY3	plk2
Q9NYZ3	gtse1
Q9NZ08	ERAP1
Q9NZ20	PLA2G3
Q9NZ32	actr10
Q9NZ42	psenen
Q9NZ43	use1
Q9NZC2	TREM2
Q9NZC4	ehf
Q9NZH0	GPRC5B
Q9NZH6	IL37
Q9NZM3	ITSN2_2
Q9NZN1	IL1RAPL1
Q9NZT1	CALML5
Q9NZU0	flrt3
Q9NZU1	FLRT1
Q9NZU5	lmcd1
Q9NZU7	cabp1_2
Q9NZU7-2	cabp1
Q9NZW4	DSPP
Q9NZZ3	CHMP5
Q9P000	commd9
Q9P0G3	KLK14
Q9P0J0	ndufa13
Q9P0J7	kcmf1
Q9P0K1	adam22
Q9P0K1-3	adam22_2
Q9P0L0	vapa
Q9P0L2	mark1
Q9P0N5	TMEM216
Q9P0W5	schip1
Q9P121	ntm
Q9P126	CLEC1B
Q9P1U0	znrd1
Q9P206	KIAA1522
Q9P218	Collagen-XX_2
Q9P218-2	Collagen-XX
Q9P244	lrfn1
Q9P270	slain2
Q9P283	sema5b
Q9P2B7	cfap97
Q9P2H0	cep126
Q9P2K2	txndc16
Q9P2K5	myef2
Q9P2N4	adamts9
Q9P2R3	ankfy1
Q9P2R6	RERE
Q9P2W7	b3gat1
Q9P2X3	impact
Q9P2Y5	uvrag
Q9UBC1	nfkbil1
Q9UBD3	XCL2
Q9UBD5-2	orc3
Q9UBD9	clcf1
Q9UBE0	SAE1
Q9UBE8	nlk
Q9UBF1	MAGEC2
Q9UBH0	IL36RN
Q9UBI1	commd3
Q9UBN7	hdac6
Q9UBP4	dkk3
Q9UBR2	ctsz
Q9UBS4	dnajb11
Q9UBS5	gabbr1
Q9UBS5-2	gabbr1_2
Q9UBS9	suco
Q9UBT6	polk
Q9UBV4	wnt16
Q9UBW5	bin2
Q9UBW7	zmym2
Q9UBX5	fbln5
Q9UDV6	ZNF212
Q9UET6	ftsj1
Q9UEW3	marco
Q9UFF9	cnot8
Q9UGJ0	prkag2
Q9UGJ1	tubgcp4_2
Q9UGM3	DMBT1
Q9UGN5	parp2
Q9UHA4	lamtor3
Q9UHC1	mlh3
Q9UHD0	IL19
Q9UHD1	chordc1
Q9UHD9	UBQLN2
Q9UHF0	TAC3
Q9UHF1	egfl7
Q9UHF4	il20ra
Q9UHF5	IL17B
Q9UHF7	trps1
Q9UHG2	PCSK1N
Q9UHI8	adamts1
Q9UHL4	dpp7
Q9UHP3	usp25
Q9UHP7	CLEC2D
Q9UHP7-3	CLEC2D_2
Q9UHQ7	TCEAL9
Q9UHV8	LGALS13
Q9UHX1	PUF60
Q9UI09	ndufa12
Q9UI14	rabac1
Q9UI36-2	DACH1
Q9UI95	MAD2L2
Q9UIQ6	lnpep
Q9UJ70	nagk
Q9UJ72	ANXA10
Q9UJJ9	gnptg
Q9UJM3	errfi1
Q9UJU6	dbnl
Q9UJV3-2	mid2
Q9UJW2	TINAG
Q9UJX2	Cdc23
Q9UJY1	hspb8
Q9UJY4	GGA2
Q9UJY5	gga1
Q9UK32	RPS6KA6
Q9UK41	vps28
Q9UK53	ing1
Q9UK55	SERPINA10
Q9UK80	usp21
Q9UK85	DKKL1
Q9UKC9	fbxl2
Q9UKE5	TNIK
Q9UKF5	ADAM29
Q9UKF6	cpsf3
Q9UKG1	appl1
Q9UKJ1	PILRA
Q9UKJ3	gpatch8
Q9UKP3	ITGB1BP2
Q9UKP4	ADAMTS7
Q9UKP5	adamts6
Q9UKQ9	KLK9
Q9UKR3	KLK13
Q9UKR5	C14orf1
Q9UKS6	pacsin3
Q9UKT9	IKZF3
Q9UKU9	angptl2
Q9UKW6	ELF5
Q9UKX3	MYH13
Q9UKY1	ZHX1
Q9UL32	BOK
Q9UL33	trappc2l
Q9UL45	bloc1s6
Q9UL63	mkln1
Q9ULA0	dnpep
Q9ULB1	NRXN1
Q9ULB5	cdh7
Q9ULC6	PADI1
Q9ULD2	MTUS1_2
Q9ULD2-2	MTUS1
Q9ULD4	BRPF3
Q9ULD6-2	intu
Q9ULI3	heg1
Q9ULL4	plxnb3
Q9ULT6	znrf3
Q9ULT8	hectd1
Q9ULU4	zmynd8_2
Q9ULV0	myo5b
Q9ULV1	fzd4
Q9ULW2	fzd10
Q9ULW8	PADI3
Q9ULZ1	apln
Q9UM47	notch3
Q9UM73	alk
Q9UN73	PCDHA6
Q9UNA0	ADAMTS5
Q9UNA1	ARHGAP26
Q9UNE0	edar
Q9UNE7	stub1
Q9UNG2	tnfsf18
Q9UNN5	faf1
Q9UNN8	PROCR
Q9UNP9	ppie
Q9UNS1	timeless
Q9UP52	tfr2
Q9UPM8	ap4e1
Q9UPN3-4	MACF1
Q9UPN9	trim33
Q9UPP1	PHF8
Q9UPQ8	dolk
Q9UPR0	plcl2
Q9UPT5	exoc7
Q9UPU3	SORCS3
Q9UPV0-2	CEP164
Q9UPY3	dicer1
Q9UPZ6	thsd7a
Q9UPZ9	ICK
Q9UQ07	MOK
Q9UQB3	CTNND2
Q9UQV4	LAMP3
Q9Y215	colq
Q9Y230	RUVBL2
Q9Y239	nod1
Q9Y251-3	hpse
Q9Y253	polh
Q9Y258	CCL26
Q9Y261	foxa2
Q9Y266	nudc
Q9Y275	tnfsf13b
Q9Y285	farsa
Q9Y287	itm2b
Q9Y294	ASF1A
Q9Y297	BTRC
Q9Y2C9	TLR6
Q9Y2D8	ssx2ip
Q9Y2F5	ice1
Q9Y2F9	btbd3
Q9Y2H1	stk38l
Q9Y2H9	MAST1
Q9Y2I2	NTNG1
Q9Y2I6	ninl
Q9Y2J2	EPB41L3
Q9Y2J8	padi2
Q9Y2Q3	gstk1
Q9Y2S7	poldip2
Q9Y2W1	THRAP3
Q9Y315	dera
Q9Y328	Nsg2
Q9Y337	KLK5
Q9Y371	sh3glb1
Q9Y383	LUC7L2
Q9Y3A2	UTP11
Q9Y3A3	mob4
Q9Y3A6	tmed5
Q9Y3C0	WASHC3
Q9Y3C7	MED31
Q9Y3I1	fbxo7
Q9Y3M9	ZNF337
Q9Y3Q8	TSC22D4
Q9Y3Z3	samhd1
Q9Y496	kif3a_2
Q9Y4B5	mtcl1
Q9Y4B5-4	mtcl1_2
Q9Y4D1	DAAM1
Q9Y4D7	plxnd1
Q9Y4K0	LOXL2
Q9Y587	ap4s1
Q9Y5B8	nme7
Q9Y5C1	angptl3
Q9Y5E8	PCDHB15
Q9Y5J5	PHLDA3
Q9Y5J9	timm8b
Q9Y5K2	KLK4
Q9Y5K6	cd2ap
Q9Y5L2	HILPDA
Q9Y5L3	ENTPD2
Q9Y5L4	timm13
Q9Y5R8	trappc1
Q9Y5S2	cdc42bpb
Q9Y5S9	RBM8A
Q9Y5U5	tnfrsf18
Q9Y5V3	MAGED1
Q9Y5W5	wif1
Q9Y5X1	snx9
Q9Y5X9	lipg
Q9Y5Y6	st14
Q9Y5Z4	hebp2
Q9Y5Z9	UBIAD1
Q9Y603	etv7
Q9Y605	MRFAP1
Q9Y616	irak3
Q9Y620	rad54b
Q9Y624	f11r
Q9Y6A5	tacc3
Q9Y6C2	EMILIN1_2
Q9Y6C2-2	EMILIN1
Q9Y6D9	mad1l1
Q9Y6E0	stk24
Q9Y6E7	sirt4
Q9Y6F1	parp3
Q9Y6G5	commd10
Q9Y6I4	usp3
Q9Y6I9	TEX264
Q9Y6K0	cept1
Q9Y6K5	OAS3
Q9Y6M0	PRSS21
Q9Y6M0-2	PRSS21_2
Q9Y6N7	robo1
Q9Y6N9-4	ush1c
Q9Y6Q6	tnfrsf11a
Q9Y6R0	numbl
Q9Y6W3	capn7
Q9Y6W8	ICOS
Q9Y6X2	PIAS3
Q9Y6Y8	sec23ip
Q9Y6Y9	LY96
V9HWH2	HEL-S-29
W5RWE1	CSN2_2
ebi:EBI-11682400	Collagen_XXV
ebi:EBI-12735745	Complement C3
ebi:EBI-2325312	Collagen-I_2
ebi:EBI-2431477	Collagen-II_2
ebi:EBI-2431547	Collagen-III_2
ebi:EBI-2461395	Collagen-IV_2
ebi:EBI-2464572	Collagen-V
ebi:EBI-2465980	Collagen-VI_2
ebi:EBI-2528478	Collagen-XIII
ebi:EBI-2530370	Thrombospondin-1
ebi:EBI-2550721	ITGB1_6
ebi:EBI-2550735	ITGB3
ebi:EBI-2550754	ITGB5_2
ebi:EBI-2550808	ITGB1
ebi:EBI-2554495	ITGB1_2
ebi:EBI-2881451	PDGF-BB
ebi:EBI-6264901	Complement 1Q
ebi:EBI-6397384	Fibrinogen
