group_size	group_elts	list_size	neighbours_list
3	ABCB1, nr3c1, ubl7	1	cd4
3	ABCB11, ARFIP2, pkib	1	LY6D
2	ABCC6, setd7	1	A1BG
3	ABCD3, LMO2, nme7	1	TUFT1
3	ACKR3, ANKRD28, myo5b	1	cd164
2	ACVR1C, fnta	1	inhbb
2	ADAM10, rbm18	1	epha3
3	ADAM33_2, CCL4L1, lta_2	1	slc30a2
2	ADGRL3, phb2	1	flrt3
2	ADM, RAMP1	1	CALCRL
5	ADORA2A, Ifitm3, MT-ND1, UBE2L6, ggt1	1	NAMPT
3	AGO3, INPP5K, f11r	1	bdnf
3	AGTR1, ace2, prcp	1	agt
2	AKR1A1, txndc16	1	exosc4
3	ALOX12B, ALOXE3, rin3	1	tgm1
3	AMBN, AMTN, ENAM	1	fam20a
3	AOC3, HLA-C_3, ube2k	1	prrg4
3	AP2M1, dhx16, snrnp200	1	megf10
2	APCDD1, Fzd8	1	wnt3a
3	APH1A, mpl, numbl	1	thpo
3	AQP1, mapre2, morn4	1	crtac1
3	AQP5, Uqcr11, rragc	1	WNT2
2	ARHGAP9, CSN2_2	1	FHL2
2	ARL8B, zmat2	1	amh
2	ASF1A, hira	1	ubn2
5	ATF4, FOXB1, Mitf, foxl1, ppp2cb	1	HK3
3	ATG2A_2, cdc25b_2, rab24	1	KRT35
3	ATP1A3, ATP1B2, sarm1	1	rs1
5	BAK1, BOK, MCL1_2, bcl2, bcl2l10	1	MT-RNR2
3	BMF, Pax8, ptpn5	1	CXCL9
2	BMP1, BMP1_3	3	DMP1, dcn, Collagen-I_2
2	BTBD10, rnaseh2a	1	lama5
3	C14orf1, TLE1, pitpnm3	1	CCL18
2	C1orf189, exosc10	1	PTGES2
2	C8orf30A, KLF6	1	apom
5	CACNA1H, ESYT2, RBM14, mapk12, wdr81	1	mapk15
2	CARTPT, CEACAM7	2	ceacam1, CEACAM6
3	CAVIN2, INPP5A, hsd17b4	1	plek
4	CCDC70, MR1, NRG4, prrg2_2	1	FATE1
2	CCK, GAST	1	CCKBR
3	CCSER2, SEC22B, SNAP25	1	stx1a
2	CD33, LAIR1	1	Complement 1Q
2	CD47, ITGB1	1	Tumstatin
3	CD58, cd2ap, sh3kbp1	1	CD2
4	CERS2, hivep1, nlk, rbbp6	1	ASGR1
3	CFHR5, c5, fam3c	1	creb3l1
4	CGB3, gphb5, lhb, tshb	1	gpha2
2	CHFR, nsf	1	gabbr1
4	CHRDL1, IFNA16, PRSS21, habp2	1	parp2
4	CHRNB2, chrna3, chrna5, chrna7	1	LYPD6
2	CLDN3, ocln	1	CTSS
3	CLDN4, CLDN7, cldn1	1	TACSTD2
3	CLNK, TNS4, cpsf3	1	p4ha2
2	CNTN1, was	1	PTPRZ1
4	COPS8, ascc2, cops2, gps1	1	gfer
5	COQ8A, cyp1a1, mcee, pnpo, timm44	1	CMTM5_2
2	CR1, Complement C3	1	cfi
3	CREB5_2, HOXA1, nufip2	1	LGALS13
2	CSF1, il34	1	csf1r
2	CST1, Cst4	1	sod2
6	CST7, RBM8A, SAE1, SGO1, g3bp1, tbc1d16	1	ctsc
4	CTNND2, TOR1A, cnksr2, sssca1	1	lrrc7
2	CXCL10, CXCL12_2	1	DPP8
2	Collagen-IV, znf410_2	1	OSM
2	Collagen-V_2, huwe1_2	1	CSNK2A2
2	Collagen-X, tnxb	1	banp
2	Collagen-XX, Collagen-XX_2	1	tex11
3	Collagen-XXIV, FAM19A4, wnt5b	1	appbp2
3	Collagen_XXV, agrn, pitrm1	1	Beta-amyloid peptide 1-40
2	DAAM1, cox8a	1	ambp
4	DACH1, ZNF460, ikzf1, lzts2	1	fgf12_2
3	DESI1, Endorepellin, fgfr2_3	1	fgf7
3	DIAPH1, c21orf59, cenpo	1	PLXNB1_2
2	DMA, SH3GL1	1	b3gat1
2	DST_3, SCGN	1	SNAP23
2	DYRK3, GGA2	1	sorl1
3	ECSIT, LONP1, exoc6	1	loxl4
2	EDNRB, ednra	1	edn1
3	EEF1B2, ech1, recql5	1	TIMP1
8	EIF1, GNB5, SRSF5, bloc1s6, fancf, nbas, rab11b, st13	1	olfm2
5	EIF3E, EXT1, cntfr, ica1_2, stk16	1	cntf
3	EIF3H, MAGEA8, rbfox1	1	GCA_2
5	ELF5, bbs10, ehf, rbx1, smad1	1	frzb
2	ELOVL3, aldob	1	MUC20
6	EPB41L3, dvl2, mef2c, rps15, uck1, umps	1	pla2g12a
5	EPB42, MRPS12, MT1G, MT2A, RABL6	1	SPINK7
3	ERH, NECTIN2, TIGIT	1	NECTIN4
2	FAM19A1, tmem25	1	rabggtb
3	FCAR, GK, HES1	1	APCS
2	FCGR1A, zbtb25	1	FCGR3A
3	FNBP4, cemip, ubap2l	1	plxna2
3	FNDC11, ptger3, zbtb24	1	CDA
2	Fanci, sms	1	stxbp2
2	GALR1, GALR2	1	GAL
2	GBE1, nfrkb	1	EPHB3
4	GFRA1, GFRA1_2, ndufs6, ptpra	1	gdnf_2
4	GJB2, ak7, clcn2, pck2	1	MUC13
3	GRIP2, NECTIN3, pick1	1	NECTIN1
2	GTF2I, fxyd6	1	C4BPA
4	GTF3C1, RPA1, poldip2, prkaa1_2	1	cpe
2	HAP1, noa1	1	Collagen-IX
2	HIPK3, tbrg4	1	mtmr4
2	HIST1H1C, mgst3	1	f10
2	HIST1H2AB, aspm	1	HIST1H2BJ
3	HLA-A_6, HLA-B, HLA-G	1	LILRB1
2	HLA-DRB1_2, INSR	1	ins_2
3	HSPA1L, cct4, m6pr	1	OLR1
2	HSPB3, ckmt2	1	OLFML3
6	HTN1, HTN3, PRR4, SMR3B, pcgf1, prdx3	1	MUC7
2	IAPP, ifih1	1	ide
3	ICK, llgl2, mak_2	1	KIAA0556
3	ICOS, rpl37, wnt11	1	wif1
2	IFNA8, IFNW1	1	IFNAR1
2	IFNGR2, ifngr1	1	ifng
3	IGFL1, IGFL2, Igfl3	1	igflr1
2	IGHV3-33, IGLV2-8	1	IGLC1
2	IGKV3-20, adamts13	1	f8
2	IKZF3, aes_2	1	cabp4_2
3	IL17RE, TRAF3IP2, map3k7_2	1	IL17RA
2	IL18BP, IL18R1	2	IL18, IL37
2	IL25, il17rd	2	IL17RA, IL17RB
2	IL32_2, IL32_3	1	PRTN3
3	IRS4, nek7, prrc2a	1	p4ha2_2
3	ITGAL, hsd3b7, slc3a2	1	ICAM1
3	ITGB1BP2, RUVBL2, foxa1	1	plod2
2	ITGB3BP, rala	1	flnb_2
3	ITSN2_2, SORBS2, sh3rf1	1	sema6a
2	KCTD15, ccdc24	1	ren
2	KIAA1522, fzd6	1	sfrp1
2	KIAA1549, rras2	1	LGALS4
2	KIF13B, adgra2	1	dlg1
2	KIR2DL2, KIR2DL3	1	HLA-C_2
2	KLK10, serpinf2	1	bcap31
2	KLK13, KLK14	1	SPINK5
2	KLK8, lrfn1	1	rgs2
3	KLKB1, bdkrb1, bdkrb2_2	1	kng1
2	KNL1, TMEM63B	1	cd97
3	LDLRAD1, ndufa13, nod1	1	OLFM4
4	LEMD2, SYCE1, bdkrb2, tmpo	1	lmna
2	LEPROT, jak3	1	lepr
2	LILRA3, TULP2	1	EWSR1
3	LPAL2, PRADC1, cd209	1	vac14
2	MAD2L2, kif2c	1	adam9
5	MAGEA1, MYH7, PCDHB15, mpp1, slain2	1	prdx5_2
6	MAGEA2B, MAGEC2, NUTM1, hgs, wdr62_2, zc3h12a	1	p4ha3
3	MAGEB4, ccdc146, polr3c	1	tnr_2
4	MAP4K1, SH2D1B, inpp5d, pik3c3	1	SLAMF1
2	MAPT_5, NOS3	1	htra1
3	MED21, exoc7, sec23ip	1	SSC5D
2	MICA, RAET1G	1	KLRK1
2	MLKL, rfwd3	1	GLG1
3	MLLT6_2, cib3, snrpa	1	enox2_2
3	MOB1B, TMPRSS11D, mark1	1	mst1
2	MOK, S100A1_2	1	S100P
2	MPP3, fus	1	MDH1_2
2	MPP5, ddx56	1	crb1
2	MUC16, SERPINB6	1	CEP170P1
3	MYH13, atm, ccna2	1	p3h2
3	Mcm6, ssbp2, ssbp4	1	IL36RN
2	NAALADL2, kif18a	1	itm2b
2	NCALD, hpcal1	1	c1qtnf2
2	NCAPH2, irak3	1	FOLR1
4	NDN, SHARPIN, hax1, kpna6	1	IL1A
2	NDUFA4L2, arhgef10l	1	ANXA9
2	NRP1, angpt2	1	VEGFA
5	NRP2, PGF, VEGFB, u2af1, vps35	1	VEGFA_2
2	NUAK1, cdk14	1	IGHA2
2	Npy1r, npy2r	2	PYY, npy
6	ORAI1, ORAI3, STIM1, TRIM29, aes, orai2	1	CRACR2A
2	PAX2, brms1	1	KLK9
2	PCDHA6, lrig3	1	brk1
3	PDCD10, heg1, itgb1bp1	1	krit1
2	PHF8, bub1	1	PLEC_2
3	PHLDA3, mark3, usp19	1	SAAL1
2	PML_2, vps16	1	C1QTNF6
2	PRKCB, atxn2	1	lcp1
2	PSD, vangl1	1	gmfg
3	RAPGEF5, RNF213, ccdc14	1	PLAC9
2	RASA1, gadd45g	1	SERPINA4
4	RASSF5, foxa2, prkaa2, sh3glb1	1	AGL
2	RIDA, cbl	1	SERPINA5
5	RING1, cep104, orc4, poc1a, tcte1	1	MTUS1_2
3	RNF169, irf2, ube2q1	1	irf2bpl
4	RRAGB, clcn7, ift27, rptor	1	lamp2
2	RTEL1-TNFRSF6B, mboat1	1	PRSS21_2
2	SELENOT, hbz	1	HBB
4	SELL, TECPR1, ahi1, mfap2	1	Collagen-XVIII
4	SH3PXD2A, cntln, ppil3, prpf40a_2	1	prss12
3	SIAH2, STX11, tox4	1	ccbe1
2	SIKE1, kif21b	1	btd
2	SLC16A6, TRIM26	1	cask
2	SMAP, spry2	1	sema5b
4	SMCR8, crx, eif2b2, eif2b2_3	1	C9orf72
3	SMIM3, sec22a_2, sec61g	1	SFTPC
2	SORCS3, ntrk1_2	1	ngf
2	SOX30, TSSK3	1	GP2
2	SREBF1, arf1	1	pla2g6
5	TACR3, ccdc90b, ikbkap, snx1, vopp1	1	TAC3
2	TAF1D, serbp1	1	itfg1
2	TIFA, lin28a	1	zcchc11
2	TLR6, wnt1	1	CD36
2	TMOD3, add1_2	1	CLEC9A
3	TMPRSS6, TMPRSS6_2, bmp6	1	hfe2
2	TNFRSF13C, TNFRSF17	1	tnfsf13b
2	TNFSF9, traf4	1	TNFRSF9
2	Thrombospondin-1, stk38l	1	PRSS1
2	UBQLN2, fam46a_2	1	CD93
4	UBXN2B, gucd1, rad23b, trafd1	1	ngly1
2	UHRF2, siva1	1	cd27
2	VEGFA_3, VEGFA_4	1	UBIAD1
2	VEGFB_2, ttbk2	1	klhl12
3	WASHC3, phkg2, snx2	1	lamc1
3	ZBTB5, rpl8, scamp2	1	st3gal3
2	ZHX1, cep57l1	1	idh1
3	ZNF212, gdi1, ptp4a1	1	gnl1
2	ZNF337, commd8	1	commd3
4	ZNF677, fosl1, rab40b, xrcc2	1	wfdc1
2	ZSCAN5A, pard6a	1	EPHB4
2	abcc1, nuf2	1	AZGP1
3	abi1, bnip2, sf3b4	1	FRK
3	adamtsl5, gfi1, ltbp1	1	fbn2
2	adcyap1r1, adcyap1r1_2	1	ADCYAP1
2	ap2s1, farsa	1	tdgf1
2	ap4m1, reep5	1	galnt2
4	aqr, kmt2a, sf3a1, xab2	1	ppie
3	arhgef11, mras, rnd1	1	PLXNB1
4	arnt, epas1, mob4, vhl_2	1	egln2
3	atf6, stk24, tfdp1	1	apod
2	atp2b2, atp2b4	1	calca
2	atp7a, sigmar1	1	pdzd11
3	aven, casp9, cycs	1	apaf1
3	bag3, lif, prpf4	1	LIFR
2	bbs1, bbs4	1	calca_2
2	bcl7a, gramd1c	1	cd151
2	brf2, ptp4a3	1	HSD17B11
2	cacna1c_2, sp1	1	cabp1_2
2	cacna1f, cacna1f_2	1	cabp4
2	cacybp, cdk1	1	cd8a
2	capg, pygb	1	siah1
2	capn7, capn7_2	1	ist1_3
2	ccdc22, ccdc93	2	commd9, commd3
2	ccdc57, ehmt2_2	1	naprt_2
3	ccng1, gorasp2, peli2	1	ltbp3
3	cdc20, dnpep, eps15	1	KRT33A
4	cdc25A, cdh7, klb, mapk7	1	fgf21
2	cetn2, ppic	1	arsa
2	chdh, tnk2	1	SEZ6
2	chrna6, chrnb4	1	LYPD6
2	commd10, commd5	1	commd9
2	cox6a2, slc38a3	1	Collagen-VI_3
2	cpb2, tmem45b	1	TINAG
3	cryab, gclc, herc3	1	CCL22
2	csf3, socs3	1	csf3r
5	ctbp1, pde9a, per3, ppp5c_2, timeless	1	cry2
2	ctnna1, raver1	1	vcl
2	cyhr1, srf	1	aldh3a1
2	cyp39a1, stk3	1	Orm2
2	dhh, hdac11	1	hhip
3	dmd, dmd_2, utrn	1	dag1
2	dmxl2, emid1	1	aktip
3	dusp7, eya2, pptc7	1	GPI
2	ehmt2, map1lc3c	1	LACRT
5	eif3f, ktn1, nup107, nup155_2, seh1l	1	gle1
2	exosc8, lsm8	1	Collagen-XXIII
3	faf1, igf2r, nmrk2	1	igf2
2	fam118b, mrpl44	2	itfg1, sema5b
3	fastkd3, keap1, nudcd1	1	vwa8
4	fbxl2, mia3, shkbp1, zc3h7a	1	Collagen-VII_2
3	fbxo7, nipsnap1, retreg2	1	hpse
2	fgf13, fgf13_2	1	SCN5A
2	fgf5, hdac6	1	egf
2	frmd5, hspa12a	1	nrcam
6	gar1, klc4, mrpl9, ncapd3, rassf8, znf526	1	nln
3	gcfc2, rad18, slf1	1	slf2
2	gfod2, qsox1	1	BEGAIN
2	gna13, tmed2	1	f2r
2	got1, mbnl1	1	abi3bp
2	gtse1, limk1	1	Erbin_3
3	hadhb, klc2, timm13	1	timm8b
3	hmgcl, lamtor3, pcyt2	1	adamts10
2	homer2, homer3	1	app_2
2	hsh2d, socs4	1	CNMD
2	il22ra2, il22ra2_2	1	il22
2	jam2, pard3	1	jam3
2	klc3, tacc3	1	C2orf69
2	lamb4, srpx	1	kctd13
2	lcp2, nfe2l1	1	CD6
2	ldhd, samhd1	1	soga1
3	lig4, pnkp, ssb	1	gzmk
2	lin37, lin54	1	pdap1
2	llgl1, thoc5	1	SERPINB12
2	lrp2, slc22a17	1	LCN2
2	mapk9, supt5h	1	lman2
2	mavs, slc11a2	1	ndfip1
2	mep1b, smoc1	1	tnc
2	mid2, plk2	1	ctsz
2	mob1a, mob3c	1	cmtm3
2	myb, rac2	1	adam22
2	mybpc3, st6galnac4	1	spata20
2	ncs1, zmiz2	1	NBL1
2	nup58, setd4	1	GDF15
2	pam, serpini1	1	dedd
2	pcnt, strn3	1	pon2
3	pex5, tm9sf4, yeats4	1	S100A6
2	pias2, sgcd	1	ada
2	ppp2r2a, serf2	1	gc
2	prkg1, trib3	1	BMPR2
2	proc, tmem67	1	MMP15
2	prtfdc1, wwp2	1	LGALS9B
2	rab3ip, trappc3_2	1	trappc1
2	rheb, uchl1	1	ncam1
2	rnpep, svep1	1	ZFYVE9
3	shtn1, tnni3k, vps28	1	fabp3
2	stat5b, znrd1	1	il15
2	tardbp, zmym2	1	HNRNPA2B1
2	tmem173, unc93b1	1	NPC1
2	tmem248, tubgcp4_2	1	PZP
2	tmem62, uba5	2	lta4h, apeh
2	tmprss15, tnfrsf11b	1	tnfrsf11a
2	tsku, wnt2b	1	fzd4
2	ube2d2, ube2d3	1	rspry1
2	ube2n, uso1	1	fam184a
2	uimc1, usp49	1	f7
2	unc5b, unc5b_2	1	ntn1
