node id	node name
A6ND01	IZUMO1R
D3W0D1	KLRF2
O14770	Meis2
O15078-2	cep290
O60882	MMP20
O75973	C1QL1
O95393	bmp10
P01854	IGHE
P02462-PRO_0000390482	Arresten
P02748	c9
P07357	c8a
P07738	bpgm
P09238	MMP10
P12319	FCER1A
P19835	CEL
P28908	TNFRSF8
P32971	TNFSF8
P36575	arr3
P41217	CD200
P46094	XCR1
P47992	XCL1
P60827	C1QTNF8
Q0WX57	USP17L24
Q12918	KLRB1
Q13530	SERINC3
Q13936-20	cacna1c
Q5SW96	LDLRAP1
Q5T655	cfap58
Q5TZZ9	ANXA1_2
Q6P5S2	Leg1
Q6UVW9	CLEC2A
Q6UWQ5	LYZL1
Q8IVL1	NAV2
Q8IYV9	IZUMO1
Q8N6G6	ADAMTSL1
Q8TD46	CD200R1
Q8WTP9	XAGE3
Q93091	RNASE6
Q96LB8	PGLYRP4
Q96LB9	PGLYRP3
Q9BUW7	C9orf16
Q9H972	C14orf93
Q9NZU7-2	cabp1
Q9NZW4	DSPP
Q9UHI8	adamts1
Q9UHP7	CLEC2D
Q9Y605	MRFAP1
ebi:EBI-2554495	ITGB1_2
