group_size	group_elts	list_size	neighbours_list
12	ABCA6, ERVK-10, FAM169A, Kiaa0754, MAP7D1, PDE4B, QDPR, TXNDC2, dntt, fam83c, lcat, mocos	1	APOA1
2	ABCB1, ubl7	1	cd4
2	ABCB11, pkib	1	LY6D
2	ABCF3, pepd	1	spp1
9	ABLIM1_3, FNDC3B, UGP2, ablim2, actn3, dyrk2, mcrs1, obscn, synm	1	ttn
4	ACIN1, crk_2, rexo1, sla	1	pafah1b2
11	ADAMTS20, LCN12, MUC5AC, TMPRSS11A, clec11a, matn4, mfge8, nptx2, prg4, tnr, xdh	1	MYC_2
3	ADH1B, abcc5, dnajc1	1	SERPINA3
2	ADM, RAMP1	1	CALCRL
4	ADORA2A, Ifitm3, MT-ND1, ggt1	1	NAMPT
12	ADRA1B, AOAH, CDH12, IGHV3-23, IGHV3-7, IGL@, OR8D2, SETDB2, SLC48A1, rfx7, rtkn2, slc6a9	1	IGHG1
7	AGR3, GREB1, PRSS50, bcas3_2, cilp, lrrc23, lrrc32	1	tgfb1
34	AHCY, BBS5, C21orf2_2, CCDC138, CETN1, CHTOP, CSPP1, HAUS8, HMGN1, ISOC1, KDELR2, LRRC49, MPHOSPH9, TCHP, TPGS1, akap12, bbs9, ccdc61, fopnl, gpatch1, haus4, haus7, iqcb1, kif14, mib1, plp2, pmpcb, rab2a, srek1, ssbp1_2, tbc1d31, ttc8, wdr83, znf423	1	cep290_2
15	AHNAK2, C16orf72, C18orf21, CARMIL1, CDYL2, KIAA1191, NCLN, kif13a, lsm14b, ndufs5, rad51d, rbm10, slc25a19, ube2e3, utp23	1	huwe1
14	AHR, DCAF1, DCAF1_3, DTL, JARID2, TRPC4AP, WDR5B, cops3, crbn, dcaf11, dcaf5, ddit4, invs, wdtc1	1	ddb1
2	AHSP, HBE1	1	HBA1
14	AKAP13, CDC42BPA, Collagen-V_3, ENOPH1, HSPA1A_2, SERTAD1_2, TMEM176A, hnrnpul1, rbm25, sipa1l2, slc7a9, srgap3_2, tmem126a, twistnb	1	tgm2
7	AKAP5, KDM5B, cdyl, dnajc11, fblim1, fgf14, ubr7	1	HIST1H3A
3	AKAP8, POC1B, bub3	1	cct2
3	ALOX12B, ALOXE3, rin3	1	tgm1
3	AMBN, AMTN, ENAM	2	fam20a, FAM20C
11	AMELX, MENT, PPP1R3A, bmp15, chrdl2, ecm2, gtf2a1, mxra7, pkmyt1, ptprn2, slc2a2	1	FAM20C
2	ANKRD1, CLIP4	3	DST, TULP3, ttn
5	ANKRD17, cars2, cast, cog1, rcan1	1	CAPN1
10	ANKRD36B, MCL1, MED8, QRICH2, cdk17, gss, nudt2, osmr, prep, rbm5	1	gapdh
28	ANKRD54, ARHGAP21, ARMCX2, BTBD1, GPATCH2L, IFT43, KLF10, MYH3, ROPN1, TNNT3, ZNF619, ZNF793, ZNF835, ZSCAN23, akap9, boc, chd2, esrrg, gse1, ift140, mbtd1, mga, morf4l1, myo18b, neb_2, srp72, wdr35, zfat	1	TULP3
23	ANO9, CYSLTR2, FAM163A, FRMPD4, IQSEC1, KCNA3, MARCH3, ZSCAN30, adgra1, adgra3, adrb1, asap1, cript, dcun1d1, exoc4, fam163b, kcnj12, kif1b, net1, pbk, plac8l1, slco1c1, tbx15	1	dlg1_2
8	ANTXR1_2, Anastellin, Collagen-XVII, ITGB1_5, cspg5, dpt, epgn, mt-Nd3	1	Beta-amyloid peptide 1-42
6	APBA1, GPR3, ITM2A, blmh, ptger2, rab6b	1	app
11	APBA1_2, CNTNAP2, MLLT6, RPH3A, TRIM22, WHRN, ell2, id1, mars, spata2, tbr1	1	cask_2
2	APCDD1, Fzd8	1	wnt3a
2	APH1A, mpl	1	thpo
4	APOBEC3C, MAGOHB, nfe2l2, robo3	1	rbmx
2	APOL4, PAPLN	1	tfap2c
7	ARAP1, GPSM3, GUSBP1, ccdc17, fgf4, rnf130, smg7	1	fgfr3_2
20	ARHGAP4, DOCK4, FNBP1, MPP4, MYO15A, RIMBP3C, SNX18, SPTA1, TRIP10, cacnb3, dnmbp, eps8l3, macc1, mia, samsn1, sh3pxd2b, sh3rf2, skap2, srgap1, tjp3	1	faslg
36	ARHGDIB, BAIAP2_2, FICD, IL18RAP, IQGAP3, MYL6B, PAK3, PARD6G, RTKN, SNX31, SYNJ2, TNFAIP8L2, als2, arhgap15, arhgap33, arhgef19, arhgef4, arl2bp, brinp1, cfap36, cog5, dock1, fhod1, hps4, iqgap2, lats1_2, magi1, mcm3ap, ngef, prex1, rap1gds1, rgl2, spata13, trio, unkl, ush1c_2	1	rac1
14	ARHGEF12, HDAC9, SSU72, STAG2, WAPL, brca2, fndc3a_2, gnl3l, hdac8, mcmbp, neurl4_2, pds5b_2, stag1, tmem165	1	smc3
8	ARID1A, SYT-SSX1, actl6a, dpf2, rcor1, rest, smarce1_2, tet2_2	1	smarca4
54	ARMCX1, C1orf109, C2CD6, CCDC116, CCDC196, CCDC42, CCDC68, EIF3A_2, FAM13C, GNG4, KANSL1, KRT6B, LCA5L, LOC729862, PAXBP1, PDE4DIP_2, RHNO1, SFR1, TDP2, THAP8, TSHZ3, TSPYL4, ZGPAT, ZGPAT_3, ZSCAN12, arhgef9, armc7, ccdc151, ccnl1, cep57, eaf2, fam161a, golga1, gps2, hmg20b, hook1, imp3, ing3, lats1, leng1, mcm7, mettl17_2, mtfr2, nfu1, oip5, pbx4, pcm1, poll, rrp7a, sap30bp, snx20, tfpt, thap7, zfyve26	1	tfip11
3	ARPC1A, arpc1b, arpc4	2	ARPC5, ACTR2
2	ARSF, SELENOP	1	EP300
2	ART1, PGC	1	cAMP
16	ARVCF, ATP2B1, BANF1, GPR87, GUCY1A2, SCN4A, SHOC2, SLC6A12, abcc4, abr, gas2l2, grin2c, mpp2, nr2e1, slc5a5, vipr2	1	Erbin
2	ATG3, atg10	1	atg7
2	ATP1A3, ATP1B2	1	rs1
4	ATP6V0D2, FOLH1, phc3, polg2	1	rps3
13	ATP9A, GRTP1, add1, flii, gpatch4_2, las1l, mrm1, rnf13, rpl10, rrp9, sf3b1_2, svil_2, tmem132a	1	NES
4	ATRAID, nexn_3, nol10, sltm	1	NELL1
16	Aopep, HECW2, NAT2, PLEKHA7, ank2, cbll1, ctnnd1, ctnnd1_3, cyp17a1, galnt12, hsd17b3, phlpp1, pip5k1c, ptprm, skp2, tmod1	1	cdh1
16	B3GNT4, C1orf174, CLK1, DEXI, EIF3J, LSM12, NRSN2, U5-116KD, dck, elac2, gemin7, grik5, med22, nipsnap3a, syt1, zfand3	1	GOLM1_2
4	BAAT, fbp2, tbc1d2, tmem129	1	pdgfrl
3	BAIAP2, nckap1, wasf1	2	rac1, cyfip1
2	BASP1, coro1c	2	ACTR2, lrch3
14	BATF2, KAT14, TAF4, esrra, fubp1, kat2b, med1, med16, nr3c2, supt3h, taf2, trrap, wdhd1, zzz3	1	kat2a_2
34	BCL11B, C14orf166, C18orf8, CARMIL2, IKZF2, NCKAP1L, RBPJ_2, RFX1, SLFN11, STK38, TRIM28, anapc1, arhgef2, arih1, ascc3, fryl, hcls1, htatsf1, lrba, maml3, mau2, med25, mms19, nbea, ppp6r3, rnf40, smchd1, trappc10, trappc9, vps11, vps39, wdr11, zbed4, zbtb2	1	NOTCH1
12	BCL2L12, BCL2L12_2, HIKESHI, TOMM70, TRIM38, dis3l, ern1, gata1, hspbp1, nfyb, rapgef2, sstr3	2	HSPA1B, HSPA1A
2	BCL2L2, C11orf57	1	s100b
9	BEND7, CDCA7L, LDOC1, ZNF398, dhx38, gkap1, katnbl1, phc2, zfp64	1	mfap1
6	BEX2, RHOBTB2, fgf10, fgf3, fgf6, fgf9	1	fgfr2
5	BEX5, ctage5, ift20, mtmr9, ribc1	1	EMILIN1_2
21	BICD1, CCDC8, CENPC, ELMSAN1, MAZ, RPL41, SUPT20H_2, TCEAL1, UGT2B10, YY1AP1, ccdc97, dusp26, map2k4, mef2D, nktr, robo1_2, rps6ka4, smad7, tcf20, znf142, znhit1	1	MAPK14
12	BIRC5, PKIA, RGPD5, ankrd49, cdkn1b, eif1ax, nr4a2, nupr1, ppp1r13b, ranbp3, vrk1, vrk2_2	1	ran
2	BLID, thrsp	3	fgfr4, tgfb1, cdh1
2	BOK, bcl2l10	1	MT-RNR2
31	BRIX1, C7orf26, C7orf50, DDX50, DIMT1, HIST1H1D, HIST1H2BD, PWP2, RBM39, RPL19_2, SRSF1, SRSF3, bms1, exosc3, exosc6, farsb, grwd1, gtpbp1, h1fx, hnrnpa3, mrto4, mybbp1a, nop2, psip1, rpl17, rpl32, rps23, snrpd1, sub1, tsr1, wdr36	1	HDGF
2	BST1, pycr3	1	LBP
2	BTBD10, rnaseh2a	1	lama5
16	BTLA, CAMK1, CD300A, DUSP22, KIR2DL1, LILRB3, MPIG6B, SIGLEC7, SIGLEC9, SIRPA, SLAMF6, THEMIS, cd22, irf8, ntrk1, ros1	1	ptpn6_3
5	BTN3A1, BTNL8, Cd300ld, SIGLEC8, ZNF250	1	TFF1
20	BZW1, PTDSS1, RFT1, atp5h, cand2, dnaaf1, ei24, gpaa1, heatr1, ipo11, ipo9, mboat7, pigt, rabl3, stard3nl, tm9sf3, tnpo3, tomm22, uqcrc1, zw10	1	stom
14	Bud13, GRM5, IL32_4, card11, chd9, cwc15, fam192a, gap43, lysmd2, pprc1, prkdc_2, tp53inp1, trappc13, znf131	1	prkcd
34	C10orf62, C4orf42, CCER1, DEF6, DMRT3, Depp, ENKD1, GDPD5, GPRIN2, HOXA9, ILF3, KIAA1683, PCED1A, PKD2, PLSCR3, SMCP, VSIR, ZNF581, ZNF764, adcy7, bcl6b, cdc42ep1, dhrs1, exd3, ip6k2, lasp1, med15, necap2, neu4, ogdh, p2ry6, rgs3, slc35a2, yipf3	1	PLSCR1
27	C12orf10, Ecm29, FERMT2, GLTP, PITPNC1, PLIN3, SSX3, TPD52L3, TUBB, TUBB_2, ZNF599, aacs, acsf2, aldh18a1, armc9, fam114a1, gad1, gad2, mterf3, ndrg4, rbfa, rmdn2, rnf185, rsrc2, sucla2_2, ttpa, vars2	1	CMTM5
5	C15orf39, KIF20B, brinp1_2, derl1, eif2ak3	1	hsp90b1
8	C16orf45, C6orf47, ENSA, hk1, nat9, ndufs7, st3gal2, ube2c	1	eno2
24	C17orf49, C9orf142, MAP3K6, NDST1, NFIB, RNF8, abce1, asap3, brpf1_2, cep128, cox6b1, erf, golga5, lamtor1, lims1, mib2, mitd1, msh5, ncoa3_2, nhej1, peak1, recql, smyd5, wwp1_2	1	xrcc5
10	C19orf47_2, angel2, arhgap39_2, camsap3, crtc3, ghdc, ppp1r9a, prkrip1, tyk2, usp11_2	1	lrp8
7	C19orf57, NDEL1, birc6, lpxn, myo1c, rbm26, tekt1	1	vcl_2
11	C19orf60, SPATA5, chd3_2, ipp, ncoa4_2, psmd4_2, ptpn2_2, rbm15b, sucla2, ube3a_2, uchl5	1	psmd14
4	C1orf123, CYLD, ccar2, dlat	1	ANXA1
26	C1orf131, GLUD2, NMD3, PEF1, SNU13, SRSF10, VN1R5, ZNF326, cebpz, csrp2, ddx23, gpx1, idh3b, nol11, nphp3, nsun2, nvl, ppm1f, rfc2, rpf2, sdccag8, ssr3, tbl3, timm23b, usp36, wdr3	1	CEP164_2
3	C21orf2, RHOXF1, cks2	1	vtn
3	C4orf17, SIMC1, STARD13	1	TUBA4A
3	C4orf26, REG3A, apln	1	MDFI
7	C5orf24, FAM74A4, ZNF426, apex2, hhex, il16_2, rhpn1	1	efemp2
5	C6orf182, CAMK2G_2, cep63, hhipl2, ltc4s	1	alox5
18	C6orf226, HNRNPLL, MARK4, PCDHB14, PITX2_2, QKI, RALY, ZFC3H1_2, ZNF792, carm1, ccar1, cnnm3, dalrd3, dido1, prmt3, rbm41, senp2, znf385c	1	hnrnpk
23	C7orf25, CAAP1, CDK5RAP2, COMMD3-BMI1, EVA1A, GLYAT, NAP1L5, SLC25A36, SPIN1, bard1, cdh10, dfna5, dusp12, gpd1, gtf2f1, hspbap1, mllt3, ptprs, rit1, supt7l, txndc9, utp3, wfdc2	1	ptn
2	CACNA1H, ESYT2	1	mapk15
2	CALD1, dock8	1	lrch3
18	CAPN2, NAV1, SHANK3, blvra, dusp2, dusp5, enah, gnptab, hsf4, id2, itgb6, mtif3, pea15, ppp2r5c, prpsap1, rps6ka2, shc1_3, srebf2	1	mapk1
4	CARD16, CARD17, MEFV_2, tirap	1	CASP1
2	CASP10_2, CASP10_3	2	tnfsf10, faslg
3	CAVIN2, INPP5A, hsd17b4	1	plek
11	CBWD2, KCTD12, RPS27L, ZNF420, asb3, eef1a2, heatr6, mylk2, slc1a3, slc25a4, xpnpep3	1	tnfrsf1b
8	CCDC121, CCDC42_2, FAM156A, KRT6C, LOC729862_2, ZGPAT_2, ccdc151_2, tfpt_3	1	tfip11
6	CCDC184, HEL-S-70, UBALD1, mocs2, trim37, zbtb7b	1	rpl9
30	CCDC26, DSCR8, GOLGA8DP, HEL-S-182mP, LCE1B, LCE3E, NMUR2, RAB2B, Ryden, SLC6A20, adamtsl5_2, chchd2, chrng, cpne7, dip2a, fah, fkbp1b, gata2, gne, lonrf1, lrrc29, mapkbp1, morn3, pid1, rhoj, slc23a1, susd6, tcea2, tmem150a, top3b	1	ADAMTSL4
10	CCDC59, ELF4, higd1a, msh6, mycbpap, smc4, snrpa1, srprb, tmem147, ufl1	1	CASP4
19	CCDC86, HIST1H1B, KIAA2013, LTBP4, MTCH1, NLRP5, SPAST, ZC3H8, dmap1, fbxl6, fbxo28, fem1a, gemin2_2, gpatch4, hnrnpc_3, luc7l3, phf14, phrf1, uqcrq	1	NLRP3
2	CCHCR1, KRT20	2	tfip11, txlna
3	CCNL2, mki67_2, usp3	1	CBR3
2	CCP110, haus1	2	tfip11, cep290_2
14	CD1A, CD1b, HLA-A, HLA-A_5, HLA-B_3, HLA-B_5, HLA-B_7, HLA-B_9, HLA-C_4, HLA-F, KIR3DS1, KLRC1, KLRD1, NCR2	1	b2m
3	CD1D, HLA-A_2, HLA-A_9	2	LILRB2, b2m
2	CD300LF, LILRB4	1	ptpn6_3
12	CD3D, TMX2, TU3A, chst15, kcnh2, mapk8ip1, oprd1, praf2, soat1, tmx3, trpv4, trpv4_3	1	canx
5	CD3E, CD7, SUSD2, gemin2, pou2af1	1	LGALS1
7	CD5L, F11, SAA1, TFPI, colec11, itln1, pon1	1	pitx3
37	CDCA2, CEP192, NUSAP1_2, POM121C, RGPD8, SENP1_2, SP110, aaas, aldh3a2, chd8, comtd1, dlgap5, kifc1, kpna7, lcor, ndc1, nemp1, nsf_2, nup133, nup155, nup160, nup214, nup35, nup43, nup85, nup98, plekha8, rusc2, slc27a2, smn1_2, smpd4, taf11, taf4b, thoc2, tmem209, ythdc1_2, zc3h14	1	kpnb1
4	CDK15, ccdc130, ctnna2, nfkbie	1	jup
4	CELA3A, CTSW, PNLIPRP1, spock3	1	CREB3
19	CELF3, DVL1, HOXD8, TIAM2, ZNF135, ZNF431, actl6b, cpne2, dync1i1, flad1, hmgxb3, mpped1, nprl2, pld3, rpl13, rps2, tmem108, wdr18, wdr73	1	ANXA7
3	CELSR1, PRSS3, maff	1	psap_2
2	CEP250, ZFAND5	1	psmd6
23	CEP295, CSNK1D, HERC5, LAMTOR4, RREB1, abl1_2, akap17a, cgrrf1, cmbl, dhcr24, fmr1_2, fxr1_2, nos1ap, polr2h_2, polr2l, slc6a3, sncaip, srrm1, srrt_2, srsf4, tppp, wdfy3_2, zcchc8	1	SNCA
5	CFHR1, CFHR3, CYP27A1, SULT2A1, alg12	1	prdx4
2	CFL2_2, PS1TP5BP1	2	cfl1, ACTG1
4	CGB3, gphb5, lhb, tshb	1	gpha2
9	CHIT1, alas2, gamt, gba2, mt-co2, n4bp2l2, piga, urod, vps29	1	ELANE
30	CHLR1, DNM3, EIF2C2, GNA15, GTF2IRD2, Hus1b, MAOA_2, PRAME, PSKH2, PSMC1_2, RUVBL, STEAP1, TSSK4, adra2a, ap3d1, cnr2, dnajb2, eIF2aK4, gnaz, gnb2_2, gtf3c5_2, mc1r, ppp5c, psmc4, rec8, rgs11_2, rgs6, sim2, sirt6, ublcp1	1	psmd2
25	CHML, ESYT1, LAX1, MICAL1, RAB18, Rab6C, TBC1D8B, arl1, chchd3, ctla4, ehd1, inpp5b, micall1, ndufa10, ndufa5, pqbp1, rab8b, rabggta, rabif, samm50, sytl4, tbc1d15, tbc1d9b, trim25_2, wdr91	1	rab8a
3	CHRDL1, IFNA16, habp2	1	parp2
4	CHRNB2, chrna3, chrna5, chrnb4	1	LYPD6
5	CKAP2, GDF10, UNC79, cacna2d2, tbc1d19	1	IGHA1
3	CLDN4, CLDN7, cldn1	1	TACSTD2
5	CLSPN, MDM4, PIGM, atr, smurf1	1	chek1
20	CNOT4, CNOT9, PI4K2A, RXRA, TNRC6C, Tob2, aff4, aurkaip1, btg2, cnot10, cnot3, cnot6l, gpbp1l1, ibtk, raver1_2, rnf219, snd1, thrb, tnks1bp1, tnrc6a_2	1	cnot1
32	CNPY3, EMC3, MKL1, MLEC, NCLN_2, PRPS1, bri3bp, chid1, clcc1, cnpy2, dnajc10, emc1, emc8, erap2, fkbp10, fkbp2, gfpt1, gramd1a, kdelc2, magt1, minpp1, nenf, pofut1, rcn1, sdf2l1, sec11a, sec63, spcs3, tmem231, tmtc3, ttc13, uggt2	1	tctn1
2	CNTN3, cntn4	2	app, aplp1
7	COBLL1, S100A3, acad8, gda, klhdc3, mrpl22, ss18l2	1	dlg3_2
7	COPG1, QRSL1, celf1, cmtm6, cox17, pmaip1, scfd1	1	PPBP
6	COPRS, PHF20, dek, hat1, phf20l1, tp53bp1	2	HIST1H3A, Hist1h4a
3	COPS7B, aldh7a1, epb41l4b	2	ppia, erp44
2	COPS8, cops2	1	gfer
11	COX4I1, GLUL, MPST, SAMD3, bcl2l13, fdxr, fhit, hmg20a, tmcc2_2, tmem11, znf703	1	hspd1
2	CPNE6, SP110_2	2	ANXA7, ttr
3	CRNN, emilin3, reln	1	sqstm1
9	CS, ddx39a, hint1, khsrp, marcks, mdh2, oat, pdcd5, stmn1	1	phospho1
2	CSH1, CSH2	2	lox, LOXL2
4	CST7, SAE1, SGO1, tbc1d16	1	ctsc
3	CTPS2, HTR1A, frs2	1	FGFR1
3	CUL9, btbd3, spock2	1	plxnb3
18	CYP19A1, HIPK1, MAOA, PRAM1, SEPT8, SPACA3, atp6v0d1, cdk2ap2, cyp11a1, dlst, elavl3, ifit5, mgea5, ncdn, scarb2, sts, tpp1, trappc5	1	A2M
3	CYP2C8, gcdh, rnf32	2	APOE, A2M
2	CYP2S1, NATD1	2	ADAMTSL4_2, ADAMTSL4
2	CYP4F12, adck5	1	HSPA6
3	Collagen-VIII_3, MSMB, SOD3	1	sgta
3	Collagen-XV, TNXA, wisp2	2	tfap2a, tfap2c
3	Collagen-XXIV, FAM19A4, wnt5b	1	appbp2
2	Collagen_XXV, pitrm1	2	Beta-amyloid peptide 1-40, Beta-amyloid peptide 1-42
2	Complement C3 beta chain, KLK1	1	cfh
11	DAB2IP, HIST1H2BB, MYL12A, PRKAR2B, arfgef2, cltcl1, cyba, dnajb12, gys2, nox1, rfk	1	tnfrsf1a
5	DCAF4, crbn_2, dcaf12, dcaf6, wdtc1_2	1	ddb1
11	DDX17_2, MBD3, hnrnph1, ncoa1, rorc, tnk1, tp53_2, tp53_4, tp53_6, trmt10c, wbp11	1	ddx5
3	DEFB121, EDDM3B, bricd5	1	SYNE4
12	DES, FLNC, IVNS1ABP, KDM2A, LONRF3, PPP2R5E, agtpbp1, glis3, hk2, snapc3, tead1, zbtb44	1	eno1
2	DESI1, fgfr2_3	1	fgf7
10	DEUP1, NACAP1, TCL1A, TXLNB, btf3l4, hypk, kank2_2, mbip, ppfia1, rint1	1	txlna
12	DGCR6L, PGBD1, ZKSCAN7, ZNF165, ZNF232, ZNF397, ZNF496, ZSCAN16, ZSCAN22, ZSCAN32, ZSCAN9, sufu	1	ZNF446_2
6	DGKD, NREP, UBE2V2, aldh2, ethe1, sephs1	1	IGSF21
2	DIRAS3, NSD3	2	fgfr4, tgfb1
13	DKFZP586J0619, INTS11_2, dot1l, eme1, golga4, ints2, ints6, map3k4, pde12, ppl_2, taf1a, zmynd8, znf609	1	INTS14
5	DLEU1, ndufb9, prkra, rsrc1, snrpg	1	gdf9
4	DLX2, arfgap1_3, fam131c, fancl	1	GRN
2	DNAAF5, vdac3	2	CASP4, stom
9	DNAJA3, HGF, SH2B2, gab1, grb14, matk, sh2b1, shd, socs1	1	met
7	DNMT3A, DNMT3L, ing2, pelp1, phf21a, taf3, taf6	1	H3F3A
2	DRC1, galnt6	1	aldoa_2
14	DRC7, ERVK-19, PML_3, PYDC1, RALB, casp8, dnajc28, fstl5, inpp4b, lamp1, lemd3, lig3, nlrc3, tshz2	1	pycard
5	DSC2, nap1l4, pkp1, sec22a, ubac1	1	DSP_2
2	DST_2, OLFM1_2	1	disc1
9	DUSP13, FYCO1, SYNE1, cc2d2a, lats2, lmnb2, mlip, stac, zmpste24	1	lmna_3
3	DUSP21, ccnh, prmt7	1	ganab
6	DUSP9, PTPN7_2, SUPT20H, dusp1, dusp4, mapkapk5	2	MAPK14, mapk1
18	DUX1, GSTT1, KATNAL2, KCNN2, MRPL10, SAXO1, SP100, ZNF446, angptl7, atp5g1, cacna1d, crabp2, golga7, lrp12, nrap, pdlim3, spa17, zc2hc1c	1	ACTN2
2	DYNLRB2, dynll2	2	wdr60, dynlt1
2	DYRK3, GGA2	1	sorl1
18	DZIP3, PEG10, SEPT1, TOM1, abcb6, ankrd13a, chd6, cstf1, herpud1, ldb1, n4bp2, nedd4l, nt5dc2, rcan1_2, tbx3, tom1l2, wrnip1, xrn2	1	tollip
3	Defa6, ghrl, pik3ip1	2	UBQLN1_2, UBQLN1
6	EBLN2, STRADB, bckdk, stk25, stk39, strada	1	cab39
2	EDNRB, ednra	1	edn1
10	EGR2, FOXN2, PHF8_2, POU2F1, THAP11, crebzf, cxxc1, gabpb1_3, suds3, zbtb17	1	hcfc1
2	EHHADH, cap2	1	ACTG1
3	EIF1, nbas, rab11b	1	olfm2
4	EIF3B, EIF3C, EIF3K, eif5	1	DDX3X
15	EIF3L, RHOC, TMCO1, acat1, cisd2, dnajc8, dut, gstm3, mthfd1, nudt5, pam16, pfdn5, rps26_2, sars, sept2_2	1	gh1
3	EIF3M, YA61, strap	2	gh1, nme2
7	EL52, GLMN, HSP90AB1, SPATA24, tmod4, tomm34, ttc4	1	cdc37l1_2
2	ELL3, sox5	1	fth1_2
10	EMP3, LEPROTL1, OSTCL, PLN, cyb561, dolk, edar, mal, nipal3, ostc	1	eda
2	EPOP, FGFR1OP2	1	CCT8
2	EPS8L2, pym1	1	RPL23
7	ERC1, KRT36, PALD1, clgn, elovl1, pip5k1a, rnf216	1	tlr9
8	ERICH2, MRPS33_2, cars, nt5dc3, rbck1, slu7, spock1, tnfaip3	1	tnf
9	ESCO2, PHF12, bbx_2, cntrl, coro7, hbegf, npat, nr2c2, wdfy3	1	S100A4
4	ESYT2_2, gtf3c2, slc25a12, ube2e1	1	PAEP
6	EVL, PTOV1, ZSCAN26, pin4, sptbn1_3, tssc4	1	SPTAN1_2
6	FAAP20, PRR12, ascc1, ccs, dync2li1, nfs1	1	sod1
3	FABP1, Rflna, hspb7	1	flna
3	FABP4, efs, med28	1	ostf1
2	FAM103A1, ccdc33	2	PLSCR1, rbmx
15	FAM104A, HMGCR, ITGB4_2, SYF2, UBXN10, ZNF778, derl1_2, dgat2, kif20a, mfn2, syvn1, ube4b, ubxn2a, ubxn6, ubxn8	1	VCP
2	FAM160A2, rab33a	1	rtn3
5	FAM213A, SCCPDH, pla2r1, scpep1, serac1	1	HSCB
2	FCGR2C, dgcr14	1	CRP
2	FGFR1_2, fgfr2_2	1	fgf2
4	FIS1, atpaf1, fzd1, kank2	1	atp5b
16	FLYWCH1, HLA-A_3, HLA-B_4, RIN1, VAV1, ap1m2, fer, hnrnpab, mrps14, mrps18b, mrps23, mrps28, nrg1, nrg1_4, pik3cb, ptcd3	1	erbb3
3	FNBP4, cemip, ubap2l	1	plxna2
2	FNDC11, zbtb24	1	CDA
4	FTSJ3, gtpbp4, pabpc4_2, znf622	1	OAS3
9	FYTTD1, alkbh2, kansl2, klhl7, spen, stxbp1, taf1b_2, uhrf1bp1l, zc3h18	1	FERMT3
2	GALR1, GALR2	1	GAL
7	GATC, Naxd, ZSCAN21_2, aar2, cdh5, fbxw11, palld	1	KDR
2	GBE1, nfrkb	1	EPHB3
3	GFRA1, GFRA1_2, ptpra	1	gdnf_2
2	GID4, ube2h	1	armc8
3	GPIHBP1, ptpn4, ube2z	1	lpl
12	GPRC5A, INF2, METTL3, MISP, MYO6_2, arpc5l, churc1, cobl, cttn, lima1, pdcl3, specc1	1	ACTR2
3	GRHL2, pgr, trps1	1	C4A
5	GRIN1, TROAP, anks1b, bysl, dlg4	1	ErbB4
2	GRIP2, pick1	1	NECTIN1
2	GRK2, ttk	1	TUBB_3
3	HAMP, THOC7, ndufb7	1	CKAP4
5	HAUS2, pja2, plaa, rnf126, stk17b	1	faf2
2	HIST1H2AG, il1rl1	1	IL33
15	HJURP, JMJD4, KMT5A, PSME4, brd4, brpf1, etaa1, fkbp14, hdac5, kdm4b, naa40, sfmbt1, sirt2, trim24, twist1	1	Hist1h4a
3	HLA-A_4, mrps17, mrps34	1	erbb3
2	HLA-A_7, HLA-A_8	1	hyou1
2	HLA-B, HLA-G	3	LILRB2, LILRB1, b2m
2	HLA-B_8, KLRC2	1	b2m
8	HLA-DRB1, TSPAN9, galk1, igsf8, lrrc74a, ptgfrn, slc44a1, tspan14	1	cd9
4	HOXB7, erg, etv1, nr1h4	2	xrcc5, prkdc
7	HRK, brd1_2, rassf2, retreg1, rsrp1, scarf1, xrcc1	1	c1qbp
5	HSP70-1, fancd2, myh10, slc1a5, xpot	2	tnfrsf1a, tnfrsf1b
3	HSPB9, dync1i2, tiprl	1	dynlt1
3	HTN1, HTN3, PRR4	1	MUC7
6	HUS1, PSMB9_2, USP43, psma1, psma3, psmb8	1	psma2
6	Hist1h1a, rpl15, rpl21, rpl24, rpl28, rplp2	1	PA2G4
9	ICAM5, OASL, ap3s1, bcas3, exo1, hps5, phf20l1_2, polr2j, taf1	1	CD14
2	IFNA8, IFNW1	2	IFNAR1, IFNAR2
5	IFNB1, Ifna2, Ifna5, pcbp2, stat2	1	IFNAR2
2	IFT122, wdr19	2	TULP3, PFKP
3	IGFL1, IGFL2, Igfl3	1	igflr1
3	IGIP, angpt1, c1qtnf3	1	mapk8ip2
3	IGM, ITGAX, VSIG4	1	C3
2	IL18BP, IL18R1	2	IL37, IL18
3	INTS12, ints4, ints9	1	INTS14
3	INTS13, ints10, rcc2_2	2	INTS14, HDGF
2	IP6K3, NCR3	1	bag6
8	ISCU, SDHAF2, lyrm7, nelfb, ppp3cb, sdhaf1, uqcrfs1, ykt6	1	hspa9
8	ISYNA1, LSM2, RANBP6, RBBP7_2, ctbp1_2, dis3, htr1b, nme3	1	nme2
7	ITGA2B, LDHB, TUBA8, myl1, psme2, sh3bgrl, tpm3	1	il7r
6	JAGN1, aip, fam3a, ninj2, pttg1ip, tmprss4	1	CLEC7A
5	JPT1, RNF43, hnf4a, nono, pspc1	1	sfpq
2	KCNA5, kcna4	3	ACTN2, dlg1_2, Erbin
2	KCTD15, ccdc24	1	ren
5	KDM5A, aicda, impa2, mlx, parp4	1	cct6a
4	KHDRBS3, PRR3_2, RBMY1A1, rbm7	2	hnrnpk, rbmx
5	KIAA0087, dpf1, hacd1, slx4ip, wsb2	1	rpn1
2	KIAA0753, ccdc13	2	cep290_2, pibf1
2	KIAA1429, NCBP2	2	kpnb1, SNCA
2	KIAA1522, fzd6	1	sfrp1
2	KIF13B, adgra2	2	dlg1_2, dlg1
2	KIR2DL2, KIR2DS4	1	HLA-C_2
2	KLK13, KLK14	1	SPINK5
3	KLKB1, bdkrb1, bdkrb2_2	1	kng1
3	KRT14, QTRT2, TGM4	2	IGHG1, IGHA1
5	KRTAP10-11, KRTAP4-11, KRTAP5-6, LCE4A, ZNF587	2	PLSCR1, ADAMTSL4
2	L1RE1, PCGF2	1	MOV10
2	LEMD2, bdkrb2	2	lmna, lmna_3
6	LENG8_2, bub3_2, mphosph6, papolg, pcid2, unc119b	1	ZFC3H1
3	LEO1, fsbp, jakmip2	1	ELOA
3	LPAL2, PRADC1, cd209	1	vac14
2	LPPR4, eif4g3	1	EIF4A1
3	LY6G6C, NPFF, cnp_2	1	zdhhc17
2	MAEA, RMND5A	3	ddx5, armc8_2, armc8
5	MAGEA2B, MAGEC2, hgs, wdr62_2, zc3h12a	1	p4ha3
2	MAGEA8, rbfox1	1	GCA_2
2	MAGEB4, polr3c	2	tnr_2, rock1
4	MAP3K11, rnf7, shbg, wbp2	1	CLEC4G
3	MBD4, PML-RAR, atp6v0b	1	fas
2	MC4R, ccni	1	IL1RAP
2	MDH1, psap	1	HSPB2
3	MED21, exoc7, sec23ip	1	SSC5D
2	MEFV, NLRC4	3	pycard, NLRP3, CASP1
5	MELTF_2, dcbld1, kbtbd7, plxna1, tapbp	1	pdia3
2	MLLT6_2, cib3	1	enox2_2
2	MLPH, sytl1	1	rab27a
4	MPDU1, ccdc50, chn1, edem2	1	RPS3A
5	MRE11, ddx6, igf2bp2, orc2, orc3_2	1	ILF2
6	MRPL58, SNRNP27, U2AF2_2, abca2, slc25a25, tmtc3_2	1	LAMB3
4	MRPS12, MT1G, MT2A, RABL6	1	SPINK7
9	MYO1G, SLC30A3, SPPL2A, acap1, sh3bp4, slc30a10, slc30a4, tbc1d14, vps51	1	TFRC
2	MYOM1, mybpc1	2	ttn, c1qtnf9
2	MYOM2, mast2	2	ACTN2, ttn
2	MYOZ1, myoz2	3	actn4, ACTN2, actn1
3	MZB1, kdsr, susd4	1	mapk6
6	MZT2A, TUBGCP6_2, fbxo45, spryd3, tubgcp3, uggt1	1	LGALS3BP
4	NABP2, irf3, rab4b, srxn1	1	prdx1
12	NAPB, SCAMP5, STX3, STX7, bet1, gosr2, snap47, stx12, stx6, vamp1, vamp4, vamp5	1	stx4
2	NCALD, hpcal1	1	c1qtnf2
2	NDUFA4L2, arhgef10l	1	ANXA9
9	NIPBL, PHF23, SRPRA, chp1, efna3, grk6, recql4, shmt1, tmem222	1	prss23
2	NLRP12, bag5	3	psmd2, HSPA1B, HSPA1A
2	NLRP7, TRIM16L	2	il1b, CASP1
2	NMB, NMB_2	1	birc2
3	NRP2, VEGFB, vps35	1	VEGFA_2
2	NUP62CL, fabp2	1	AGR2
2	Npy1r, npy2r	2	npy, PYY
2	OAZ1, SPATS2L_2	1	plxna3
4	OR5H6, arid3a, baz1b, map3k20	1	ighm
2	ORAI1, ORAI3	1	CRACR2A
3	PAIP2, TIGAR, senp8	1	rpl11
3	PAN2, ank3, taf15	1	PLEC
3	PCDHA1, Pcdha10, optc	1	crk
6	PCGF3, PTPA, alkbh8, b9d1, cttnbp2, ppp2r2c	3	CCT8, cct2, cct6a
2	PDCD10, heg1	1	krit1
2	PDE4DIP, trappc2	2	eno3, eno1
3	PDGF-AA, ZNF579, stab1	1	sparc
4	PIAS1, USP46, fam13a, usp32	1	erp44
2	PLAC8, atrn	1	COPS5
3	PLD1, hunk, pld2	1	cfl1
2	PLSCR4, ZNF638	2	PLSCR1, efemp2
7	PML, ccdc102a, ctdp1, nsl1, polr3b, spc24, spc25	1	dsn1
5	PPP4R2, RPS21, ilkap, rps12, rps26	1	rps11
2	PRSS38, slit3	1	otub1
2	PRTG, serpina7	1	ripk4
2	PSD, vangl1	1	gmfg
2	PSMB7_2, dcp2	1	psmb1
2	PSMB9, psmb8_3	1	PSMB7
2	PTDSS2, pigu	1	stom
2	PTPN7, nf2	1	hsph1
3	RAMP3, ptk2b, vps4a	1	pdcd6ip
2	RAPGEF5, RNF213	1	PLAC9
2	RASL10B, glce	2	fgfr4, fgfr2
4	RBM4B, lmo3, plrg1, rfxank	1	hnrnpm
12	RDH13, SDHA, SDHD, SMIM20, TIMM21, TMEM223, cmc1, cox14, mrpl40, mrpl46, sdhc, surf1	1	SLC25A5
11	REEP3, TMEM55B, TRIM14, TRIP10_2, USMG5, iws1, ndufb5, pcf11, pum2, r3hcc1, sdcbp_2	1	SAMD1
2	RNF168, runx1t1	1	PSMD11
3	RPL5, fgd1, mrpl1	1	mrpl18
3	RPP25, pop5, rpp40	1	pop1
2	RPS6KB2, atpaf2	1	atp5a1
2	RRAGB, rptor	1	lamp2
3	RTL8C, bsg, mrps9	1	APOL2
5	RXRG, mgll, ogg1, pold1, taz	1	chgb
2	SCNM1, vps37c	2	tfip11, PLSCR1
5	SCTR, cdh23, myo16, pcdh10, rfx6	1	cyfip1
2	SERPINB10, SPAG11B	1	srpk1
2	SERTAD3, spef2	2	IGHA1, APOA1
2	SH3GLB2, nrbf2	2	pgk1, PA2G4
3	SH3PXD2A, cntln, prpf40a_2	1	prss12
2	SH3PXD2A_2, snx33	2	adam15, faslg
4	SHC3, VAV3, sh2b3, txk	3	met, KIT, erbb3
7	SHC4, STAP1, sh2d3c, shc2, sla2, socs5, tns1	2	met, KIT
2	SLC16A6, TRIM26	1	cask
2	SLC25A47, gnpnat1	1	c1qa
6	SLC38A2, SLC38A9, frmd3, nme6, nt5c2, slc36a1	1	atp5o
3	SLC43A3, cwc25, epb41l4b_2	1	lamc3
4	SMCR8, crx, eif2b2, eif2b2_3	1	C9orf72
2	SMYD2, pex6	1	rps14
5	SNRNP35, fam213b, mbtps1, sbf1, zc3hc1	1	tnfsf11
3	SNRPC, cherp, foxk1	1	aggf1
2	SORBS2_2, sacs	1	actn4
2	SORCS3, ntrk1_2	1	ngf
2	SP100_2, pdlim3_2	1	ACTN2
2	SRGAP2, nckipsd	2	rac1, faslg
2	SS18L1, ppig	1	lgals3
2	TACR1, tacr2	1	tac1
2	TACR3, vopp1	1	TAC3
3	TAF1C, rai1, rbp4	1	ttr
7	TBC1D10A, b4galt7, clic4, nolc1, plcb3, scyl3, slc12a2	1	ezr
4	TBPL1, UNC5CL, peli1, tlr5	1	irak4
2	TESK1, foxp4	1	PFKL
2	TLR6, wnt1	1	CD36
2	TMPRSS11D, mark1	1	mst1
3	TMPRSS6, TMPRSS6_2, bmp6	1	hfe2
3	TNFRSF10A, acp5, cflar_2	1	tnfsf10
2	TNFRSF13C, TNFRSF17	1	tnfsf13b
2	TPSAB1, TPSB2	2	pik3r1, nck1
3	UBXN2B, gucd1, trafd1	1	ngly1
2	USP12, bace1	1	mmp2
2	Uqcr11, rragc	1	WNT2
2	VEGF-A165, pttg1	1	hspg2
2	VEGFA_3, VEGFA_4	1	UBIAD1
2	VSTM4, glb1l	1	ppp1cc
2	WFDC9, oit3	1	MEOX2
2	ZBTB5, scamp2	1	st3gal3
2	ZNF165_2, ZSCAN21	1	ZNF446_2
4	ZNF184, ZNF302, lsm1, thra	1	clic1
2	ZNF211, trip12	1	rpl39
3	ZNF253, csmd1, pax7	1	akr1b1
2	ZNF337, commd8	1	commd3
2	ZNF510, nans	2	pdgfrl, cdh1
4	ZNF677, fosl1, rab40b, xrcc2	1	wfdc1
4	ZNF830, mnd1, ttc14, zcchc10	1	ik
2	abcg8, fst	1	ANG
2	ace, dnase1l3	1	cd247
3	acy1, gabpb1_2, txnl4a	1	gstp1
4	adam11, carhsp1, polr2c, polr3f	1	stc2
2	adamtsl5, ltbp1	2	fbn1, fbn2
2	adcyap1r1, adcyap1r1_2	1	ADCYAP1
2	amfr, nploc4	2	VCP, faf2
5	ampd1, dennd4a, larp4b, ndufs1, znf407	1	c1qtnf9
6	anapc4, ecscr, otud3, phlpp1_2, tmeff1, trmo	1	pten
2	anapc5, anapc7	2	pten, NOTCH1
2	angpt1_2, angpt4	1	tek
2	angptl2, angptl5	1	LILRB2
2	ankfy1, ice1	1	USPL1
3	ap2b1, cutc, polr3e	1	slc25a6
2	ap4e1, vps50	1	lama1
6	apc2, hspa4l, paics, psat1, rab3a, rpl29	1	timp2
4	ar, cib1, dclre1c, zic2	1	prkdc
2	arhgap31, trio_2	1	rac1
2	ash2l, utp18	1	hcfc2
2	atg16l1_2, zmat3	1	HNRNPA2B1_2
8	atp5s, bcl7b, dcaf15, lyst, mknk1_2, pkn3, ptprn, zer1	1	ppia
2	atxn7l2, sept12	1	lamb1
4	axin1_2, bambi, caprin2, dkk2	1	lrp6
2	bbs2, bbs7	2	cct2, cep290_2
2	bcl11a, mpc1	1	actc1
5	bcl2l11, bcl2l11_3, bcl2l11_5, fibp, znf408	1	MIF
2	bcl7a, gramd1c	1	cd151
4	bet1_2, stx16, vamp2, vamp4_2	1	stx4
3	bicra, dctn4, rprd2	1	dync1h1
2	blnk, ptpru	1	KIT
5	bloc1s2, bloc1s3, bloc1s5, ndufa9, pbx2	1	bloc1s1
2	bsg_2, styxl1	1	atxn10
4	btg3, cnot11, cnot6, tnrc6b	1	cnot1
2	c21orf59, cenpo	1	PLXNB1_2
9	c2cd5, cept1, fbxo30, impact, nap1l1, nbeal2, orc3, ttc1, xrn1_2	1	qsox2
3	ca12, usp38, wipi1	1	LGALS7
2	cacna1f, cacna1f_2	1	cabp4
2	capn7, capn7_2	1	ist1_3
3	casp6, gnai3, gnas_2	2	NUCB2, nucb1
2	ccdc77, haus6	1	cep290_2
2	cdk12, usp8	1	KRT85
2	cebpb, cebpb_2	1	MUC1
2	chaf1a, noc2l	3	HIST2H3A, HIST1H3A, H3F3A
2	chn2, lrpprc	2	rac1, erbb3
2	clstn3, tmcc2	1	APOE
2	cltb_2, picalm_3	1	cltc
3	cog6, fcho1, flna_2	1	LGALS14
2	commd10, commd5	1	commd9
2	cox6a2, slc38a3	1	Collagen-VI_3
2	cpa1, pla1a	1	ARRB1
2	cpb2, tmem45b	1	TINAG
5	cpsf6, fbxl18, npdc1, rasd1, spg7	2	hnrnpk, PLSCR1
3	cryba4, ric8a, txndc5	1	efemp1
2	csad, klhl23	2	ANXA7, ANXA1
3	ctbp1, pde9a, per3	1	cry2
2	cul4b_2, fbxo25	1	cand1
2	cyhr1, srf	1	aldh3a1
3	cyp1a1, mcee, timm44	2	CMTM5, CMTM5_2
2	dap3, vps26b	1	Collagen-IV_3
2	ddah2, trmt2a	2	tnfsf11, ANXA7
2	dhx8, sart1	2	mfap1, NOTCH1
2	dmd, dmd_2	1	dag1
3	dnmt3b, hip1, tcf25	1	rps10
2	dock8_2, lrch2	2	lrch3, crlf3
2	dot1l_2, lmna_2	1	HIST2H3A
4	dync1li1, dync1li2, dynlrb1, dynlt3	2	dynlt1, dync1h1
2	ehd4, med27	1	AFP
3	eif2s2, phf10, tcf21	1	aplp1
2	ephx2, mt-cyb	1	mvp
7	ercc5, lsm11, nop58, rsrc1_2, sept10, sept7_2, sorbs1_2	1	tgs1
2	ero1a, ero1b	4	tctn1, pdia3, p4hb, pdia4
2	exosc9, tbl1x	1	hp
2	f5, spp2	2	FAM20C, pitx3
5	fam120b, fosl2, g0s2, map2k7, zfand2a	1	rpl30
2	fbxw8, fbxw8_2	2	cct2, cct6a
2	fdft1, supt4h1	1	anxa5
2	foxn1, yod1	1	txndc5_2
3	fth1, map3k12, myog	1	FTL
5	fxn, gtf2h1, hsf5, pdhx, xrcc4	1	actn1
2	gclc, herc3	1	CCL22
2	gcn1, ssr4	3	CASP4, tnfrsf1a, tnfrsf1b
2	gfod2, qsox1	1	BEGAIN
2	gipc2, mad2l1bp	2	IGSF21, ptn
4	glra2, rab12, rab4a, ska3	1	gdi2
4	gmps, map1b, pfas, tars	1	prkag2
3	gnas_3, rab14, tysnd1	1	cat
2	got1, mbnl1	1	abi3bp
2	gpam, setx_2	1	clu_3
4	h1f0, mdc1, memo1, sos2	1	lox
2	hacd3, slc25a1	2	CASP4, tnfrsf1b
3	hipk2, smarca2_2, sox18	1	mecp2
6	hspa14, lap3, osbpl1a, parva, sec24d, vps36	1	GCNT1
2	htr1e, psmd9	1	psmc3
2	il22ra2, il22ra2_2	1	il22
2	ing4, nasp_2	2	HIST1H3A, H3F3A
2	ipo8, mon2	3	tnfrsf1a, tnfrsf1b, stom
3	kctd2, rb1cc1_2, wdr91_2	2	huwe1, dlg3_2
2	laptm5, ube2r2	1	uba52
2	lin28a, lin28b	1	zcchc11
2	lrp2, slc22a17	1	LCN2
2	man2a2, mtmr14	1	eno3
2	mcfd2, tmed5	1	lman1
4	mief1, mief2, pink1, rnf144b	1	tomm20
2	mras, rnd1	1	PLXNB1
2	narf, pms2	1	SFRP4
3	ncoa2, tp53_3, tp53_7	1	ddx5
2	ncs1, zmiz2	1	NBL1
2	nfe2, psph	1	txn
5	nup188, nup37, nup88, tmem214, zc3h14_2	1	kpnb1
2	nup58, setd4	1	GDF15
3	nutf2, ppp1r13l, vrk2	1	ran
2	papd5, smarcd2	2	smarca4, psmd2
2	pbrm1, smarcc2	2	smarca4, NOTCH1
2	pex5, tm9sf4	1	S100A6
2	pllp, rrad	1	MMP14
2	pltp, pltp_2	1	CREB3_2
2	prtfdc1, wwp2	1	LGALS9B
2	rad18, slf1	1	slf2
2	rfc1_2, rfc4	2	HDGF, NOTCH1
2	rgma, rgmb	1	BMP2
3	robo4, tmc4, tmem245	1	flt1
2	rpl7, trpv4_2	2	canx, ran
2	rps15, uck1	1	pla2g12a
2	rps28, rps29	2	rps14, rps11
2	shkbp1, zc3h7a	1	Collagen-VII_2
2	shtn1, vps28	1	fabp3
2	snrpd2, vps25	1	crlf3
3	srsf9, syncrip, syncrip_3	1	HABP4
2	ssbp2, ssbp3	1	IL36RN
2	tmed10, tmed9	2	tctn1, copa
2	ube4b_2, ubxn4	1	VCP
2	unc5b, unc5b_2	1	ntn1
2	usp33, usp33_2	1	selenbp1
