node id	node name
A0A024R493	efhd1
A2RRN7	cadps_2
A4D0S4	lamb4
A5PKW4	PSD
A5YKK6-2	cnot1_2
A6ND01	IZUMO1R
A8K2U0	A2ML1
B3KTP4	ApoL6
D3W0D1	KLRF2
I3WAC9	ins
O00161	SNAP23
O00212	RHOD
O00292	Lefty2
O00300	tnfrsf11b
O00308	wwp2
O00391	qsox1
O00409	foxn3
O00548	DLL1
O00634	NTN3
O00755	wnt7a
O14558	hspb6
O14717	trdmt1
O14770	Meis2
O14936-2	cask_3
O14936-3	cask
O14948	tfec
O15078-2	cep290
O15244	slc22a2
O15403	SLC16A6
O15496	PLA2G10
O15537	rs1
O15551	CLDN3
O43150	ASAP2
O43155	flrt2
O43184	adam12_2
O43184-2	adam12
O43278	SPINT1
O43294	TGFB1I1
O43374	rasa4
O43405	coch
O43521	bcl2l11_2
O43598	dnph1
O43603	GALR2
O43612	hcrt
O43617	trappc3_2
O43653	PSCA
O43681	asna1
O43715	triap1
O43820	hyal3
O43854	edil3
O43914	tyrobp
O60234	gmfg
O60285	NUAK1
O60303	KIAA0556
O60353	fzd6
O60437	ppl
O60494	cubn
O60609	gfra3
O60733	pla2g6
O60760	HPGDS
O60840	cacna1f
O60840-5	cacna1f_2
O60882	MMP20
O60894	RAMP1
O75084	FZD7
O75096	LRP4
O75197	lrp5
O75325	lrrn2
O75354-2	entpd6_2
O75356	ENTPD5
O75445	ush2a
O75462	crlf1
O75594	PGLYRP1
O75618	dedd
O75807	ppp1r15a
O75829-2	CNMD
O75899	gabbr2
O75900	MMP23A
O75973	C1QL1
O76027	ANXA9
O76036	NCR1
O76038	SCGN
O76081-6	rgs20_2
O94772	LY6H
O94921	cdk14
O94993	SOX30
O95150	TNFSF15
O95342	ABCB11
O95393	bmp10
O95395	gcnt3
O95427	pign
O95445	apom
O95450	adamts2
O95633	fstl3
O95711	ly86
O95721	snap29
O95747	OXSR1
O95980	reck_2
P00736	c1r
P00797	ren
P01031	c5
P01160	nppa
P01185	avp
P01210	penk
P01215	cga
P01225	fshb
P01258	calca
P01350	GAST
P01562	IFNA1
P01579	ifng
P01615	IGKV2D-28
P01854	IGHE
P01860	IGHG3
P01877	IGHA2
P01880	ighd
P01909	HLA-DQA1
P02458	Collagen-II
P02462	Collagen-IV_4
P02462-2	Collagen-IV_9
P02462-PRO_0000390482	Arresten
P02671-2	fga_2
P02748	c9
P02751-12	fn1
P02778	CXCL10
P02808	STATH
P04066	fuca1
P04070	proc
P04075-2	aldoa
P04424	asl
P04746	amy2a
P05014	Ifna4
P05062	aldob
P05067-8	app_2
P05111	inha
P05113	IL5
P06307	CCK
P06731	CEACAM5
P06734	FCER2
P06850	crh
P06881	calca_2
P07204	thbd
P07357	c8a
P07738	bpgm
P08263	GSTA1
P08476	inhba_2
P08572-PRO_0000283775	Canstatin
P08582-2	MELTF
P08637	FCGR3A
P08700	IL3
P09038-2	fgf2_2
P09110	acaa1
P09172	dbh
P09238	MMP10
P09326	CD48
P09529	inhbb
P0CG38	POTEI
P10074	zbtb48
P10082	PYY
P10645	chga
P10916	myl2
P11150	lipc
P11362-7	FGFR1_3
P11473	VDR
P11597	cetp
P11836	MS4A1
P12110	Collagen-VI_3
P12314	FCGR1A
P12319	FCER1A
P13497-2	BMP1
P13497-4	BMP1_3
P13591	ncam1
P13637	ATP1A3
P13726	F3
P14415	ATP1B2
P14555	PLA2G2A
P14770	gp9
P15248	IL9
P15260	ifngr1
P15328	FOLR1
P15391	CD19
P15692-12	VEGFA_4
P15692-14	VEGFA_3
P16150	SPN
P16444	dpep1
P17540	ckmt2
P17544	ATF7
P17900	gm2a
P18054	alox12
P18065	IGFBP2
P18075	bmp7
P19021	pam
P19652	Orm2
P19835	CEL
P20023	CR2
P20062	tcn2
P20226	TBP
P20339	rab5a
P20742	PZP
P20794	mak_2
P21583	KITLG
P21964	COMT
P22362	ccl1
P22466	GAL
P22612	PRKACG
P22626-2	HNRNPA2B1
P23469	PTPRE
P23510	TNFSF4
P23634	atp2b4
P23743	DGKA
P23945	fshr
P24043	Lama2
P24278	zbtb25
P25774	CTSS
P25929	Npy1r
P26651	ZFP36
P26718	KLRK1
P26951	IL3RA
P27037	acvr2a
P27352	GIF
P27918	cfp
P28908	TNFRSF8
P29376	ltk
P30273	fcer1g
P30566	adsl
P30989	ntsr1
P30990	nts
P31025	LCN1
P31150	gdi1
P31947-2	SFN_2
P32239	CCKBR
P32856	STX2
P32971	TNFSF8
P34897	shmt2
P34998	crhr1
P35225	il13
P35318	ADM
P35372	oprm1
P35498	scn1a
P35558	pck1
P35590	tie1
P35638-2	ddit3_2
P35754	glrx
P36575	arr3
P36915	gnl1
P36955	serpinf1
P36956	SREBF1
P37288	avpr1a
P38484	IFNGR2
P39905-3	gdnf
P40197	GP5
P41146	oprl1
P41217	CD200
P41221	wnt5a
P41271	NBL1
P43363	MAGEA10
P43364	MAGEA11_2
P43365	MAGEA12
P43489	TNFRSF4
P43627	KIR2DL2
P43628	KIR2DL3
P43632	KIR2DS4
P43681	chrna4
P46094	XCR1
P47211	GALR1
P47992	XCL1
P48061-2	CXCL12_2
P48509	cd151
P48745	NOV
P48960-2	cd97
P49146	npy2r
P49281	slc11a2
P49354	fnta
P49366	dhps
P49703	arl4d
P49771	FLT3LG
P50053	khk
P50539	mxi1_2
P51511	MMP15
P51679	CCR4
P51685	CCR8
P51955	nek2
P52798	EFNA4
P53365	ARFIP2
P53611	rabggtb
P53990-4	ist1_2
P54198	hira
P54753	EPHB3
P55000	SLURP1
P55085	f2rl1
P55259	GP2
P56703	wnt3
P56705	WNT4
P56706	WNT7B
P57087	jam2
P57105	synj2bp
P57764	GSDMD
P57796	cabp4
P60006	ANAPC15
P60827	C1QTNF8
P61328-2	fgf12
P61916	NPC2
P62166	ncs1
P78333	GPC5
P78552	il13ra1
P84077	arf1
P98073	tmprss15
P98173	fam3a_2
Q00532	cdkl1
Q01113	IL9R
Q01344-2	IL5RA
Q01523	Defa5
Q01814	atp2b2
Q01973	ror1
Q02221	cox6a2
Q02505	MUC3A
Q03001-8	DST_3
Q03403	TFF2
Q04446	GBE1
Q04756	HGFAC
Q07092	Collagen-XVI
Q07283	TCHH
Q07654	TFF3
Q08334	il10rb
Q08495	dmtn
Q08830	fgl1
Q0P5P2	C17orf67
Q0VD86	INCA1
Q0WX57	USP17L24
Q10472	galnt1
Q11201	st3gal1
Q12794	hyal1
Q12889	ovgp1
Q12891	HYAL2
Q12899	TRIM26
Q12918	KLRB1
Q12950	FOXD4
Q12959-2	dlg1
Q12959-5	dlg1_3
Q12988	HSPB3
Q13064	MKRN3
Q13214-2	sema3b
Q13253	Nog
Q13275	SEMA3F
Q13316	DMP1
Q13410	BTN1A1
Q13421	MSLN
Q13467	fzd5
Q13519	pnoc
Q13522	PPP1R1A
Q13530	SERINC3
Q13554	CAMK2B
Q13635	ptch1
Q13936	cacna1c_2
Q13936-20	cacna1c
Q14055	Collagen-IX
Q14112	NID2
Q14195-2	dpysl3_2
Q14210	LY6D
Q14623	IHH
Q15063	postn
Q15116	PDCD1
Q15238	PSG5
Q15303-3	ErbB4_2
Q15369	ELOC
Q15375	epha7
Q15382	rheb
Q15436	sec23a
Q15465	SHH
Q15545	taf7
Q15555	mapre2
Q15811	itsn1
Q16552	il17a
Q16555	dpysl2
Q16602	CALCRL
Q16619	CTF1
Q16625	ocln
Q16740	clpp
Q16762	TST
Q29960	HLA-C_2
Q29983	MICA
Q2KJY2	KIF26B
Q2MKA7	rspo1
Q31604	DMA
Q3B7J2	gfod2
Q3B8N2	LGALS9B
Q3B8N2-2	LGALS9B_2
Q4ACW9	TWEAK
Q4VC05	bcl7a
Q53EL9	SEZ6
Q53GC0	SERTAD1
Q53SE7	FLJ13057
Q5HYK7	sh3d19
Q5JTB6	PLAC9
Q5SW96	LDLRAP1
Q5T4W7	ARTN
Q5T5C0	STXBP5
Q5T653	mrpl2
Q5T655	cfap58
Q5TBB1	rnaseh2b
Q5TZZ9	ANXA1_2
Q63HN8	RNF213
Q6E0U4	DMKN
Q6EIG7	CLEC6A
Q6EMK4	vasn
Q6H3X3	RAET1G
Q6IBW4	NCAPH2
Q6IPW1	C11orf71
Q6P1M3	llgl2
Q6P4R8	nfrkb
Q6P5S2	Leg1
Q6P988	NOTUM
Q6PKC3	txndc11
Q6RW13	agtrap
Q6RW13-2	agtrap_2
Q6SZW1	sarm1
Q6UVW9	CLEC2A
Q6UW32	IGFL1
Q6UWP8	SBSN
Q6UWQ5	LYZL1
Q6UWQ7	IGFL2
Q6UX71	plxdc2
Q6UXB1	Igfl3
Q6UXH0	ANGPTL8
Q6UXL0	IL20RB
Q6UXT8	Alkal1
Q6UXV4	apool
Q6V1X1	DPP8
Q6W2J9	bcor
Q6XQN6	naprt
Q6ZMI0	ppp1r21
Q6ZU65	ubn2
Q6ZW49	paxip1
Q76L83	asxl2
Q7L775	EPM2AIP1
Q7L8A9	vash1
Q7LBR1	chmp1b
Q7Z5A9	FAM19A1
Q7Z6G3	necab2_2
Q7Z7E8	ube2q1
Q86SQ9	dhdds
Q86TH1	adamtsl2
Q86UL8	MAGI2
Q86UN3	RTN4RL2
Q86VR8	fjx1
Q86WT6	TRIM69
Q86X52	chsy1
Q86XX4	fras1
Q86Y01	dtx1
Q86Y22	Collagen-XXIII
Q86YD3	tmem25
Q86YL7	PDPN
Q8IU54	IFNL1
Q8IU57	ifnlr1
Q8IUQ4-2	siah1_2
Q8IVL1	NAV2
Q8IWK6-3	adgra3_2
Q8IWW8	adhfe1
Q8IYD9	Las2
Q8IYF3	tex11
Q8IYS0	gramd1c
Q8IYV9	IZUMO1
Q8IZR5	cmtm4
Q8N129	cnpy4
Q8N307	MUC20
Q8N474	sfrp1
Q8N4L8	ccdc24
Q8N5I4	dhrsx
Q8N6C5	IGSF1
Q8N6G6	ADAMTSL1
Q8N6P7	IL22RA1
Q8N7B6	PACRGL
Q8NA19	L3MBTL4
Q8NAC3	il17rc
Q8NB37	gatd1
Q8NBF2-2	nhlrc2_2
Q8NBI3	Draxin
Q8NC24	rell2
Q8NC60	noa1
Q8NC69	KCTD6
Q8NCF0	CLEC18C
Q8NCN4	RNF169
Q8NDC4	morn4
Q8NE62	chdh
Q8NER5	ACVR1C
Q8NEU8	appl2
Q8NF64-2	zmiz2
Q8NFC6	bod1l1
Q8NFM7	il17rd
Q8NG31	KNL1
Q8TAA9	vangl1
Q8TAG5	VSTM2A
Q8TAX9	GSDMB
Q8TBE7	slc35g2
Q8TD46	CD200R1
Q8TD84	dscaml1
Q8TDJ6	dmxl2
Q8TDU9	RXFP4
Q8TEY5	CREB3L4
Q8WTP9	XAGE3
Q8WTT0	CLEC4C
Q8WTU0	DDI1
Q8WVJ2	nudcd2
Q8WXA2	PATE1
Q8WXD9	caskin1
Q8WXF3	rln3
Q8WXI8	CLEC4D
Q8WYR1	pik3r5
Q8WZ19	kctd13
Q92520	fam3c
Q92565	RAPGEF5
Q92583	CCL17
Q92625	ANKS1A
Q92797	sympk
Q92845	kifap3
Q93038	TNFRSF25
Q93091	RNASE6
Q969J5	il22ra2_3
Q96A83	Collagen-XXVI
Q96A84	emid1
Q96B21	tmem45b
Q96B26	exosc8
Q96BA8	creb3l1
Q96BD8	SKA1
Q96BK8	C8orf30A
Q96C86	dcps
Q96CW9	NTNG2
Q96DR5	BPIFA2
Q96DX5	ASB9
Q96ED9	hook2
Q96EK5	kif1bp
Q96EP0-3	RNF31_2
Q96H12	MSANTD3
Q96HH9	GRAMD2B
Q96I34	ppp1r16a
Q96IY4	cpb2
Q96J02-2	ITCH_2
Q96JZ2	hsh2d
Q96L11	C7orf34
Q96LB8	PGLYRP4
Q96LB9	PGLYRP3
Q96N03	vstm2l
Q96N21	TEPSIN
Q96PD4	IL17F
Q96PE1	adgra2
Q96PJ5	FCRL4
Q96PL1	SCGB3A2
Q96PN8	TSSK3
Q96SI1	KCTD15
Q96TC7	rmdn3
Q99467	cd180
Q99571	P2RX4
Q99574	serpini1
Q99612	KLF6
Q99624	slc38a3
Q99758	ABCA3
Q99784-5	OLFM1
Q99944	EGFL8
Q99972	myoc
Q9BQ51	PDCD1LG2
Q9BQB4	sost
Q9BQC3	dph2
Q9BRT2	UQCC2
Q9BSE2	TMEM79
Q9BSQ5	ccm2
Q9BT67	ndfip1
Q9BU20	rsg1
Q9BUH8	BEGAIN
Q9BUR5	APOO
Q9BUW7	C9orf16
Q9BVJ7	DUSP23
Q9BW85	ccdc94
Q9BX67	jam3
Q9BXI9	C1QTNF6
Q9BXR6	CFHR5
Q9BYR7	Krtap3-2
Q9BZW8	CD244
Q9C010	pkib
Q9C086	ino80b
Q9GZV9	fgf23
Q9H171	ZBP1
Q9H1B7	irf2bpl
Q9H1M4	DEFB127
Q9H269	vps16
Q9H293	IL25
Q9H2R5	KLK15
Q9H665	igflr1
Q9H6R3	acss3
Q9H8L6	MMRN2
Q9H8T0	aktip
Q9H972	C14orf93
Q9HAR2	ADGRL3
Q9HB03	ELOVL3
Q9HBE4	il21
Q9HBW1	LRRC4
Q9HCE6	arhgef10l
Q9HCJ2	lrrc4c
Q9HD67	myo10
Q9HD90	neurod4
Q9NP99	TREM1
Q9NPH9	il26
Q9NPL8	timmdc1
Q9NQ79	crtac1
Q9NQT8	KIF13B
Q9NRA1	pdgfc
Q9NRG1	prtfdc1
Q9NRJ3	CCL28
Q9NRM6	IL17RB
Q9NRN5	OLFML3
Q9NRX3	NDUFA4L2
Q9NSB8	homer2
Q9NSC5	homer3
Q9NTN9-3	SEMA4G_2
Q9NWD8	tmem248
Q9NWU2	GID8
Q9NYL5	cyp39a1
Q9NYY1	IL20
Q9NZ20	PLA2G3
Q9NZ42	psenen
Q9NZC2	TREM2
Q9NZH0	GPRC5B
Q9NZU0	flrt3
Q9NZU1	FLRT1
Q9NZU7	cabp1_2
Q9NZU7-2	cabp1
Q9NZW4	DSPP
Q9P126	CLEC1B
Q9P206	KIAA1522
Q9P218	Collagen-XX_2
Q9P218-2	Collagen-XX
Q9P2W7	b3gat1
Q9UBC1	nfkbil1
Q9UBD9	clcf1
Q9UBS5-2	gabbr1_2
Q9UBT6	polk
Q9UBW7	zmym2
Q9UDV6	ZNF212
Q9UEW3	marco
Q9UGJ1	tubgcp4_2
Q9UHD0	IL19
Q9UHF4	il20ra
Q9UHF5	IL17B
Q9UHI8	adamts1
Q9UHP7	CLEC2D
Q9UHP7-3	CLEC2D_2
Q9UI09	ndufa12
Q9UJJ9	gnptg
Q9UJW2	TINAG
Q9UJY1	hspb8
Q9UK55	SERPINA10
Q9UK80	usp21
Q9UKJ1	PILRA
Q9UL33	trappc2l
Q9ULD2-2	MTUS1
Q9ULT6	znrf3
Q9ULT8	hectd1
Q9ULW2	fzd10
Q9UNN8	PROCR
Q9UPN9	trim33
Q9UPR0	plcl2
Q9UPV0-2	CEP164
Q9UPY3	dicer1
Q9UPZ6	thsd7a
Q9UPZ9	ICK
Q9UQV4	LAMP3
Q9Y2I2	NTNG1
Q9Y5C1	angptl3
Q9Y5L2	HILPDA
Q9Y5R8	trappc1
Q9Y5Z9	UBIAD1
Q9Y605	MRFAP1
Q9Y6C2-2	EMILIN1
Q9Y6I9	TEX264
Q9Y6N9-4	ush1c
Q9Y6Q6	tnfrsf11a
Q9Y6X2	PIAS3
V9HWH2	HEL-S-29
ebi:EBI-2528478	Collagen-XIII
ebi:EBI-2550754	ITGB5_2
ebi:EBI-2554495	ITGB1_2
