# CONNECTED COMPONENT 1
NODE	efhd1
NODE	TCHH
EDGE	TCHH	efhd1	1.0

# CONNECTED COMPONENT 2
NODE	cadps_2
NODE	C17orf67
EDGE	C17orf67	cadps_2	1.0

# CONNECTED COMPONENT 3
NODE	kctd13
NODE	lamb4
EDGE	kctd13	lamb4	1.0

# CONNECTED COMPONENT 4
NODE	vangl1
NODE	gmfg
NODE	PSD
SET	PWRN-PSD-1-1	1.0
IN	vangl1	PWRN-PSD-1-1
IN	PSD	PWRN-PSD-1-1
EDGE	PWRN-PSD-1-1	gmfg	1.0

# CONNECTED COMPONENT 5
NODE	cnot1_2
NODE	ZFP36
EDGE	ZFP36	cnot1_2	1.0

# CONNECTED COMPONENT 6
NODE	IZUMO1
NODE	IZUMO1R
EDGE	IZUMO1	IZUMO1R	1.0

# CONNECTED COMPONENT 7
NODE	A2ML1
NODE	DMKN
NODE	FOXD4
SET	PWRN-A2ML1-1-1	1.0
IN	A2ML1	PWRN-A2ML1-1-1
IN	DMKN	PWRN-A2ML1-1-1
EDGE	FOXD4	PWRN-A2ML1-1-1	1.0

# CONNECTED COMPONENT 8
NODE	il17a
NODE	FLJ13057
NODE	ApoL6
NODE	il17rc
NODE	IL17F
NODE	dph2
SET	PWRN-ApoL6-1-1	1.0
SET	PWRN-ApoL6-2-1	1.0
IN	IL17F	PWRN-ApoL6-1-1
IN	ApoL6	PWRN-ApoL6-1-1
IN	dph2	PWRN-ApoL6-2-1
IN	il17rc	PWRN-ApoL6-2-1
EDGE	FLJ13057	PWRN-ApoL6-1-1	1.0
EDGE	PWRN-ApoL6-2-1	il17a	1.0
EDGE	IL17F	il17rc	1.0

# CONNECTED COMPONENT 9
NODE	KLRF2
NODE	CLEC2A
EDGE	CLEC2A	KLRF2	1.0

# CONNECTED COMPONENT 10
NODE	ins
NODE	rgs20_2
EDGE	ins	rgs20_2	1.0

# CONNECTED COMPONENT 11
NODE	Collagen-XIII
NODE	NID2
EDGE	Collagen-XIII	NID2	1.0

# CONNECTED COMPONENT 12
NODE	Canstatin
NODE	ITGB5_2
EDGE	Canstatin	ITGB5_2	1.0

# CONNECTED COMPONENT 13
NODE	ITGB1_2
NODE	Arresten
EDGE	Arresten	ITGB1_2	1.0

# CONNECTED COMPONENT 14
NODE	SCGN
NODE	SNAP23
NODE	DST_3
SET	PWRN-DST_3-1-1	1.0
IN	SCGN	PWRN-DST_3-1-1
IN	DST_3	PWRN-DST_3-1-1
EDGE	PWRN-DST_3-1-1	SNAP23	1.0

# CONNECTED COMPONENT 15
NODE	IHH
NODE	RHOD
EDGE	IHH	RHOD	1.0

# CONNECTED COMPONENT 16
NODE	Lefty2
NODE	acss3
EDGE	Lefty2	acss3	1.0

# CONNECTED COMPONENT 17
NODE	tnfrsf11b
NODE	tnfrsf11a
NODE	tmprss15
SET	PWRN-tmprss15-1-1	1.0
IN	tnfrsf11b	PWRN-tmprss15-1-1
IN	tmprss15	PWRN-tmprss15-1-1
EDGE	PWRN-tmprss15-1-1	tnfrsf11a	1.0

# CONNECTED COMPONENT 18
NODE	wwp2
NODE	prtfdc1
NODE	LGALS9B
SET	PWRN-LGALS9B-1-1	1.0
IN	prtfdc1	PWRN-LGALS9B-1-1
IN	wwp2	PWRN-LGALS9B-1-1
EDGE	LGALS9B	PWRN-LGALS9B-1-1	1.0

# CONNECTED COMPONENT 19
NODE	qsox1
NODE	BEGAIN
NODE	gfod2
SET	PWRN-BEGAIN-1-1	1.0
IN	gfod2	PWRN-BEGAIN-1-1
IN	qsox1	PWRN-BEGAIN-1-1
EDGE	BEGAIN	PWRN-BEGAIN-1-1	1.0

# CONNECTED COMPONENT 20
NODE	foxn3
NODE	chsy1
EDGE	chsy1	foxn3	1.0

# CONNECTED COMPONENT 21
NODE	synj2bp
NODE	DLL1
EDGE	DLL1	synj2bp	1.0

# CONNECTED COMPONENT 22
NODE	NTN3
NODE	Draxin
EDGE	Draxin	NTN3	1.0

# CONNECTED COMPONENT 23
NODE	NOTUM
NODE	wnt7a
EDGE	NOTUM	wnt7a	1.0

# CONNECTED COMPONENT 24
NODE	hspb6
NODE	hspb8
EDGE	hspb6	hspb8	1.0

# CONNECTED COMPONENT 25
NODE	IGKV2D-28
NODE	trdmt1
EDGE	IGKV2D-28	trdmt1	1.0

# CONNECTED COMPONENT 26
NODE	ANXA1_2
NODE	Meis2
EDGE	ANXA1_2	Meis2	1.0

# CONNECTED COMPONENT 27
NODE	cask
NODE	TRIM26
NODE	SLC16A6
NODE	KIF26B
NODE	dlg1_3
SET	PWRN-KIF26B-1-1	1.0
IN	KIF26B	PWRN-KIF26B-1-1
IN	TRIM26	PWRN-KIF26B-1-1
IN	SLC16A6	PWRN-KIF26B-1-1
EDGE	PWRN-KIF26B-1-1	cask	1.0
EDGE	KIF26B	dlg1_3	1.0

# CONNECTED COMPONENT 28
NODE	cask_3
NODE	caskin1
EDGE	cask_3	caskin1	1.0

# CONNECTED COMPONENT 29
NODE	DEFB127
NODE	tfec
EDGE	DEFB127	tfec	1.0

# CONNECTED COMPONENT 30
NODE	cep290
NODE	C9orf16
EDGE	C9orf16	cep290	1.0

# CONNECTED COMPONENT 31
NODE	hyal3
NODE	slc22a2
EDGE	hyal3	slc22a2	1.0

# CONNECTED COMPONENT 32
NODE	PLA2G10
NODE	myo10
EDGE	PLA2G10	myo10	1.0

# CONNECTED COMPONENT 33
NODE	ATP1A3
NODE	sarm1
NODE	ATP1B2
NODE	rs1
SET	PWRN-ATP1A3-1-1	1.0
IN	ATP1A3	PWRN-ATP1A3-1-1
IN	sarm1	PWRN-ATP1A3-1-1
IN	ATP1B2	PWRN-ATP1A3-1-1
EDGE	PWRN-ATP1A3-1-1	rs1	1.0

# CONNECTED COMPONENT 34
NODE	CLDN3
NODE	ocln
NODE	CTSS
SET	PWRN-CLDN3-1-1	1.0
IN	ocln	PWRN-CLDN3-1-1
IN	CLDN3	PWRN-CLDN3-1-1
EDGE	CTSS	PWRN-CLDN3-1-1	1.0

# CONNECTED COMPONENT 35
NODE	ASAP2
NODE	thsd7a
EDGE	ASAP2	thsd7a	1.0

# CONNECTED COMPONENT 36
NODE	flrt2
NODE	FLRT1
EDGE	FLRT1	flrt2	1.0

# CONNECTED COMPONENT 37
NODE	adam12
NODE	fstl3
EDGE	adam12	fstl3	1.0

# CONNECTED COMPONENT 38
NODE	adam12_2
NODE	sh3d19
EDGE	adam12_2	sh3d19	1.0

# CONNECTED COMPONENT 39
NODE	SPINT1
NODE	HGFAC
EDGE	HGFAC	SPINT1	1.0

# CONNECTED COMPONENT 40
NODE	PLA2G3
NODE	TGFB1I1
EDGE	PLA2G3	TGFB1I1	1.0

# CONNECTED COMPONENT 41
NODE	asl
NODE	ovgp1
NODE	rasa4
SET	PWRN-asl-1-1	1.0
IN	asl	PWRN-asl-1-1
IN	rasa4	PWRN-asl-1-1
EDGE	PWRN-asl-1-1	ovgp1	1.0

# CONNECTED COMPONENT 42
NODE	Collagen-XVI
NODE	Collagen-IV_4
NODE	Collagen-II
NODE	coch
NODE	hyal1
SET	PWRN-Collagen-II-1-1	1.0
IN	coch	PWRN-Collagen-II-1-1
IN	hyal1	PWRN-Collagen-II-1-1
EDGE	Collagen-II	PWRN-Collagen-II-1-1	1.0
EDGE	Collagen-IV_4	coch	1.0
EDGE	Collagen-IV_4	Collagen-XVI	1.0

# CONNECTED COMPONENT 43
NODE	fgl1
NODE	bcl2l11_2
EDGE	bcl2l11_2	fgl1	1.0

# CONNECTED COMPONENT 44
NODE	PILRA
NODE	dnph1
EDGE	PILRA	dnph1	1.0

# CONNECTED COMPONENT 45
NODE	GALR2
NODE	GAL
NODE	GALR1
SET	PWRN-GAL-1-1	1.0
IN	GALR2	PWRN-GAL-1-1
IN	GALR1	PWRN-GAL-1-1
EDGE	GAL	PWRN-GAL-1-1	1.0

# CONNECTED COMPONENT 46
NODE	hcrt
NODE	HLA-DQA1
EDGE	HLA-DQA1	hcrt	1.0

# CONNECTED COMPONENT 47
NODE	trappc1
NODE	trappc3_2
EDGE	trappc1	trappc3_2	1.0

# CONNECTED COMPONENT 48
NODE	chrna4
NODE	PSCA
EDGE	PSCA	chrna4	1.0

# CONNECTED COMPONENT 49
NODE	asna1
NODE	HILPDA
NODE	fzd10
SET	PWRN-HILPDA-1-1	1.0
IN	asna1	PWRN-HILPDA-1-1
IN	fzd10	PWRN-HILPDA-1-1
EDGE	HILPDA	PWRN-HILPDA-1-1	1.0

# CONNECTED COMPONENT 50
NODE	amy2a
NODE	triap1
EDGE	amy2a	triap1	1.0

# CONNECTED COMPONENT 51
NODE	cdkl1
NODE	edil3
EDGE	cdkl1	edil3	1.0

# CONNECTED COMPONENT 52
NODE	PGLYRP1
NODE	TREM2
NODE	TREM1
NODE	tyrobp
SET	PWRN-PGLYRP1-1-1	1.0
IN	PGLYRP1	PWRN-PGLYRP1-1-1
IN	tyrobp	PWRN-PGLYRP1-1-1
EDGE	PWRN-PGLYRP1-1-1	TREM1	1.0
EDGE	TREM2	tyrobp	1.0

# CONNECTED COMPONENT 53
NODE	IGHA2
NODE	NUAK1
NODE	cdk14
SET	PWRN-IGHA2-1-1	1.0
IN	NUAK1	PWRN-IGHA2-1-1
IN	cdk14	PWRN-IGHA2-1-1
EDGE	IGHA2	PWRN-IGHA2-1-1	1.0

# CONNECTED COMPONENT 54
NODE	mak_2
NODE	KIAA0556
NODE	llgl2
NODE	ICK
SET	PWRN-ICK-1-1	1.0
IN	mak_2	PWRN-ICK-1-1
IN	llgl2	PWRN-ICK-1-1
IN	ICK	PWRN-ICK-1-1
EDGE	KIAA0556	PWRN-ICK-1-1	1.0

# CONNECTED COMPONENT 55
NODE	sfrp1
NODE	fzd6
NODE	KIAA1522
SET	PWRN-KIAA1522-1-1	1.0
IN	fzd6	PWRN-KIAA1522-1-1
IN	KIAA1522	PWRN-KIAA1522-1-1
EDGE	PWRN-KIAA1522-1-1	sfrp1	1.0

# CONNECTED COMPONENT 56
NODE	ppl
NODE	ANXA9
NODE	NDUFA4L2
NODE	BTN1A1
NODE	arhgef10l
SET	PWRN-ANXA9-1-1	1.0
IN	NDUFA4L2	PWRN-ANXA9-1-1
IN	arhgef10l	PWRN-ANXA9-1-1
IN	ppl	PWRN-ANXA9-1-1
EDGE	ANXA9	PWRN-ANXA9-1-1	1.0
EDGE	BTN1A1	ppl	1.0

# CONNECTED COMPONENT 57
NODE	GIF
NODE	cubn
EDGE	GIF	cubn	1.0

# CONNECTED COMPONENT 58
NODE	ARTN
NODE	gfra3
EDGE	ARTN	gfra3	1.0

# CONNECTED COMPONENT 59
NODE	SREBF1
NODE	arf1
NODE	pla2g6
SET	PWRN-SREBF1-1-1	1.0
IN	SREBF1	PWRN-SREBF1-1-1
IN	arf1	PWRN-SREBF1-1-1
EDGE	PWRN-SREBF1-1-1	pla2g6	1.0

# CONNECTED COMPONENT 60
NODE	HPGDS
NODE	MELTF
EDGE	HPGDS	MELTF	1.0

# CONNECTED COMPONENT 61
NODE	cacna1f_2
NODE	cacna1f
NODE	cabp4
SET	PWRN-cabp4-1-1	1.0
IN	cacna1f_2	PWRN-cabp4-1-1
IN	cacna1f	PWRN-cabp4-1-1
EDGE	PWRN-cabp4-1-1	cabp4	1.0

# CONNECTED COMPONENT 62
NODE	MMP20
NODE	DSPP
EDGE	DSPP	MMP20	1.0

# CONNECTED COMPONENT 63
NODE	ADM
NODE	CALCRL
NODE	RAMP1
NODE	calca_2
SET	PWRN-ADM-1-1	1.0
IN	ADM	PWRN-ADM-1-1
IN	RAMP1	PWRN-ADM-1-1
IN	calca_2	PWRN-ADM-1-1
EDGE	CALCRL	PWRN-ADM-1-1	1.0

# CONNECTED COMPONENT 64
NODE	FZD7
NODE	wnt3
EDGE	FZD7	wnt3	1.0

# CONNECTED COMPONENT 65
NODE	sost
NODE	LRP4
NODE	lrp5
SET	PWRN-LRP4-1-1	1.0
IN	LRP4	PWRN-LRP4-1-1
IN	lrp5	PWRN-LRP4-1-1
EDGE	PWRN-LRP4-1-1	sost	1.0

# CONNECTED COMPONENT 66
NODE	lrrn2
NODE	neurod4
EDGE	lrrn2	neurod4	1.0

# CONNECTED COMPONENT 67
NODE	rab5a
NODE	entpd6_2
EDGE	entpd6_2	rab5a	1.0

# CONNECTED COMPONENT 68
NODE	ENTPD5
NODE	mxi1_2
EDGE	ENTPD5	mxi1_2	1.0

# CONNECTED COMPONENT 69
NODE	ush2a
NODE	ush1c
EDGE	ush1c	ush2a	1.0

# CONNECTED COMPONENT 70
NODE	clcf1
NODE	crlf1
EDGE	clcf1	crlf1	1.0

# CONNECTED COMPONENT 71
NODE	pam
NODE	serpini1
NODE	dedd
SET	PWRN-dedd-1-1	1.0
IN	pam	PWRN-dedd-1-1
IN	serpini1	PWRN-dedd-1-1
EDGE	PWRN-dedd-1-1	dedd	1.0

# CONNECTED COMPONENT 72
NODE	ppp1r15a
NODE	PPP1R1A
EDGE	PPP1R1A	ppp1r15a	1.0

# CONNECTED COMPONENT 73
NODE	CNMD
NODE	appl2
NODE	hsh2d
NODE	LGALS9B_2
SET	PWRN-CNMD-1-1	1.0
IN	CNMD	PWRN-CNMD-1-1
IN	LGALS9B_2	PWRN-CNMD-1-1
EDGE	PWRN-CNMD-1-1	appl2	1.0
EDGE	CNMD	hsh2d	1.0

# CONNECTED COMPONENT 74
NODE	gabbr2
NODE	gabbr1_2
EDGE	gabbr1_2	gabbr2	1.0

# CONNECTED COMPONENT 75
NODE	MMP23A
NODE	glrx
EDGE	MMP23A	glrx	1.0

# CONNECTED COMPONENT 76
NODE	C1QTNF8
NODE	C1QL1
EDGE	C1QL1	C1QTNF8	1.0

# CONNECTED COMPONENT 77
NODE	cfp
NODE	NCR1
EDGE	NCR1	cfp	1.0

# CONNECTED COMPONENT 78
NODE	LY6H
NODE	ppp1r16a
EDGE	LY6H	ppp1r16a	1.0

# CONNECTED COMPONENT 79
NODE	GP2
NODE	TSSK3
NODE	SOX30
SET	PWRN-GP2-1-1	1.0
IN	TSSK3	PWRN-GP2-1-1
IN	SOX30	PWRN-GP2-1-1
EDGE	GP2	PWRN-GP2-1-1	1.0

# CONNECTED COMPONENT 80
NODE	TNFRSF25
NODE	TNFSF15
EDGE	TNFRSF25	TNFSF15	1.0

# CONNECTED COMPONENT 81
NODE	ABCB11
NODE	ARFIP2
NODE	pkib
NODE	LY6D
SET	PWRN-ABCB11-1-1	1.0
IN	ABCB11	PWRN-ABCB11-1-1
IN	ARFIP2	PWRN-ABCB11-1-1
IN	pkib	PWRN-ABCB11-1-1
EDGE	LY6D	PWRN-ABCB11-1-1	1.0

# CONNECTED COMPONENT 82
NODE	bmp10
NODE	SERINC3
EDGE	SERINC3	bmp10	1.0

# CONNECTED COMPONENT 83
NODE	gcnt3
NODE	dhrsx
EDGE	dhrsx	gcnt3	1.0

# CONNECTED COMPONENT 84
NODE	fjx1
NODE	pign
EDGE	fjx1	pign	1.0

# CONNECTED COMPONENT 85
NODE	C8orf30A
NODE	KLF6
NODE	apom
SET	PWRN-C8orf30A-1-1	1.0
IN	C8orf30A	PWRN-C8orf30A-1-1
IN	KLF6	PWRN-C8orf30A-1-1
EDGE	PWRN-C8orf30A-1-1	apom	1.0

# CONNECTED COMPONENT 86
NODE	pik3r5
NODE	adamts2
EDGE	adamts2	pik3r5	1.0

# CONNECTED COMPONENT 87
NODE	cd180
NODE	ly86
EDGE	cd180	ly86	1.0

# CONNECTED COMPONENT 88
NODE	OLFM1
NODE	snap29
EDGE	OLFM1	snap29	1.0

# CONNECTED COMPONENT 89
NODE	rell2
NODE	OXSR1
EDGE	OXSR1	rell2	1.0

# CONNECTED COMPONENT 90
NODE	reck_2
NODE	TRIM69
EDGE	TRIM69	reck_2	1.0

# CONNECTED COMPONENT 91
NODE	POTEI
NODE	DUSP23
EDGE	DUSP23	POTEI	1.0

# CONNECTED COMPONENT 92
NODE	pck1
NODE	c1r
EDGE	c1r	pck1	1.0

# CONNECTED COMPONENT 93
NODE	ren
NODE	ccdc24
NODE	KCTD15
SET	PWRN-KCTD15-1-1	1.0
IN	ccdc24	PWRN-KCTD15-1-1
IN	KCTD15	PWRN-KCTD15-1-1
EDGE	PWRN-KCTD15-1-1	ren	1.0

# CONNECTED COMPONENT 94
NODE	CFHR5
NODE	fam3c
NODE	creb3l1
NODE	c5
SET	PWRN-CFHR5-1-1	1.0
IN	fam3c	PWRN-CFHR5-1-1
IN	CFHR5	PWRN-CFHR5-1-1
IN	c5	PWRN-CFHR5-1-1
EDGE	PWRN-CFHR5-1-1	creb3l1	1.0

# CONNECTED COMPONENT 95
NODE	MAGEA12
NODE	nppa
EDGE	MAGEA12	nppa	1.0

# CONNECTED COMPONENT 96
NODE	avpr1a
NODE	avp
EDGE	avp	avpr1a	1.0

# CONNECTED COMPONENT 97
NODE	oprm1
NODE	penk
EDGE	oprm1	penk	1.0

# CONNECTED COMPONENT 98
NODE	fshb
NODE	cga
NODE	fshr
SET	PWRN-cga-1-1	1.0
IN	cga	PWRN-cga-1-1
IN	fshr	PWRN-cga-1-1
EDGE	PWRN-cga-1-1	fshb	1.0

# CONNECTED COMPONENT 99
NODE	calca
NODE	atp2b2
NODE	atp2b4
SET	PWRN-atp2b2-1-1	1.0
IN	atp2b2	PWRN-atp2b2-1-1
IN	atp2b4	PWRN-atp2b2-1-1
EDGE	PWRN-atp2b2-1-1	calca	1.0

# CONNECTED COMPONENT 100
NODE	CCKBR
NODE	GAST
NODE	CCK
SET	PWRN-CCK-1-1	1.0
IN	GAST	PWRN-CCK-1-1
IN	CCK	PWRN-CCK-1-1
EDGE	CCKBR	PWRN-CCK-1-1	1.0

# CONNECTED COMPONENT 101
NODE	IFNA1
NODE	CR2
EDGE	CR2	IFNA1	1.0

# CONNECTED COMPONENT 102
NODE	ifng
NODE	ifngr1
NODE	IFNGR2
SET	PWRN-IFNGR2-1-1	1.0
IN	ifngr1	PWRN-IFNGR2-1-1
IN	IFNGR2	PWRN-IFNGR2-1-1
EDGE	PWRN-IFNGR2-1-1	ifng	1.0

# CONNECTED COMPONENT 103
NODE	IGHE
NODE	FCER1A
EDGE	FCER1A	IGHE	1.0

# CONNECTED COMPONENT 104
NODE	IGHG3
NODE	SKA1
EDGE	IGHG3	SKA1	1.0

# CONNECTED COMPONENT 105
NODE	CD19
NODE	ighd
NODE	MS4A1
SET	PWRN-CD19-1-1	1.0
IN	CD19	PWRN-CD19-1-1
IN	MS4A1	PWRN-CD19-1-1
EDGE	PWRN-CD19-1-1	ighd	1.0

# CONNECTED COMPONENT 106
NODE	Collagen-IV_9
NODE	kifap3
EDGE	Collagen-IV_9	kifap3	1.0

# CONNECTED COMPONENT 107
NODE	trim33
NODE	fga_2
EDGE	fga_2	trim33	1.0

# CONNECTED COMPONENT 108
NODE	c9
NODE	c8a
EDGE	c8a	c9	1.0

# CONNECTED COMPONENT 109
NODE	fn1
NODE	sympk
EDGE	fn1	sympk	1.0

# CONNECTED COMPONENT 110
NODE	CXCL10
NODE	DPP8
NODE	CXCL12_2
SET	PWRN-CXCL10-1-1	1.0
IN	CXCL10	PWRN-CXCL10-1-1
IN	CXCL12_2	PWRN-CXCL10-1-1
EDGE	DPP8	PWRN-CXCL10-1-1	1.0

# CONNECTED COMPONENT 111
NODE	PTPRE
NODE	STATH
EDGE	PTPRE	STATH	1.0

# CONNECTED COMPONENT 112
NODE	usp21
NODE	fuca1
EDGE	fuca1	usp21	1.0

# CONNECTED COMPONENT 113
NODE	MMP15
NODE	proc
EDGE	MMP15	proc	1.0

# CONNECTED COMPONENT 114
NODE	aldoa
NODE	Ifna4
EDGE	Ifna4	aldoa	1.0

# CONNECTED COMPONENT 115
NODE	ELOVL3
NODE	MUC20
NODE	aldob
SET	PWRN-ELOVL3-1-1	1.0
IN	ELOVL3	PWRN-ELOVL3-1-1
IN	aldob	PWRN-ELOVL3-1-1
EDGE	MUC20	PWRN-ELOVL3-1-1	1.0

# CONNECTED COMPONENT 116
NODE	app_2
NODE	homer2
NODE	homer3
SET	PWRN-app_2-1-1	1.0
IN	homer2	PWRN-app_2-1-1
IN	homer3	PWRN-app_2-1-1
EDGE	PWRN-app_2-1-1	app_2	1.0

# CONNECTED COMPONENT 117
NODE	inha
NODE	siah1_2
EDGE	inha	siah1_2	1.0

# CONNECTED COMPONENT 118
NODE	IL5
NODE	IL5RA
EDGE	IL5	IL5RA	1.0

# CONNECTED COMPONENT 119
NODE	UQCC2
NODE	CEACAM5
EDGE	CEACAM5	UQCC2	1.0

# CONNECTED COMPONENT 120
NODE	ATF7
NODE	FCER2
EDGE	ATF7	FCER2	1.0

# CONNECTED COMPONENT 121
NODE	crh
NODE	crhr1
EDGE	crh	crhr1	1.0

# CONNECTED COMPONENT 122
NODE	psenen
NODE	thbd
EDGE	psenen	thbd	1.0

# CONNECTED COMPONENT 123
NODE	CEL
NODE	bpgm
EDGE	CEL	bpgm	1.0

# CONNECTED COMPONENT 124
NODE	st3gal1
NODE	GSTA1
EDGE	GSTA1	st3gal1	1.0

# CONNECTED COMPONENT 125
NODE	acvr2a
NODE	inhba_2
EDGE	acvr2a	inhba_2	1.0

# CONNECTED COMPONENT 126
NODE	FCGR1A
NODE	zbtb25
NODE	FCGR3A
SET	PWRN-FCGR1A-1-1	1.0
IN	FCGR1A	PWRN-FCGR1A-1-1
IN	zbtb25	PWRN-FCGR1A-1-1
EDGE	FCGR3A	PWRN-FCGR1A-1-1	1.0

# CONNECTED COMPONENT 127
NODE	IL3
NODE	IL3RA
EDGE	IL3	IL3RA	1.0

# CONNECTED COMPONENT 128
NODE	fgf2_2
NODE	COMT
EDGE	COMT	fgf2_2	1.0

# CONNECTED COMPONENT 129
NODE	acaa1
NODE	txndc11
EDGE	acaa1	txndc11	1.0

# CONNECTED COMPONENT 130
NODE	itsn1
NODE	dbh
EDGE	dbh	itsn1	1.0

# CONNECTED COMPONENT 131
NODE	ADAMTSL1
NODE	MMP10
EDGE	ADAMTSL1	MMP10	1.0

# CONNECTED COMPONENT 132
NODE	CD48
NODE	CD244
EDGE	CD244	CD48	1.0

# CONNECTED COMPONENT 133
NODE	fnta
NODE	inhbb
NODE	ACVR1C
SET	PWRN-ACVR1C-1-1	1.0
IN	ACVR1C	PWRN-ACVR1C-1-1
IN	fnta	PWRN-ACVR1C-1-1
EDGE	PWRN-ACVR1C-1-1	inhbb	1.0

# CONNECTED COMPONENT 134
NODE	zbtb48
NODE	C7orf34
EDGE	C7orf34	zbtb48	1.0

# CONNECTED COMPONENT 135
NODE	PYY
NODE	Npy1r
NODE	npy2r
SET	PWRN-Npy1r-1-1	1.0
IN	Npy1r	PWRN-Npy1r-1-1
IN	npy2r	PWRN-Npy1r-1-1
EDGE	PWRN-Npy1r-1-1	PYY	1.0

# CONNECTED COMPONENT 136
NODE	chga
NODE	nek2
EDGE	chga	nek2	1.0

# CONNECTED COMPONENT 137
NODE	myoc
NODE	myl2
EDGE	myl2	myoc	1.0

# CONNECTED COMPONENT 138
NODE	lipc
NODE	adhfe1
EDGE	adhfe1	lipc	1.0

# CONNECTED COMPONENT 139
NODE	FGFR1_3
NODE	fgf23
EDGE	FGFR1_3	fgf23	1.0

# CONNECTED COMPONENT 140
NODE	MMRN2
NODE	VDR
EDGE	MMRN2	VDR	1.0

# CONNECTED COMPONENT 141
NODE	PRKACG
NODE	cetp
EDGE	PRKACG	cetp	1.0

# CONNECTED COMPONENT 142
NODE	Collagen-VI_3
NODE	cox6a2
NODE	slc38a3
SET	PWRN-Collagen-VI_3-1-1	1.0
IN	cox6a2	PWRN-Collagen-VI_3-1-1
IN	slc38a3	PWRN-Collagen-VI_3-1-1
EDGE	Collagen-VI_3	PWRN-Collagen-VI_3-1-1	1.0

# CONNECTED COMPONENT 143
NODE	BMP1
NODE	BMP1_3
NODE	DMP1
SET	PWRN-BMP1-1-1	1.0
IN	BMP1_3	PWRN-BMP1-1-1
IN	BMP1	PWRN-BMP1-1-1
EDGE	DMP1	PWRN-BMP1-1-1	1.0

# CONNECTED COMPONENT 144
NODE	ncam1
NODE	rheb
EDGE	ncam1	rheb	1.0

# CONNECTED COMPONENT 145
NODE	F3
NODE	f2rl1
EDGE	F3	f2rl1	1.0

# CONNECTED COMPONENT 146
NODE	PLA2G2A
NODE	alox12
EDGE	PLA2G2A	alox12	1.0

# CONNECTED COMPONENT 147
NODE	GP5
NODE	gp9
EDGE	GP5	gp9	1.0

# CONNECTED COMPONENT 148
NODE	IL9
NODE	IL9R
EDGE	IL9	IL9R	1.0

# CONNECTED COMPONENT 149
NODE	NCAPH2
NODE	FOLR1
EDGE	FOLR1	NCAPH2	1.0

# CONNECTED COMPONENT 150
NODE	UBIAD1
NODE	VEGFA_3
NODE	VEGFA_4
SET	PWRN-UBIAD1-1-1	1.0
IN	VEGFA_3	PWRN-UBIAD1-1-1
IN	VEGFA_4	PWRN-UBIAD1-1-1
EDGE	PWRN-UBIAD1-1-1	UBIAD1	1.0

# CONNECTED COMPONENT 151
NODE	SPN
NODE	dicer1
EDGE	SPN	dicer1	1.0

# CONNECTED COMPONENT 152
NODE	dpep1
NODE	kif1bp
EDGE	dpep1	kif1bp	1.0

# CONNECTED COMPONENT 153
NODE	ckmt2
NODE	OLFML3
NODE	HSPB3
SET	PWRN-HSPB3-1-1	1.0
IN	ckmt2	PWRN-HSPB3-1-1
IN	HSPB3	PWRN-HSPB3-1-1
EDGE	OLFML3	PWRN-HSPB3-1-1	1.0

# CONNECTED COMPONENT 154
NODE	GID8
NODE	gm2a
EDGE	GID8	gm2a	1.0

# CONNECTED COMPONENT 155
NODE	ino80b
NODE	GSDMB
NODE	IGFBP2
SET	PWRN-GSDMB-1-1	1.0
IN	ino80b	PWRN-GSDMB-1-1
IN	GSDMB	PWRN-GSDMB-1-1
EDGE	IGFBP2	PWRN-GSDMB-1-1	1.0

# CONNECTED COMPONENT 156
NODE	Nog
NODE	bmp7
EDGE	Nog	bmp7	1.0

# CONNECTED COMPONENT 157
NODE	cyp39a1
NODE	Orm2
EDGE	Orm2	cyp39a1	1.0

# CONNECTED COMPONENT 158
NODE	tcn2
NODE	paxip1
EDGE	paxip1	tcn2	1.0

# CONNECTED COMPONENT 159
NODE	TBP
NODE	Collagen-XXVI
EDGE	Collagen-XXVI	TBP	1.0

# CONNECTED COMPONENT 160
NODE	tubgcp4_2
NODE	PZP
NODE	tmem248
SET	PWRN-PZP-1-1	1.0
IN	tubgcp4_2	PWRN-PZP-1-1
IN	tmem248	PWRN-PZP-1-1
EDGE	PWRN-PZP-1-1	PZP	1.0

# CONNECTED COMPONENT 161
NODE	KITLG
NODE	FLT3LG
EDGE	FLT3LG	KITLG	1.0

# CONNECTED COMPONENT 162
NODE	CCR4
NODE	ccl1
NODE	CCR8
NODE	CCL17
SET	PWRN-CCL17-1-1	1.0
IN	CCR4	PWRN-CCL17-1-1
IN	CCR8	PWRN-CCL17-1-1
EDGE	CCL17	PWRN-CCL17-1-1	1.0
EDGE	CCR8	ccl1	1.0

# CONNECTED COMPONENT 163
NODE	HNRNPA2B1
NODE	zmym2
EDGE	HNRNPA2B1	zmym2	1.0

# CONNECTED COMPONENT 164
NODE	TNFSF4
NODE	TNFRSF4
EDGE	TNFRSF4	TNFSF4	1.0

# CONNECTED COMPONENT 165
NODE	il21
NODE	DGKA
EDGE	DGKA	il21	1.0

# CONNECTED COMPONENT 166
NODE	Lama2
NODE	TEPSIN
EDGE	Lama2	TEPSIN	1.0

# CONNECTED COMPONENT 167
NODE	KLRK1
NODE	MICA
NODE	RAET1G
SET	PWRN-KLRK1-1-1	1.0
IN	MICA	PWRN-KLRK1-1-1
IN	RAET1G	PWRN-KLRK1-1-1
EDGE	KLRK1	PWRN-KLRK1-1-1	1.0

# CONNECTED COMPONENT 168
NODE	TNFSF8
NODE	TNFRSF8
EDGE	TNFRSF8	TNFSF8	1.0

# CONNECTED COMPONENT 169
NODE	Alkal1
NODE	ltk
EDGE	Alkal1	ltk	1.0

# CONNECTED COMPONENT 170
NODE	fcer1g
NODE	CLEC4C
EDGE	CLEC4C	fcer1g	1.0

# CONNECTED COMPONENT 171
NODE	adsl
NODE	NOV
EDGE	NOV	adsl	1.0

# CONNECTED COMPONENT 172
NODE	nts
NODE	ntsr1
EDGE	nts	ntsr1	1.0

# CONNECTED COMPONENT 173
NODE	LCN1
NODE	khk
EDGE	LCN1	khk	1.0

# CONNECTED COMPONENT 174
NODE	ZNF212
NODE	gnl1
NODE	gdi1
SET	PWRN-ZNF212-1-1	1.0
IN	ZNF212	PWRN-ZNF212-1-1
IN	gdi1	PWRN-ZNF212-1-1
EDGE	PWRN-ZNF212-1-1	gnl1	1.0

# CONNECTED COMPONENT 175
NODE	SFN_2
NODE	MKRN3
EDGE	MKRN3	SFN_2	1.0

# CONNECTED COMPONENT 176
NODE	STXBP5
NODE	STX2
EDGE	STX2	STXBP5	1.0

# CONNECTED COMPONENT 177
NODE	shmt2
NODE	CLEC2D_2
EDGE	CLEC2D_2	shmt2	1.0

# CONNECTED COMPONENT 178
NODE	il13ra1
NODE	il13
EDGE	il13	il13ra1	1.0

# CONNECTED COMPONENT 179
NODE	fgf12
NODE	scn1a
EDGE	fgf12	scn1a	1.0

# CONNECTED COMPONENT 180
NODE	PSG5
NODE	tie1
EDGE	PSG5	tie1	1.0

# CONNECTED COMPONENT 181
NODE	TWEAK
NODE	ddit3_2
EDGE	TWEAK	ddit3_2	1.0

# CONNECTED COMPONENT 182
NODE	RNASE6
NODE	arr3
EDGE	RNASE6	arr3	1.0

# CONNECTED COMPONENT 183
NODE	EPM2AIP1
NODE	serpinf1
EDGE	EPM2AIP1	serpinf1	1.0

# CONNECTED COMPONENT 184
NODE	agtrap_2
NODE	gdnf
EDGE	agtrap_2	gdnf	1.0

# CONNECTED COMPONENT 185
NODE	oprl1
NODE	pnoc
EDGE	oprl1	pnoc	1.0

# CONNECTED COMPONENT 186
NODE	CD200R1
NODE	CD200
EDGE	CD200	CD200R1	1.0

# CONNECTED COMPONENT 187
NODE	wnt5a
NODE	ror1
NODE	fzd5
SET	PWRN-fzd5-1-1	1.0
IN	ror1	PWRN-fzd5-1-1
IN	fzd5	PWRN-fzd5-1-1
EDGE	PWRN-fzd5-1-1	wnt5a	1.0

# CONNECTED COMPONENT 188
NODE	NBL1
NODE	ncs1
NODE	zmiz2
SET	PWRN-NBL1-1-1	1.0
IN	zmiz2	PWRN-NBL1-1-1
IN	ncs1	PWRN-NBL1-1-1
EDGE	NBL1	PWRN-NBL1-1-1	1.0

# CONNECTED COMPONENT 189
NODE	MTUS1
NODE	MAGEA10
EDGE	MAGEA10	MTUS1	1.0

# CONNECTED COMPONENT 190
NODE	MAGEA11_2
NODE	Las2
EDGE	Las2	MAGEA11_2	1.0

# CONNECTED COMPONENT 191
NODE	HLA-C_2
NODE	KIR2DL2
NODE	KIR2DS4
NODE	KIR2DL3
SET	PWRN-HLA-C_2-1-1	1.0
IN	KIR2DS4	PWRN-HLA-C_2-1-1
IN	KIR2DL2	PWRN-HLA-C_2-1-1
IN	KIR2DL3	PWRN-HLA-C_2-1-1
EDGE	HLA-C_2	PWRN-HLA-C_2-1-1	1.0

# CONNECTED COMPONENT 192
NODE	XCR1
NODE	XCL1
EDGE	XCL1	XCR1	1.0

# CONNECTED COMPONENT 193
NODE	cd151
NODE	gramd1c
NODE	bcl7a
SET	PWRN-bcl7a-1-1	1.0
IN	gramd1c	PWRN-bcl7a-1-1
IN	bcl7a	PWRN-bcl7a-1-1
EDGE	PWRN-bcl7a-1-1	cd151	1.0

# CONNECTED COMPONENT 194
NODE	KNL1
NODE	cd97
EDGE	KNL1	cd97	1.0

# CONNECTED COMPONENT 195
NODE	slc11a2
NODE	ndfip1
EDGE	ndfip1	slc11a2	1.0

# CONNECTED COMPONENT 196
NODE	dhps
NODE	vash1
EDGE	dhps	vash1	1.0

# CONNECTED COMPONENT 197
NODE	cnpy4
NODE	arl4d
EDGE	arl4d	cnpy4	1.0

# CONNECTED COMPONENT 198
NODE	epha7
NODE	EFNA4
EDGE	EFNA4	epha7	1.0

# CONNECTED COMPONENT 199
NODE	tmem25
NODE	rabggtb
NODE	FAM19A1
SET	PWRN-FAM19A1-1-1	1.0
IN	tmem25	PWRN-FAM19A1-1-1
IN	FAM19A1	PWRN-FAM19A1-1-1
EDGE	PWRN-FAM19A1-1-1	rabggtb	1.0

# CONNECTED COMPONENT 200
NODE	ist1_2
NODE	chmp1b
EDGE	chmp1b	ist1_2	1.0

# CONNECTED COMPONENT 201
NODE	ubn2
NODE	hira
EDGE	hira	ubn2	1.0

# CONNECTED COMPONENT 202
NODE	GBE1
NODE	nfrkb
NODE	EPHB3
SET	PWRN-EPHB3-1-1	1.0
IN	GBE1	PWRN-EPHB3-1-1
IN	nfrkb	PWRN-EPHB3-1-1
EDGE	EPHB3	PWRN-EPHB3-1-1	1.0

# CONNECTED COMPONENT 203
NODE	SLURP1
NODE	asxl2
EDGE	SLURP1	asxl2	1.0

# CONNECTED COMPONENT 204
NODE	P2RX4
NODE	WNT4
EDGE	P2RX4	WNT4	1.0

# CONNECTED COMPONENT 205
NODE	WNT7B
NODE	ELOC
EDGE	ELOC	WNT7B	1.0

# CONNECTED COMPONENT 206
NODE	jam3
NODE	jam2
EDGE	jam2	jam3	1.0

# CONNECTED COMPONENT 207
NODE	KCTD6
NODE	GSDMD
EDGE	GSDMD	KCTD6	1.0

# CONNECTED COMPONENT 208
NODE	vps16
NODE	gnptg
NODE	C1QTNF6
NODE	ANAPC15
SET	PWRN-ANAPC15-1-1	1.0
IN	gnptg	PWRN-ANAPC15-1-1
IN	C1QTNF6	PWRN-ANAPC15-1-1
EDGE	ANAPC15	PWRN-ANAPC15-1-1	1.0
EDGE	C1QTNF6	vps16	1.0

# CONNECTED COMPONENT 209
NODE	NPC2
NODE	dhdds
EDGE	NPC2	dhdds	1.0

# CONNECTED COMPONENT 210
NODE	GPC5
NODE	dcps
EDGE	GPC5	dcps	1.0

# CONNECTED COMPONENT 211
NODE	PACRGL
NODE	fam3a_2
EDGE	PACRGL	fam3a_2	1.0

# CONNECTED COMPONENT 212
NODE	INCA1
NODE	PATE1
NODE	SERTAD1
SET	PWRN-INCA1-1-1	1.0
IN	INCA1	PWRN-INCA1-1-1
IN	SERTAD1	PWRN-INCA1-1-1
EDGE	PATE1	PWRN-INCA1-1-1	1.0

# CONNECTED COMPONENT 213
NODE	USP17L24
NODE	adamts1
EDGE	USP17L24	adamts1	1.0

# CONNECTED COMPONENT 214
NODE	znrf3
NODE	rspo1
EDGE	rspo1	znrf3	1.0

# CONNECTED COMPONENT 215
NODE	PLAC9
NODE	RNF213
NODE	RAPGEF5
SET	PWRN-PLAC9-1-1	1.0
IN	RNF213	PWRN-PLAC9-1-1
IN	RAPGEF5	PWRN-PLAC9-1-1
EDGE	PLAC9	PWRN-PLAC9-1-1	1.0

# CONNECTED COMPONENT 216
NODE	Leg1
NODE	LDLRAP1
EDGE	LDLRAP1	Leg1	1.0

# CONNECTED COMPONENT 217
NODE	mrpl2
NODE	cmtm4
EDGE	cmtm4	mrpl2	1.0

# CONNECTED COMPONENT 218
NODE	cfap58
NODE	NAV2
EDGE	NAV2	cfap58	1.0

# CONNECTED COMPONENT 219
NODE	rnaseh2b
NODE	CEP164
EDGE	CEP164	rnaseh2b	1.0

# CONNECTED COMPONENT 220
NODE	CLEC4D
NODE	CLEC6A
EDGE	CLEC4D	CLEC6A	1.0

# CONNECTED COMPONENT 221
NODE	vasn
NODE	RNF31_2
EDGE	RNF31_2	vasn	1.0

# CONNECTED COMPONENT 222
NODE	GPRC5B
NODE	C11orf71
EDGE	C11orf71	GPRC5B	1.0

# CONNECTED COMPONENT 223
NODE	BPIFA2
NODE	agtrap
EDGE	BPIFA2	agtrap	1.0

# CONNECTED COMPONENT 224
NODE	igflr1
NODE	IGFL2
NODE	IGFL1
NODE	Igfl3
SET	PWRN-IGFL1-1-1	1.0
IN	Igfl3	PWRN-IGFL1-1-1
IN	IGFL2	PWRN-IGFL1-1-1
IN	IGFL1	PWRN-IGFL1-1-1
EDGE	PWRN-IGFL1-1-1	igflr1	1.0

# CONNECTED COMPONENT 225
NODE	polk
NODE	SBSN
EDGE	SBSN	polk	1.0

# CONNECTED COMPONENT 226
NODE	LYZL1
NODE	XAGE3
EDGE	LYZL1	XAGE3	1.0

# CONNECTED COMPONENT 227
NODE	ZBP1
NODE	plxdc2
EDGE	ZBP1	plxdc2	1.0

# CONNECTED COMPONENT 228
NODE	angptl3
NODE	ANGPTL8
EDGE	ANGPTL8	angptl3	1.0

# CONNECTED COMPONENT 229
NODE	IL20
NODE	IL19
NODE	il20ra
NODE	IL20RB
NODE	il26
NODE	il10rb
NODE	IL22RA1
NODE	il22ra2_3
SET	PWRN-IL19-1-1	1.0
SET	PWRN-IL19-1-2	1.0
SET	PWRN-IL19-2-1	1.0
IN	IL19	PWRN-IL19-1-1
IN	IL20	PWRN-IL19-1-1
IN	IL20RB	PWRN-IL19-1-2
IN	il20ra	PWRN-IL19-1-2
IN	IL22RA1	PWRN-IL19-2-1
IN	il10rb	PWRN-IL19-2-1
EDGE	PWRN-IL19-1-1	PWRN-IL19-1-2	1.0
EDGE	PWRN-IL19-2-1	il22ra2_3	1.0
EDGE	il20ra	il26	1.0
EDGE	IL20	IL22RA1	1.0

# CONNECTED COMPONENT 230
NODE	ndufa12
NODE	apool
EDGE	apool	ndufa12	1.0

# CONNECTED COMPONENT 231
NODE	bcor
NODE	fras1
EDGE	bcor	fras1	1.0

# CONNECTED COMPONENT 232
NODE	naprt
NODE	GRAMD2B
EDGE	GRAMD2B	naprt	1.0

# CONNECTED COMPONENT 233
NODE	gatd1
NODE	ppp1r21
EDGE	gatd1	ppp1r21	1.0

# CONNECTED COMPONENT 234
NODE	adamtsl2
NODE	necab2_2
EDGE	adamtsl2	necab2_2	1.0

# CONNECTED COMPONENT 235
NODE	ube2q1
NODE	irf2bpl
NODE	RNF169
SET	PWRN-RNF169-1-1	1.0
IN	ube2q1	PWRN-RNF169-1-1
IN	RNF169	PWRN-RNF169-1-1
EDGE	PWRN-RNF169-1-1	irf2bpl	1.0

# CONNECTED COMPONENT 236
NODE	IFNL1
NODE	ifnlr1
EDGE	IFNL1	ifnlr1	1.0

# CONNECTED COMPONENT 237
NODE	Collagen-XX_2
NODE	Collagen-XX
NODE	tex11
SET	PWRN-Collagen-XX-1-1	1.0
IN	Collagen-XX_2	PWRN-Collagen-XX-1-1
IN	Collagen-XX	PWRN-Collagen-XX-1-1
EDGE	PWRN-Collagen-XX-1-1	tex11	1.0

# CONNECTED COMPONENT 238
NODE	hectd1
NODE	IGSF1
EDGE	IGSF1	hectd1	1.0

# CONNECTED COMPONENT 239
NODE	pdgfc
NODE	L3MBTL4
EDGE	L3MBTL4	pdgfc	1.0

# CONNECTED COMPONENT 240
NODE	ANKS1A
NODE	nhlrc2_2
EDGE	ANKS1A	nhlrc2_2	1.0

# CONNECTED COMPONENT 241
NODE	CLEC18C
NODE	nfkbil1
EDGE	CLEC18C	nfkbil1	1.0

# CONNECTED COMPONENT 242
NODE	morn4
NODE	crtac1
NODE	mapre2
SET	PWRN-crtac1-1-1	1.0
IN	morn4	PWRN-crtac1-1-1
IN	mapre2	PWRN-crtac1-1-1
EDGE	PWRN-crtac1-1-1	crtac1	1.0

# CONNECTED COMPONENT 243
NODE	il17rd
NODE	IL25
NODE	IL17B
NODE	IL17RB
SET	PWRN-IL17B-1-1	1.0
IN	IL17B	PWRN-IL17B-1-1
IN	IL25	PWRN-IL17B-1-1
IN	il17rd	PWRN-IL17B-1-1
EDGE	IL17RB	PWRN-IL17B-1-1	1.0

# CONNECTED COMPONENT 244
NODE	MSANTD3
NODE	VSTM2A
EDGE	MSANTD3	VSTM2A	1.0

# CONNECTED COMPONENT 245
NODE	plcl2
NODE	dscaml1
NODE	MAGI2
SET	PWRN-MAGI2-1-1	1.0
IN	plcl2	PWRN-MAGI2-1-1
IN	MAGI2	PWRN-MAGI2-1-1
EDGE	PWRN-MAGI2-1-1	dscaml1	1.0

# CONNECTED COMPONENT 246
NODE	emid1
NODE	dmxl2
NODE	aktip
SET	PWRN-aktip-1-1	1.0
IN	emid1	PWRN-aktip-1-1
IN	dmxl2	PWRN-aktip-1-1
EDGE	PWRN-aktip-1-1	aktip	1.0

# CONNECTED COMPONENT 247
NODE	rln3
NODE	RXFP4
EDGE	RXFP4	rln3	1.0

# CONNECTED COMPONENT 248
NODE	NTNG2
NODE	lrrc4c
NODE	LRRC4
NODE	NTNG1
NODE	CREB3L4
SET	PWRN-CREB3L4-1-1	1.0
SET	PWRN-CREB3L4-1-2	1.0
IN	lrrc4c	PWRN-CREB3L4-1-1
IN	LRRC4	PWRN-CREB3L4-1-1
IN	NTNG1	PWRN-CREB3L4-1-2
IN	NTNG2	PWRN-CREB3L4-1-2
EDGE	PWRN-CREB3L4-1-1	PWRN-CREB3L4-1-2	1.0
EDGE	CREB3L4	lrrc4c	1.0

# CONNECTED COMPONENT 249
NODE	CCL28
NODE	DDI1
EDGE	CCL28	DDI1	1.0

# CONNECTED COMPONENT 250
NODE	TMEM79
NODE	TEX264
EDGE	TEX264	TMEM79	1.0

# CONNECTED COMPONENT 251
NODE	APOO
NODE	timmdc1
EDGE	APOO	timmdc1	1.0

# CONNECTED COMPONENT 252
NODE	EMILIN1
NODE	ccdc94
EDGE	EMILIN1	ccdc94	1.0

# CONNECTED COMPONENT 253
NODE	MRFAP1
NODE	C14orf93
EDGE	C14orf93	MRFAP1	1.0

# CONNECTED COMPONENT 254
NODE	ADGRL3
NODE	flrt3
EDGE	ADGRL3	flrt3	1.0

# CONNECTED COMPONENT 255
NODE	SERPINA10
NODE	PIAS3
EDGE	PIAS3	SERPINA10	1.0

# CONNECTED COMPONENT 256
NODE	chdh
NODE	SEZ6
EDGE	SEZ6	chdh	1.0

# CONNECTED COMPONENT 257
NODE	RTN4RL2
NODE	nudcd2
EDGE	RTN4RL2	nudcd2	1.0

# CONNECTED COMPONENT 258
NODE	Collagen-XXIII
NODE	exosc8
EDGE	Collagen-XXIII	exosc8	1.0

# CONNECTED COMPONENT 259
NODE	PDPN
NODE	CLEC1B
EDGE	CLEC1B	PDPN	1.0

# CONNECTED COMPONENT 260
NODE	cpb2
NODE	tmem45b
NODE	TINAG
SET	PWRN-TINAG-1-1	1.0
IN	cpb2	PWRN-TINAG-1-1
IN	tmem45b	PWRN-TINAG-1-1
EDGE	PWRN-TINAG-1-1	TINAG	1.0

# CONNECTED COMPONENT 261
NODE	HEL-S-29
NODE	ASB9
EDGE	ASB9	HEL-S-29	1.0

# CONNECTED COMPONENT 262
NODE	hook2
NODE	KLK15
EDGE	KLK15	hook2	1.0

# CONNECTED COMPONENT 263
NODE	PGLYRP3
NODE	PGLYRP4
EDGE	PGLYRP3	PGLYRP4	1.0

# CONNECTED COMPONENT 264
NODE	ccm2
NODE	vstm2l
EDGE	ccm2	vstm2l	1.0

# CONNECTED COMPONENT 265
NODE	marco
NODE	SCGB3A2
EDGE	SCGB3A2	marco	1.0

# CONNECTED COMPONENT 266
NODE	EGFL8
NODE	rmdn3
EDGE	EGFL8	rmdn3	1.0

# CONNECTED COMPONENT 267
NODE	dtx1
NODE	Defa5
EDGE	Defa5	dtx1	1.0

# CONNECTED COMPONENT 268
NODE	TFF3
NODE	MUC3A
EDGE	MUC3A	TFF3	1.0

# CONNECTED COMPONENT 269
NODE	FCRL4
NODE	TFF2
EDGE	FCRL4	TFF2	1.0

# CONNECTED COMPONENT 270
NODE	PROCR
NODE	dmtn
EDGE	PROCR	dmtn	1.0

# CONNECTED COMPONENT 271
NODE	galnt1
NODE	sec23a
EDGE	galnt1	sec23a	1.0

# CONNECTED COMPONENT 272
NODE	Krtap3-2
NODE	HYAL2
EDGE	HYAL2	Krtap3-2	1.0

# CONNECTED COMPONENT 273
NODE	KLRB1
NODE	CLEC2D
EDGE	CLEC2D	KLRB1	1.0

# CONNECTED COMPONENT 274
NODE	adgra3_2
NODE	dlg1
NODE	adgra2
NODE	KIF13B
SET	PWRN-KIF13B-1-1	1.0
IN	adgra3_2	PWRN-KIF13B-1-1
IN	adgra2	PWRN-KIF13B-1-1
IN	KIF13B	PWRN-KIF13B-1-1
EDGE	PWRN-KIF13B-1-1	dlg1	1.0

# CONNECTED COMPONENT 275
NODE	sema3b
NODE	bod1l1
EDGE	bod1l1	sema3b	1.0

# CONNECTED COMPONENT 276
NODE	slc35g2
NODE	SEMA3F
EDGE	SEMA3F	slc35g2	1.0

# CONNECTED COMPONENT 277
NODE	MSLN
NODE	rsg1
EDGE	MSLN	rsg1	1.0

# CONNECTED COMPONENT 278
NODE	SEMA4G_2
NODE	CAMK2B
EDGE	CAMK2B	SEMA4G_2	1.0

# CONNECTED COMPONENT 279
NODE	ptch1
NODE	SHH
EDGE	SHH	ptch1	1.0

# CONNECTED COMPONENT 280
NODE	cabp1_2
NODE	cacna1c_2
EDGE	cabp1_2	cacna1c_2	1.0

# CONNECTED COMPONENT 281
NODE	cacna1c
NODE	cabp1
EDGE	cabp1	cacna1c	1.0

# CONNECTED COMPONENT 282
NODE	Collagen-IX
NODE	noa1
EDGE	Collagen-IX	noa1	1.0

# CONNECTED COMPONENT 283
NODE	dpysl3_2
NODE	dpysl2
EDGE	dpysl2	dpysl3_2	1.0

# CONNECTED COMPONENT 284
NODE	postn
NODE	trappc2l
EDGE	postn	trappc2l	1.0

# CONNECTED COMPONENT 285
NODE	PDCD1LG2
NODE	PDCD1
EDGE	PDCD1	PDCD1LG2	1.0

# CONNECTED COMPONENT 286
NODE	ErbB4_2
NODE	ITCH_2
EDGE	ErbB4_2	ITCH_2	1.0

# CONNECTED COMPONENT 287
NODE	CTF1
NODE	taf7
EDGE	CTF1	taf7	1.0

# CONNECTED COMPONENT 288
NODE	TST
NODE	clpp
EDGE	TST	clpp	1.0

# CONNECTED COMPONENT 289
NODE	b3gat1
NODE	DMA
EDGE	DMA	b3gat1	1.0

# CONNECTED COMPONENT 290
NODE	ABCA3
NODE	LAMP3
EDGE	ABCA3	LAMP3	1.0
