# CONNECTED COMPONENT 1
NODE	efhd1
NODE	TCHH
EDGE	TCHH	efhd1	1.0

# CONNECTED COMPONENT 2
NODE	naprt_2
NODE	ehmt2_2
NODE	ccdc57
SET	PWRN-ccdc57-1-1	1.0
IN	ccdc57	PWRN-ccdc57-1-1
IN	ehmt2_2	PWRN-ccdc57-1-1
EDGE	PWRN-ccdc57-1-1	naprt_2	1.0

# CONNECTED COMPONENT 3
NODE	cadps_2
NODE	SEMA4G
NODE	C17orf67
NODE	gopc
SET	PWRN-C17orf67-1-1	1.0
IN	SEMA4G	PWRN-C17orf67-1-1
IN	C17orf67	PWRN-C17orf67-1-1
EDGE	PWRN-C17orf67-1-1	gopc	1.0
EDGE	C17orf67	cadps_2	1.0

# CONNECTED COMPONENT 4
NODE	STX2
NODE	stxbp2
NODE	vamp3
NODE	pdk1
NODE	Cdc23
NODE	Fanci
NODE	sms
NODE	VEGFD
NODE	vwa8_2
NODE	STXBP5
NODE	apol1
SET	PWRN-Cdc23-1-1	1.0
SET	PWRN-Cdc23-2-1	1.0
SET	PWRN-Cdc23-3-1	1.0
IN	STXBP5	PWRN-Cdc23-1-1
IN	pdk1	PWRN-Cdc23-1-1
IN	Fanci	PWRN-Cdc23-1-1
IN	sms	PWRN-Cdc23-1-1
IN	vwa8_2	PWRN-Cdc23-2-1
IN	apol1	PWRN-Cdc23-2-1
IN	STX2	PWRN-Cdc23-3-1
IN	VEGFD	PWRN-Cdc23-3-1
EDGE	PWRN-Cdc23-1-1	stxbp2	1.0
EDGE	Cdc23	PWRN-Cdc23-2-1	1.0
EDGE	PWRN-Cdc23-3-1	vamp3	1.0
EDGE	STX2	STXBP5	1.0
EDGE	pdk1	vwa8_2	1.0

# CONNECTED COMPONENT 5
NODE	kctd13
NODE	srpx
NODE	lamb4
SET	PWRN-kctd13-1-1	1.0
IN	srpx	PWRN-kctd13-1-1
IN	lamb4	PWRN-kctd13-1-1
EDGE	PWRN-kctd13-1-1	kctd13	1.0

# CONNECTED COMPONENT 6
NODE	vangl1
NODE	PSD
NODE	camk1d
NODE	TNFRSF17
NODE	gmfg
NODE	tnfsf13b
NODE	TNFRSF13B
NODE	tnfsf13
NODE	TNFRSF13C
SET	PWRN-PSD-1-1	1.0
SET	PWRN-PSD-2-1	1.0
IN	TNFRSF17	PWRN-PSD-1-1
IN	tnfsf13	PWRN-PSD-1-1
IN	TNFRSF13B	PWRN-PSD-1-1
IN	TNFRSF13C	PWRN-PSD-1-1
IN	vangl1	PWRN-PSD-2-1
IN	PSD	PWRN-PSD-2-1
IN	camk1d	PWRN-PSD-2-1
EDGE	PWRN-PSD-1-1	tnfsf13b	1.0
EDGE	PWRN-PSD-2-1	gmfg	1.0
EDGE	camk1d	tnfsf13	1.0
EDGE	TNFRSF13B	tnfsf13	1.0

# CONNECTED COMPONENT 7
NODE	cnot1_2
NODE	ZFP36
EDGE	ZFP36	cnot1_2	1.0

# CONNECTED COMPONENT 8
NODE	IZUMO1
NODE	IZUMO1R
EDGE	IZUMO1	IZUMO1R	1.0

# CONNECTED COMPONENT 9
NODE	FOXD4
NODE	DMKN
NODE	foxh1
NODE	A2ML1
SET	PWRN-A2ML1-1-1	1.0
IN	A2ML1	PWRN-A2ML1-1-1
IN	DMKN	PWRN-A2ML1-1-1
EDGE	FOXD4	PWRN-A2ML1-1-1	1.0
EDGE	A2ML1	foxh1	1.0

# CONNECTED COMPONENT 10
NODE	SYCE1
NODE	bdkrb2
NODE	LEMD2
NODE	C1QTNF9B
NODE	ADIPOQ_2
NODE	lmna
NODE	SYNE4_2
NODE	bnip3l
SET	PWRN-ADIPOQ_2-1-1	1.0
SET	PWRN-ADIPOQ_2-2-1	1.0
IN	LEMD2	PWRN-ADIPOQ_2-1-1
IN	SYCE1	PWRN-ADIPOQ_2-1-1
IN	bnip3l	PWRN-ADIPOQ_2-1-1
IN	bdkrb2	PWRN-ADIPOQ_2-1-1
IN	C1QTNF9B	PWRN-ADIPOQ_2-2-1
IN	SYNE4_2	PWRN-ADIPOQ_2-2-1
EDGE	PWRN-ADIPOQ_2-1-1	lmna	1.0
EDGE	ADIPOQ_2	PWRN-ADIPOQ_2-2-1	1.0
EDGE	ADIPOQ_2	bnip3l	1.0

# CONNECTED COMPONENT 11
NODE	FLJ13057
NODE	il17a
NODE	kpna3
NODE	ApoL6
NODE	il17rc
NODE	dph2
NODE	IL17F
SET	PWRN-ApoL6-1-1	1.0
IN	FLJ13057	PWRN-ApoL6-1-1
IN	il17rc	PWRN-ApoL6-1-1
EDGE	IL17F	PWRN-ApoL6-1-1	1.0
EDGE	ApoL6	kpna3	1.0
EDGE	dph2	il17a	1.0
EDGE	il17a	il17rc	1.0
EDGE	ApoL6	FLJ13057	1.0

# CONNECTED COMPONENT 12
NODE	CALM1
NODE	MATN3
NODE	adamts12
NODE	ADAMTS7
NODE	comp
SET	PWRN-ADAMTS7-1-1	1.0
IN	adamts12	PWRN-ADAMTS7-1-1
IN	ADAMTS7	PWRN-ADAMTS7-1-1
IN	MATN3	PWRN-ADAMTS7-1-1
EDGE	PWRN-ADAMTS7-1-1	comp	1.0
EDGE	CALM1	adamts12	1.0

# CONNECTED COMPONENT 13
NODE	CLEC2A
NODE	KLRF2
EDGE	CLEC2A	KLRF2	1.0

# CONNECTED COMPONENT 14
NODE	mboat1
NODE	PRSS21_2
NODE	RTEL1-TNFRSF6B
SET	PWRN-PRSS21_2-1-1	1.0
IN	mboat1	PWRN-PRSS21_2-1-1
IN	RTEL1-TNFRSF6B	PWRN-PRSS21_2-1-1
EDGE	PRSS21_2	PWRN-PRSS21_2-1-1	1.0

# CONNECTED COMPONENT 15
NODE	SH3PXD2A
NODE	prss12
NODE	ppil3
NODE	prpf40a_2
NODE	cntln
SET	PWRN-SH3PXD2A-1-1	1.0
IN	SH3PXD2A	PWRN-SH3PXD2A-1-1
IN	prpf40a_2	PWRN-SH3PXD2A-1-1
IN	cntln	PWRN-SH3PXD2A-1-1
IN	ppil3	PWRN-SH3PXD2A-1-1
EDGE	PWRN-SH3PXD2A-1-1	prss12	1.0

# CONNECTED COMPONENT 16
NODE	rgs20_2
NODE	ins
EDGE	ins	rgs20_2	1.0

# CONNECTED COMPONENT 17
NODE	MAGEA10
NODE	gpatch8
NODE	MTUS1
NODE	pon2
NODE	pcnt
SET	PWRN-MAGEA10-1-1	1.0
IN	pcnt	PWRN-MAGEA10-1-1
IN	MAGEA10	PWRN-MAGEA10-1-1
IN	gpatch8	PWRN-MAGEA10-1-1
EDGE	PWRN-MAGEA10-1-1	pon2	1.0
EDGE	MAGEA10	MTUS1	1.0

# CONNECTED COMPONENT 18
NODE	NID2
NODE	Collagen-XIII
EDGE	Collagen-XIII	NID2	1.0

# CONNECTED COMPONENT 19
NODE	ITGB5_2
NODE	Canstatin
EDGE	Canstatin	ITGB5_2	1.0

# CONNECTED COMPONENT 20
NODE	Arresten
NODE	ITGB1_2
EDGE	Arresten	ITGB1_2	1.0

# CONNECTED COMPONENT 21
NODE	Collagen_XXV
NODE	Beta-amyloid_c32_peptide_c32_1-40
NODE	pitrm1
SET	PWRN-Beta-amyloid_c32_peptide_c32_1-40-1-1	1.0
IN	Collagen_XXV	PWRN-Beta-amyloid_c32_peptide_c32_1-40-1-1
IN	pitrm1	PWRN-Beta-amyloid_c32_peptide_c32_1-40-1-1
EDGE	Beta-amyloid_c32_peptide_c32_1-40	PWRN-Beta-amyloid_c32_peptide_c32_1-40-1-1	1.0

# CONNECTED COMPONENT 22
NODE	stk38l
NODE	Thrombospondin-1
NODE	PRSS1
SET	PWRN-PRSS1-1-1	1.0
IN	stk38l	PWRN-PRSS1-1-1
IN	Thrombospondin-1	PWRN-PRSS1-1-1
EDGE	PRSS1	PWRN-PRSS1-1-1	1.0

# CONNECTED COMPONENT 23
NODE	CD33
NODE	LAIR1
NODE	Complement_c32_1Q
SET	PWRN-CD33-1-1	1.0
IN	CD33	PWRN-CD33-1-1
IN	LAIR1	PWRN-CD33-1-1
EDGE	Complement_c32_1Q	PWRN-CD33-1-1	1.0

# CONNECTED COMPONENT 24
NODE	CR1
NODE	cfi
NODE	CD46
NODE	JAG1
NODE	Complement_c32_C3
SET	PWRN-CD46-1-1	1.0
IN	CD46	PWRN-CD46-1-1
IN	CR1	PWRN-CD46-1-1
IN	Complement_c32_C3	PWRN-CD46-1-1
EDGE	PWRN-CD46-1-1	cfi	1.0
EDGE	CD46	JAG1	1.0

# CONNECTED COMPONENT 25
NODE	KIAA0556
NODE	llgl2
NODE	ICK
NODE	mak_2
NODE	KIF2A
SET	PWRN-ICK-1-1	1.0
IN	llgl2	PWRN-ICK-1-1
IN	ICK	PWRN-ICK-1-1
IN	mak_2	PWRN-ICK-1-1
IN	KIF2A	PWRN-ICK-1-1
EDGE	KIAA0556	PWRN-ICK-1-1	1.0

# CONNECTED COMPONENT 26
NODE	DST_3
NODE	SCGN
NODE	SNAP23
SET	PWRN-DST_3-1-1	1.0
IN	DST_3	PWRN-DST_3-1-1
IN	SCGN	PWRN-DST_3-1-1
EDGE	PWRN-DST_3-1-1	SNAP23	1.0

# CONNECTED COMPONENT 27
NODE	SHH
NODE	IHH
NODE	RHOD
NODE	hhip
NODE	dhh
NODE	ptch1
SET	PWRN-IHH-1-1	1.0
IN	dhh	PWRN-IHH-1-1
IN	ptch1	PWRN-IHH-1-1
IN	SHH	PWRN-IHH-1-1
IN	IHH	PWRN-IHH-1-1
EDGE	PWRN-IHH-1-1	hhip	1.0
EDGE	SHH	ptch1	1.0
EDGE	IHH	RHOD	1.0

# CONNECTED COMPONENT 28
NODE	gdf5
NODE	bmpr1b
NODE	bmp7
NODE	Nog
SET	PWRN-Nog-1-1	1.0
IN	gdf5	PWRN-Nog-1-1
IN	bmp7	PWRN-Nog-1-1
EDGE	Nog	PWRN-Nog-1-1	1.0
EDGE	bmpr1b	gdf5	1.0

# CONNECTED COMPONENT 29
NODE	Lefty2
NODE	acss3
EDGE	Lefty2	acss3	1.0

# CONNECTED COMPONENT 30
NODE	NRXN1
NODE	ARHGAP26
NODE	pdzd2
NODE	TULP1
SET	PWRN-ARHGAP26-1-1	1.0
IN	NRXN1	PWRN-ARHGAP26-1-1
IN	ARHGAP26	PWRN-ARHGAP26-1-1
EDGE	PWRN-ARHGAP26-1-1	TULP1	1.0
EDGE	NRXN1	pdzd2	1.0

# CONNECTED COMPONENT 31
NODE	tnfrsf11b
NODE	tmprss15
NODE	tnfrsf11a
SET	PWRN-tmprss15-1-1	1.0
IN	tnfrsf11b	PWRN-tmprss15-1-1
IN	tmprss15	PWRN-tmprss15-1-1
EDGE	PWRN-tmprss15-1-1	tnfrsf11a	1.0

# CONNECTED COMPONENT 32
NODE	prtfdc1
NODE	LGALS9C
NODE	wwp2
NODE	CST9L
NODE	LGALS9B
NODE	hyal3
NODE	slc22a2
NODE	dab1
SET	PWRN-CST9L-1-1	1.0
SET	PWRN-CST9L-2-1	1.0
IN	hyal3	PWRN-CST9L-1-1
IN	LGALS9C	PWRN-CST9L-1-1
IN	LGALS9B	PWRN-CST9L-1-1
IN	prtfdc1	PWRN-CST9L-2-1
IN	wwp2	PWRN-CST9L-2-1
EDGE	PWRN-CST9L-1-1	dab1	1.0
EDGE	LGALS9B	PWRN-CST9L-2-1	1.0
EDGE	CST9L	slc22a2	1.0
EDGE	hyal3	slc22a2	1.0

# CONNECTED COMPONENT 33
NODE	cbfa2t3
NODE	MATN2
EDGE	MATN2	cbfa2t3	1.0

# CONNECTED COMPONENT 34
NODE	qsox1
NODE	BEGAIN
NODE	gfod2
SET	PWRN-BEGAIN-1-1	1.0
IN	qsox1	PWRN-BEGAIN-1-1
IN	gfod2	PWRN-BEGAIN-1-1
EDGE	BEGAIN	PWRN-BEGAIN-1-1	1.0

# CONNECTED COMPONENT 35
NODE	foxn3
NODE	chsy1
EDGE	chsy1	foxn3	1.0

# CONNECTED COMPONENT 36
NODE	ccr7
NODE	ccr10
NODE	CCL19
NODE	CCRL2
SET	PWRN-CCL19-1-1	1.0
IN	ccr7	PWRN-CCL19-1-1
IN	ccr10	PWRN-CCL19-1-1
IN	CCRL2	PWRN-CCL19-1-1
EDGE	CCL19	PWRN-CCL19-1-1	1.0

# CONNECTED COMPONENT 37
NODE	dnm1l
NODE	SCG3
EDGE	SCG3	dnm1l	1.0

# CONNECTED COMPONENT 38
NODE	exoc5
NODE	adck1_2
NODE	OAS1_2
NODE	bud23
NODE	OAS1
SET	PWRN-OAS1-1-1	1.0
IN	adck1_2	PWRN-OAS1-1-1
IN	OAS1	PWRN-OAS1-1-1
IN	OAS1_2	PWRN-OAS1-1-1
EDGE	PWRN-OAS1-1-1	exoc5	1.0
EDGE	OAS1_2	bud23	1.0

# CONNECTED COMPONENT 39
NODE	bin2
NODE	bin1
EDGE	bin1	bin2	1.0

# CONNECTED COMPONENT 40
NODE	krit1
NODE	vstm2l
NODE	ccm2
NODE	itgb1bp1
NODE	heg1
NODE	PDCD10
SET	PWRN-PDCD10-1-1	1.0
IN	itgb1bp1	PWRN-PDCD10-1-1
IN	ccm2	PWRN-PDCD10-1-1
IN	heg1	PWRN-PDCD10-1-1
IN	PDCD10	PWRN-PDCD10-1-1
EDGE	PWRN-PDCD10-1-1	krit1	1.0
EDGE	ccm2	vstm2l	1.0

# CONNECTED COMPONENT 41
NODE	synj2bp
NODE	DLL1
EDGE	DLL1	synj2bp	1.0

# CONNECTED COMPONENT 42
NODE	ZWINT
NODE	cyr61
EDGE	ZWINT	cyr61	1.0

# CONNECTED COMPONENT 43
NODE	NTN3
NODE	Draxin
EDGE	Draxin	NTN3	1.0

# CONNECTED COMPONENT 44
NODE	wnt7a
NODE	wnt3a
NODE	gpc3
NODE	NOTUM
NODE	Fzd8
NODE	APCDD1
SET	PWRN-APCDD1-1-1	1.0
SET	PWRN-APCDD1-2-1	1.0
IN	wnt7a	PWRN-APCDD1-1-1
IN	wnt3a	PWRN-APCDD1-1-1
IN	gpc3	PWRN-APCDD1-1-1
IN	Fzd8	PWRN-APCDD1-2-1
IN	APCDD1	PWRN-APCDD1-2-1
EDGE	NOTUM	PWRN-APCDD1-1-1	1.0
EDGE	PWRN-APCDD1-2-1	wnt3a	1.0

# CONNECTED COMPONENT 45
NODE	CLDN7
NODE	TACSTD2
NODE	CLDN4
NODE	cldn1
SET	PWRN-CLDN4-1-1	1.0
IN	CLDN7	PWRN-CLDN4-1-1
IN	CLDN4	PWRN-CLDN4-1-1
IN	cldn1	PWRN-CLDN4-1-1
EDGE	PWRN-CLDN4-1-1	TACSTD2	1.0

# CONNECTED COMPONENT 46
NODE	pla2g1b
NODE	SOCS2
EDGE	SOCS2	pla2g1b	1.0

# CONNECTED COMPONENT 47
NODE	cdk14
NODE	CDK2AP1
NODE	NUAK1
NODE	AMY1A
NODE	rassf6
NODE	IGHA2
SET	PWRN-AMY1A-1-1	1.0
IN	NUAK1	PWRN-AMY1A-1-1
IN	cdk14	PWRN-AMY1A-1-1
IN	CDK2AP1	PWRN-AMY1A-1-1
EDGE	IGHA2	PWRN-AMY1A-1-1	1.0
EDGE	AMY1A	rassf6	1.0
EDGE	AMY1A	CDK2AP1	1.0

# CONNECTED COMPONENT 48
NODE	hspb6
NODE	hspb8
EDGE	hspb6	hspb8	1.0

# CONNECTED COMPONENT 49
NODE	CXCL11
NODE	CXCL12_2
NODE	DPP8
NODE	CXCL10
SET	PWRN-CXCL10-1-1	1.0
IN	CXCL12_2	PWRN-CXCL10-1-1
IN	CXCL11	PWRN-CXCL10-1-1
IN	CXCL10	PWRN-CXCL10-1-1
EDGE	DPP8	PWRN-CXCL10-1-1	1.0

# CONNECTED COMPONENT 50
NODE	amh
NODE	fstl3
NODE	ARL8B
NODE	etv5
NODE	adam12
NODE	adam8
NODE	selplg
NODE	zmat2
NODE	KCNK3
NODE	PHACTR3
SET	PWRN-ARL8B-1-1	1.0
SET	PWRN-ARL8B-2-1	1.0
IN	zmat2	PWRN-ARL8B-1-1
IN	ARL8B	PWRN-ARL8B-1-1
IN	etv5	PWRN-ARL8B-1-1
IN	PHACTR3	PWRN-ARL8B-1-1
IN	fstl3	PWRN-ARL8B-2-1
IN	selplg	PWRN-ARL8B-2-1
EDGE	PWRN-ARL8B-1-1	amh	1.0
EDGE	PWRN-ARL8B-2-1	adam8	1.0
EDGE	adam8	etv5	1.0
EDGE	KCNK3	PHACTR3	1.0
EDGE	adam12	fstl3	1.0

# CONNECTED COMPONENT 51
NODE	trdmt1
NODE	IGKV2D-28
EDGE	IGKV2D-28	trdmt1	1.0

# CONNECTED COMPONENT 52
NODE	Meis2
NODE	ANXA1_2
EDGE	ANXA1_2	Meis2	1.0

# CONNECTED COMPONENT 53
NODE	f10
NODE	mgst3
EDGE	f10	mgst3	1.0

# CONNECTED COMPONENT 54
NODE	TRIM26
NODE	KIF26B
NODE	dlg1_3
NODE	SLC16A6
NODE	cask
SET	PWRN-KIF26B-1-1	1.0
IN	KIF26B	PWRN-KIF26B-1-1
IN	SLC16A6	PWRN-KIF26B-1-1
IN	TRIM26	PWRN-KIF26B-1-1
EDGE	PWRN-KIF26B-1-1	cask	1.0
EDGE	KIF26B	dlg1_3	1.0

# CONNECTED COMPONENT 55
NODE	caskin1
NODE	cask_3
EDGE	cask_3	caskin1	1.0

# CONNECTED COMPONENT 56
NODE	tfec
NODE	DEFB127
EDGE	DEFB127	tfec	1.0

# CONNECTED COMPONENT 57
NODE	WNT2
NODE	KIAA1522
NODE	sfrp1
NODE	rragc
NODE	fzd6
NODE	AQP5
NODE	Uqcr11
SET	PWRN-AQP5-1-1	1.0
SET	PWRN-AQP5-2-1	1.0
IN	Uqcr11	PWRN-AQP5-1-1
IN	rragc	PWRN-AQP5-1-1
IN	sfrp1	PWRN-AQP5-1-1
IN	AQP5	PWRN-AQP5-1-1
IN	KIAA1522	PWRN-AQP5-2-1
IN	fzd6	PWRN-AQP5-2-1
EDGE	PWRN-AQP5-1-1	WNT2	1.0
EDGE	PWRN-AQP5-2-1	sfrp1	1.0

# CONNECTED COMPONENT 58
NODE	hspa12a
NODE	sema3e
NODE	SEMA4A
NODE	plcl2
NODE	MAGI3
NODE	plxnd1
NODE	ddx54_2
NODE	MACF1
NODE	frmd5
NODE	MAGI2
NODE	dscaml1
NODE	nrcam
SET	PWRN-MACF1-1-1	1.0
SET	PWRN-MACF1-2-1	1.0
SET	PWRN-MACF1-3-1	1.0
IN	hspa12a	PWRN-MACF1-1-1
IN	MACF1	PWRN-MACF1-1-1
IN	MAGI3	PWRN-MACF1-1-1
IN	frmd5	PWRN-MACF1-1-1
IN	plcl2	PWRN-MACF1-2-1
IN	MAGI2	PWRN-MACF1-2-1
IN	sema3e	PWRN-MACF1-3-1
IN	SEMA4A	PWRN-MACF1-3-1
EDGE	PWRN-MACF1-1-1	nrcam	1.0
EDGE	PWRN-MACF1-2-1	dscaml1	1.0
EDGE	PWRN-MACF1-3-1	plxnd1	1.0
EDGE	SEMA4A	ddx54_2	1.0
EDGE	MACF1	plxnd1	1.0
EDGE	MAGI3	dscaml1	1.0

# CONNECTED COMPONENT 59
NODE	scamp2
NODE	ZBTB5
NODE	st3gal3
SET	PWRN-ZBTB5-1-1	1.0
IN	scamp2	PWRN-ZBTB5-1-1
IN	ZBTB5	PWRN-ZBTB5-1-1
EDGE	PWRN-ZBTB5-1-1	st3gal3	1.0

# CONNECTED COMPONENT 60
NODE	mcf2l
NODE	YAE1D1
EDGE	YAE1D1	mcf2l	1.0

# CONNECTED COMPONENT 61
NODE	C9orf16
NODE	cep290
EDGE	C9orf16	cep290	1.0

# CONNECTED COMPONENT 62
NODE	NPC1
NODE	negr1
NODE	unc93b1
NODE	tmem173
NODE	dhdds
NODE	NPC2
NODE	lsamp
SET	PWRN-NPC1-1-1	1.0
SET	PWRN-NPC1-2-1	1.0
IN	unc93b1	PWRN-NPC1-1-1
IN	tmem173	PWRN-NPC1-1-1
IN	NPC2	PWRN-NPC1-1-1
IN	negr1	PWRN-NPC1-2-1
IN	dhdds	PWRN-NPC1-2-1
EDGE	NPC1	PWRN-NPC1-1-1	1.0
EDGE	NPC2	PWRN-NPC1-2-1	1.0
EDGE	lsamp	negr1	1.0

# CONNECTED COMPONENT 63
NODE	sat1
NODE	ephb6_2
EDGE	ephb6_2	sat1	1.0

# CONNECTED COMPONENT 64
NODE	MT2A
NODE	MT1H
NODE	EPB42
NODE	MT1G
NODE	SPINK7
NODE	RABL6
NODE	MRPS12
SET	PWRN-EPB42-1-1	1.0
IN	MT2A	PWRN-EPB42-1-1
IN	MT1H	PWRN-EPB42-1-1
IN	EPB42	PWRN-EPB42-1-1
IN	MT1G	PWRN-EPB42-1-1
IN	RABL6	PWRN-EPB42-1-1
IN	MRPS12	PWRN-EPB42-1-1
EDGE	PWRN-EPB42-1-1	SPINK7	1.0

# CONNECTED COMPONENT 65
NODE	DEFB4A
NODE	MMP7
NODE	DEFB1
NODE	ELN_2
NODE	CCR6
SET	PWRN-CCR6-1-1	1.0
IN	DEFB1	PWRN-CCR6-1-1
IN	DEFB4A	PWRN-CCR6-1-1
IN	ELN_2	PWRN-CCR6-1-1
EDGE	MMP7	PWRN-CCR6-1-1	1.0
EDGE	CCR6	DEFB4A	1.0

# CONNECTED COMPONENT 66
NODE	UHRF2
NODE	siva1
NODE	cd27
SET	PWRN-UHRF2-1-1	1.0
IN	UHRF2	PWRN-UHRF2-1-1
IN	siva1	PWRN-UHRF2-1-1
EDGE	PWRN-UHRF2-1-1	cd27	1.0

# CONNECTED COMPONENT 67
NODE	EIF3H
NODE	GCA_2
NODE	MAGEA8
NODE	rbfox1
SET	PWRN-EIF3H-1-1	1.0
IN	EIF3H	PWRN-EIF3H-1-1
IN	MAGEA8	PWRN-EIF3H-1-1
IN	rbfox1	PWRN-EIF3H-1-1
EDGE	GCA_2	PWRN-EIF3H-1-1	1.0

# CONNECTED COMPONENT 68
NODE	lep
NODE	SIGLEC6
NODE	SH2D1A
NODE	SIGLEC5
SET	PWRN-SH2D1A-1-1	1.0
IN	SIGLEC6	PWRN-SH2D1A-1-1
IN	SIGLEC5	PWRN-SH2D1A-1-1
EDGE	PWRN-SH2D1A-1-1	lep	1.0
EDGE	SH2D1A	SIGLEC6	1.0

# CONNECTED COMPONENT 69
NODE	ccl1
NODE	cxcr5
NODE	CCR8
NODE	CXCL13
NODE	CCL17
NODE	CCL16
NODE	CCR4
SET	PWRN-CCL16-1-1	1.0
IN	CCL16	PWRN-CCL16-1-1
IN	ccl1	PWRN-CCL16-1-1
IN	CCL17	PWRN-CCL16-1-1
EDGE	CCR8	PWRN-CCL16-1-1	1.0
EDGE	CCL17	CCR4	1.0
EDGE	CXCL13	cxcr5	1.0
EDGE	CCL16	cxcr5	1.0

# CONNECTED COMPONENT 70
NODE	PLA2G10
NODE	myo10
EDGE	PLA2G10	myo10	1.0

# CONNECTED COMPONENT 71
NODE	rs1
NODE	ATP1B2
NODE	sarm1
NODE	ATP1A3
SET	PWRN-ATP1A3-1-1	1.0
IN	ATP1B2	PWRN-ATP1A3-1-1
IN	sarm1	PWRN-ATP1A3-1-1
IN	ATP1A3	PWRN-ATP1A3-1-1
EDGE	PWRN-ATP1A3-1-1	rs1	1.0

# CONNECTED COMPONENT 72
NODE	CLDN3
NODE	CTSS
NODE	ocln
SET	PWRN-CLDN3-1-1	1.0
IN	CLDN3	PWRN-CLDN3-1-1
IN	ocln	PWRN-CLDN3-1-1
EDGE	CTSS	PWRN-CLDN3-1-1	1.0

# CONNECTED COMPONENT 73
NODE	ASAP2
NODE	thsd7a
EDGE	ASAP2	thsd7a	1.0

# CONNECTED COMPONENT 74
NODE	flrt2
NODE	FLRT1
EDGE	FLRT1	flrt2	1.0

# CONNECTED COMPONENT 75
NODE	c21orf59
NODE	CENPU
NODE	PLXNB1_2
NODE	DIAPH1
NODE	cenpo
SET	PWRN-CENPU-1-1	1.0
IN	CENPU	PWRN-CENPU-1-1
IN	c21orf59	PWRN-CENPU-1-1
IN	DIAPH1	PWRN-CENPU-1-1
IN	cenpo	PWRN-CENPU-1-1
EDGE	PLXNB1_2	PWRN-CENPU-1-1	1.0

# CONNECTED COMPONENT 76
NODE	adam12_2
NODE	sh3d19
EDGE	adam12_2	sh3d19	1.0

# CONNECTED COMPONENT 77
NODE	STX11
NODE	tox4
NODE	ccbe1
NODE	SIAH2
SET	PWRN-SIAH2-1-1	1.0
IN	STX11	PWRN-SIAH2-1-1
IN	tox4	PWRN-SIAH2-1-1
IN	SIAH2	PWRN-SIAH2-1-1
EDGE	PWRN-SIAH2-1-1	ccbe1	1.0

# CONNECTED COMPONENT 78
NODE	HGFAC
NODE	SPINT1
EDGE	HGFAC	SPINT1	1.0

# CONNECTED COMPONENT 79
NODE	TGFB1I1
NODE	PLA2G3
EDGE	PLA2G3	TGFB1I1	1.0

# CONNECTED COMPONENT 80
NODE	hmox1
NODE	rasa4
NODE	asl
NODE	ovgp1
SET	PWRN-asl-1-1	1.0
IN	hmox1	PWRN-asl-1-1
IN	ovgp1	PWRN-asl-1-1
EDGE	PWRN-asl-1-1	asl	1.0
EDGE	ovgp1	rasa4	1.0

# CONNECTED COMPONENT 81
NODE	hyal1
NODE	Collagen-XVI
NODE	Collagen-IV_4
NODE	Collagen-II
NODE	coch
SET	PWRN-Collagen-II-1-1	1.0
IN	hyal1	PWRN-Collagen-II-1-1
IN	coch	PWRN-Collagen-II-1-1
EDGE	Collagen-II	PWRN-Collagen-II-1-1	1.0
EDGE	Collagen-IV_4	coch	1.0
EDGE	Collagen-IV_4	Collagen-XVI	1.0

# CONNECTED COMPONENT 82
NODE	tnfsf12
NODE	TNFRSF12A
EDGE	TNFRSF12A	tnfsf12	1.0

# CONNECTED COMPONENT 83
NODE	bcl2l11_2
NODE	fgl1
EDGE	bcl2l11_2	fgl1	1.0

# CONNECTED COMPONENT 84
NODE	ZNF677
NODE	fosl1
NODE	wfdc1
NODE	rab40b
NODE	xrcc2
SET	PWRN-ZNF677-1-1	1.0
IN	xrcc2	PWRN-ZNF677-1-1
IN	fosl1	PWRN-ZNF677-1-1
IN	rab40b	PWRN-ZNF677-1-1
IN	ZNF677	PWRN-ZNF677-1-1
EDGE	PWRN-ZNF677-1-1	wfdc1	1.0

# CONNECTED COMPONENT 85
NODE	sorbs1
NODE	PILRA
NODE	dnph1
SET	PWRN-PILRA-1-1	1.0
IN	sorbs1	PWRN-PILRA-1-1
IN	dnph1	PWRN-PILRA-1-1
EDGE	PILRA	PWRN-PILRA-1-1	1.0

# CONNECTED COMPONENT 86
NODE	GALR2
NODE	GAL
NODE	GALR1
SET	PWRN-GAL-1-1	1.0
IN	GALR2	PWRN-GAL-1-1
IN	GALR1	PWRN-GAL-1-1
EDGE	GAL	PWRN-GAL-1-1	1.0

# CONNECTED COMPONENT 87
NODE	hcrt
NODE	HLA-DQA1
EDGE	HLA-DQA1	hcrt	1.0

# CONNECTED COMPONENT 88
NODE	COQ8A
NODE	pnpo
NODE	CMTM5_2
NODE	mcee
NODE	cyp1a1
NODE	timm44
SET	PWRN-CMTM5_2-1-1	1.0
IN	COQ8A	PWRN-CMTM5_2-1-1
IN	pnpo	PWRN-CMTM5_2-1-1
IN	mcee	PWRN-CMTM5_2-1-1
IN	cyp1a1	PWRN-CMTM5_2-1-1
IN	timm44	PWRN-CMTM5_2-1-1
EDGE	CMTM5_2	PWRN-CMTM5_2-1-1	1.0

# CONNECTED COMPONENT 89
NODE	trappc3_2
NODE	trappc1
EDGE	trappc1	trappc3_2	1.0

# CONNECTED COMPONENT 90
NODE	chrna4
NODE	PSCA
EDGE	PSCA	chrna4	1.0

# CONNECTED COMPONENT 91
NODE	fzd10
NODE	HILPDA
NODE	asna1
NODE	gpx7
SET	PWRN-HILPDA-1-1	1.0
IN	gpx7	PWRN-HILPDA-1-1
IN	HILPDA	PWRN-HILPDA-1-1
EDGE	PWRN-HILPDA-1-1	asna1	1.0
EDGE	HILPDA	fzd10	1.0

# CONNECTED COMPONENT 92
NODE	cdk6
NODE	triap1
NODE	amy2a
NODE	DMBT1
SET	PWRN-DMBT1-1-1	1.0
IN	cdk6	PWRN-DMBT1-1-1
IN	triap1	PWRN-DMBT1-1-1
EDGE	PWRN-DMBT1-1-1	amy2a	1.0
EDGE	DMBT1	cdk6	1.0

# CONNECTED COMPONENT 93
NODE	edil3
NODE	cdkl1
EDGE	cdkl1	edil3	1.0

# CONNECTED COMPONENT 94
NODE	TREM1
NODE	tyrobp
NODE	TREM2
NODE	PGLYRP1
SET	PWRN-PGLYRP1-1-1	1.0
IN	tyrobp	PWRN-PGLYRP1-1-1
IN	PGLYRP1	PWRN-PGLYRP1-1-1
EDGE	PWRN-PGLYRP1-1-1	TREM1	1.0
EDGE	TREM2	tyrobp	1.0

# CONNECTED COMPONENT 95
NODE	acaca
NODE	AKR1B10
EDGE	AKR1B10	acaca	1.0

# CONNECTED COMPONENT 96
NODE	dhx16
NODE	megf10
NODE	ephb1
NODE	grb10
SET	PWRN-dhx16-1-1	1.0
IN	megf10	PWRN-dhx16-1-1
IN	ephb1	PWRN-dhx16-1-1
EDGE	PWRN-dhx16-1-1	grb10	1.0
EDGE	dhx16	megf10	1.0

# CONNECTED COMPONENT 97
NODE	NDUFA4L2
NODE	ANXA9
NODE	BTN1A1
NODE	ppl
NODE	arhgef10l
SET	PWRN-ANXA9-1-1	1.0
IN	arhgef10l	PWRN-ANXA9-1-1
IN	ppl	PWRN-ANXA9-1-1
IN	NDUFA4L2	PWRN-ANXA9-1-1
EDGE	ANXA9	PWRN-ANXA9-1-1	1.0
EDGE	BTN1A1	ppl	1.0

# CONNECTED COMPONENT 98
NODE	sema7a
NODE	plxnc1
EDGE	plxnc1	sema7a	1.0

# CONNECTED COMPONENT 99
NODE	GIF
NODE	cubn
EDGE	GIF	cubn	1.0

# CONNECTED COMPONENT 100
NODE	EFNB2
NODE	epo
NODE	dok2
SET	PWRN-EFNB2-1-1	1.0
IN	EFNB2	PWRN-EFNB2-1-1
IN	dok2	PWRN-EFNB2-1-1
EDGE	PWRN-EFNB2-1-1	epo	1.0

# CONNECTED COMPONENT 101
NODE	gfra3
NODE	ARTN
EDGE	ARTN	gfra3	1.0

# CONNECTED COMPONENT 102
NODE	SREBF1
NODE	pla2g6
NODE	arf1
SET	PWRN-SREBF1-1-1	1.0
IN	SREBF1	PWRN-SREBF1-1-1
IN	arf1	PWRN-SREBF1-1-1
EDGE	PWRN-SREBF1-1-1	pla2g6	1.0

# CONNECTED COMPONENT 103
NODE	MELTF
NODE	HPGDS
EDGE	HPGDS	MELTF	1.0

# CONNECTED COMPONENT 104
NODE	cacna1f_2
NODE	cacna1f
NODE	cabp4
SET	PWRN-cabp4-1-1	1.0
IN	cacna1f_2	PWRN-cabp4-1-1
IN	cacna1f	PWRN-cabp4-1-1
EDGE	PWRN-cabp4-1-1	cabp4	1.0

# CONNECTED COMPONENT 105
NODE	MMP20
NODE	DSPP
EDGE	DSPP	MMP20	1.0

# CONNECTED COMPONENT 106
NODE	CALCRL
NODE	calca_2
NODE	RAMP1
NODE	bbs4
NODE	bbs1
NODE	ADM
SET	PWRN-ADM-1-1	1.0
SET	PWRN-ADM-2-1	1.0
IN	CALCRL	PWRN-ADM-1-1
IN	bbs4	PWRN-ADM-1-1
IN	bbs1	PWRN-ADM-1-1
IN	ADM	PWRN-ADM-2-1
IN	RAMP1	PWRN-ADM-2-1
EDGE	PWRN-ADM-1-1	calca_2	1.0
EDGE	CALCRL	PWRN-ADM-2-1	1.0

# CONNECTED COMPONENT 107
NODE	PFDN1
NODE	nek2
NODE	chga
SET	PWRN-PFDN1-1-1	1.0
IN	PFDN1	PWRN-PFDN1-1-1
IN	nek2	PWRN-PFDN1-1-1
EDGE	PWRN-PFDN1-1-1	chga	1.0

# CONNECTED COMPONENT 108
NODE	Mitf
NODE	ATF4
NODE	HK3
SET	PWRN-ATF4-1-1	1.0
IN	Mitf	PWRN-ATF4-1-1
IN	ATF4	PWRN-ATF4-1-1
EDGE	HK3	PWRN-ATF4-1-1	1.0

# CONNECTED COMPONENT 109
NODE	cdca5
NODE	kif21b
NODE	btd
NODE	raver1
NODE	vcl
NODE	SIKE1
SET	PWRN-SIKE1-1-1	1.0
IN	kif21b	PWRN-SIKE1-1-1
IN	SIKE1	PWRN-SIKE1-1-1
IN	cdca5	PWRN-SIKE1-1-1
EDGE	PWRN-SIKE1-1-1	btd	1.0
EDGE	cdca5	vcl	1.0
EDGE	raver1	vcl	1.0

# CONNECTED COMPONENT 110
NODE	cemip
NODE	FNBP4
NODE	ubap2l
NODE	plxna2
SET	PWRN-FNBP4-1-1	1.0
IN	cemip	PWRN-FNBP4-1-1
IN	FNBP4	PWRN-FNBP4-1-1
IN	ubap2l	PWRN-FNBP4-1-1
EDGE	PWRN-FNBP4-1-1	plxna2	1.0

# CONNECTED COMPONENT 111
NODE	phax
NODE	fam20b
EDGE	fam20b	phax	1.0

# CONNECTED COMPONENT 112
NODE	FZD7
NODE	wnt3
EDGE	FZD7	wnt3	1.0

# CONNECTED COMPONENT 113
NODE	wnt2b
NODE	tspan12
NODE	ndp
NODE	LRP4
NODE	fzd4
NODE	sost
NODE	tsku
NODE	lrp5
SET	PWRN-LRP4-1-1	1.0
SET	PWRN-LRP4-2-1	1.0
IN	tsku	PWRN-LRP4-1-1
IN	wnt2b	PWRN-LRP4-1-1
IN	ndp	PWRN-LRP4-1-1
IN	lrp5	PWRN-LRP4-2-1
IN	LRP4	PWRN-LRP4-2-1
EDGE	PWRN-LRP4-1-1	fzd4	1.0
EDGE	PWRN-LRP4-2-1	sost	1.0
EDGE	ndp	tspan12	1.0
EDGE	lrp5	ndp	1.0

# CONNECTED COMPONENT 114
NODE	acan
NODE	ADAMTS4
EDGE	ADAMTS4	acan	1.0

# CONNECTED COMPONENT 115
NODE	neurod4
NODE	lrrn2
EDGE	lrrn2	neurod4	1.0

# CONNECTED COMPONENT 116
NODE	rab5a
NODE	entpd6_2
EDGE	entpd6_2	rab5a	1.0

# CONNECTED COMPONENT 117
NODE	ENTPD5
NODE	mxi1_2
EDGE	ENTPD5	mxi1_2	1.0

# CONNECTED COMPONENT 118
NODE	ush2a
NODE	ush1c
EDGE	ush1c	ush2a	1.0

# CONNECTED COMPONENT 119
NODE	crlf1
NODE	clcf1
EDGE	clcf1	crlf1	1.0

# CONNECTED COMPONENT 120
NODE	tada2a
NODE	kat2a
EDGE	kat2a	tada2a	1.0

# CONNECTED COMPONENT 121
NODE	TADA3
NODE	adpgk
EDGE	TADA3	adpgk	1.0

# CONNECTED COMPONENT 122
NODE	pam
NODE	dedd
NODE	serpini1
SET	PWRN-dedd-1-1	1.0
IN	pam	PWRN-dedd-1-1
IN	serpini1	PWRN-dedd-1-1
EDGE	PWRN-dedd-1-1	dedd	1.0

# CONNECTED COMPONENT 123
NODE	ppp1r15a
NODE	PPP1R1A
EDGE	PPP1R1A	ppp1r15a	1.0

# CONNECTED COMPONENT 124
NODE	appl2
NODE	CNMD
NODE	hsh2d
NODE	LGALS9B_2
NODE	socs4
SET	PWRN-CNMD-1-1	1.0
IN	hsh2d	PWRN-CNMD-1-1
IN	appl2	PWRN-CNMD-1-1
IN	socs4	PWRN-CNMD-1-1
EDGE	CNMD	PWRN-CNMD-1-1	1.0
EDGE	LGALS9B_2	appl2	1.0

# CONNECTED COMPONENT 125
NODE	cep57l1
NODE	idh1
EDGE	cep57l1	idh1	1.0

# CONNECTED COMPONENT 126
NODE	gabbr1_2
NODE	gabbr2
EDGE	gabbr1_2	gabbr2	1.0

# CONNECTED COMPONENT 127
NODE	MMP23A
NODE	glrx
EDGE	MMP23A	glrx	1.0

# CONNECTED COMPONENT 128
NODE	C1QL1
NODE	C1QTNF8
EDGE	C1QL1	C1QTNF8	1.0

# CONNECTED COMPONENT 129
NODE	aatf
NODE	CPD
EDGE	CPD	aatf	1.0

# CONNECTED COMPONENT 130
NODE	dnpep
NODE	cdc20
NODE	KRT33A
SET	PWRN-KRT33A-1-1	1.0
IN	dnpep	PWRN-KRT33A-1-1
IN	cdc20	PWRN-KRT33A-1-1
EDGE	KRT33A	PWRN-KRT33A-1-1	1.0

# CONNECTED COMPONENT 131
NODE	plekhb2
NODE	KRT34
EDGE	KRT34	plekhb2	1.0

# CONNECTED COMPONENT 132
NODE	NCR1
NODE	cfp
EDGE	NCR1	cfp	1.0

# CONNECTED COMPONENT 133
NODE	ppp1r16a
NODE	LY6H
EDGE	LY6H	ppp1r16a	1.0

# CONNECTED COMPONENT 134
NODE	slit2
NODE	robo1
EDGE	robo1	slit2	1.0

# CONNECTED COMPONENT 135
NODE	ENDOD1
NODE	kif21a
EDGE	ENDOD1	kif21a	1.0

# CONNECTED COMPONENT 136
NODE	soga1_2
NODE	MARK4_2
EDGE	MARK4_2	soga1_2	1.0

# CONNECTED COMPONENT 137
NODE	TSSK3
NODE	GP2
NODE	SOX30
SET	PWRN-GP2-1-1	1.0
IN	TSSK3	PWRN-GP2-1-1
IN	SOX30	PWRN-GP2-1-1
EDGE	GP2	PWRN-GP2-1-1	1.0

# CONNECTED COMPONENT 138
NODE	ppp1r7
NODE	TNFRSF25
NODE	TNFSF15
NODE	TNFRSF6B
SET	PWRN-TNFRSF25-1-1	1.0
IN	TNFSF15	PWRN-TNFRSF25-1-1
IN	ppp1r7	PWRN-TNFRSF25-1-1
EDGE	PWRN-TNFRSF25-1-1	TNFRSF6B	1.0
EDGE	TNFRSF25	TNFSF15	1.0

# CONNECTED COMPONENT 139
NODE	ccndbp1
NODE	ESR2
EDGE	ESR2	ccndbp1	1.0

# CONNECTED COMPONENT 140
NODE	LY6D
NODE	ARFIP2
NODE	ABCB11
NODE	pkib
SET	PWRN-ABCB11-1-1	1.0
IN	pkib	PWRN-ABCB11-1-1
IN	ABCB11	PWRN-ABCB11-1-1
IN	ARFIP2	PWRN-ABCB11-1-1
EDGE	LY6D	PWRN-ABCB11-1-1	1.0

# CONNECTED COMPONENT 141
NODE	gdf11
NODE	BMP8B
NODE	bmp3
NODE	WFIKKN2
SET	PWRN-BMP8B-1-1	1.0
IN	BMP8B	PWRN-BMP8B-1-1
IN	gdf11	PWRN-BMP8B-1-1
IN	bmp3	PWRN-BMP8B-1-1
EDGE	PWRN-BMP8B-1-1	WFIKKN2	1.0

# CONNECTED COMPONENT 142
NODE	SERINC3
NODE	bmp10
EDGE	SERINC3	bmp10	1.0

# CONNECTED COMPONENT 143
NODE	gcnt3
NODE	dhrsx
EDGE	dhrsx	gcnt3	1.0

# CONNECTED COMPONENT 144
NODE	C11orf71
NODE	GPRC5B
NODE	DKKL1
NODE	pign
NODE	fjx1
SET	PWRN-C11orf71-1-1	1.0
IN	GPRC5B	PWRN-C11orf71-1-1
IN	DKKL1	PWRN-C11orf71-1-1
EDGE	C11orf71	PWRN-C11orf71-1-1	1.0
EDGE	fjx1	pign	1.0
EDGE	DKKL1	fjx1	1.0

# CONNECTED COMPONENT 145
NODE	apom
NODE	C8orf30A
NODE	KLF6
SET	PWRN-C8orf30A-1-1	1.0
IN	KLF6	PWRN-C8orf30A-1-1
IN	C8orf30A	PWRN-C8orf30A-1-1
EDGE	PWRN-C8orf30A-1-1	apom	1.0

# CONNECTED COMPONENT 146
NODE	adamts2
NODE	pik3r5
EDGE	adamts2	pik3r5	1.0

# CONNECTED COMPONENT 147
NODE	ly86
NODE	cd180
EDGE	cd180	ly86	1.0

# CONNECTED COMPONENT 148
NODE	Collagen-XX_2
NODE	trim23
NODE	cxcl14
NODE	EXOC3-AS1
NODE	Collagen-XX
NODE	tex11
NODE	TEAD4
SET	PWRN-Collagen-XX-1-1	1.0
SET	PWRN-Collagen-XX-2-1	1.0
IN	cxcl14	PWRN-Collagen-XX-1-1
IN	Collagen-XX_2	PWRN-Collagen-XX-1-1
IN	Collagen-XX	PWRN-Collagen-XX-1-1
IN	trim23	PWRN-Collagen-XX-2-1
IN	TEAD4	PWRN-Collagen-XX-2-1
EDGE	PWRN-Collagen-XX-1-1	tex11	1.0
EDGE	EXOC3-AS1	PWRN-Collagen-XX-2-1	1.0
EDGE	cxcl14	trim23	1.0

# CONNECTED COMPONENT 149
NODE	snap29
NODE	OLFM1
EDGE	OLFM1	snap29	1.0

# CONNECTED COMPONENT 150
NODE	OXSR1
NODE	rell2
EDGE	OXSR1	rell2	1.0

# CONNECTED COMPONENT 151
NODE	Collagen-XXIII
NODE	exosc8
NODE	lsm8
SET	PWRN-Collagen-XXIII-1-1	1.0
IN	exosc8	PWRN-Collagen-XXIII-1-1
IN	lsm8	PWRN-Collagen-XXIII-1-1
EDGE	Collagen-XXIII	PWRN-Collagen-XXIII-1-1	1.0

# CONNECTED COMPONENT 152
NODE	reck_2
NODE	TRIM69
EDGE	TRIM69	reck_2	1.0

# CONNECTED COMPONENT 153
NODE	IL1RAPL1
NODE	IL18R1
NODE	IL18BP
NODE	IL37
SET	PWRN-IL18BP-1-1	1.0
IN	IL1RAPL1	PWRN-IL18BP-1-1
IN	IL18R1	PWRN-IL18BP-1-1
IN	IL18BP	PWRN-IL18BP-1-1
EDGE	IL37	PWRN-IL18BP-1-1	1.0

# CONNECTED COMPONENT 154
NODE	tomm40
NODE	itih1
EDGE	itih1	tomm40	1.0

# CONNECTED COMPONENT 155
NODE	KRTAP2-3
NODE	adamtsl3
EDGE	KRTAP2-3	adamtsl3	1.0

# CONNECTED COMPONENT 156
NODE	DUSP23
NODE	POTEI
EDGE	DUSP23	POTEI	1.0

# CONNECTED COMPONENT 157
NODE	gphb5
NODE	lhb
NODE	tshb
NODE	cga
NODE	fshr
NODE	CGB3
NODE	fshb
NODE	gpha2
SET	PWRN-CGB3-1-1	1.0
SET	PWRN-CGB3-2-1	1.0
IN	lhb	PWRN-CGB3-1-1
IN	gphb5	PWRN-CGB3-1-1
IN	tshb	PWRN-CGB3-1-1
IN	CGB3	PWRN-CGB3-1-1
IN	fshb	PWRN-CGB3-1-1
IN	fshr	PWRN-CGB3-2-1
IN	cga	PWRN-CGB3-2-1
EDGE	PWRN-CGB3-1-1	gpha2	1.0
EDGE	PWRN-CGB3-2-1	fshb	1.0

# CONNECTED COMPONENT 158
NODE	cp
NODE	slc40a1
EDGE	cp	slc40a1	1.0

# CONNECTED COMPONENT 159
NODE	c1r
NODE	pck1
EDGE	c1r	pck1	1.0

# CONNECTED COMPONENT 160
NODE	GP1BA
NODE	F12
EDGE	F12	GP1BA	1.0

# CONNECTED COMPONENT 161
NODE	ren
NODE	KCTD15
NODE	ccdc24
SET	PWRN-KCTD15-1-1	1.0
IN	KCTD15	PWRN-KCTD15-1-1
IN	ccdc24	PWRN-KCTD15-1-1
EDGE	PWRN-KCTD15-1-1	ren	1.0

# CONNECTED COMPONENT 162
NODE	creb3l1
NODE	CFHR5
NODE	c5
NODE	fam3c
SET	PWRN-CFHR5-1-1	1.0
IN	CFHR5	PWRN-CFHR5-1-1
IN	c5	PWRN-CFHR5-1-1
IN	fam3c	PWRN-CFHR5-1-1
EDGE	PWRN-CFHR5-1-1	creb3l1	1.0

# CONNECTED COMPONENT 163
NODE	PDGFB
NODE	pdgfa
EDGE	PDGFB	pdgfa	1.0

# CONNECTED COMPONENT 164
NODE	MAGEA12
NODE	nppa
EDGE	MAGEA12	nppa	1.0

# CONNECTED COMPONENT 165
NODE	avp
NODE	avpr1a
EDGE	avp	avpr1a	1.0

# CONNECTED COMPONENT 166
NODE	oprm1
NODE	penk
EDGE	oprm1	penk	1.0

# CONNECTED COMPONENT 167
NODE	prl
NODE	prlr_2
EDGE	prl	prlr_2	1.0

# CONNECTED COMPONENT 168
NODE	atp2b2
NODE	atp2b4
NODE	calca
SET	PWRN-atp2b2-1-1	1.0
IN	atp2b4	PWRN-atp2b2-1-1
IN	atp2b2	PWRN-atp2b2-1-1
EDGE	PWRN-atp2b2-1-1	calca	1.0

# CONNECTED COMPONENT 169
NODE	tbc1d1
NODE	GCG
NODE	gipr
SET	PWRN-GCG-1-1	1.0
IN	tbc1d1	PWRN-GCG-1-1
IN	gipr	PWRN-GCG-1-1
EDGE	GCG	PWRN-GCG-1-1	1.0

# CONNECTED COMPONENT 170
NODE	CCK
NODE	GAST
NODE	CCKBR
SET	PWRN-CCK-1-1	1.0
IN	CCK	PWRN-CCK-1-1
IN	GAST	PWRN-CCK-1-1
EDGE	CCKBR	PWRN-CCK-1-1	1.0

# CONNECTED COMPONENT 171
NODE	IFNA1
NODE	CR2
EDGE	CR2	IFNA1	1.0

# CONNECTED COMPONENT 172
NODE	IFNGR2
NODE	ifngr1
NODE	ifng
SET	PWRN-IFNGR2-1-1	1.0
IN	ifngr1	PWRN-IFNGR2-1-1
IN	IFNGR2	PWRN-IFNGR2-1-1
EDGE	PWRN-IFNGR2-1-1	ifng	1.0

# CONNECTED COMPONENT 173
NODE	IL2RA
NODE	il2rb
NODE	IL2
SET	PWRN-IL2-1-1	1.0
IN	IL2RA	PWRN-IL2-1-1
IN	il2rb	PWRN-IL2-1-1
EDGE	IL2	PWRN-IL2-1-1	1.0

# CONNECTED COMPONENT 174
NODE	IGLV2-8
NODE	IGHV3-33
NODE	IGLC1
SET	PWRN-IGHV3-33-1-1	1.0
IN	IGLV2-8	PWRN-IGHV3-33-1-1
IN	IGHV3-33	PWRN-IGHV3-33-1-1
EDGE	IGLC1	PWRN-IGHV3-33-1-1	1.0

# CONNECTED COMPONENT 175
NODE	FCER1A
NODE	IGHE
EDGE	FCER1A	IGHE	1.0

# CONNECTED COMPONENT 176
NODE	IGHG3
NODE	SKA1
EDGE	IGHG3	SKA1	1.0

# CONNECTED COMPONENT 177
NODE	CD19
NODE	MS4A1
NODE	ighd
SET	PWRN-CD19-1-1	1.0
IN	CD19	PWRN-CD19-1-1
IN	MS4A1	PWRN-CD19-1-1
EDGE	PWRN-CD19-1-1	ighd	1.0

# CONNECTED COMPONENT 178
NODE	kifap3
NODE	Collagen-IV_9
NODE	ifi30
SET	PWRN-Collagen-IV_9-1-1	1.0
IN	ifi30	PWRN-Collagen-IV_9-1-1
IN	Collagen-IV_9	PWRN-Collagen-IV_9-1-1
EDGE	PWRN-Collagen-IV_9-1-1	kifap3	1.0

# CONNECTED COMPONENT 179
NODE	Nsg2
NODE	apoc1
EDGE	Nsg2	apoc1	1.0

# CONNECTED COMPONENT 180
NODE	fga_2
NODE	trim33
EDGE	fga_2	trim33	1.0

# CONNECTED COMPONENT 181
NODE	c8a
NODE	c9
EDGE	c8a	c9	1.0

# CONNECTED COMPONENT 182
NODE	tgfbr2
NODE	LRG1
NODE	acvrl1
SET	PWRN-LRG1-1-1	1.0
IN	tgfbr2	PWRN-LRG1-1-1
IN	acvrl1	PWRN-LRG1-1-1
EDGE	LRG1	PWRN-LRG1-1-1	1.0

# CONNECTED COMPONENT 183
NODE	sympk
NODE	fn1
EDGE	fn1	sympk	1.0

# CONNECTED COMPONENT 184
NODE	PTPRE
NODE	STATH
EDGE	PTPRE	STATH	1.0

# CONNECTED COMPONENT 185
NODE	fuca1
NODE	usp21
EDGE	fuca1	usp21	1.0

# CONNECTED COMPONENT 186
NODE	proc
NODE	MMP15
EDGE	MMP15	proc	1.0

# CONNECTED COMPONENT 187
NODE	aldoa
NODE	Ifna4
EDGE	Ifna4	aldoa	1.0

# CONNECTED COMPONENT 188
NODE	csf3
NODE	PRG2
NODE	CSF2
NODE	csf3r
SET	PWRN-CSF2-1-1	1.0
IN	csf3	PWRN-CSF2-1-1
IN	CSF2	PWRN-CSF2-1-1
EDGE	PWRN-CSF2-1-1	csf3r	1.0
EDGE	CSF2	PRG2	1.0

# CONNECTED COMPONENT 189
NODE	IFNAR1
NODE	IFNA8
NODE	IFNW1
SET	PWRN-IFNA8-1-1	1.0
IN	IFNA8	PWRN-IFNA8-1-1
IN	IFNW1	PWRN-IFNA8-1-1
EDGE	IFNAR1	PWRN-IFNA8-1-1	1.0

# CONNECTED COMPONENT 190
NODE	MUC20
NODE	aldob
NODE	ELOVL3
SET	PWRN-ELOVL3-1-1	1.0
IN	aldob	PWRN-ELOVL3-1-1
IN	ELOVL3	PWRN-ELOVL3-1-1
EDGE	MUC20	PWRN-ELOVL3-1-1	1.0

# CONNECTED COMPONENT 191
NODE	homer2
NODE	app_2
NODE	homer3
SET	PWRN-app_2-1-1	1.0
IN	homer2	PWRN-app_2-1-1
IN	homer3	PWRN-app_2-1-1
EDGE	PWRN-app_2-1-1	app_2	1.0

# CONNECTED COMPONENT 192
NODE	inha
NODE	siah1_2
EDGE	inha	siah1_2	1.0

# CONNECTED COMPONENT 193
NODE	il13ra1
NODE	il4
NODE	il13
SET	PWRN-il13-1-1	1.0
IN	il4	PWRN-il13-1-1
IN	il13	PWRN-il13-1-1
EDGE	PWRN-il13-1-1	il13ra1	1.0

# CONNECTED COMPONENT 194
NODE	IL5
NODE	IL5RA_2
NODE	IL5RA
SET	PWRN-IL5-1-1	1.0
IN	IL5RA_2	PWRN-IL5-1-1
IN	IL5RA	PWRN-IL5-1-1
EDGE	IL5	PWRN-IL5-1-1	1.0

# CONNECTED COMPONENT 195
NODE	EDNRB
NODE	ednra
NODE	edn1
SET	PWRN-EDNRB-1-1	1.0
IN	EDNRB	PWRN-EDNRB-1-1
IN	ednra	PWRN-EDNRB-1-1
EDGE	PWRN-EDNRB-1-1	edn1	1.0

# CONNECTED COMPONENT 196
NODE	enpp1
NODE	INSR_2
EDGE	INSR_2	enpp1	1.0

# CONNECTED COMPONENT 197
NODE	IGKV4-1
NODE	usp45
EDGE	IGKV4-1	usp45	1.0

# CONNECTED COMPONENT 198
NODE	nr1d1
NODE	apoa4
EDGE	apoa4	nr1d1	1.0

# CONNECTED COMPONENT 199
NODE	CEACAM8
NODE	CARTPT
NODE	CEACAM6
NODE	UQCC2
NODE	CEACAM7
NODE	CEACAM5
SET	PWRN-CARTPT-1-1	1.0
IN	CEACAM8	PWRN-CARTPT-1-1
IN	CARTPT	PWRN-CARTPT-1-1
IN	CEACAM7	PWRN-CARTPT-1-1
IN	CEACAM5	PWRN-CARTPT-1-1
EDGE	CEACAM6	PWRN-CARTPT-1-1	1.0
EDGE	CEACAM5	UQCC2	1.0

# CONNECTED COMPONENT 200
NODE	ache_2
NODE	ATF7
NODE	colq
NODE	FCER2
SET	PWRN-ATF7-1-1	1.0
IN	colq	PWRN-ATF7-1-1
IN	ATF7	PWRN-ATF7-1-1
EDGE	PWRN-ATF7-1-1	ache_2	1.0
EDGE	ATF7	FCER2	1.0

# CONNECTED COMPONENT 201
NODE	crh
NODE	crhr1
EDGE	crh	crhr1	1.0

# CONNECTED COMPONENT 202
NODE	Lama2
NODE	hexb
NODE	smc6
NODE	TEPSIN
NODE	hexa
SET	PWRN-Lama2-1-1	1.0
IN	smc6	PWRN-Lama2-1-1
IN	TEPSIN	PWRN-Lama2-1-1
EDGE	Lama2	PWRN-Lama2-1-1	1.0
EDGE	hexa	hexb	1.0
EDGE	hexb	smc6	1.0

# CONNECTED COMPONENT 203
NODE	psen2
NODE	lipf
EDGE	lipf	psen2	1.0

# CONNECTED COMPONENT 204
NODE	thbd
NODE	psenen
EDGE	psenen	thbd	1.0

# CONNECTED COMPONENT 205
NODE	ASGR1
NODE	CERS2
NODE	nlk
SET	PWRN-ASGR1-1-1	1.0
IN	CERS2	PWRN-ASGR1-1-1
IN	nlk	PWRN-ASGR1-1-1
EDGE	ASGR1	PWRN-ASGR1-1-1	1.0

# CONNECTED COMPONENT 206
NODE	csf1r
NODE	CSF1
NODE	il34
SET	PWRN-CSF1-1-1	1.0
IN	CSF1	PWRN-CSF1-1-1
IN	il34	PWRN-CSF1-1-1
EDGE	PWRN-CSF1-1-1	csf1r	1.0

# CONNECTED COMPONENT 207
NODE	bpgm
NODE	CEL
EDGE	CEL	bpgm	1.0

# CONNECTED COMPONENT 208
NODE	HSP90AA1
NODE	chordc1
EDGE	HSP90AA1	chordc1	1.0

# CONNECTED COMPONENT 209
NODE	GIT2
NODE	gusb
EDGE	GIT2	gusb	1.0

# CONNECTED COMPONENT 210
NODE	st3gal1
NODE	GSTA1
EDGE	GSTA1	st3gal1	1.0

# CONNECTED COMPONENT 211
NODE	acvr2a
NODE	inhba_2
EDGE	acvr2a	inhba_2	1.0

# CONNECTED COMPONENT 212
NODE	FCGR3A
NODE	FCGR1A
NODE	zbtb25
SET	PWRN-FCGR1A-1-1	1.0
IN	FCGR1A	PWRN-FCGR1A-1-1
IN	zbtb25	PWRN-FCGR1A-1-1
EDGE	FCGR3A	PWRN-FCGR1A-1-1	1.0

# CONNECTED COMPONENT 213
NODE	IL3
NODE	IL3RA
EDGE	IL3	IL3RA	1.0

# CONNECTED COMPONENT 214
NODE	igfbp1
NODE	IGFBP4
EDGE	IGFBP4	igfbp1	1.0

# CONNECTED COMPONENT 215
NODE	COMT
NODE	fgf2_2
EDGE	COMT	fgf2_2	1.0

# CONNECTED COMPONENT 216
NODE	txndc11
NODE	acaa1
EDGE	acaa1	txndc11	1.0

# CONNECTED COMPONENT 217
NODE	dbh
NODE	itsn1
EDGE	dbh	itsn1	1.0

# CONNECTED COMPONENT 218
NODE	ADAMTSL1
NODE	MMP10
EDGE	ADAMTSL1	MMP10	1.0

# CONNECTED COMPONENT 219
NODE	CD244
NODE	CD48
EDGE	CD244	CD48	1.0

# CONNECTED COMPONENT 220
NODE	fnta
NODE	inhbb
NODE	ACVR1C
SET	PWRN-ACVR1C-1-1	1.0
IN	fnta	PWRN-ACVR1C-1-1
IN	ACVR1C	PWRN-ACVR1C-1-1
EDGE	PWRN-ACVR1C-1-1	inhbb	1.0

# CONNECTED COMPONENT 221
NODE	rheb
NODE	ncam1
NODE	uchl1
SET	PWRN-ncam1-1-1	1.0
IN	rheb	PWRN-ncam1-1-1
IN	uchl1	PWRN-ncam1-1-1
EDGE	PWRN-ncam1-1-1	ncam1	1.0

# CONNECTED COMPONENT 222
NODE	zbtb48
NODE	C7orf34
EDGE	C7orf34	zbtb48	1.0

# CONNECTED COMPONENT 223
NODE	Npy1r
NODE	npy2r
NODE	PYY
SET	PWRN-Npy1r-1-1	1.0
IN	Npy1r	PWRN-Npy1r-1-1
IN	npy2r	PWRN-Npy1r-1-1
EDGE	PWRN-Npy1r-1-1	PYY	1.0

# CONNECTED COMPONENT 224
NODE	tubgcp5
NODE	clu
EDGE	clu	tubgcp5	1.0

# CONNECTED COMPONENT 225
NODE	myoc
NODE	myl2
NODE	sparcl1_2
SET	PWRN-myl2-1-1	1.0
IN	myl2	PWRN-myl2-1-1
IN	sparcl1_2	PWRN-myl2-1-1
EDGE	PWRN-myl2-1-1	myoc	1.0

# CONNECTED COMPONENT 226
NODE	lipc
NODE	adhfe1
EDGE	adhfe1	lipc	1.0

# CONNECTED COMPONENT 227
NODE	fgf23
NODE	FGFR1_3
EDGE	FGFR1_3	fgf23	1.0

# CONNECTED COMPONENT 228
NODE	VDR
NODE	MMRN2
EDGE	MMRN2	VDR	1.0

# CONNECTED COMPONENT 229
NODE	cetp
NODE	PRKACG
EDGE	PRKACG	cetp	1.0

# CONNECTED COMPONENT 230
NODE	trim32
NODE	SCGB1A1
EDGE	SCGB1A1	trim32	1.0

# CONNECTED COMPONENT 231
NODE	aldh3a1
NODE	cyhr1
NODE	srf
SET	PWRN-aldh3a1-1-1	1.0
IN	cyhr1	PWRN-aldh3a1-1-1
IN	srf	PWRN-aldh3a1-1-1
EDGE	PWRN-aldh3a1-1-1	aldh3a1	1.0

# CONNECTED COMPONENT 232
NODE	Collagen-VI_3
NODE	slc38a3
NODE	cox6a2
SET	PWRN-Collagen-VI_3-1-1	1.0
IN	slc38a3	PWRN-Collagen-VI_3-1-1
IN	cox6a2	PWRN-Collagen-VI_3-1-1
EDGE	Collagen-VI_3	PWRN-Collagen-VI_3-1-1	1.0

# CONNECTED COMPONENT 233
NODE	BMP1_3
NODE	BMP1
NODE	DMP1
SET	PWRN-BMP1-1-1	1.0
IN	BMP1_3	PWRN-BMP1-1-1
IN	BMP1	PWRN-BMP1-1-1
EDGE	DMP1	PWRN-BMP1-1-1	1.0

# CONNECTED COMPONENT 234
NODE	c6
NODE	sart3
EDGE	c6	sart3	1.0

# CONNECTED COMPONENT 235
NODE	znf410_2
NODE	lif
NODE	Collagen-IV
NODE	LIFR
NODE	OSM
SET	PWRN-Collagen-IV-1-1	1.0
IN	LIFR	PWRN-Collagen-IV-1-1
IN	znf410_2	PWRN-Collagen-IV-1-1
IN	Collagen-IV	PWRN-Collagen-IV-1-1
EDGE	OSM	PWRN-Collagen-IV-1-1	1.0
EDGE	LIFR	lif	1.0

# CONNECTED COMPONENT 236
NODE	F3
NODE	f2rl1
EDGE	F3	f2rl1	1.0

# CONNECTED COMPONENT 237
NODE	rdh12
NODE	ANXA8
EDGE	ANXA8	rdh12	1.0

# CONNECTED COMPONENT 238
NODE	Collagen-XI
NODE	WDR20
EDGE	Collagen-XI	WDR20	1.0

# CONNECTED COMPONENT 239
NODE	irf2bpl
NODE	irf2
NODE	ube2q1
NODE	RNF169
SET	PWRN-RNF169-1-1	1.0
IN	RNF169	PWRN-RNF169-1-1
IN	ube2q1	PWRN-RNF169-1-1
IN	irf2	PWRN-RNF169-1-1
EDGE	PWRN-RNF169-1-1	irf2bpl	1.0

# CONNECTED COMPONENT 240
NODE	alox12
NODE	PLA2G2A
EDGE	PLA2G2A	alox12	1.0

# CONNECTED COMPONENT 241
NODE	GP5
NODE	gp9
EDGE	GP5	gp9	1.0

# CONNECTED COMPONENT 242
NODE	IL9R
NODE	IL9
EDGE	IL9	IL9R	1.0

# CONNECTED COMPONENT 243
NODE	FOLR1
NODE	irak3
NODE	NCAPH2
SET	PWRN-FOLR1-1-1	1.0
IN	irak3	PWRN-FOLR1-1-1
IN	NCAPH2	PWRN-FOLR1-1-1
EDGE	FOLR1	PWRN-FOLR1-1-1	1.0

# CONNECTED COMPONENT 244
NODE	areg
NODE	S100A5
EDGE	S100A5	areg	1.0

# CONNECTED COMPONENT 245
NODE	UBIAD1
NODE	VEGFA_3
NODE	VEGFA_4
SET	PWRN-UBIAD1-1-1	1.0
IN	VEGFA_3	PWRN-UBIAD1-1-1
IN	VEGFA_4	PWRN-UBIAD1-1-1
EDGE	PWRN-UBIAD1-1-1	UBIAD1	1.0

# CONNECTED COMPONENT 246
NODE	SPN
NODE	dicer1
EDGE	SPN	dicer1	1.0

# CONNECTED COMPONENT 247
NODE	creb1
NODE	nit2
EDGE	creb1	nit2	1.0

# CONNECTED COMPONENT 248
NODE	dpep1
NODE	kif1bp
EDGE	dpep1	kif1bp	1.0

# CONNECTED COMPONENT 249
NODE	abi3bp
NODE	ror1
NODE	got1
NODE	wnt5a
NODE	mbnl1
NODE	fzd5
SET	PWRN-abi3bp-1-1	1.0
IN	got1	PWRN-abi3bp-1-1
IN	mbnl1	PWRN-abi3bp-1-1
IN	fzd5	PWRN-abi3bp-1-1
EDGE	PWRN-abi3bp-1-1	abi3bp	1.0
EDGE	ror1	wnt5a	1.0
EDGE	fzd5	wnt5a	1.0

# CONNECTED COMPONENT 250
NODE	OLFML3
NODE	HSPB3
NODE	ckmt2
SET	PWRN-HSPB3-1-1	1.0
IN	HSPB3	PWRN-HSPB3-1-1
IN	ckmt2	PWRN-HSPB3-1-1
EDGE	OLFML3	PWRN-HSPB3-1-1	1.0

# CONNECTED COMPONENT 251
NODE	lrp2
NODE	LCN2
NODE	slc22a17
NODE	gm2a
NODE	GID8
NODE	URM1
SET	PWRN-GID8-1-1	1.0
IN	lrp2	PWRN-GID8-1-1
IN	slc22a17	PWRN-GID8-1-1
IN	GID8	PWRN-GID8-1-1
IN	URM1	PWRN-GID8-1-1
EDGE	LCN2	PWRN-GID8-1-1	1.0
EDGE	GID8	gm2a	1.0

# CONNECTED COMPONENT 252
NODE	ino80b
NODE	IGFBP2
NODE	GSDMB
SET	PWRN-GSDMB-1-1	1.0
IN	ino80b	PWRN-GSDMB-1-1
IN	GSDMB	PWRN-GSDMB-1-1
EDGE	IGFBP2	PWRN-GSDMB-1-1	1.0

# CONNECTED COMPONENT 253
NODE	adcyap1r1_2
NODE	adcyap1r1
NODE	ADCYAP1
SET	PWRN-ADCYAP1-1-1	1.0
IN	adcyap1r1_2	PWRN-ADCYAP1-1-1
IN	adcyap1r1	PWRN-ADCYAP1-1-1
EDGE	ADCYAP1	PWRN-ADCYAP1-1-1	1.0

# CONNECTED COMPONENT 254
NODE	IL1RN
NODE	IL1R2
EDGE	IL1R2	IL1RN	1.0

# CONNECTED COMPONENT 255
NODE	cdh2
NODE	ptprr
EDGE	cdh2	ptprr	1.0

# CONNECTED COMPONENT 256
NODE	cyp39a1
NODE	stk3
NODE	Orm2
SET	PWRN-Orm2-1-1	1.0
IN	cyp39a1	PWRN-Orm2-1-1
IN	stk3	PWRN-Orm2-1-1
EDGE	Orm2	PWRN-Orm2-1-1	1.0

# CONNECTED COMPONENT 257
NODE	nfkb1_2
NODE	commd1
EDGE	commd1	nfkb1_2	1.0

# CONNECTED COMPONENT 258
NODE	paxip1
NODE	tcn2
EDGE	paxip1	tcn2	1.0

# CONNECTED COMPONENT 259
NODE	TBP
NODE	Collagen-XXVI
EDGE	Collagen-XXVI	TBP	1.0

# CONNECTED COMPONENT 260
NODE	MYH13
NODE	ccna2
NODE	p3h2
SET	PWRN-MYH13-1-1	1.0
IN	MYH13	PWRN-MYH13-1-1
IN	ccna2	PWRN-MYH13-1-1
EDGE	PWRN-MYH13-1-1	p3h2	1.0

# CONNECTED COMPONENT 261
NODE	PZP
NODE	tubgcp4_2
NODE	tmem248
SET	PWRN-PZP-1-1	1.0
IN	tubgcp4_2	PWRN-PZP-1-1
IN	tmem248	PWRN-PZP-1-1
EDGE	PWRN-PZP-1-1	PZP	1.0

# CONNECTED COMPONENT 262
NODE	NTRK3
NODE	ntf3
NODE	sorcs2
SET	PWRN-NTRK3-1-1	1.0
IN	NTRK3	PWRN-NTRK3-1-1
IN	sorcs2	PWRN-NTRK3-1-1
EDGE	PWRN-NTRK3-1-1	ntf3	1.0

# CONNECTED COMPONENT 263
NODE	Las2
NODE	IL11
NODE	enox2
NODE	il11ra
NODE	MAGEA11_2
NODE	MAGEA11
SET	PWRN-IL11-1-1	1.0
SET	PWRN-IL11-2-1	1.0
IN	IL11	PWRN-IL11-1-1
IN	Las2	PWRN-IL11-1-1
IN	enox2	PWRN-IL11-1-1
IN	il11ra	PWRN-IL11-2-1
IN	MAGEA11	PWRN-IL11-2-1
EDGE	MAGEA11_2	PWRN-IL11-1-1	1.0
EDGE	IL11	PWRN-IL11-2-1	1.0

# CONNECTED COMPONENT 264
NODE	KITLG
NODE	FLT3LG
EDGE	FLT3LG	KITLG	1.0

# CONNECTED COMPONENT 265
NODE	MDK
NODE	rpl18a
EDGE	MDK	rpl18a	1.0

# CONNECTED COMPONENT 266
NODE	TMPRSS6_2
NODE	neo1
NODE	bmp6
NODE	hfe2
NODE	TMPRSS6
NODE	ntn4
SET	PWRN-TMPRSS6-1-1	1.0
IN	TMPRSS6	PWRN-TMPRSS6-1-1
IN	bmp6	PWRN-TMPRSS6-1-1
IN	TMPRSS6_2	PWRN-TMPRSS6-1-1
IN	neo1	PWRN-TMPRSS6-1-1
EDGE	PWRN-TMPRSS6-1-1	hfe2	1.0
EDGE	neo1	ntn4	1.0

# CONNECTED COMPONENT 267
NODE	il10rb
NODE	il22ra2_3
NODE	ebi3
NODE	IL12RB1
NODE	irf5
NODE	IL20RB
NODE	il20ra
NODE	il12rb2
NODE	il10
NODE	il10ra
NODE	il23r
NODE	IL27
NODE	pex19
NODE	il26
NODE	IL19
NODE	IL12B
NODE	il23A
NODE	IL22RA1
NODE	IL20
NODE	IL12A
SET	PWRN-IL12A-1-2	1.0
SET	PWRN-IL12A-1-1	1.0
SET	PWRN-IL12A-2-1	1.0
SET	PWRN-IL12A-2-2	1.0
SET	PWRN-IL12A-3-1	1.0
SET	PWRN-IL12A-4-1	1.0
SET	PWRN-IL12A-5-1	1.0
IN	PWRN-IL12A-5-1	PWRN-IL12A-1-2
IN	il23r	PWRN-IL12A-1-2
IN	IL12B	PWRN-IL12A-1-1
IN	il23A	PWRN-IL12A-1-1
IN	IL19	PWRN-IL12A-2-1
IN	IL20	PWRN-IL12A-2-1
IN	IL20RB	PWRN-IL12A-2-2
IN	il20ra	PWRN-IL12A-2-2
IN	ebi3	PWRN-IL12A-3-1
IN	il12rb2	PWRN-IL12A-3-1
IN	il10ra	PWRN-IL12A-4-1
IN	il10rb	PWRN-IL12A-4-1
IN	irf5	PWRN-IL12A-5-1
IN	IL12RB1	PWRN-IL12A-5-1
EDGE	PWRN-IL12A-1-1	PWRN-IL12A-1-2	1.0
EDGE	PWRN-IL12A-2-1	PWRN-IL12A-2-2	1.0
EDGE	IL12A	PWRN-IL12A-3-1	1.0
EDGE	PWRN-IL12A-4-1	il10	1.0
EDGE	IL12A	PWRN-IL12A-5-1	1.0
EDGE	IL12A	IL12B	1.0
EDGE	IL27	ebi3	1.0
EDGE	IL22RA1	il22ra2_3	1.0
EDGE	il23A	pex19	1.0
EDGE	il10rb	il22ra2_3	1.0
EDGE	il10	irf5	1.0
EDGE	il20ra	il26	1.0
EDGE	IL12B	il23A	1.0
EDGE	IL20	IL22RA1	1.0
EDGE	IL12B	il12rb2	1.0

# CONNECTED COMPONENT 268
NODE	HNRNPA2B1
NODE	zmym2
EDGE	HNRNPA2B1	zmym2	1.0

# CONNECTED COMPONENT 269
NODE	TNFRSF4
NODE	TNFSF4
EDGE	TNFRSF4	TNFSF4	1.0

# CONNECTED COMPONENT 270
NODE	il21
NODE	DGKA
EDGE	DGKA	il21	1.0

# CONNECTED COMPONENT 271
NODE	MMRN1
NODE	gata3
EDGE	MMRN1	gata3	1.0

# CONNECTED COMPONENT 272
NODE	cebpa
NODE	IL32
EDGE	IL32	cebpa	1.0

# CONNECTED COMPONENT 273
NODE	MICA
NODE	RAET1G
NODE	KLRK1
SET	PWRN-KLRK1-1-1	1.0
IN	MICA	PWRN-KLRK1-1-1
IN	RAET1G	PWRN-KLRK1-1-1
EDGE	KLRK1	PWRN-KLRK1-1-1	1.0

# CONNECTED COMPONENT 274
NODE	htr2a
NODE	pon2_2
EDGE	htr2a	pon2_2	1.0

# CONNECTED COMPONENT 275
NODE	pcsk6
NODE	rxrb
EDGE	pcsk6	rxrb	1.0

# CONNECTED COMPONENT 276
NODE	TNFRSF8
NODE	TNFSF8
EDGE	TNFRSF8	TNFSF8	1.0

# CONNECTED COMPONENT 277
NODE	ephA4
NODE	EFNA5
NODE	epha7
NODE	EFNA4
NODE	epha2
SET	PWRN-EFNA4-1-2	1.0
SET	PWRN-EFNA4-1-1	1.0
IN	ephA4	PWRN-EFNA4-1-2
IN	epha7	PWRN-EFNA4-1-2
IN	EFNA4	PWRN-EFNA4-1-1
IN	EFNA5	PWRN-EFNA4-1-1
EDGE	PWRN-EFNA4-1-1	PWRN-EFNA4-1-2	1.0
EDGE	EFNA5	epha2	1.0

# CONNECTED COMPONENT 278
NODE	ptp4a2
NODE	map2k6
NODE	MAPK14_2
NODE	MAP2K3
NODE	EPHB2
SET	PWRN-EPHB2-1-1	1.0
IN	map2k6	PWRN-EPHB2-1-1
IN	MAP2K3	PWRN-EPHB2-1-1
IN	EPHB2	PWRN-EPHB2-1-1
EDGE	MAPK14_2	PWRN-EPHB2-1-1	1.0
EDGE	EPHB2	ptp4a2	1.0

# CONNECTED COMPONENT 279
NODE	Alkal1
NODE	ltk
EDGE	Alkal1	ltk	1.0

# CONNECTED COMPONENT 280
NODE	AQP1
NODE	mapre2
NODE	morn4
NODE	crtac1
SET	PWRN-AQP1-1-1	1.0
IN	AQP1	PWRN-AQP1-1-1
IN	mapre2	PWRN-AQP1-1-1
IN	morn4	PWRN-AQP1-1-1
EDGE	PWRN-AQP1-1-1	crtac1	1.0

# CONNECTED COMPONENT 281
NODE	cdc27
NODE	GKN1
EDGE	GKN1	cdc27	1.0

# CONNECTED COMPONENT 282
NODE	CLEC4C
NODE	fcer1g
EDGE	CLEC4C	fcer1g	1.0

# CONNECTED COMPONENT 283
NODE	wee1
NODE	BRPF3
EDGE	BRPF3	wee1	1.0

# CONNECTED COMPONENT 284
NODE	adsl
NODE	NOV
EDGE	NOV	adsl	1.0

# CONNECTED COMPONENT 285
NODE	ntsr1
NODE	nts
EDGE	nts	ntsr1	1.0

# CONNECTED COMPONENT 286
NODE	LCN1
NODE	khk
EDGE	LCN1	khk	1.0

# CONNECTED COMPONENT 287
NODE	SPHK1
NODE	mybpc3
NODE	vwa5b2
NODE	xrn1
NODE	coro1a
NODE	spata20
NODE	st6galnac4
NODE	dpp7
SET	PWRN-SPHK1-1-1	1.0
SET	PWRN-SPHK1-2-1	1.0
IN	xrn1	PWRN-SPHK1-1-1
IN	coro1a	PWRN-SPHK1-1-1
IN	st6galnac4	PWRN-SPHK1-1-1
IN	mybpc3	PWRN-SPHK1-1-1
IN	vwa5b2	PWRN-SPHK1-2-1
IN	dpp7	PWRN-SPHK1-2-1
EDGE	PWRN-SPHK1-1-1	spata20	1.0
EDGE	PWRN-SPHK1-2-1	xrn1	1.0
EDGE	SPHK1	dpp7	1.0

# CONNECTED COMPONENT 288
NODE	ptp4a1
NODE	ZNF212
NODE	gdi1
NODE	gnl1
SET	PWRN-ZNF212-1-1	1.0
IN	ptp4a1	PWRN-ZNF212-1-1
IN	ZNF212	PWRN-ZNF212-1-1
IN	gdi1	PWRN-ZNF212-1-1
EDGE	PWRN-ZNF212-1-1	gnl1	1.0

# CONNECTED COMPONENT 289
NODE	aes_2
NODE	SFN_2
NODE	IKZF3
NODE	MKRN3
NODE	cabp4_2
NODE	lnx2
SET	PWRN-IKZF3-1-1	1.0
IN	lnx2	PWRN-IKZF3-1-1
IN	aes_2	PWRN-IKZF3-1-1
IN	IKZF3	PWRN-IKZF3-1-1
EDGE	PWRN-IKZF3-1-1	cabp4_2	1.0
EDGE	MKRN3	SFN_2	1.0
EDGE	SFN_2	lnx2	1.0

# CONNECTED COMPONENT 290
NODE	nup58
NODE	GDF15
NODE	setd4
NODE	dctd
NODE	ngrn
NODE	MRPL50
NODE	clpp
NODE	TST
SET	PWRN-GDF15-1-1	1.0
SET	PWRN-GDF15-2-1	1.0
IN	MRPL50	PWRN-GDF15-1-1
IN	nup58	PWRN-GDF15-1-1
IN	setd4	PWRN-GDF15-1-1
IN	TST	PWRN-GDF15-2-1
IN	ngrn	PWRN-GDF15-2-1
EDGE	GDF15	PWRN-GDF15-1-1	1.0
EDGE	MRPL50	PWRN-GDF15-2-1	1.0
EDGE	dctd	ngrn	1.0
EDGE	TST	clpp	1.0

# CONNECTED COMPONENT 291
NODE	NTRK2
NODE	NTF4
EDGE	NTF4	NTRK2	1.0

# CONNECTED COMPONENT 292
NODE	shmt2
NODE	CLEC2D_2
EDGE	CLEC2D_2	shmt2	1.0

# CONNECTED COMPONENT 293
NODE	fgf12
NODE	scn1a
NODE	SCN5A
NODE	fgf13_2
NODE	fgf13
SET	PWRN-SCN5A-1-1	1.0
IN	fgf12	PWRN-SCN5A-1-1
IN	fgf13	PWRN-SCN5A-1-1
IN	fgf13_2	PWRN-SCN5A-1-1
EDGE	PWRN-SCN5A-1-1	SCN5A	1.0
EDGE	fgf12	scn1a	1.0

# CONNECTED COMPONENT 294
NODE	PSG5
NODE	tie1
EDGE	PSG5	tie1	1.0

# CONNECTED COMPONENT 295
NODE	CLEC9A
NODE	TMOD3
NODE	add1_2
SET	PWRN-CLEC9A-1-1	1.0
IN	TMOD3	PWRN-CLEC9A-1-1
IN	add1_2	PWRN-CLEC9A-1-1
EDGE	CLEC9A	PWRN-CLEC9A-1-1	1.0

# CONNECTED COMPONENT 296
NODE	ddit3_2
NODE	TWEAK
EDGE	TWEAK	ddit3_2	1.0

# CONNECTED COMPONENT 297
NODE	myl6
NODE	myh11
EDGE	myh11	myl6	1.0

# CONNECTED COMPONENT 298
NODE	arr3
NODE	RNASE6
EDGE	RNASE6	arr3	1.0

# CONNECTED COMPONENT 299
NODE	LTBR
NODE	LTB
EDGE	LTB	LTBR	1.0

# CONNECTED COMPONENT 300
NODE	serpinf1
NODE	EPM2AIP1
EDGE	EPM2AIP1	serpinf1	1.0

# CONNECTED COMPONENT 301
NODE	c1qtnf2
NODE	hpcal1
NODE	NCALD
SET	PWRN-NCALD-1-1	1.0
IN	hpcal1	PWRN-NCALD-1-1
IN	NCALD	PWRN-NCALD-1-1
EDGE	PWRN-NCALD-1-1	c1qtnf2	1.0

# CONNECTED COMPONENT 302
NODE	gdnf
NODE	agtrap_2
EDGE	agtrap_2	gdnf	1.0

# CONNECTED COMPONENT 303
NODE	mpl
NODE	APH1A
NODE	thpo
NODE	numbl
SET	PWRN-APH1A-1-1	1.0
IN	APH1A	PWRN-APH1A-1-1
IN	numbl	PWRN-APH1A-1-1
IN	mpl	PWRN-APH1A-1-1
EDGE	PWRN-APH1A-1-1	thpo	1.0

# CONNECTED COMPONENT 304
NODE	ing1
NODE	ctrl
EDGE	ctrl	ing1	1.0

# CONNECTED COMPONENT 305
NODE	oprl1
NODE	pnoc
EDGE	oprl1	pnoc	1.0

# CONNECTED COMPONENT 306
NODE	CD200R1
NODE	CD200
EDGE	CD200	CD200R1	1.0

# CONNECTED COMPONENT 307
NODE	zmiz2
NODE	ncs1
NODE	NBL1
SET	PWRN-NBL1-1-1	1.0
IN	zmiz2	PWRN-NBL1-1-1
IN	ncs1	PWRN-NBL1-1-1
EDGE	NBL1	PWRN-NBL1-1-1	1.0

# CONNECTED COMPONENT 308
NODE	RARRES2
NODE	ctsk
EDGE	RARRES2	ctsk	1.0

# CONNECTED COMPONENT 309
NODE	CTF1
NODE	MAGEA6
NODE	taf7
SET	PWRN-CTF1-1-1	1.0
IN	taf7	PWRN-CTF1-1-1
IN	MAGEA6	PWRN-CTF1-1-1
EDGE	CTF1	PWRN-CTF1-1-1	1.0

# CONNECTED COMPONENT 310
NODE	KIR2DL2
NODE	KIR2DL3
NODE	KIR2DS4
NODE	HLA-C_2
SET	PWRN-HLA-C_2-1-1	1.0
IN	KIR2DL2	PWRN-HLA-C_2-1-1
IN	KIR2DL3	PWRN-HLA-C_2-1-1
IN	KIR2DS4	PWRN-HLA-C_2-1-1
EDGE	HLA-C_2	PWRN-HLA-C_2-1-1	1.0

# CONNECTED COMPONENT 311
NODE	XCR1
NODE	XCL1
EDGE	XCL1	XCR1	1.0

# CONNECTED COMPONENT 312
NODE	lims1_2
NODE	adamts9
EDGE	adamts9	lims1_2	1.0

# CONNECTED COMPONENT 313
NODE	gramd1c
NODE	bcl7a
NODE	cd151
SET	PWRN-bcl7a-1-1	1.0
IN	gramd1c	PWRN-bcl7a-1-1
IN	bcl7a	PWRN-bcl7a-1-1
EDGE	PWRN-bcl7a-1-1	cd151	1.0

# CONNECTED COMPONENT 314
NODE	cd97
NODE	KNL1
EDGE	KNL1	cd97	1.0

# CONNECTED COMPONENT 315
NODE	CX3CR1
NODE	CCL26
EDGE	CCL26	CX3CR1	1.0

# CONNECTED COMPONENT 316
NODE	slc11a2
NODE	ndfip1
EDGE	ndfip1	slc11a2	1.0

# CONNECTED COMPONENT 317
NODE	vash1
NODE	dhps
EDGE	dhps	vash1	1.0

# CONNECTED COMPONENT 318
NODE	ube2a
NODE	CMTM2
EDGE	CMTM2	ube2a	1.0

# CONNECTED COMPONENT 319
NODE	arl4d
NODE	cnpy4
EDGE	arl4d	cnpy4	1.0

# CONNECTED COMPONENT 320
NODE	lig4
NODE	pnkp
NODE	gzmk
SET	PWRN-gzmk-1-1	1.0
IN	lig4	PWRN-gzmk-1-1
IN	pnkp	PWRN-gzmk-1-1
EDGE	PWRN-gzmk-1-1	gzmk	1.0

# CONNECTED COMPONENT 321
NODE	tra2b
NODE	lum
NODE	gnaq
NODE	ppt1
SET	PWRN-gnaq-1-1	1.0
IN	lum	PWRN-gnaq-1-1
IN	ppt1	PWRN-gnaq-1-1
EDGE	PWRN-gnaq-1-1	gnaq	1.0
EDGE	lum	tra2b	1.0

# CONNECTED COMPONENT 322
NODE	mecp2_2
NODE	ap4s1
EDGE	ap4s1	mecp2_2	1.0

# CONNECTED COMPONENT 323
NODE	sema3b
NODE	bod1l1
NODE	usp11
SET	PWRN-bod1l1-1-1	1.0
IN	bod1l1	PWRN-bod1l1-1-1
IN	usp11	PWRN-bod1l1-1-1
EDGE	PWRN-bod1l1-1-1	sema3b	1.0

# CONNECTED COMPONENT 324
NODE	myef2
NODE	hnrnpm_2
EDGE	hnrnpm_2	myef2	1.0

# CONNECTED COMPONENT 325
NODE	tmem25
NODE	FAM19A1
NODE	rabggtb
SET	PWRN-FAM19A1-1-1	1.0
IN	tmem25	PWRN-FAM19A1-1-1
IN	FAM19A1	PWRN-FAM19A1-1-1
EDGE	PWRN-FAM19A1-1-1	rabggtb	1.0

# CONNECTED COMPONENT 326
NODE	ist1_2
NODE	chmp1b
EDGE	chmp1b	ist1_2	1.0

# CONNECTED COMPONENT 327
NODE	ubn2
NODE	hira
EDGE	hira	ubn2	1.0

# CONNECTED COMPONENT 328
NODE	HAP1
NODE	noa1
NODE	Collagen-IX
SET	PWRN-Collagen-IX-1-1	1.0
IN	HAP1	PWRN-Collagen-IX-1-1
IN	noa1	PWRN-Collagen-IX-1-1
EDGE	Collagen-IX	PWRN-Collagen-IX-1-1	1.0

# CONNECTED COMPONENT 329
NODE	EPHB3
NODE	GBE1
NODE	nfrkb
SET	PWRN-EPHB3-1-1	1.0
IN	GBE1	PWRN-EPHB3-1-1
IN	nfrkb	PWRN-EPHB3-1-1
EDGE	EPHB3	PWRN-EPHB3-1-1	1.0

# CONNECTED COMPONENT 330
NODE	SLURP1
NODE	asxl2
EDGE	SLURP1	asxl2	1.0

# CONNECTED COMPONENT 331
NODE	rras2
NODE	KIAA1549
NODE	LGALS4
SET	PWRN-KIAA1549-1-1	1.0
IN	rras2	PWRN-KIAA1549-1-1
IN	KIAA1549	PWRN-KIAA1549-1-1
EDGE	LGALS4	PWRN-KIAA1549-1-1	1.0

# CONNECTED COMPONENT 332
NODE	P2RX4
NODE	WNT4
EDGE	P2RX4	WNT4	1.0

# CONNECTED COMPONENT 333
NODE	ELOC
NODE	WNT7B
EDGE	ELOC	WNT7B	1.0

# CONNECTED COMPONENT 334
NODE	jam3
NODE	jam2
NODE	pard3
SET	PWRN-jam2-1-1	1.0
IN	jam2	PWRN-jam2-1-1
IN	pard3	PWRN-jam2-1-1
EDGE	PWRN-jam2-1-1	jam3	1.0

# CONNECTED COMPONENT 335
NODE	GSDMD
NODE	KCTD6
EDGE	GSDMD	KCTD6	1.0

# CONNECTED COMPONENT 336
NODE	KRTAP12-2
NODE	KRTAP4-2
NODE	tinagl1
SET	PWRN-KRTAP12-2-1-1	1.0
IN	KRTAP12-2	PWRN-KRTAP12-2-1-1
IN	KRTAP4-2	PWRN-KRTAP12-2-1-1
EDGE	PWRN-KRTAP12-2-1-1	tinagl1	1.0

# CONNECTED COMPONENT 337
NODE	vps16
NODE	C1QTNF6
NODE	ANAPC15
NODE	gnptg
SET	PWRN-ANAPC15-1-1	1.0
IN	C1QTNF6	PWRN-ANAPC15-1-1
IN	gnptg	PWRN-ANAPC15-1-1
EDGE	ANAPC15	PWRN-ANAPC15-1-1	1.0
EDGE	C1QTNF6	vps16	1.0

# CONNECTED COMPONENT 338
NODE	rspry1
NODE	ube2d2
NODE	ube2d3
SET	PWRN-rspry1-1-1	1.0
IN	ube2d2	PWRN-rspry1-1-1
IN	ube2d3	PWRN-rspry1-1-1
EDGE	PWRN-rspry1-1-1	rspry1	1.0

# CONNECTED COMPONENT 339
NODE	MUC3A
NODE	bcan
NODE	pcbd1
NODE	TFF3
SET	PWRN-MUC3A-1-1	1.0
IN	MUC3A	PWRN-MUC3A-1-1
IN	pcbd1	PWRN-MUC3A-1-1
EDGE	PWRN-MUC3A-1-1	TFF3	1.0
EDGE	bcan	pcbd1	1.0

# CONNECTED COMPONENT 340
NODE	polh
NODE	rab11a
NODE	gtpbp2_2
NODE	rab11fip4
NODE	arf5
SET	PWRN-arf5-1-1	1.0
IN	arf5	PWRN-arf5-1-1
IN	rab11a	PWRN-arf5-1-1
EDGE	PWRN-arf5-1-1	rab11fip4	1.0
EDGE	gtpbp2_2	rab11a	1.0
EDGE	gtpbp2_2	polh	1.0

# CONNECTED COMPONENT 341
NODE	cxadr
NODE	JAML
EDGE	JAML	cxadr	1.0

# CONNECTED COMPONENT 342
NODE	GPC5
NODE	dcps
EDGE	GPC5	dcps	1.0

# CONNECTED COMPONENT 343
NODE	TIGIT
NODE	ERH
NODE	NECTIN2
NODE	NECTIN4
SET	PWRN-ERH-1-1	1.0
IN	TIGIT	PWRN-ERH-1-1
IN	ERH	PWRN-ERH-1-1
IN	NECTIN2	PWRN-ERH-1-1
EDGE	NECTIN4	PWRN-ERH-1-1	1.0

# CONNECTED COMPONENT 344
NODE	fam3a_2
NODE	PACRGL
EDGE	PACRGL	fam3a_2	1.0

# CONNECTED COMPONENT 345
NODE	TIMP4
NODE	PEX
EDGE	PEX	TIMP4	1.0

# CONNECTED COMPONENT 346
NODE	PATE1
NODE	SERTAD1
NODE	INCA1
SET	PWRN-INCA1-1-1	1.0
IN	SERTAD1	PWRN-INCA1-1-1
IN	INCA1	PWRN-INCA1-1-1
EDGE	PATE1	PWRN-INCA1-1-1	1.0

# CONNECTED COMPONENT 347
NODE	USP17L24
NODE	adamts1
EDGE	USP17L24	adamts1	1.0

# CONNECTED COMPONENT 348
NODE	rspo1
NODE	znrf3
EDGE	rspo1	znrf3	1.0

# CONNECTED COMPONENT 349
NODE	ralgapb
NODE	ralgapa2
EDGE	ralgapa2	ralgapb	1.0

# CONNECTED COMPONENT 350
NODE	LGALSL
NODE	mad1l1
EDGE	LGALSL	mad1l1	1.0

# CONNECTED COMPONENT 351
NODE	mest
NODE	cmtm3
NODE	mob3c
SET	PWRN-cmtm3-1-1	1.0
IN	mob3c	PWRN-cmtm3-1-1
IN	mest	PWRN-cmtm3-1-1
EDGE	PWRN-cmtm3-1-1	cmtm3	1.0

# CONNECTED COMPONENT 352
NODE	PLAC9
NODE	RAPGEF5
NODE	RNF213
NODE	ccdc14
SET	PWRN-PLAC9-1-1	1.0
IN	RAPGEF5	PWRN-PLAC9-1-1
IN	RNF213	PWRN-PLAC9-1-1
IN	ccdc14	PWRN-PLAC9-1-1
EDGE	PLAC9	PWRN-PLAC9-1-1	1.0

# CONNECTED COMPONENT 353
NODE	CAMK2D
NODE	epha10
NODE	banp
NODE	Collagen-X
SET	PWRN-CAMK2D-1-1	1.0
IN	banp	PWRN-CAMK2D-1-1
IN	CAMK2D	PWRN-CAMK2D-1-1
EDGE	PWRN-CAMK2D-1-1	epha10	1.0
EDGE	Collagen-X	banp	1.0

# CONNECTED COMPONENT 354
NODE	colec12
NODE	exoc1
EDGE	colec12	exoc1	1.0

# CONNECTED COMPONENT 355
NODE	Leg1
NODE	LDLRAP1
EDGE	LDLRAP1	Leg1	1.0

# CONNECTED COMPONENT 356
NODE	mrpl2
NODE	cmtm4
EDGE	cmtm4	mrpl2	1.0

# CONNECTED COMPONENT 357
NODE	cfap58
NODE	NAV2
EDGE	NAV2	cfap58	1.0

# CONNECTED COMPONENT 358
NODE	ndufa13
NODE	nod1
NODE	OLFM4
NODE	LDLRAD1
SET	PWRN-LDLRAD1-1-1	1.0
IN	ndufa13	PWRN-LDLRAD1-1-1
IN	nod1	PWRN-LDLRAD1-1-1
IN	LDLRAD1	PWRN-LDLRAD1-1-1
EDGE	OLFM4	PWRN-LDLRAD1-1-1	1.0

# CONNECTED COMPONENT 359
NODE	rnaseh2b
NODE	CEP164
EDGE	CEP164	rnaseh2b	1.0

# CONNECTED COMPONENT 360
NODE	C1orf189
NODE	PTGES2
EDGE	C1orf189	PTGES2	1.0

# CONNECTED COMPONENT 361
NODE	LIPM
NODE	cnot8
EDGE	LIPM	cnot8	1.0

# CONNECTED COMPONENT 362
NODE	CLEC6A
NODE	CLEC4D
EDGE	CLEC4D	CLEC6A	1.0

# CONNECTED COMPONENT 363
NODE	RNF31_2
NODE	vasn
EDGE	RNF31_2	vasn	1.0

# CONNECTED COMPONENT 364
NODE	CCL4L1
NODE	ADAM33_2
NODE	slc30a2
NODE	lta_2
SET	PWRN-ADAM33_2-1-1	1.0
IN	CCL4L1	PWRN-ADAM33_2-1-1
IN	ADAM33_2	PWRN-ADAM33_2-1-1
IN	lta_2	PWRN-ADAM33_2-1-1
EDGE	PWRN-ADAM33_2-1-1	slc30a2	1.0

# CONNECTED COMPONENT 365
NODE	MR1
NODE	prrg2_2
NODE	CCDC70
NODE	FATE1
NODE	NRG4
SET	PWRN-CCDC70-1-1	1.0
IN	CCDC70	PWRN-CCDC70-1-1
IN	prrg2_2	PWRN-CCDC70-1-1
IN	MR1	PWRN-CCDC70-1-1
IN	NRG4	PWRN-CCDC70-1-1
EDGE	FATE1	PWRN-CCDC70-1-1	1.0

# CONNECTED COMPONENT 366
NODE	agtrap
NODE	BPIFA2
EDGE	BPIFA2	agtrap	1.0

# CONNECTED COMPONENT 367
NODE	igflr1
NODE	IGFL1
NODE	Igfl3
NODE	IGFL2
SET	PWRN-IGFL1-1-1	1.0
IN	IGFL2	PWRN-IGFL1-1-1
IN	IGFL1	PWRN-IGFL1-1-1
IN	Igfl3	PWRN-IGFL1-1-1
EDGE	PWRN-IGFL1-1-1	igflr1	1.0

# CONNECTED COMPONENT 368
NODE	SBSN
NODE	polk
EDGE	SBSN	polk	1.0

# CONNECTED COMPONENT 369
NODE	XAGE3
NODE	LYZL1
EDGE	LYZL1	XAGE3	1.0

# CONNECTED COMPONENT 370
NODE	AMBN
NODE	fam20a
NODE	ENAM
NODE	AMTN
SET	PWRN-AMBN-1-1	1.0
IN	AMBN	PWRN-AMBN-1-1
IN	ENAM	PWRN-AMBN-1-1
IN	AMTN	PWRN-AMBN-1-1
EDGE	PWRN-AMBN-1-1	fam20a	1.0

# CONNECTED COMPONENT 371
NODE	plxdc2
NODE	ZBP1
EDGE	ZBP1	plxdc2	1.0

# CONNECTED COMPONENT 372
NODE	fam131a
NODE	S100A13
NODE	PHYHIP
NODE	irf9
SET	PWRN-PHYHIP-1-1	1.0
IN	S100A13	PWRN-PHYHIP-1-1
IN	fam131a	PWRN-PHYHIP-1-1
EDGE	PHYHIP	PWRN-PHYHIP-1-1	1.0
EDGE	S100A13	irf9	1.0

# CONNECTED COMPONENT 373
NODE	ANGPTL8
NODE	angptl3
EDGE	ANGPTL8	angptl3	1.0

# CONNECTED COMPONENT 374
NODE	brk1
NODE	lrig3
NODE	PCDHA6
SET	PWRN-PCDHA6-1-1	1.0
IN	lrig3	PWRN-PCDHA6-1-1
IN	PCDHA6	PWRN-PCDHA6-1-1
EDGE	PWRN-PCDHA6-1-1	brk1	1.0

# CONNECTED COMPONENT 375
NODE	ndufa12
NODE	apool
EDGE	apool	ndufa12	1.0

# CONNECTED COMPONENT 376
NODE	fras1
NODE	bcor
EDGE	bcor	fras1	1.0

# CONNECTED COMPONENT 377
NODE	naprt
NODE	GRAMD2B
EDGE	GRAMD2B	naprt	1.0

# CONNECTED COMPONENT 378
NODE	gatd1
NODE	ppp1r21
EDGE	gatd1	ppp1r21	1.0

# CONNECTED COMPONENT 379
NODE	ccdc94
NODE	EMILIN1
NODE	nmi
NODE	necab2
NODE	POMZP3
SET	PWRN-EMILIN1-1-1	1.0
IN	nmi	PWRN-EMILIN1-1-1
IN	ccdc94	PWRN-EMILIN1-1-1
IN	necab2	PWRN-EMILIN1-1-1
EDGE	EMILIN1	PWRN-EMILIN1-1-1	1.0
EDGE	POMZP3	nmi	1.0

# CONNECTED COMPONENT 380
NODE	adamtsl2
NODE	necab2_2
EDGE	adamtsl2	necab2_2	1.0

# CONNECTED COMPONENT 381
NODE	bnipl
NODE	pxdn
EDGE	bnipl	pxdn	1.0

# CONNECTED COMPONENT 382
NODE	cd209
NODE	LPAL2
NODE	vac14
NODE	PRADC1
SET	PWRN-LPAL2-1-1	1.0
IN	cd209	PWRN-LPAL2-1-1
IN	LPAL2	PWRN-LPAL2-1-1
IN	PRADC1	PWRN-LPAL2-1-1
EDGE	PWRN-LPAL2-1-1	vac14	1.0

# CONNECTED COMPONENT 383
NODE	IFNL1
NODE	ifnlr1
EDGE	IFNL1	ifnlr1	1.0

# CONNECTED COMPONENT 384
NODE	IGSF1
NODE	hectd1
EDGE	IGSF1	hectd1	1.0

# CONNECTED COMPONENT 385
NODE	L3MBTL4
NODE	pdgfc
EDGE	L3MBTL4	pdgfc	1.0

# CONNECTED COMPONENT 386
NODE	MLKL
NODE	GLG1
EDGE	GLG1	MLKL	1.0

# CONNECTED COMPONENT 387
NODE	nhlrc2
NODE	cep76
EDGE	cep76	nhlrc2	1.0

# CONNECTED COMPONENT 388
NODE	nhlrc2_2
NODE	ANKS1A
EDGE	ANKS1A	nhlrc2_2	1.0

# CONNECTED COMPONENT 389
NODE	HSD17B11
NODE	brf2
EDGE	HSD17B11	brf2	1.0

# CONNECTED COMPONENT 390
NODE	hpse
NODE	retreg2
NODE	fbxo7
SET	PWRN-fbxo7-1-1	1.0
IN	fbxo7	PWRN-fbxo7-1-1
IN	retreg2	PWRN-fbxo7-1-1
EDGE	PWRN-fbxo7-1-1	hpse	1.0

# CONNECTED COMPONENT 391
NODE	nfkbil1
NODE	CLEC18C
EDGE	CLEC18C	nfkbil1	1.0

# CONNECTED COMPONENT 392
NODE	IL17RB
NODE	IL17B
NODE	il17rd
NODE	IL25
SET	PWRN-IL17B-1-1	1.0
IN	IL17B	PWRN-IL17B-1-1
IN	il17rd	PWRN-IL17B-1-1
IN	IL25	PWRN-IL17B-1-1
EDGE	IL17RB	PWRN-IL17B-1-1	1.0

# CONNECTED COMPONENT 393
NODE	VSTM2A
NODE	MSANTD3
EDGE	MSANTD3	VSTM2A	1.0

# CONNECTED COMPONENT 394
NODE	aktip
NODE	dmxl2
NODE	emid1
SET	PWRN-aktip-1-1	1.0
IN	dmxl2	PWRN-aktip-1-1
IN	emid1	PWRN-aktip-1-1
EDGE	PWRN-aktip-1-1	aktip	1.0

# CONNECTED COMPONENT 395
NODE	RXFP4
NODE	rln3
EDGE	RXFP4	rln3	1.0

# CONNECTED COMPONENT 396
NODE	lrrc4c
NODE	CREB3L4
NODE	NTNG2
NODE	NTNG1
NODE	LRRC4
SET	PWRN-CREB3L4-1-1	1.0
SET	PWRN-CREB3L4-1-2	1.0
IN	lrrc4c	PWRN-CREB3L4-1-1
IN	LRRC4	PWRN-CREB3L4-1-1
IN	NTNG2	PWRN-CREB3L4-1-2
IN	NTNG1	PWRN-CREB3L4-1-2
EDGE	PWRN-CREB3L4-1-1	PWRN-CREB3L4-1-2	1.0
EDGE	CREB3L4	lrrc4c	1.0

# CONNECTED COMPONENT 397
NODE	DDI1
NODE	CCL28
EDGE	CCL28	DDI1	1.0

# CONNECTED COMPONENT 398
NODE	TMEM79
NODE	TEX264
EDGE	TEX264	TMEM79	1.0

# CONNECTED COMPONENT 399
NODE	timmdc1
NODE	APOO
EDGE	APOO	timmdc1	1.0

# CONNECTED COMPONENT 400
NODE	map1lc3c
NODE	LACRT
EDGE	LACRT	map1lc3c	1.0

# CONNECTED COMPONENT 401
NODE	nif3l1
NODE	fam49b
EDGE	fam49b	nif3l1	1.0

# CONNECTED COMPONENT 402
NODE	mtcl1_2
NODE	rnf41
EDGE	mtcl1_2	rnf41	1.0

# CONNECTED COMPONENT 403
NODE	mtmr4
NODE	HIPK3
NODE	tbrg4
SET	PWRN-HIPK3-1-1	1.0
IN	HIPK3	PWRN-HIPK3-1-1
IN	tbrg4	PWRN-HIPK3-1-1
EDGE	PWRN-HIPK3-1-1	mtmr4	1.0

# CONNECTED COMPONENT 404
NODE	C14orf93
NODE	MRFAP1
EDGE	C14orf93	MRFAP1	1.0

# CONNECTED COMPONENT 405
NODE	ADGRL3
NODE	flrt3
EDGE	ADGRL3	flrt3	1.0

# CONNECTED COMPONENT 406
NODE	cdh7
NODE	klb
NODE	fgf21
SET	PWRN-cdh7-1-1	1.0
IN	cdh7	PWRN-cdh7-1-1
IN	klb	PWRN-cdh7-1-1
EDGE	PWRN-cdh7-1-1	fgf21	1.0

# CONNECTED COMPONENT 407
NODE	nagk
NODE	actr10
EDGE	actr10	nagk	1.0

# CONNECTED COMPONENT 408
NODE	SERPINA10
NODE	PIAS3
EDGE	PIAS3	SERPINA10	1.0

# CONNECTED COMPONENT 409
NODE	tnfsf18
NODE	tnfrsf18
EDGE	tnfrsf18	tnfsf18	1.0

# CONNECTED COMPONENT 410
NODE	chdh
NODE	SEZ6
EDGE	SEZ6	chdh	1.0

# CONNECTED COMPONENT 411
NODE	RTN4RL2
NODE	nudcd2
EDGE	RTN4RL2	nudcd2	1.0

# CONNECTED COMPONENT 412
NODE	CLEC1B
NODE	PDPN
EDGE	CLEC1B	PDPN	1.0

# CONNECTED COMPONENT 413
NODE	cpb2
NODE	tmem45b
NODE	TINAG
SET	PWRN-TINAG-1-1	1.0
IN	cpb2	PWRN-TINAG-1-1
IN	tmem45b	PWRN-TINAG-1-1
EDGE	PWRN-TINAG-1-1	TINAG	1.0

# CONNECTED COMPONENT 414
NODE	usp25
NODE	ZG16B
EDGE	ZG16B	usp25	1.0

# CONNECTED COMPONENT 415
NODE	ASB9
NODE	HEL-S-29
EDGE	ASB9	HEL-S-29	1.0

# CONNECTED COMPONENT 416
NODE	KLK15
NODE	hook2
EDGE	KLK15	hook2	1.0

# CONNECTED COMPONENT 417
NODE	edc3
NODE	ANXA10
EDGE	ANXA10	edc3	1.0

# CONNECTED COMPONENT 418
NODE	PGLYRP4
NODE	PGLYRP3
EDGE	PGLYRP3	PGLYRP4	1.0

# CONNECTED COMPONENT 419
NODE	robo3_2
NODE	NELL2
EDGE	NELL2	robo3_2	1.0

# CONNECTED COMPONENT 420
NODE	SCGB3A2
NODE	marco
EDGE	SCGB3A2	marco	1.0

# CONNECTED COMPONENT 421
NODE	EGFL8
NODE	rmdn3
EDGE	EGFL8	rmdn3	1.0

# CONNECTED COMPONENT 422
NODE	crlf2
NODE	TSLP
EDGE	TSLP	crlf2	1.0

# CONNECTED COMPONENT 423
NODE	dtx1
NODE	Defa5
EDGE	Defa5	dtx1	1.0

# CONNECTED COMPONENT 424
NODE	xylt1
NODE	mef2a
EDGE	mef2a	xylt1	1.0

# CONNECTED COMPONENT 425
NODE	cdk10
NODE	SEMG2
EDGE	SEMG2	cdk10	1.0

# CONNECTED COMPONENT 426
NODE	shkbp1
NODE	fbxl2
NODE	zc3h7a
NODE	mia3
NODE	Collagen-VII_2
SET	PWRN-Collagen-VII_2-1-1	1.0
IN	shkbp1	PWRN-Collagen-VII_2-1-1
IN	fbxl2	PWRN-Collagen-VII_2-1-1
IN	zc3h7a	PWRN-Collagen-VII_2-1-1
IN	mia3	PWRN-Collagen-VII_2-1-1
EDGE	Collagen-VII_2	PWRN-Collagen-VII_2-1-1	1.0

# CONNECTED COMPONENT 427
NODE	TFF2
NODE	FCRL4
EDGE	FCRL4	TFF2	1.0

# CONNECTED COMPONENT 428
NODE	tyro3
NODE	KLK4
NODE	gas6
SET	PWRN-KLK4-1-1	1.0
IN	KLK4	PWRN-KLK4-1-1
IN	gas6	PWRN-KLK4-1-1
EDGE	PWRN-KLK4-1-1	tyro3	1.0

# CONNECTED COMPONENT 429
NODE	SPON1
NODE	aplp2
EDGE	SPON1	aplp2	1.0

# CONNECTED COMPONENT 430
NODE	dmtn
NODE	PROCR
EDGE	PROCR	dmtn	1.0

# CONNECTED COMPONENT 431
NODE	sec23a
NODE	galnt1
EDGE	galnt1	sec23a	1.0

# CONNECTED COMPONENT 432
NODE	HYAL2
NODE	Krtap3-2
EDGE	HYAL2	Krtap3-2	1.0

# CONNECTED COMPONENT 433
NODE	KLRB1
NODE	CLEC2D
EDGE	CLEC2D	KLRB1	1.0

# CONNECTED COMPONENT 434
NODE	KIF13B
NODE	dlg1
NODE	adgra2
NODE	adgra3_2
SET	PWRN-KIF13B-1-1	1.0
IN	KIF13B	PWRN-KIF13B-1-1
IN	adgra2	PWRN-KIF13B-1-1
IN	adgra3_2	PWRN-KIF13B-1-1
EDGE	PWRN-KIF13B-1-1	dlg1	1.0

# CONNECTED COMPONENT 435
NODE	slc35g2
NODE	SEMA3F
EDGE	SEMA3F	slc35g2	1.0

# CONNECTED COMPONENT 436
NODE	rsg1
NODE	MSLN
EDGE	MSLN	rsg1	1.0

# CONNECTED COMPONENT 437
NODE	adam9
NODE	MAD2L2
EDGE	MAD2L2	adam9	1.0

# CONNECTED COMPONENT 438
NODE	ART3
NODE	alcam
EDGE	ART3	alcam	1.0

# CONNECTED COMPONENT 439
NODE	SEMA4G_2
NODE	CAMK2B
EDGE	CAMK2B	SEMA4G_2	1.0

# CONNECTED COMPONENT 440
NODE	cabp1_2
NODE	cacna1c_2
EDGE	cabp1_2	cacna1c_2	1.0

# CONNECTED COMPONENT 441
NODE	cacna1c
NODE	cabp1
EDGE	cabp1	cacna1c	1.0

# CONNECTED COMPONENT 442
NODE	dpysl2
NODE	dpysl3_2
EDGE	dpysl2	dpysl3_2	1.0

# CONNECTED COMPONENT 443
NODE	EMC2
NODE	emc10
EDGE	EMC2	emc10	1.0

# CONNECTED COMPONENT 444
NODE	postn
NODE	trappc2l
EDGE	postn	trappc2l	1.0

# CONNECTED COMPONENT 445
NODE	PDCD1
NODE	PDCD1LG2
EDGE	PDCD1	PDCD1LG2	1.0

# CONNECTED COMPONENT 446
NODE	ErbB4_2
NODE	ITCH_2
EDGE	ErbB4_2	ITCH_2	1.0

# CONNECTED COMPONENT 447
NODE	rbbp8
NODE	igfbp7
EDGE	igfbp7	rbbp8	1.0

# CONNECTED COMPONENT 448
NODE	lama3
NODE	slc35e1
EDGE	lama3	slc35e1	1.0

# CONNECTED COMPONENT 449
NODE	immt_2
NODE	pla2g15
EDGE	immt_2	pla2g15	1.0

# CONNECTED COMPONENT 450
NODE	tfr2
NODE	HFE
EDGE	HFE	tfr2	1.0

# CONNECTED COMPONENT 451
NODE	SH3GL1
NODE	b3gat1
NODE	DMA
SET	PWRN-DMA-1-1	1.0
IN	SH3GL1	PWRN-DMA-1-1
IN	DMA	PWRN-DMA-1-1
EDGE	PWRN-DMA-1-1	b3gat1	1.0

# CONNECTED COMPONENT 452
NODE	LAMP3
NODE	ABCA3
EDGE	ABCA3	LAMP3	1.0
