Collagen-I	Col1A1
Collagen-I	Col1a1
Collagen-I	col1a1
Collagen-I	col1A2
Collagen-I	col1a2
Collagen-I	Col1A2
Collagen-II	col2a1
Collagen-III	COL3A1
Collagen-IV	col4a1
Collagen-IV	col4a2
Collagen-IV	col4a3
Collagen-IV	col4a4
Collagen-IV	col4a5
Collagen-IV	col4a6
Collagen-IV	Collagen-IV v1
Collagen-IV	Collagen-IV v3
Collagen-V	COL5A1
Collagen-V	COL5A2
Collagen-V	Collagen-V heterotrimer 2 different chains
Collagen-V	Collagen-V heterotrimer 3 different chains
Collagen-V	Collagen-V homotrimer
Collagen-VI	col6a1
Collagen-VI	col6a2
Collagen-VI	col6a3
Collagen-VII	col7a1
Collagen-VIII	col8a1
Collagen-VIII	col8a2
Collagen-IX	col9a1
Collagen-IX	col9a2
Collagen-IX	col9a3
Collagen-IX	Col9A1
Collagen-X	col10a1
Collagen-XI	Collagen-XI v1
Collagen-XI	col11a1
Collagen-XI	COL11A2
Collagen-XI	col11a2
Collagen-XII	col12a1
Collagen-XIV	col14a1
Collagen-XV	col15a1
Collagen-XVI	col16a1
Collagen-XVII	COL17A1
Collagen-XVIII	Col18a1
Collagen-XVIII	col18a1
Collagen-XX	COL20A1
Collagen-XXIII	COL23A1
Collagen-XXIV	COL24A1
Collagen-XXIV	col24a1
Collagen-XXVI	COL26A1
Collagen-XXVI	col26a1
Collagen-XXVII	COL27A1
ITGAM	itgam
ITGA2	itga2
ITGA2B	itga2b
ITGA3	itga3
ITGA4	itga4
ITGA5	itga5
ITGA6	itga6
ITGB1	itgb1
ITGB2	itgb2
ITGB3	itgb3
ITGB4	itgb4
ITGB5	itgb5
ITGAV	itgav
