protein	neighbours
app_2	homer3, psen1, homer2
app_3	shc1_2, ARFIP2, rpusd2, bace1, dmd, SDC1, pacrg, mrpl11, abl1, HEYL, prss23, TARBP2, bloc1s1, TCP10L, aimp1, rps9, ERMN, pnkd, ttpa, acsl4, eepd1, traf3ip1, SPZ1, MPP3, herpud1, CDK3, TMEM216, ZNF22, kras, IFIT3, srrt, SPANXN3, egfr, NUSAP1, ARL4C, MAP3K11, FAM32A, PSMC1, bod1, flot1, nfya, psen1, eno3, hs3st1, bud31, fos, POGK, Tob1, PRR15, PP2D1, FAM20C, tom1l2, kif3b, tph1, UBE2S, klf12, RBM8A, FEN1, gnl2, gsap, ubxn6, tgfb1, pold3, gyg2, lima1_2, rtf1, CPLX3, ZFC3H1, secisbp2, hdac4, numb_2, larp6, ADAM17, ddx18, btf3, aprt, ankzf1, ddx42, rps20, aicda, psen2, mlx, dnm1, carf, eci2, pop7, serp1, ddx43, fubp3, rps10, TSPY2, TMA7, CCL26, pck1, afap1l2, A2M, FAM53A, psma1_2, ywhaz, nmt2, FLOT2, ifih1, ppp1r8, CLEC3B, HSPA8, echdc1, lmcd1, arnt2, cacnb1, pdzd4, sp2, aurka, taf1b, ripply1, slc40a1, pcbd1, aspscr1, rps16, DDX19B, rpl31, rsrc2_2, TAF9B, DCDC2, siva1, pphln1, TRIM40, abcf1, rgs14, HIST2H2AA3, papss2, casp3, ZNF2, uchl5_2, bcar3, bbx, nsf, cdc20, rgs3, stac, dffb, coasy, pdap1, brwd1, apbb1, asxl2, RPL23, polr2k, BAIAP2, eif1ax, ZMYM5, ppp1r14a, TLE3, phyh, golga4_2, arhgap24, rp9, senp2, prr14, NBPF3, PSRC1, DCX, MED24, pak6, cradd, arfgap1, LACRT, bik, APOE, zfyve1, CLIP4, bin1, plekho2, rgl1, aknad1, ing2, ppia, mbp, MAGEH1, bcat2, hddc3, adrm1, APBA1_2, nsrp1, PRAM1, sox5, HBG1, hint2, MRPL10, CAPNS2, UTP4, POGZ, tk1, otx2, ETV3, OCEL1, acbd6, rbm42, mob3a, cdk17, sh3gl2, rnf41, nat6, ngfr, hk1, TCP11, PLIN3, Map9, nedd9, NF1, ACTR1B, rpl12, nme3, UBXN10, morf4l1, vps33b, dennd6b, agpat3, nob1, hspb7, TPD52L3, mybbp1a, cmas, rpf2, prr16, kcnab1, gapdh, npm1, carnmt1, nr1d1, rap1b, PIMREG, MRM3, arpc1b, kif2c, DEF6, mrpl19, serbp1, sycp2l, mtg1, TRIM41, pole3, APOA1, DCTN6, TCF19, tpt1, tbc1d10c, olfml2a, tnfrsf21, elk1, rab40b, KCNAB3, mob1a, fcho1, RASA1, mnd1, exoc6, PCBD2, grb2, epb41l5, bysl, gfap, PIP4K2C, MX1, PADI4, dnajb1, tipin, aldh4a1, krtcap2, ube2e2, arid3a, med4, e2f8, prdx5, CSNK1D, ZMAT4, pde6h, casp8_2, chrna7, zfyve27, adat2, slain2, gcc1, znf410, mapk8ip1, rps6kb1, pde4d, rrp15, ptbp1, rasgrp3, MYL5, ctnna1, dus3l, osbpl11, map1lc3a, mrpl35, mob3c, samhd1, pym1, SHOC2, FGF16, rps19, lsm6, socs3, pnkp, ZNF684, hnrnpa1, mrpl28, casp6, ddhd2, SIRT5, irs1, atp5c1, atg16l1, klc4, cwf19l2, bckdk, xaf1, nuak2, ANKS6, casz1, g3bp1, aldob, armc1, socs5, cul3, znf574, gadd45gip1, cox6a2, grb10, HSP90AA1_2, ddx47, COPS7B, ropn1l, aifm3, trappc2l, eme1, FAM126B, hspd1, eif2b5, Cdc37, OAS2, rgs5, kcnn3, klc2, prnp, HSCB, PLSCR1, scyl1, lap3, rnpc3, ccdc106, sirt7, plekhj1, SNCA, znf740, yy1, sf3b6, eif5, tp53bp2, chka, bloc1s5, mrpl1, GIMAP4, tfpt_2, hmgb2, BCL7C, ACTB, EPB41L2, pak4, uchl1, EIF1, ddx55, nefl, TIGD1, APBB2, pdia3, SMTNL2, eif3g, kif3a_2, galk1, atp5h, hsd17b10, lats1_2, CCSER2, Klk6, ddx1, ttr, PGAM1, cdkn1a, SHC3, xrcc3, QKI, FKBP1A, ung, taf9, atp6v1g1, AVPI1, diras1, GABARAPL2, nol7, homer2, gtf2f2, adh5, nkiras1, gtpbp1, tox2, ANKRD50, atf6, arl4d, hbs1l, myh9, ccdc115, RGS10, PLA2G4D, surf2, gtf2e2, apex2, MED8, TBC1D7, stk25, rps12, BRD3, stxbp1, larp7, SMAD3, gpkow, KCTD18, asxl1, ccnl1, znf622, zw10, plekhg2, AK4, ZADH2, PPFIBP2, dmtn, ttll7, fndc3a, cbfb, taco1, HIST1H2BM, RPL36, ppid, ccdc15, sept9, ifrd2, sh3rf2, necap1, stk40, ache_2, ptpn12, cdk16, tab2, mrps18a, mrpl49, SPTAN1_2, nolc1_2, TBPL1, stoml2, cplx2, ENY2, rusc1, mdm2, smap1, tirap_2, TSPYL1, dlg4, rps11, ACAD10, kifc3, serpind1, hp1bp3, phgdh, ctsd, calr, MAPT_3, crip2, CDKL3, coil, mrpl34, imp4, epb41l4a, elk3, phf20l1, ISL1, ncbp3, dnajc8, MAPT_5, ZMYM3, arhgef40, lnx1, PHF7, tssc4, CTF1, MSL3, xiap, LUC7L2, IER3, RPL41, FMNL1, gabpa, ppan, gnao1, snrnp70, tgfbr2_2, stau1_2, zhx2, ikbip, NSD2, C1orf87, GLRX5, pin1, DYNLRB2, sh3glb1, echdc2, hadh, sart1, tgfb2, PTTG2, C11orf63, erg_2, znf706, mrps24, mxi1_2, ap1m2, mapk7, gsk3a, mpg, fgf12_2, wdr5, ANXA9, trpt1, GJB1, cat, mapk8, bloc1s2, fancM, scel, ech1, jun, dyrk2, aco2, PYCR2, chgb, LMNTD1, gpank1, CCDC59, rnf32, tbcc, TRIM52, TUBB_3, il15, TCEAL2, zc3h3, tcea1, setbp1, med12, add2, emg1, smad1, TCEANC, trmt2a, gba2, csnk2a1, homer3, LARP4, cryab, ZSCAN1, rasl12, twf1, eif4e2, spata2, tcp11l1, ITGB3BP, gys1, TSLP, use1, iqch, fip1l1, hist1h2ba, BMX, lrrc8d, larp1b, nfkbib, adap2, trim63, TPD52L2, ptp4a1, Fanci, plk1, gpt2, PRRC1, tcp10, mesdc2, PTPN7_2, slc4a1ap, PSMD11, RASL11B, celf2, map3k5, cep57, DDX17, lcp2, mcm7_2, CCDC60, NUAK1, Collagen-XIV, rpl30, hgs, zap70, taf6, mapk13, atf2, apbb3, ZC3HAV1L, map2, ABLIM1_3, dnah1, OR8B3, csnk1e, odf2, eif2s2, CSAG1, cd74, orc6, rad51ap1, gosr2, igbp1, lyrm7, OR2W1, cwc15, trub1, amot, lrrc59, tmcc2, ATXN7L3, dedd, MAST1, VCY, gak, dnm2, ccnb3, dhx58, hspbp1, ctnnd1, tasp1, CCNB1IP1, SEPT5, RASL10B, gorab
app	ITM2A, slc40a1, pin1, ptger2, cntn4, blmh, lrp1, apbb1, APBA1, ARRB1, CNTN3, prnp, aplp2, GPR3, rab6b, psen1, aplp1, SPON1
