node id	node name
A0A024R493	efhd1
A5YKK6-2	cnot1_2
A6ND01	IZUMO1R
D3W0D1	KLRF2
O00548	DLL1
O14770	Meis2
O14948	tfec
O15078-2	cep290
O15244	slc22a2
O15496	PLA2G10
O43155	flrt2
O43184	adam12_2
O43820	hyal3
O43854	edil3
O43914	tyrobp
O60494	cubn
O60609	gfra3
O60882	MMP20
O75084	FZD7
O75325	lrrn2
O75356	ENTPD5
O75807	ppp1r15a
O75900	MMP23A
O75973	C1QL1
O95393	bmp10
O95445	apom
P01185	avp
P01210	penk
P01854	IGHE
P02462-PRO_0000390482	Arresten
P02748	c9
P05111	inha
P06850	crh
P07357	c8a
P07738	bpgm
P08263	GSTA1
P09238	MMP10
P09529	inhbb
P10074	zbtb48
P11150	lipc
P12319	FCER1A
P14770	gp9
P15692-12	VEGFA_4
P15692-14	VEGFA_3
P16444	dpep1
P19835	CEL
P26651	ZFP36
P26718	KLRK1
P27352	GIF
P28908	TNFRSF8
P30273	fcer1g
P30566	adsl
P30989	ntsr1
P30990	nts
P32971	TNFSF8
P34998	crhr1
P35372	oprm1
P35638-2	ddit3_2
P35754	glrx
P36575	arr3
P37288	avpr1a
P39905-3	gdnf
P40197	GP5
P41146	oprl1
P41217	CD200
P46094	XCR1
P47992	XCL1
P48745	NOV
P49366	dhps
P50539	mxi1_2
P53990-4	ist1_2
P56703	wnt3
P56705	WNT4
P57105	synj2bp
P60827	C1QTNF8
P78333	GPC5
Q00532	cdkl1
Q07283	TCHH
Q0WX57	USP17L24
Q10472	galnt1
Q11201	st3gal1
Q12918	KLRB1
Q13519	pnoc
Q13522	PPP1R1A
Q13530	SERINC3
Q13635	ptch1
Q13936-20	cacna1c
Q15116	PDCD1
Q15436	sec23a
Q15465	SHH
Q31604	DMA
Q4ACW9	TWEAK
Q5HYK7	sh3d19
Q5SW96	LDLRAP1
Q5T4W7	ARTN
Q5T655	cfap58
Q5TBB1	rnaseh2b
Q5TZZ9	ANXA1_2
Q6H3X3	RAET1G
Q6P5S2	Leg1
Q6RW13-2	agtrap_2
Q6UVW9	CLEC2A
Q6UWQ5	LYZL1
Q6ZMI0	ppp1r21
Q7L8A9	vash1
Q7LBR1	chmp1b
Q86Y22	Collagen-XXIII
Q8IU54	IFNL1
Q8IU57	ifnlr1
Q8IUQ4-2	siah1_2
Q8IVL1	NAV2
Q8IWW8	adhfe1
Q8IYV9	IZUMO1
Q8N6G6	ADAMTSL1
Q8NB37	gatd1
Q8NER5	ACVR1C
Q8TAG5	VSTM2A
Q8TD46	CD200R1
Q8TDU9	RXFP4
Q8WTP9	XAGE3
Q8WTT0	CLEC4C
Q8WXF3	rln3
Q93091	RNASE6
Q96B26	exosc8
Q96BK8	C8orf30A
Q96C86	dcps
Q96ED9	hook2
Q96EK5	kif1bp
Q96H12	MSANTD3
Q96L11	C7orf34
Q96LB8	PGLYRP4
Q96LB9	PGLYRP3
Q96PL1	SCGB3A2
Q99571	P2RX4
Q99612	KLF6
Q99758	ABCA3
Q9BQ51	PDCD1LG2
Q9BUW7	C9orf16
Q9H1M4	DEFB127
Q9H2R5	KLK15
Q9H972	C14orf93
Q9HD67	myo10
Q9HD90	neurod4
Q9NZC2	TREM2
Q9NZU1	FLRT1
Q9NZU7-2	cabp1
Q9NZW4	DSPP
Q9P2W7	b3gat1
Q9UEW3	marco
Q9UHI8	adamts1
Q9UHP7	CLEC2D
Q9UPV0-2	CEP164
Q9UQV4	LAMP3
Q9Y5Z9	UBIAD1
Q9Y605	MRFAP1
ebi:EBI-2554495	ITGB1_2
