edge	PSD	gmfg	A5PKW4	O60234	human	human
edge	Complement C3	cfi	ebi:EBI-12735745	P05156	human	human
edge	masp2	FCN1	O00187	O00602	human	human
edge	masp2	C4B	O00187	P0C0L5	human	human
edge	masp2	C2	O00187	P06681	human	human
edge	RHOD	IHH	O00212	Q14623	human	human
edge	eif3f	gle1	O00303	Q53GS7	human	human
edge	TNFRSF13B	tnfsf13	O14836	O75888	human	human
edge	TNFRSF13B	tnfsf13b	O14836	Q9Y275	human	human
edge	NPC1	NPC2	O15118	P61916	human	human
edge	NPC1	unc93b1	O15118	Q9H1C4	human	human
edge	NPC1	tmem173	O15118	Q86WV6	human	human
edge	dhh	hhip	O43323	Q96QV1	human	human
edge	gmfg	camk1d	O60234	Q8IU85	human	human
edge	gmfg	vangl1	O60234	Q8TAA9	human	human
edge	nup155_2	gle1	O75694	Q53GS7	human	human
edge	tnfsf13	camk1d	O75888	Q8IU85	human	human
edge	tnfsf13	tnfsf13b	O75888	Q9Y275	human	human
edge	C4B	CD46	P0C0L5	P15529	human	human
edge	C4B	kif22	P0C0L5	Q14807	human	human
edge	c1r	c1s	P00736	P09871	human	human
edge	c1r	pck1	P00736	P35558	human	human
edge	GAST	CCKBR	P01350	P32239	human	human
edge	igf1	INSR_2	P05019	P06213	human	human
edge	igf1	igfbp1	P05019	P08833	human	human
edge	igf1	IGFBP4	P05019	P22692	human	human
edge	igf1	igfbp5	P05019	P24593	human	human
edge	cfi	C4B	P05156	P0C0L5	human	human
edge	cfi	CD46	P05156	P15529	human	human
edge	cfi	CR1	P05156	P17927	human	human
edge	INSR_2	enpp1	P06213	P22413	human	human
edge	CCK	CCKBR	P06307	P32239	human	human
edge	C2	C4B	P06681	P0C0L5	human	human
edge	C2	c1s	P06681	P09871	human	human
edge	igfbp1	IGFBP4	P08833	P22692	human	human
edge	c1s	C4B	P09871	P0C0L5	human	human
edge	CD46	JAG1	P15529	P78504	human	human
edge	il10	il10rb	P22301	Q08334	human	human
edge	il10	irf5	P22301	Q13568	human	human
edge	il10	il10ra	P22301	Q13651	human	human
edge	igfbp5	pno1	P24593	Q9NRX1	human	human
edge	igfbp5	FHL1	P24593	Q13642	human	human
edge	rbl1	EPHB2	P28749	P29323	human	human
edge	epha2	EFNA5	P29317	P52803	human	human
edge	EPHB2	nup153	P29323	P49790	human	human
edge	EPHB2	ptp4a2	P29323	Q12974	human	human
edge	EPHB2	MAPK14_2	P29323	Q16539-3	human	human
edge	IL12A	IL12B	P29459	P29460	human	human
edge	IL12A	IL12RB1	P29459	P42701	human	human
edge	IL12A	irf5	P29459	Q13568	human	human
edge	IL12A	ebi3	P29459	Q14213	human	human
edge	IL12A	il12rb2	P29459	Q99665	human	human
edge	IL12B	IL12RB1	P29460	P42701	human	human
edge	IL12B	il23r	P29460	Q5VWK5	human	human
edge	IL12B	il23A	P29460	Q9NPF7	human	human
edge	IL12B	irf5	P29460	Q13568	human	human
edge	IL12B	il12rb2	P29460	Q99665	human	human
edge	CCKBR	ntm	P32239	Q9P121	human	human
edge	pex19	il23A	P40855	Q9NPF7	human	human
edge	IL12RB1	il23A	P42701	Q9NPF7	human	human
edge	MAP2K3	MAPK14_2	P46734	Q16539-3	human	human
edge	nup153	gle1	P49790	Q53GS7	human	human
edge	nup153	MAPK14_2	P49790	Q16539-3	human	human
edge	map2k6	MAPK14_2	P52564	Q16539-3	human	human
edge	EFNA4	ephA4	P52798	P54764	human	human
edge	EFNA4	epha7	P52798	Q15375	human	human
edge	EFNA5	ephA4	P52803	P54764	human	human
edge	EFNA5	epha7	P52803	Q15375	human	human
edge	nup107	gle1	P57740	Q53GS7	human	human
edge	NPC2	negr1	P61916	Q7Z3B1	human	human
edge	NPC2	dhdds	P61916	Q86SQ9	human	human
edge	rbx1	frzb	P62877	Q92765	human	human
edge	il23r	il23A	Q5VWK5	Q9NPF7	human	human
edge	IL20RB	IL20	Q6UXL0	Q9NYY1	human	human
edge	IL20RB	IL19	Q6UXL0	Q9UHD0	human	human
edge	negr1	ntm	Q7Z3B1	Q9P121	human	human
edge	IL22RA1	il22	Q8N6P7	Q9GZX6	human	human
edge	IL22RA1	IL20	Q8N6P7	Q9NYY1	human	human
edge	IL22RA1	il22ra2_3	Q8N6P7	Q969J5	human	human
edge	C19orf47	ntm	Q8N9M1	Q9P121	human	human
edge	bbs10	frzb	Q8TAM1	Q92765	human	human
edge	CREB3L4	lrrc4c	Q8TEY5	Q9HCJ2	human	human
edge	Krtap3-2	ntm	Q9BYR7	Q9P121	human	human
edge	LRRC4	NTNG1	Q9HBW1	Q9Y2I2	human	human
edge	lrrc4c	NTNG1	Q9HCJ2	Q9Y2I2	human	human
edge	il26	il20ra	Q9NPH9	Q9UHF4	human	human
edge	IL20	il20ra	Q9NYY1	Q9UHF4	human	human
edge	IL19	il20ra	Q9UHD0	Q9UHF4	human	human
edge	gle1	ktn1	Q53GS7	Q86UP2	human	human
edge	gle1	seh1l	Q53GS7	Q96EE3	human	human
edge	NTNG2	LRRC4	Q96CW9	Q9HBW1	human	human
edge	NTNG2	lrrc4c	Q96CW9	Q9HCJ2	human	human
edge	TNFRSF13C	tnfsf13b	Q96RJ3	Q9Y275	human	human
edge	il22ra2_3	il22	Q969J5	Q9GZX6	human	human
edge	il22ra2	il22	Q969J5-2	Q9GZX6	human	human
edge	il22ra2_2	il22	Q969J5-3	Q9GZX6	human	human
edge	TNFRSF17	tnfsf13b	Q02223	Q9Y275	human	human
edge	il10rb	il22	Q08334	Q9GZX6	human	human
edge	il10rb	il22ra2_3	Q08334	Q969J5	human	human
edge	HYAL2	Krtap3-2	Q12891	Q9BYR7	human	human
edge	lsamp	negr1	Q13449	Q7Z3B1	human	human
edge	lsamp	ntm	Q13449	Q9P121	human	human
edge	asah1	camk1d	Q13510	Q8IU85	human	human
edge	irf5	gtpbp2	Q13568	Q9BX10	human	human
edge	irf5	il23A	Q13568	Q9NPF7	human	human
edge	ptch1	hhip	Q13635	Q96QV1	human	human
edge	ptch1	SHH	Q13635	Q15465	human	human
edge	ebi3	IL27	Q14213	Q8NEV9	human	human
edge	IHH	hhip	Q14623	Q96QV1	human	human
edge	SHH	hhip	Q15465	Q96QV1	human	human
edge	frzb	pno1	Q92765	Q9NRX1	human	human
edge	frzb	ehf	Q92765	Q9NZC4	human	human
edge	frzb	ELF5	Q92765	Q9UKW6	human	human
