node id	node name
A0A024R493	efhd1
A0AUL9	ATG2A_2
A0MZ66	shtn1
A1L306	tnr_2
A1L4H1	SSC5D
A2ABF9	ehmt2_2
A2RRN7	cadps_2
A2RRP1	nbas
A3KMH1	vwa8
A3KMH1-3	vwa8_2
A4D0S4	lamb4
A5A3E0	POTEF
A5PKW4	PSD
A5YKK6-2	cnot1_2
A6ND01	IZUMO1R
A6NK89	RASSF10
A6NMY6	ANXA2P2
A6ZKI3	RTL8C
A8K2U0	A2ML1
A8K660	ADIPOQ
B2RUY7	VWC2L
B4DJ51	CALM1
D3W0D1	KLRF2
E5KS60	sucla2_2
E7EW69	sept10
F8VY35	nap1l1
H0Y507	SH3PXD2A
H7C5Q0	rsrc1_2
I3WAC9	ins
J3KS15	MRPL58
J3QT77	pon2
O00139	KIF2A
O00161	SNAP23
O00165	hax1
O00167-2	eya2
O00189	ap4m1
O00193	SMAP
O00212	RHOD
O00220	TNFRSF10A
O00254	f2rl2
O00255	men1
O00257	cbx4
O00267	supt5h
O00268	TAF4
O00292	Lefty2
O00294	TULP1
O00295	TULP2
O00308	wwp2
O00339	MATN2
O00358	foxe1
O00391	qsox1
O00400	slc33a1
O00409	foxn3
O00410	IPO5
O00429	dnm1l
O00444	plk4
O00463	traf5
O00468	agrn
O00469	plod2
O00471	exoc5
O00481	BTN3A1
O00499	bin1
O00522	krit1
O00548	DLL1
O00622	cyr61
O00634	NTN3
O00755	wnt7a
O14493	CLDN4
O14508	SOCS2
O14519	CDK2AP1
O14545	trafd1
O14558	hspb6
O14625	CXCL11
O14649	KCNK3
O14656	TOR1A
O14713	itgb1bp1
O14717	trdmt1
O14727	apaf1
O14735	cdipt
O14763	TNFRSF10B
O14770	Meis2
O14775	GNB5
O14791	apol1
O14793	mstn
O14798	TNFRSF10C
O14807	mras
O14829	ppef1
O14874	bckdk
O14880	mgst3
O14931	NCR3
O14936-2	cask_3
O14936-3	cask
O14948	tfec
O14957	Uqcr11
O15041	sema3e
O15062	ZBTB5
O15068	mcf2l
O15078-2	cep290
O15085	arhgef11
O15118	NPC1
O15127	scamp2
O15130	NPFF
O15197	ephb6_2
O15197-2	ephb6
O15198	smad9
O15234	CASC3
O15235	MRPS12
O15244	slc22a2
O15260	SURF4
O15263	DEFB4A
O15294	ogt
O15304	siva1
O15320	ctage5
O15357	INPPL1
O15372	EIF3H
O15389	SIGLEC5
O15403	SLC16A6
O15460	p4ha2_2
O15460-2	p4ha2
O15467	CCL16
O15481	MAGEB4
O15496	PLA2G10
O15519-2	cflar_2
O15537	rs1
O15551	CLDN3
O43149	zzef1
O43150	ASAP2
O43155	flrt2
O43157	PLXNB1
O43157-2	PLXNB1_2
O43167	zbtb24
O43184	adam12_2
O43184-2	adam12
O43186	crx
O43255	SIAH2
O43278	SPINT1
O43294	TGFB1I1
O43301	hspa12a
O43374	rasa4
O43379	wdr62_2
O43405	coch
O43463	SUV39H1
O43490	PROM1
O43502	rad51c
O43504	lamtor5
O43508	tnfsf12
O43521	bcl2l11_2
O43543	xrcc2
O43570	ca12
O43586	PSTPIP1
O43598	dnph1
O43603	GALR2
O43612	hcrt
O43615	timm44
O43617	trappc3_2
O43638	FOXS1
O43653	PSCA
O43681	asna1
O43683	bub1
O43699	SIGLEC6
O43709	bud23
O43715	triap1
O43741	prkab2
O43781	DYRK3
O43791	spop
O43820	hyal3
O43847	NRDC
O43852-2	CALU
O43854	edil3
O43889	CREB3
O43896	kif1c
O43913	orc5
O43914	tyrobp
O43915	VEGFD
O43927	CXCL13
O43929	orc4
O60218	AKR1B10
O60231	dhx16
O60232	sssca1
O60234	gmfg
O60238	bnip3l
O60244	med14
O60259	KLK8
O60303	KIAA0556
O60308	cep104
O60341	kdm1a
O60353	fzd6
O60437	ppl
O60486	plxnc1
O60494	cubn
O60551	nmt2
O60609	gfra3
O60610	DIAPH1
O60664	PLIN3
O60684	kpna6
O60733	pla2g6
O60760	HPGDS
O60763	uso1
O60814	HIST1H2BK
O60840	cacna1f
O60840-5	cacna1f_2
O60844	ZG16
O60882	MMP20
O60894	RAMP1
O60911	CTSV
O75030	Mitf
O75037	kif21b
O75051	plxna2
O75052	nos1ap_2
O75063	fam20b
O75081	cbfa2t3
O75084	FZD7
O75096	LRP4
O75173	ADAMTS4
O75197	lrp5
O75325	lrrn2
O75326	sema7a
O75330	hmmr
O75342	ALOX12B
O75354-2	entpd6_2
O75356	ENTPD5
O75365	ptp4a3
O75380	ndufs6
O75398	deaf1
O75400	prpf40a
O75400-2	prpf40a_2
O75445	ush2a
O75448	MED24
O75461	E2F6
O75462	crlf1
O75478	tada2a
O75486	supt3h
O75487	gpc4
O75496	gmnn
O75528	TADA3
O75529	taf5l
O75553	dab1
O75556	Scgb2a1
O75558	STX11
O75593	foxh1
O75594	PGLYRP1
O75618	dedd
O75717	wdhd1
O75718	crtap
O75787	atp6ap2
O75807	ppp1r15a
O75822	EIF3J
O75829-2	CNMD
O75830	SERPINI2
O75874	idh1
O75899	gabbr2
O75900	MMP23A
O75925	PIAS1
O75973	C1QL1
O75976	CPD
O76009	KRT33A
O76011	KRT34
O76027	ANXA9
O76036	NCR1
O76038	SCGN
O76070	SNCG
O76071	CIAO1
O76076	wisp2
O76081	rgs20
O76081-6	rgs20_2
O76083	pde9a
O76096	CST7
O94762	recql5
O94772	LY6H
O94782	usp1
O94813	slit2
O94817	Atg12
O94822	LTN1
O94842	tox4
O94855	sec24d
O94919	ENDOD1
O94921	cdk14
O94923	glce
O94964	soga1_2
O94964-2	soga1
O94988	fam13a
O94993	SOX30
O95073	fsbp
O95150	TNFSF15
O95185	unc5c
O95197	rtn3
O95229	ZWINT
O95257	gadd45g
O95271	tnks
O95273	ccndbp1
O95274	LYPD3
O95342	ABCB11
O95352	atg7
O95363	fars2
O95390	gdf11
O95393	bmp10
O95395	gcnt3
O95405	ZFYVE9
O95407	TNFRSF6B
O95424	DEXI
O95427	pign
O95429	bag4
O95445	apom
O95450	adamts2
O95471	CLDN7
O95630	stambp
O95631	ntn1
O95633	fstl3
O95661	DIRAS3
O95714	herc2
O95715	cxcl14
O95721	snap29
O95747	OXSR1
O95750	fgf19
O95757	hspa4l
O95819	map4k4
O95832	cldn1
O95859	tspan12
O95867	LY6G6C
O95897	olfm2
O95980	reck_2
O95989	NUDT3
O95996	apc2
O95998	IL18BP
O95999	bcl10
O96008	tomm40
O96014	wnt11
O96017	chek2
P00367	GLUD1
P00387	cyb5r3
P00491	PNP
P00505	got2
P00736	c1r
P00742	f10
P00797	ren
P00973	OAS1_2
P00973-2	OAS1
P01019	agt
P01031	c5
P01033	TIMP1
P01036	Cst4
P01112	hras
P01116	kras
P01160	nppa
P01185	avp
P01210	penk
P01215	cga
P01222	tshb
P01225	fshb
P01229	lhb
P01236	prl
P01258	calca
P01282	vip
P01286	GHRH
P01303	npy
P01344	igf2
P01350	GAST
P01562	IFNA1
P01579	ifng
P01583	IL1A
P01589	IL2RA
P01602	IGKV1-5
P01615	IGKV2D-28
P01854	IGHE
P01860	IGHG3
P01877	IGHA2
P01880	ighd
P01909	HLA-DQA1
P02458	Collagen-II
P02462	Collagen-IV_4
P02462-2	Collagen-IV_9
P02462-PRO_0000390482	Arresten
P02545-2	lmna
P02671-2	fga_2
P02743	APCS
P02748	c9
P02751-12	fn1
P02760	ambp
P02763	ORM1
P02771	AFP
P02774	gc
P02778	CXCL10
P02788	LTF
P02790	HPX
P02795	MT2A
P02808	STATH
P02810	PRH1
P02814	SMR3B
P03886	MT-ND1
P03971	amh
P04054	pla2g1b
P04066	fuca1
P04070	proc
P04075-2	aldoa
P04080	CSTB
P04155	TFF1
P04216	thy1
P04278	shbg
P04424	asl
P04745	AMY1A
P04746	amy2a
P04798	cyp1a1
P05014	Ifna4
P05015	IFNA16
P05062	aldob
P05067-8	app_2
P05067-PRO_0000000093	Beta-amyloid peptide 1-40
P05089	arg1
P05090	apod
P05111	inha
P05154	SERPINA5
P05181	CYP2E1
P05186	alpl
P05204	hmgn2
P05408	scg5
P05413	fabp3
P05549	tfap2a
P05814	CSN2
P06213	INSR_2
P06280	gla
P06307	CCK
P06727	apoa4
P06729	CD2
P06734	FCER2
P06737	pygl
P06744	GPI
P06756	ITGAV
P06850	crh
P06858	lpl
P06865	hexa
P06881	calca_2
P06899	HIST1H2BJ
P07093	serpine2
P07199	CENPB
P07204	thbd
P07306	ASGR1
P07357	c8a
P07498	CSN3
P07686	hexb
P07738	bpgm
P07942	lamb1
P08151	gli1
P08235	nr3c2
P08236	gusb
P08253-PRO_0000391626	PEX
P08263	GSTA1
P08476	inhba_2
P08572	Collagen-IV_6
P08582-2	MELTF
P08700	IL3
P08754	gnai3
P09038-2	fgf2_2
P09093	CELA3A
P09110	acaa1
P09172	dbh
P09228	CST2
P09234	SNRPC
P09237	MMP7
P09238	MMP10
P09326	CD48
P09341	CXCL1
P09525	anxa4
P09529	inhbb
P09543-2	cnp_2
P09544	WNT2
P09601	hmox1
P09681	gip
P09758	TACSTD2
P09917	alox5
P09919	csf3
P09960	lta4h
P0C869	PLA2G4B
P0CG38	POTEI
P0DJI9	SAA2
P0DN86	CGB3
P10074	zbtb48
P10082	PYY
P10176	cox8a
P10644	prkar1a
P10645	chga
P10909-4	clu_2
P10909-5	clu
P10912	ghr
P10914	IRF1
P10916	myl2
P11049	CD37
P11150	lipc
P11172	umps
P11215	ITGAM
P11216	pygb
P11362-7	FGFR1_3
P11464	PSG1
P11473	VDR
P11474	esrra
P11532	dmd
P11532-5	dmd_2
P11597	cetp
P11684	SCGB1A1
P11831	srf
P11836	MS4A1
P12110	Collagen-VI_3
P12272	pthlh
P12277	ckb
P12319	FCER1A
P12429	anxa3
P12532	CKMT1A
P12645	bmp3
P12757	SKIL
P13236	CCL4
P13385	tdgf1
P13497	BMP1_2
P13497-2	BMP1
P13497-4	BMP1_3
P13521	SCG2
P13591	ncam1
P13637	ATP1A3
P13640	MT1G
P13671	c6
P13674	p4ha1
P13674-2	p4ha1_2
P13686	acp5
P13726	F3
P13798	apeh
P13805	tnnt1
P13807	gys1
P13928	ANXA8
P13942	Collagen-XI
P13984	gtf2f2
P14091	Ctse
P14151	SELL
P14316	irf2
P14415	ATP1B2
P14543	NID1
P14555	PLA2G2A
P14770	gp9
P15018	lif
P15169	cpn1
P15248	IL9
P15260	ifngr1
P15289	arsa
P15328	FOLR1
P15391	CD19
P15407	fosl1
P15502-2	ELN_2
P15514	areg
P15515	HTN1
P15516	HTN3
P15586	Gns
P15622-3	ZNF250
P15692-12	VEGFA_4
P15692-14	VEGFA_3
P15822	hivep1
P16035	timp2
P16112	acan
P16220	creb1
P16278-3	glb1_2
P16383	gcfc2
P16444	dpep1
P16452	EPB42
P16471-7	prlr_2
P16870	cpe
P17174	got1
P17301	ITGA2
P17540	ckmt2
P17544	ATF7
P17787	CHRNB2
P17900	gm2a
P17948-2	flt1
P18054	alox12
P18065	IGFBP2
P18075	bmp7
P18206-2	vcl
P18433-4	ptpra
P18509	ADCYAP1
P18848	ATF4
P19021	pam
P19256	CD58
P19440	ggt1
P19544	wt1
P19652	Orm2
P19835	CEL
P20023	CR2
P20062	tcn2
P20226	TBP
P20248	ccna2
P20292	alox5ap
P20336	rab3a
P20339	rab5a
P20366	tac1
P20393	nr1d1
P20742	PZP
P20794	mak_2
P20827	efna1
P20839	IMPDH1
P20930	FLG
P21127	cdk11b
P21145	mal
P21452	tacr2
P21579	syt1
P21583	KITLG
P21673	sat1
P21741	MDK
P21964	COMT
P22061	PCMT1
P22234	paics
P22303	ache_2
P22352	gpx3
P22362	ccl1
P22413	enpp1
P22455	fgfr4
P22466	GAL
P22612	PRKACG
P22626-2	HNRNPA2B1
P22735	tgm1
P23469	PTPRE
P23471	PTPRZ1
P23510	TNFSF4
P23634	atp2b4
P23743	DGKA
P23771	gata3
P23945	fshr
P24001	IL32_2
P24001-4	IL32_3
P24043	Lama2
P24071	FCAR
P24158	PRTN3
P24385	ccnd1
P24386	chm
P24593	igfbp5
P24863	ccnc
P25103	TACR1
P25106	ACKR3
P25391	lama1
P25774	CTSS
P25791	LMO2
P25929	Npy1r
P26006	ITGA3
P26368-2	U2AF2_2
P26441	cntf
P26651	ZFP36
P26678	PLN
P26718	KLRK1
P26842	cd27
P26951	IL3RA
P26992	cntfr
P27037	acvr2a
P27352	GIF
P27449	atp6v0c
P27487	dpp4
P27707	dck
P27918	cfp
P27987	itpkb
P28288	ABCD3
P28676	GCA_2
P28702	rxrb
P28715	ercc5
P28838	lap3
P28908	TNFRSF8
P29122	pcsk6
P29274	ADORA2A
P29376	ltk
P29400	Collagen-IV_3
P29508	SERPINB3
P29590	PML_2
P29622	SERPINA4
P29972	AQP1
P30038	aldh4a1
P30043	blvrb
P30044-2	prdx5_2
P30260	cdc27
P30273	fcer1g
P30281	ccnd3
P30405	ppif
P30408	TM4SF1
P30411-2	bdkrb2
P30508	HLA-C_3
P30532	chrna5
P30533	lrpap1
P30556	AGTR1
P30566	adsl
P30626	sri
P30838	aldh3a1
P30926	chrnb4
P30989	ntsr1
P30990	nts
P31025	LCN1
P31146	coro1a
P31150	gdi1
P31947-2	SFN_2
P31949	s100a11
P32189	GK
P32239	CCKBR
P32241	vipr1
P32242	otx1
P32297	chrna3
P32302	cxcr5
P32320	CDA
P32321	dctd
P32856	STX2
P32971	TNFSF8
P33241	lsp1
P33763	S100A5
P34820	BMP8B
P34897	shmt2
P34998	crhr1
P35052	gpc1
P35237	SERPINB6
P35318	ADM
P35348	ADRA1A
P35372	oprm1
P35498	scn1a
P35558	pck1
P35573	AGL
P35590	tie1
P35611	add1_2
P35613-3	bsg
P35625	TIMP3
P35638-2	ddit3_2
P35713	sox18
P35749	myh11
P35754	glrx
P35914	hmgcl
P36405	arl3
P36406	trim23
P36544	chrna7
P36575	arr3
P36915	gnl1
P36955	serpinf1
P36956	SREBF1
P37198	NUP62
P37235	hpcal1
P37288	avpr1a
P38484	IFNGR2
P39059	Collagen-XV
P39060	Collagen-XVIII
P39905	gdnf_2
P39905-3	gdnf
P40121	capg
P40197	GP5
P40225	thpo
P40238	mpl
P41134	id1_2
P41146	oprl1
P41159	lep
P41161	etv5
P41182	bcl6
P41208	cetn2
P41217	CD200
P41221	wnt5a
P41271	NBL1
P41273	TNFSF9
P41567	EIF1
P41586	adcyap1r1_2
P41586-3	adcyap1r1
P42336	pik3ca
P42695	ncapd3
P42702	LIFR
P42766	RPL35
P42785	prcp
P43115-12	ptger3
P43121	mcam
P43146	dcc
P43235	ctsk
P43246	msh2
P43251	btd
P43355	MAGEA1
P43361	MAGEA8
P43363	MAGEA10
P43364	MAGEA11_2
P43364-2	MAGEA11
P43365	MAGEA12
P43378	PTPN9
P43489	TNFRSF4
P43490	NAMPT
P43627	KIR2DL2
P43628	KIR2DL3
P43632	KIR2DS4
P43681	chrna4
P45877	ppic
P45984	mapk9
P46094	XCR1
P46379-2	bag6
P46459	nsf
P46695	IER3
P46939	utrn
P46976	gyg1
P47211	GALR1
P47914	rpl29
P47929	LGALS7
P47992	XCL1
P48059	lims1_2
P48061	CXCL12
P48061-2	CXCL12_2
P48304	REG1B
P48307	tfpi2
P48509	cd151
P48546	gipr
P48634	prrc2a
P48735	idh2
P48745	NOV
P48960-2	cd97
P49137	MAPKAPK2
P49146	npy2r
P49238	CX3CR1
P49257	lman1
P49281	slc11a2
P49354	fnta
P49366	dhps
P49419-2	aldh7a1
P49447	cyb561
P49459	ube2a
P49638	ttpa
P49682	CXCR3
P49747	comp
P49750	ylpm1
P49759	CLK1
P49770	eif2b2_2
P49771	FLT3LG
P49862	KLK7
P49888	SULT1E1
P50052	agtr2
P50053	khk
P50148	gnaq
P50221	MEOX1
P50539	mxi1_2
P50591	tnfsf10
P50897	ppt1
P51398	dap3
P51511	MMP15
P51512	MMP16
P51531	smarca2_2
P51608	mecp2
P51608-2	mecp2_2
P51654	gpc3
P51679	CCR4
P51684	CCR6
P51685	CCR8
P51784	usp11
P51884	lum
P51955	nek2
P51959	ccng1
P52272-2	hnrnpm_2
P52758	RIDA
P52788	sms
P52790	HK3
P52798	EFNA4
P53350	plk1
P53365	ARFIP2
P53611	rabggtb
P53634	ctsc
P53680	ap2s1
P53801	pttg1ip
P53990-2	ist1
P53990-4	ist1_2
P54198	hira
P54257	HAP1
P54315	PNLIPRP1
P54707	ATP12A
P54753	EPHB3
P54764	ephA4
P54852	EMP3
P54886	aldh18a1
P55000	SLURP1
P55040	GEM
P55055	NR1H2
P55064	AQP5
P55084	hadhb
P55085	f2rl1
P55145	manf
P55211	casp9
P55212	casp6
P55259	GP2
P55268	lamb2
P55290	cdh13
P55316	foxg1
P55317	foxa1
P55318	foxa3
P55774	CCL18
P55786	npepps
P55789	gfer
P56134	atp5j2
P56159	GFRA1
P56159-2	GFRA1_2
P56180-2	tpte
P56199	itga1
P56202	CTSW
P56470	LGALS4
P56645	per3
P56703	wnt3
P56704	wnt3a
P56705	WNT4
P56706	WNT7B
P56730	prss12
P57076	c21orf59
P57087	jam2
P57105	synj2bp
P57764	GSDMD
P57796	cabp4
P57796-2	cabp4_2
P58012	foxl2
P58062	SPINK7
P58397	adamts12
P59665	Defa1
P60006	ANAPC15
P60022	DEFB1
P60372	KRTAP10-4
P60568	IL2
P60660-2	myl6
P60827	C1QTNF8
P60880	SNAP25
P61020	rab5b
P61077	ube2d3
P61086	ube2k
P61201	cops2
P61328-2	fgf12
P61586	rhoa
P61601	NCALD
P61916	NPC2
P61927	rpl37
P61956	SUMO2
P61968	LMO4
P62068	USP46
P62070	rras2
P62166	ncs1
P62491	rab11a
P62834	rap1a
P62837	ube2d2
P62877	rbx1
P62979	rps27a
P62995	tra2b
P78310	cxadr
P78318	igbp1
P78325	adam8
P78333	GPC5
P78362	srpk2
P78539	srpx
P78556	CCL20
P78560	cradd
P80098	CCL7
P80188	LCN2
P80217	ifi35
P80294	MT1H
P80303	NUCB2
P81877	ssbp2
P82933	mrps9
P83369	lsm11
P84077	arf1
P84085	arf5
P84101	serf2
P84996	gnas_2
P85037	foxk1
P98155	vldlr
P98160-PRO_0000391621	Endorepellin
P98160-PRO_0000391622	LG3
P98164	lrp2
P98173	fam3a_2
P98187	CYP4F8
P99999	cycs
Q00013	mpp1
Q00532	cdkl1
Q00534	cdk6
Q00604	ndp
Q00765	reep5
Q00978	irf9
Q00994	BEX3
Q01113	IL9R
Q01167	foxk2
Q01523	Defa5
Q01524	Defa6
Q01628	Ifitm3
Q01804	otud4
Q01814	atp2b2
Q01844	EWSR1
Q01955-PRO_0000279684	Tumstatin
Q02078	mef2a
Q02221	cox6a2
Q02388	Collagen-VII_2
Q02413	DSG1
Q02505	MUC3A
Q02742	GCNT1
Q02833	RASSF7
Q02962	PAX2
Q03001-8	DST_3
Q03403	TFF2
Q03692	Collagen-X
Q04446	GBE1
Q04656	atp7a
Q04900	cd164
Q05084	ica1_2
Q05329	gad2
Q06141	REG3A
Q06413	mef2c
Q06587	RING1
Q07011	TNFRSF9
Q07092	Collagen-XVI
Q07283	TCHH
Q07654	TFF3
Q07812	bax
Q07817	bcl2l1
Q07820	MCL1_2
Q08117-2	aes_2
Q08188	TGM3
Q08345	ddr1
Q08493-3	PDE4C
Q08722	CD47
Q08830	fgl1
Q08AM6	vac14
Q0P5P2	C17orf67
Q0P6H9	tmem62
Q0VD86	INCA1
Q0VDF9	hspa14
Q0WX57	USP17L24
Q10471	galnt2
Q10472	galnt1
Q11201	st3gal1
Q11203	st3gal3
Q12789	GTF3C1
Q12794	hyal1
Q12800	tfcp2
Q12829	rab40b
Q12834	cdc20
Q12860	CNTN1
Q12884	fap
Q12889	ovgp1
Q12891	HYAL2
Q12899	TRIM26
Q12907	lman2
Q12918	KLRB1
Q12929	eps8
Q12948	FOXC1
Q12950	FOXD4
Q12952	foxl1
Q12959-2	dlg1
Q12959-5	dlg1_3
Q12962	taf10
Q12983	BNIP3
Q12988	HSPB3
Q13011	ech1
Q13033	strn3
Q13049	trim32
Q13064	MKRN3
Q13085	acaca
Q13114	traf3
Q13137	calcoco2
Q13188	stk3
Q13201	MMRN1
Q13203	MYBPH
Q13214-2	sema3b
Q13219	PAPPA
Q13228	selenbp1
Q13243	SRSF5
Q13253	Nog
Q13275	SEMA3F
Q13277-2	STX3_2
Q13286	cln3
Q13287	nmi
Q13315	atm
Q13316	DMP1
Q13352	ITGB3BP
Q13363-2	ctbp1
Q13404	ube2v1
Q13410	BTN1A1
Q13421	MSLN
Q13424	SNTA1
Q13443	adam9
Q13467	fzd5
Q13478	IL18R1
Q13503	MED21
Q13519	pnoc
Q13522	PPP1R1A
Q13530	SERINC3
Q13595	tra2a
Q13596	snx1
Q13618	cul3
Q13751	LAMB3
Q13769	thoc5
Q13936	cacna1c_2
Q13936-20	cacna1c
Q13952	nfyc
Q13956	pde6h
Q14019	COTL1
Q14055	Collagen-IX
Q14088	rab33a
Q14112	NID2
Q14118	dag1
Q14145	keap1
Q14157	ubap2l
Q14161	GIT2
Q14181	pola2
Q14186	tfdp1
Q14195-2	dpysl3_2
Q14210	LY6D
Q14213	ebi3
Q14241	ELOA
Q14469	HES1
Q14515	sparcl1_2
Q14520	habp2
Q14524	SCN5A
Q14623	IHH
Q14627	il13ra2
Q14643	ITPR1_2
Q14686	ncoa6
Q14773	ICAM4
Q14896	mybpc3
Q14999	CUL7
Q14CS0	UBXN2B
Q15006	EMC2
Q15019-2	sept2
Q15020	sart3
Q15025	tnip1
Q15038	dazap2
Q15063	postn
Q15116	PDCD1
Q15118	pdk1
Q15238	PSG5
Q15262	ptprk
Q15287	RNPS1
Q15291	rbbp5
Q15303-3	ErbB4_2
Q15311	ralbp1
Q15334	llgl1
Q15369	ELOC
Q15382	rheb
Q15404	rsu1
Q15435	ppp1r7
Q15436	sec23a
Q15468	stil
Q15528	med22
Q15542	taf5
Q15545	taf7
Q15554	TERF2
Q15555	mapre2
Q15562	TEAD2
Q15582	tgfbi
Q15645	trip13
Q15648	med1
Q15773	mlf2
Q15811	itsn1
Q15825	chrna6
Q15828	CST6
Q15833	stxbp2
Q15834	ccdc85b
Q15836	vamp3
Q16181-2	sept7_2
Q16206	enox2
Q16206-2	enox2_2
Q16270	igfbp7
Q16363	lama4
Q16378	PRR4
Q16394	EXT1
Q16473	TNXA
Q16478	grik5
Q16526	CRY1
Q16555	dpysl2
Q16557	PSG3
Q16584	MAP3K11
Q16594	taf9
Q16602	CALCRL
Q16609	LPAL2
Q16611	BAK1
Q16619	CTF1
Q16623	stx1a
Q16625	ocln
Q16667-2	cdkn3
Q16740	clpp
Q16762	TST
Q16778	HIST2H2BE
Q16853	AOC3
Q16873	ltc4s
Q16891	immt_2
Q17RF5	C4orf26
Q17RW2	Collagen-XXIV
Q29960	HLA-C_2
Q29983	MICA
Q2KJY2	KIF26B
Q2MKA7	rspo1
Q2PPJ7	ralgapa2
Q2TAC2	ccdc57
Q31604	DMA
Q3B7J2	gfod2
Q3B8N2	LGALS9B
Q3B8N2-2	LGALS9B_2
Q3MHD2	LSM12
Q3YEC7	RABL6
Q3ZCW2	LGALSL
Q49AN0	cry2
Q4ACW9	TWEAK
Q4G0F5	vps26b
Q4LDE5	svep1
Q4VC05	bcl7a
Q53EL9	SEZ6
Q53FD0	zc2hc1c_2
Q53G59	klhl12
Q53GC0	SERTAD1
Q53GI4	TEAD4
Q53GQ0	HSD17B12
Q53SE7	FLJ13057
Q53XC2	eif2b2
Q53ZZ1	TNFSF6
Q58DX5	NAALADL2
Q59H18	tnni3k
Q5BIV9	sprn
Q5D1E8	zc3h12a
Q5D862	FLG2
Q5EB52	mest
Q5EBL8	pdzd11
Q5FBB7	SGO1
Q5H9J7	BEX5
Q5HYK7	sh3d19
Q5JR59	mtus2
Q5JRA6	mia3
Q5JRX3	pitrm1
Q5JSJ4	INTS6L
Q5JTB6	PLAC9
Q5JU00	tcte1
Q5JY77	GPRASP1
Q5JZY3-3	epha10
Q5KU26	colec12
Q5MNZ9	wipi1
Q5ST30-3	vars2
Q5SU16	TUBB
Q5SVZ6	ZMYM1
Q5SW96	LDLRAP1
Q5T3F8	TMEM63B
Q5T4W7	ARTN
Q5T5C0	STXBP5
Q5T653	mrpl2
Q5T655	cfap58
Q5T6C5	atxn7l2
Q5T700	LDLRAD1
Q5TAX3	zcchc11
Q5TBB1	rnaseh2b
Q5TCQ9	MAGI3
Q5TF85	fam46a
Q5TGY1	tmco4
Q5TZZ9	ANXA1_2
Q5UCC4-2	emc10
Q5VTR2	rnf20
Q5VU69	C1orf189
Q5VYK3	Ecm29
Q5VYS8	ZCCHC6
Q5VZL5	zmym4
Q63HN8	RNF213
Q6DKI2	LGALS9C
Q6E0U4	DMKN
Q6EIG7	CLEC6A
Q6EMK4	vasn
Q6FG55	lta_2
Q6FHL7	LEPROTL1
Q6H3X3	RAET1G
Q6IBM8	U5-116KD
Q6IBW4	NCAPH2
Q6IPW1	C11orf71
Q6IQ43	PTPN9_2
Q6IQ55	ttbk2
Q6ISS4	LAIR2
Q6KCM7-3	slc25a25
Q6MZP7	lin54
Q6NSX1	CCDC70
Q6NYC1	JMJD6
Q6P1J9	cdc73
Q6P1M3	llgl2
Q6P1X5	taf2
Q6P2C6	MLLT6_2
Q6P2C8	med27
Q6P2I7	EBLN2
Q6P2R3	C6orf182
Q6P499	nipal3
Q6P4R8	nfrkb
Q6P597	klc3
Q6P5S2	Leg1
Q6P602	TUBB_2
Q6P988	NOTUM
Q6PCD5	rfwd3
Q6PD62	ctr9
Q6PF11	CSH1_2
Q6PJE2	POMZP3
Q6PKC3	txndc11
Q6Q788	APOA5
Q6RFH8	DUX4L9
Q6RVD6	SPATA8
Q6RW13	agtrap
Q6RW13-2	agtrap_2
Q6SZW1	sarm1
Q6UVW9	CLEC2A
Q6UW32	IGFL1
Q6UWP8	SBSN
Q6UWQ5	LYZL1
Q6UWQ7	IGFL2
Q6UWX4	hhipl2
Q6UX06	OLFM4
Q6UX41	BTNL8
Q6UX71	plxdc2
Q6UXB1	Igfl3
Q6UXB4	CLEC4G
Q6UXH0	ANGPTL8
Q6UXH1	creld2
Q6UXH8	ccbe1
Q6UXL0	IL20RB
Q6UXN8	CLEC9A
Q6UXT8	Alkal1
Q6UXV4	apool
Q6UXX9	rspo2
Q6UXZ3	Cd300ld
Q6V1X1	DPP8
Q6W2J9	bcor
Q6XQN6	naprt
Q6XQN6-2	naprt_2
Q6ZMI0	ppp1r21
Q6ZMK1	cyhr1
Q6ZMQ8	AATK
Q6ZN17	lin28b
Q6ZN18	AEBP2
Q6ZNJ1-3	nbeal2
Q6ZQN5	foxi2
Q6ZRP7	qsox2
Q6ZTQ3	rassf6
Q6ZU65	ubn2
Q6ZW49	paxip1
Q6ZXV5-2	tmtc3_2
Q70EK8	USP53
Q70IA8	mob3c
Q71F23	CENPU
Q76L83	asxl2
Q76M96	ccdc80
Q7L4I2-2	rsrc2
Q7L4P6	bend5
Q7L775	EPM2AIP1
Q7L8A9	vash1
Q7LAP4	VEGFB_2
Q7LBR1	chmp1b
Q7RTN6	strada
Q7Z3E5-2	armc9
Q7Z404	tmc4
Q7Z465	bnipl
Q7Z4N8	p4ha3
Q7Z4Q2	heatr3
Q7Z4S6	kif21a
Q7Z569	brap
Q7Z5A9	FAM19A1
Q7Z6G3	necab2_2
Q7Z6G3-2	necab2
Q7Z6L1	TECPR1
Q7Z7E8	ube2q1
Q7Z7G0	abi3bp
Q7Z7G1	CLNK
Q86SQ9	dhdds
Q86TH1	adamtsl2
Q86TW2	adck1_2
Q86UA3	C12orf10
Q86UK5	EVC2
Q86UL8	MAGI2
Q86UN3	RTN4RL2
Q86UP2	ktn1
Q86UX2	itih5
Q86V21	aacs
Q86VN1	vps36
Q86VP1	TAX1BP1
Q86VR8	fjx1
Q86WT6	TRIM69
Q86WU2	ldhd
Q86WV6	tmem173
Q86X10	ralgapb
Q86X52	chsy1
Q86XU0	ZNF677
Q86XX4	fras1
Q86Y01	dtx1
Q86Y22	Collagen-XXIII
Q86Y26	NUTM1
Q86Y38	xylt1
Q86Y78	LYPD6
Q86YC2	palb2
Q86YD3	tmem25
Q86YL7	PDPN
Q86YS3	rab11fip4
Q86YS7	c2cd5
Q86YT9	JAML
Q86YW7	gphb5
Q86YZ3	Hrnr
Q86Z14	klb
Q8IU54	IFNL1
Q8IU57	ifnlr1
Q8IU85	camk1d
Q8IUH5	zdhhc17
Q8IUQ4	siah1
Q8IUQ4-2	siah1_2
Q8IUX8	egfl6
Q8IV16	GPIHBP1
Q8IV63	vrk3
Q8IVA8	gad1_2
Q8IVG9	MT-RNR2
Q8IVL1	NAV2
Q8IVL5	p3h2
Q8IWE2	fam114a1
Q8IWF7	UBE2DNL
Q8IWK6-3	adgra3_2
Q8IWR0	zc3h7a
Q8IWT3	CUL9
Q8IWV7	ubr1
Q8IWW8	adhfe1
Q8IWX8	cherp
Q8IX15-3	homez
Q8IX21	slf2
Q8IXJ6	sirt2_2
Q8IXN4	mak
Q8IY31	ift20
Q8IY67	raver1
Q8IYD9	Las2
Q8IYE0-2	ccdc146
Q8IYF3	tex11
Q8IYH5	zzz3
Q8IYL3	C1orf174
Q8IYM1	sept12
Q8IYS0	gramd1c
Q8IYV9	IZUMO1
Q8IYX8	cep57l1
Q8IZH2	xrn1
Q8IZH2-2	xrn1_2
Q8IZJ1	unc5b_2
Q8IZJ1-2	unc5b
Q8IZR5	cmtm4
Q8IZT6	aspm
Q8IZU0	FAM9B
Q8IZY5	BLID
Q8J025	APCDD1
Q8N0S2	SYCE1
Q8N0V3	rbfa
Q8N0Z3	spice1
Q8N137	CNTROB
Q8N157	ahi1
Q8N1F8	stk11ip
Q8N1L9	BATF2
Q8N201	ints1
Q8N2X6	EXOC3-AS1
Q8N302	aggf1
Q8N307	MUC20
Q8N398	vwa5b2
Q8N3X1	FNBP4
Q8N443	ribc1
Q8N448	lnx2
Q8N474	sfrp1
Q8N4L8	ccdc24
Q8N4P2	Ttc30b
Q8N4S1	sparcl1
Q8N4V1	mmgt1
Q8N5I4	dhrsx
Q8N5M9	JAGN1
Q8N5N7	MRPL50
Q8N5U6	rnf10
Q8N612	FAM160A2
Q8N6C5	IGSF1
Q8N6C8	LILRA3
Q8N6G6	ADAMTSL1
Q8N6L0	CCDC155
Q8N6R1	serp2
Q8N726	CDKN2A_2
Q8N7B6	PACRGL
Q8N8R5	C2orf69
Q8N960	cep120
Q8N9N5	banp
Q8NA19	L3MBTL4
Q8NA61	SPERT
Q8NB14	usp38
Q8NB16	MLKL
Q8NB25	fam184a
Q8NB37	gatd1
Q8NBF2	nhlrc2
Q8NBI3	Draxin
Q8NBI5	SLC43A3
Q8NBJ4	GOLM1_2
Q8NBJ4-2	GOLM1
Q8NBQ5	HSD17B11
Q8NBT0	poc1a
Q8NC24	rell2
Q8NC44	retreg2
Q8NC56	LEMD2
Q8NC60	noa1
Q8NC69	KCTD6
Q8NCC3	pla2g15
Q8NCF0	CLEC18C
Q8NCN4	RNF169
Q8ND90	PNMA1
Q8NDC4	morn4
Q8NE62	chdh
Q8NER5	ACVR1C
Q8NEU8	appl2
Q8NEV9	IL27
Q8NEZ4	KMT2C
Q8NF64-2	zmiz2
Q8NFA0	usp32
Q8NFC6	bod1l1
Q8NFM7	il17rd
Q8NHQ8	rassf8
Q8NHW4	CCL4L1
Q8NI22	mcfd2
Q8NI35	PATJ
Q8NI37	pptc7
Q8NI60	COQ8A
Q8NI77	kif18a
Q8TAA9	vangl1
Q8TAF3	WDR48
Q8TAG5	VSTM2A
Q8TAM1	bbs10
Q8TAP6	cep76
Q8TAS3	prrg2_2
Q8TAX7	MUC7
Q8TAX9	GSDMB
Q8TAZ6	CMTM2
Q8TB22	spata20
Q8TB24	rin3
Q8TB52	fbxo30
Q8TB96	itfg1
Q8TBC3	shkbp1
Q8TBE7	slc35g2
Q8TBP0	tbc1d16
Q8TBU1	OSTCL
Q8TBZ3	WDR20
Q8TC92	enox1
Q8TCG1	KIAA1524
Q8TCT0	cerk
Q8TD46	CD200R1
Q8TD84	dscaml1
Q8TDD1	ddx54_2
Q8TDJ6	dmxl2
Q8TDU9	RXFP4
Q8TDX7	nek7
Q8TDY2	rb1cc1
Q8TER5	arhgef40
Q8TEU8	WFIKKN2
Q8TEV9	SMCR8
Q8TEY5	CREB3L4
Q8TEY7	usp33_2
Q8TEY7-2	usp33
Q8TF50	znf526
Q8WTP9	XAGE3
Q8WTT0	CLEC4C
Q8WTU0	DDI1
Q8WTV0	scarb1
Q8WUA8	tsku
Q8WUG5	slc22a17
Q8WUH6	TMEM263
Q8WUJ3	cemip
Q8WUY1	THEM6
Q8WVC0	LEO1
Q8WVJ2	nudcd2
Q8WVK2	SNRNP27
Q8WWG1	NRG4
Q8WWW0	RASSF5
Q8WXA2	PATE1
Q8WXD2	SCG3
Q8WXD9	caskin1
Q8WXE1	atrip
Q8WXF3	rln3
Q8WXH5	socs4
Q8WXI2	cnksr2
Q8WXI7	MUC16
Q8WXI8	CLEC4D
Q8WXS4	tmem37
Q8WYR1	pik3r5
Q8WZ19	kctd13
Q8WZ75	robo4
Q92520	fam3c
Q92563	spock2
Q92565	RAPGEF5
Q92574	TSC1
Q92583	CCL17
Q92619	ARHGAP45
Q92624	appbp2
Q92626	pxdn
Q92673	sorl1
Q92730	rnd1
Q92731-3	ESR2
Q92743	htra1
Q92748	thrsp
Q92764	KRT35
Q92765	frzb
Q92796-3	dlg3
Q92797	sympk
Q92823	nrcam
Q92830	kat2a_2
Q92830-2	kat2a
Q92831	kat2b
Q92837	FRAT1
Q92838	eda
Q92845	kifap3
Q92851-2	CASP10_3
Q92851-3	CASP10_2
Q92854	sema4d
Q92878	rad50
Q92896	GLG1
Q92913	fgf13_2
Q92913-2	fgf13
Q92956	TNFRSF14
Q92979	emg1
Q92985	irf7
Q92997	dvl3
Q93038	TNFRSF25
Q93045	stmn2
Q93062	rbpms_2
Q93063	ext2
Q93074	med12
Q93091	RNASE6
Q93097	wnt2b
Q95460	MR1
Q969F0	FATE1
Q969L4	lsm10
Q969Q5	rab24
Q969Q6	ppp2r3c
Q969S8	hdac10
Q969T9	wbp2
Q969Z0	tbrg4
Q96A83	Collagen-XXVI
Q96A84	emid1
Q96AA8	jakmip2
Q96AC1	FERMT2
Q96AH0	NABP1
Q96B21	tmem45b
Q96B26	exosc8
Q96BA8	creb3l1
Q96BD8	SKA1
Q96BI3	APH1A
Q96BK8	C8orf30A
Q96BQ3	TRIM43
Q96C86	dcps
Q96CG3	TIFA
Q96CG8	CTHRC1
Q96CM8	acsf2
Q96CN9	gcc1
Q96CS7	plekhb2
Q96CW9	NTNG2
Q96DA0	ZG16B
Q96DR5	BPIFA2
Q96DX4	rspry1
Q96DX5	ASB9
Q96DZ9	CMTM5
Q96DZ9-2	CMTM5_2
Q96E03	MAGEA2B
Q96E29	mterf3
Q96E35	zmynd19
Q96ED9	hook2
Q96EK5	kif1bp
Q96EP0-3	RNF31_2
Q96EP1	CHFR
Q96ER3	SAAL1
Q96ES7	sgf29
Q96EV8	DTNBP1
Q96F15	GIMAP5
Q96FE5	LINGO1
Q96FE7	pik3ip1
Q96FF9	cdca5
Q96G23	CERS2
Q96GF1	rnf185
Q96GM8	toe1
Q96GS6	ABHD17A
Q96H12	MSANTD3
Q96HA1	pom121
Q96HD1	CRELD1
Q96HH9	GRAMD2B
Q96I34	ppp1r16a
Q96IP4	fam46a_2
Q96IV0	ngly1
Q96IW7	sec22a_2
Q96IY4	cpb2
Q96J02-2	ITCH_2
Q96J77	TPD52L3
Q96J88	epsti1
Q96JB5	cdk5rap3
Q96JG6	vps50
Q96JM2	ZNF462
Q96JM7	l3mbtl3
Q96JN8	neurl4
Q96JP5	ZFP91_2
Q96JP5-2	ZFP91
Q96JY6	pdlim2
Q96JZ2	hsh2d
Q96KG7	megf10
Q96KN1	FAM84B
Q96KQ7	ehmt2
Q96KR7	PHACTR3
Q96L11	C7orf34
Q96L14	CEP170P1
Q96LA8	prmt6
Q96LB8	PGLYRP4
Q96LB9	PGLYRP3
Q96LR4	FAM19A4
Q96LT7	C9orf72
Q96LZ7	rmdn2
Q96MS0	robo3_2
Q96MT8	cep63_2
Q96MT8-3	cep63
Q96MX0	cmtm3
Q96N03	vstm2l
Q96N21	TEPSIN
Q96NC0	zmat2
Q96NL3	ZNF599
Q96NR8	rdh12
Q96NT3	gucd1
Q96NW7	lrrc7
Q96NZ8	wfikkn1
Q96NZ9	PRAP1
Q96P63	SERPINB12
Q96PC2	IP6K3
Q96PE1	adgra2
Q96PE7	mcee
Q96PJ5	FCRL4
Q96PL1	SCGB3A2
Q96PN8	TSSK3
Q96PU4	UHRF2
Q96Q77	cib3
Q96QB1	dlc1
Q96QG7	mtmr9
Q96R06	SPAG5
Q96RK4	bbs4
Q96RR1	TWNK
Q96RS0	tgs1
Q96RS6	nudcd1
Q96RT8	tubgcp5
Q96S79	RASL10B
Q96SB8	smc6
Q96SI1	KCTD15
Q96SL4	gpx7
Q96T49	ppp1r16b
Q96T51	rufy1
Q96T91	gpha2
Q96TC7	rmdn3
Q99062	csf3r
Q99259	gad1
Q99435	NELL2
Q99447	pcyt2
Q99536	vat1
Q99538	lgmn
Q99549	mphosph8
Q99571	P2RX4
Q99574	serpini1
Q99584	S100A13
Q99598	tsnax
Q99608	NDN
Q99612	KLF6
Q99614	ttc1
Q99624	slc38a3
Q99627	COPS8
Q99708	rbbp8
Q99720	sigmar1
Q99727	TIMP4
Q99750	MDFI
Q99758	ABCA3
Q99784-5	OLFM1
Q99816	tsg101
Q99853	FOXB1
Q99909	SSX3
Q99944	EGFL8
Q99963	sh3gl3_2
Q99969	RARRES2
Q99972	myoc
Q99988	GDF15
Q9BPU9	B9D2
Q9BPX4	eif2b2_3
Q9BPY3	fam118b
Q9BQ16	spock3
Q9BQ51	PDCD1LG2
Q9BQ52	elac2
Q9BQ75	cmss1
Q9BQB4	sost
Q9BQE5	APOL2
Q9BQI6	slf1
Q9BRI3	slc30a2
Q9BRR6	adpgk
Q9BRV8	SIKE1
Q9BS26	erp44
Q9BS31	ZNF649
Q9BSB4	atg101
Q9BSE2	TMEM79
Q9BSG0	PRADC1
Q9BSJ2	tubgcp2
Q9BSM1	pcgf1
Q9BSQ5	ccm2
Q9BT67	ndfip1
Q9BTC8	mta3
Q9BTM9	URM1
Q9BU20	rsg1
Q9BU27	fam3a
Q9BU40	CHRDL1
Q9BU64	cenpo
Q9BU76	Mmtag2
Q9BUH8	BEGAIN
Q9BUI4	polr3c
Q9BUL8	PDCD10
Q9BUR5	APOO
Q9BUW7	C9orf16
Q9BUZ4	traf4
Q9BVJ7	DUSP23
Q9BVL2	nup58
Q9BVV2	FNDC11
Q9BW61	dda1
Q9BW85	ccdc94
Q9BWG4	ssbp4
Q9BWM7	sfxn3
Q9BWU1	cdk19
Q9BWW4	ssbp3
Q9BX10	gtpbp2
Q9BX66	sorbs1
Q9BX66-12	sorbs1_2
Q9BX67	jam3
Q9BXI9	C1QTNF6
Q9BXJ5	c1qtnf2
Q9BXJ7	amn
Q9BXN2	CLEC7A
Q9BXR6	CFHR5
Q9BXW4	map1lc3c
Q9BXW6	osbpl1a
Q9BYD2	mrpl9
Q9BYE7	pcgf6
Q9BYF1	ace2
Q9BYG5	pard6b
Q9BYJ1	ALOXE3
Q9BYR7	Krtap3-2
Q9BYT8	nln
Q9BZ11-2	ADAM33_2
Q9BZ71	pitpnm3
Q9BZ95	NSD3
Q9BZC7	abca2
Q9BZD6	prrg4
Q9BZK7	tbl1xr1
Q9BZL3	SMIM3
Q9BZM1	pla2g12a
Q9BZS1	foxp3
Q9BZW8	CD244
Q9C009	foxq1
Q9C010	pkib
Q9C086	ino80b
Q9C0F1	cep44
Q9C0J1	B3GNT4
Q9C0K7	STRADB
Q9GZM7	tinagl1_2
Q9GZP1	NRSN2
Q9GZT6	ccdc90b
Q9GZT8	nif3l1
Q9GZV9	fgf23
Q9GZZ8	LACRT
Q9GZZ9	uba5
Q9H013	ADAM19
Q9H0F6	SHARPIN
Q9H0H5	racgap1
Q9H0Y0	atg10
Q9H171	ZBP1
Q9H173	SIL1
Q9H190	sdcbp2
Q9H1B7	irf2bpl
Q9H1C4	unc93b1
Q9H1I8	ascc2
Q9H1J7	wnt5b
Q9H1M4	DEFB127
Q9H1Y0	Atg5
Q9H223	ehd4
Q9H269	vps16
Q9H293	IL25
Q9H2E6	sema6a
Q9H2F3	hsd3b7
Q9H2H8	ppil3
Q9H2H9	SLC38A1
Q9H2K2	TNKS2
Q9H2P0	adnp
Q9H2R5	KLK15
Q9H2X3	CLEC4M
Q9H2X6	hipk2
Q9H324	adamts10
Q9H329	epb41l4b_2
Q9H329-2	epb41l4b
Q9H330	tmem245
Q9H3S1	SEMA4A
Q9H422	HIPK3
Q9H461	Fzd8
Q9H4A4	rnpep
Q9H4F1	st6galnac4
Q9H4P4	rnf41
Q9H501	esf1
Q9H582	ZNF644
Q9H5I1	SUV39H2
Q9H5J8	TAF1D
Q9H665	igflr1
Q9H6R3	acss3
Q9H788	sh2d4a_2
Q9H788-2	sh2d4a
Q9H7E9	C8orf33
Q9H7Z7	PTGES2
Q9H814	phax
Q9H832	ube2z
Q9H840	gemin7
Q9H8E8	KAT14
Q9H8L6	MMRN2
Q9H8T0	aktip
Q9H8U3	zfand3
Q9H8W4	plekhf2
Q9H972	C14orf93
Q9H9Z2	lin28a
Q9HA47	uck1
Q9HAR2	ADGRL3
Q9HAU0	plekha5_2
Q9HAU4	SMURF2
Q9HAW0	brf2
Q9HB03	ELOVL3
Q9HB75	pidd1
Q9HB90	rragc
Q9HBE4	il21
Q9HBW1	LRRC4
Q9HC57	wfdc1
Q9HCD5	ncoa5
Q9HCE6	arhgef10l
Q9HCG1	ZNF160
Q9HCJ2	lrrc4c
Q9HCK4	robo2
Q9HCM3	KIAA1549
Q9HCM9	TRIM39
Q9HD26	gopc
Q9HD36	bcl2l10
Q9HD43	ptprh
Q9HD67	myo10
Q9HD90	neurod4
Q9NNX1	TUFT1
Q9NNX6	cd209
Q9NP55	BPIFA1
Q9NP59	slc40a1
Q9NP84	TNFRSF12A
Q9NP99	TREM1
Q9NPE2	ngrn
Q9NPH9	il26
Q9NPI5	nmrk2
Q9NPI8	fancf
Q9NPL8	timmdc1
Q9NPY3	CD93
Q9NQ38	SPINK5
Q9NQ79	crtac1
Q9NQC3	rtn4
Q9NQR4	nit2
Q9NQS1	aven
Q9NQT4	exosc5
Q9NQT8	KIF13B
Q9NR50	eif2b3
Q9NR56	mbnl1
Q9NRA1	pdgfc
Q9NRG1	prtfdc1
Q9NRH1	YAE1D1
Q9NRJ3	CCL28
Q9NRL3	strn4
Q9NRM6	IL17RB
Q9NRN5	OLFML3
Q9NRP0	ostc
Q9NRR4	DROSHA
Q9NRS4-3	tmprss4
Q9NRX1	pno1
Q9NRX3	NDUFA4L2
Q9NS15	ltbp3
Q9NS71	GKN1
Q9NS91	rad18
Q9NSA1	fgf21
Q9NSB8	homer2
Q9NSC5	homer3
Q9NSE2	cish
Q9NT62	ATG3
Q9NTN9	SEMA4G
Q9NTN9-3	SEMA4G_2
Q9NTU7	cbln4
Q9NUQ9	fam49b
Q9NV70	exoc1
Q9NVC6	med17
Q9NVD3	setd4
Q9NVD7	parva
Q9NVI1	Fanci
Q9NVJ2	ARL8B
Q9NVS9	pnpo
Q9NVV9	thap1
Q9NWB1	rbfox1
Q9NWD8	tmem248
Q9NWU2	GID8
Q9NX14	ndufb11
Q9NXE8	cwc25
Q9NXG0-2	cntln
Q9NYA4	mtmr4
Q9NYL5	cyp39a1
Q9NYY1	IL20
Q9NYZ4	SIGLEC8
Q9NZ08	ERAP1
Q9NZ20	PLA2G3
Q9NZ42	psenen
Q9NZC2	TREM2
Q9NZC4	ehf
Q9NZD2	GLTP
Q9NZD8	spg21
Q9NZG7	ninj2
Q9NZH0	GPRC5B
Q9NZH6	IL37
Q9NZM3	ITSN2_2
Q9NZN1	IL1RAPL1
Q9NZU0	flrt3
Q9NZU1	FLRT1
Q9NZU7	cabp1_2
Q9NZU7-2	cabp1
Q9NZW4	DSPP
Q9P0G3	KLK14
Q9P0J0	ndufa13
Q9P0K8	foxj2
Q9P0N5	TMEM216
Q9P0W5	schip1
Q9P126	CLEC1B
Q9P206	KIAA1522
Q9P218	Collagen-XX_2
Q9P218-2	Collagen-XX
Q9P283	sema5b
Q9P289	stk26
Q9P2K5	myef2
Q9P2N4	adamts9
Q9P2N6	kansl3
Q9P2W1	psmc3ip
Q9P2W7	b3gat1
Q9P2X3	impact
Q9P2Y5	uvrag
Q9UBC1	nfkbil1
Q9UBD5-2	orc3
Q9UBD9	clcf1
Q9UBE0	SAE1
Q9UBE8	nlk
Q9UBF1	MAGEC2
Q9UBF6	rnf7
Q9UBH0	IL36RN
Q9UBL3-2	ash2l
Q9UBN6	TNFRSF10D
Q9UBS5	gabbr1
Q9UBS5-2	gabbr1_2
Q9UBS9	suco
Q9UBT6	polk
Q9UBU3	ghrl
Q9UBV4	wnt16
Q9UBW5	bin2
Q9UBW7	zmym2
Q9UDV6	ZNF212
Q9UET6	ftsj1
Q9UEW3	marco
Q9UEW8	stk39
Q9UFN0	nipsnap3a
Q9UGJ1	tubgcp4_2
Q9UGM3	DMBT1
Q9UGN5	parp2
Q9UHA4	lamtor3
Q9UHC1	mlh3
Q9UHD0	IL19
Q9UHD9	UBQLN2
Q9UHF4	il20ra
Q9UHF5	IL17B
Q9UHI8	adamts1
Q9UHL4	dpp7
Q9UHP3	usp25
Q9UHP7	CLEC2D
Q9UHP7-3	CLEC2D_2
Q9UI09	ndufa12
Q9UI36-2	DACH1
Q9UI95	MAD2L2
Q9UIQ6	lnpep
Q9UJJ9	gnptg
Q9UJU6	dbnl
Q9UJW2	TINAG
Q9UJX0	OSGIN1
Q9UJX2	Cdc23
Q9UJY1	hspb8
Q9UJY4	GGA2
Q9UJY5	gga1
Q9UK17	kcnd3
Q9UK41	vps28
Q9UK55	SERPINA10
Q9UK80	usp21
Q9UK85	DKKL1
Q9UKC9	fbxl2
Q9UKF6	cpsf3
Q9UKF7	PITPNC1
Q9UKJ1	PILRA
Q9UKJ3	gpatch8
Q9UKP4	ADAMTS7
Q9UKP5	adamts6
Q9UKR3	KLK13
Q9UKR5	C14orf1
Q9UKT9	IKZF3
Q9UKW6	ELF5
Q9UKX3	MYH13
Q9UKY1	ZHX1
Q9UL32	BOK
Q9UL33	trappc2l
Q9UL45	bloc1s6
Q9ULA0	dnpep
Q9ULB1	NRXN1
Q9ULB5	cdh7
Q9ULC6	PADI1
Q9ULD2	MTUS1_2
Q9ULD2-2	MTUS1
Q9ULI3	heg1
Q9ULK4	med23
Q9ULL4	plxnb3
Q9ULP0	ndrg4
Q9ULT6	znrf3
Q9ULT8	hectd1
Q9ULU4	zmynd8_2
Q9ULV1	fzd4
Q9ULW2	fzd10
Q9ULW8	PADI3
Q9ULZ1	apln
Q9UMX0-2	UBQLN1_2
Q9UNA0	ADAMTS5
Q9UNA1	ARHGAP26
Q9UNE0	edar
Q9UNF0	pacsin2
Q9UNG2	tnfsf18
Q9UNS1	timeless
Q9UPM8	ap4e1
Q9UPN3-4	MACF1
Q9UPN9	trim33
Q9UPQ8	dolk
Q9UPR0	plcl2
Q9UPT5	exoc7
Q9UPT9	usp22
Q9UPV0-2	CEP164
Q9UPZ6	thsd7a
Q9UQB3	CTNND2
Q9UQV4	LAMP3
Q9Y215	colq
Q9Y251-3	hpse
Q9Y258	CCL26
Q9Y261	foxa2
Q9Y287	itm2b
Q9Y2F9	btbd3
Q9Y2I2	NTNG1
Q9Y2J8	padi2
Q9Y2M0	fan1
Q9Y2R2	ptpn22
Q9Y2S7	poldip2
Q9Y2X0	med16
Q9Y376	cab39
Q9Y383	LUC7L2
Q9Y3A3	mob4
Q9Y3A6	tmed5
Q9Y3C5	rnf11
Q9Y3C7	MED31
Q9Y3I1	fbxo7
Q9Y3Z3	samhd1
Q9Y4A5	trrap
Q9Y4B5-4	mtcl1_2
Q9Y4D1	DAAM1
Q9Y4D7	plxnd1
Q9Y4W6	afg3l2
Q9Y587	ap4s1
Q9Y5C1	angptl3
Q9Y5E8	PCDHB15
Q9Y5J5	PHLDA3
Q9Y5J9	timm8b
Q9Y5L2	HILPDA
Q9Y5P4	COL4A3BP
Q9Y5R8	trappc1
Q9Y5U5	tnfrsf18
Q9Y5W5	wif1
Q9Y5X1	snx9
Q9Y5X9	lipg
Q9Y5Z4	hebp2
Q9Y5Z7	hcfc2
Q9Y5Z9	UBIAD1
Q9Y603	etv7
Q9Y605	MRFAP1
Q9Y616	irak3
Q9Y617	psat1
Q9Y6A5	tacc3
Q9Y6C2	EMILIN1_2
Q9Y6C2-2	EMILIN1
Q9Y6D9	mad1l1
Q9Y6E0	stk24
Q9Y6F1	parp3
Q9Y6H6	KCNE3
Q9Y6I9	TEX264
Q9Y6K0	cept1
Q9Y6M0	PRSS21
Q9Y6N6	lamc3
Q9Y6N7	robo1
Q9Y6N9-4	ush1c
Q9Y6R0	numbl
Q9Y6R7	FCGBP
Q9Y6W8	ICOS
Q9Y6X2	PIAS3
Q9Y6Y8	sec23ip
V9HWH2	HEL-S-29
ebi:EBI-11682400	Collagen_XXV
ebi:EBI-2431477	Collagen-II_2
ebi:EBI-2550808	ITGB1
ebi:EBI-2554495	ITGB1_2
ebi:EBI-6397384	Fibrinogen
