node id	node name
A0A024R493	efhd1
A2RRN7	cadps_2
A5YKK6-2	cnot1_2
A6ND01	IZUMO1R
D3W0D1	KLRF2
O00212	RHOD
O00292	Lefty2
O00391	qsox1
O00548	DLL1
O00634	NTN3
O14770	Meis2
O14936-2	cask_3
O14948	tfec
O15078-2	cep290
O15496	PLA2G10
O43155	flrt2
O43184	adam12_2
O43294	TGFB1I1
O43521	bcl2l11_2
O43612	hcrt
O43854	edil3
O60494	cubn
O60609	gfra3
O60760	HPGDS
O60840	cacna1f
O60840-5	cacna1f_2
O60882	MMP20
O75084	FZD7
O75325	lrrn2
O75462	crlf1
O75807	ppp1r15a
O75900	MMP23A
O75973	C1QL1
O94993	SOX30
O95150	TNFSF15
O95393	bmp10
O95445	apom
P01185	avp
P01562	IFNA1
P01854	IGHE
P01909	HLA-DQA1
P02462-PRO_0000390482	Arresten
P02748	c9
P02808	STATH
P06850	crh
P07357	c8a
P07738	bpgm
P08263	GSTA1
P08582-2	MELTF
P08700	IL3
P09238	MMP10
P10074	zbtb48
P11150	lipc
P12319	FCER1A
P14770	gp9
P15692-12	VEGFA_4
P15692-14	VEGFA_3
P16444	dpep1
P19835	CEL
P20023	CR2
P20742	PZP
P21583	KITLG
P23469	PTPRE
P23510	TNFSF4
P26651	ZFP36
P26718	KLRK1
P26951	IL3RA
P27352	GIF
P28908	TNFRSF8
P30273	fcer1g
P30566	adsl
P32971	TNFSF8
P34998	crhr1
P35638-2	ddit3_2
P35754	glrx
P36575	arr3
P37288	avpr1a
P39905-3	gdnf
P40197	GP5
P41146	oprl1
P41217	CD200
P43489	TNFRSF4
P46094	XCR1
P47992	XCL1
P48509	cd151
P48745	NOV
P49366	dhps
P49771	FLT3LG
P53990-4	ist1_2
P55259	GP2
P56703	wnt3
P56705	WNT4
P57105	synj2bp
P57796	cabp4
P60827	C1QTNF8
P78333	GPC5
Q00532	cdkl1
Q01523	Defa5
Q03403	TFF2
Q07283	TCHH
Q08830	fgl1
Q0P5P2	C17orf67
Q0WX57	USP17L24
Q11201	st3gal1
Q12918	KLRB1
Q12959-5	dlg1_3
Q13275	SEMA3F
Q13519	pnoc
Q13522	PPP1R1A
Q13530	SERINC3
Q13936-20	cacna1c
Q14195-2	dpysl3_2
Q14623	IHH
Q15116	PDCD1
Q16555	dpysl2
Q16740	clpp
Q16762	TST
Q2KJY2	KIF26B
Q31604	DMA
Q3B7J2	gfod2
Q4ACW9	TWEAK
Q4VC05	bcl7a
Q53EL9	SEZ6
Q5HYK7	sh3d19
Q5SW96	LDLRAP1
Q5T4W7	ARTN
Q5T655	cfap58
Q5TZZ9	ANXA1_2
Q6EIG7	CLEC6A
Q6H3X3	RAET1G
Q6IPW1	C11orf71
Q6P5S2	Leg1
Q6RW13-2	agtrap_2
Q6UVW9	CLEC2A
Q6UWQ5	LYZL1
Q6UXV4	apool
Q7L8A9	vash1
Q7LBR1	chmp1b
Q7Z6G3	necab2_2
Q86TH1	adamtsl2
Q86Y01	dtx1
Q86Y22	Collagen-XXIII
Q8IU54	IFNL1
Q8IU57	ifnlr1
Q8IVL1	NAV2
Q8IWW8	adhfe1
Q8IYS0	gramd1c
Q8IYV9	IZUMO1
Q8N307	MUC20
Q8N6G6	ADAMTSL1
Q8NBI3	Draxin
Q8NE62	chdh
Q8TAG5	VSTM2A
Q8TBE7	slc35g2
Q8TD46	CD200R1
Q8TDU9	RXFP4
Q8WTP9	XAGE3
Q8WTT0	CLEC4C
Q8WXD9	caskin1
Q8WXF3	rln3
Q8WXI8	CLEC4D
Q93038	TNFRSF25
Q93091	RNASE6
Q96B21	tmem45b
Q96B26	exosc8
Q96BK8	C8orf30A
Q96C86	dcps
Q96DX5	ASB9
Q96ED9	hook2
Q96EK5	kif1bp
Q96H12	MSANTD3
Q96IY4	cpb2
Q96L11	C7orf34
Q96LB8	PGLYRP4
Q96LB9	PGLYRP3
Q96PJ5	FCRL4
Q99571	P2RX4
Q99612	KLF6
Q99758	ABCA3
Q9BQ51	PDCD1LG2
Q9BUH8	BEGAIN
Q9BUW7	C9orf16
Q9H1M4	DEFB127
Q9H2R5	KLK15
Q9H6R3	acss3
Q9H972	C14orf93
Q9HB03	ELOVL3
Q9HBW1	LRRC4
Q9HD67	myo10
Q9HD90	neurod4
Q9NWD8	tmem248
Q9NZ20	PLA2G3
Q9NZH0	GPRC5B
Q9NZU1	FLRT1
Q9NZU7-2	cabp1
Q9NZW4	DSPP
Q9P2W7	b3gat1
Q9UBD9	clcf1
Q9UHI8	adamts1
Q9UHP7	CLEC2D
Q9UI09	ndufa12
Q9UJW2	TINAG
Q9ULW2	fzd10
Q9UQV4	LAMP3
Q9Y2I2	NTNG1
Q9Y5L2	HILPDA
Q9Y5Z9	UBIAD1
Q9Y605	MRFAP1
V9HWH2	HEL-S-29
ebi:EBI-2554495	ITGB1_2
