group_size	group_elts	list_size	neighbours_list
69	AANAT, ADSSL1, ANKRD18A, ASS1, BANK1, BDP1, C22orf9, CMPK1, COPS4, CTPS1, HIBADH, HIST1H1T, HIST2H2BF, HMGCS2, HS6ST2, MAPT_6, MYH2, NAPSA, PANK1, PHLDB2_2, PPFIBP1, PRR14L_2, Phf3, SAMD4B, SH3BP5L, SRSF8, TGIF2LY, TRIM21, WWC2, YWHAB_2, ak5, akt1s1, arl6ip1, cacna1s, cby1, ccdc84, cth, efnb3, hectd4, lancl1, madd, mark3_2, nde1_2, nufip1, pank2, pde1a, pfkfb2, pnn, prpf18, psme3_2, rap1gap, rprd1a, sik1, slc9a1, smc5, snx24, spire2, spr, ssbp1, tbc1d4, th, tpd52, tra1, tsfm, tut1, usp42, wdr61, wtap, zc3h13	1	ywhaz
11	ABCA6, ERVK-10, FAM169A, Kiaa0754, MAP7D1, QDPR, TXNDC2, dntt, fam83c, lcat, mocos	1	APOA1
2	ABCB11, pkib	1	LY6D
28	ABCG2, DENR, Klf5, MUL1, MYC, N4BP1, UBASH3A, ZRANB1, cuedc2, epn2, klf1, lepr_2, march5, mkrn1, nedd4l_3, pcna, pdcd2, poli, poll_2, rnf114, spdya, stam, tp73_2, ubap1, ube2b, ubfd1, usp5, zfand6	1	ubc
12	ABLIM1, ABLIM1_2, DRD2, ITGB1_4, OTUD5, TES, casr, ccnb2, drd3, itgb7, kcnj2, palld_2	1	flna_3
217	ACAD10, AK4, ANKRD50, ANKS6, ARL4C, ATXN7L3, AVPI1, BCL7C, C11orf63, C1orf87, CAPNS2, CCDC60, CCNB1IP1, CDKL3, CPLX3, CSAG1, DCDC2, DCX, DDX19B, ENY2, ERMN, ETV3, FAM126B, FAM32A, FAM53A, FGF16, FKBP1A, GIMAP4, GJB1, GLRX5, HEYL, HIST1H2BM, ISL1, KCNAB3, KCTD18, LMNTD1, MRM3, MSL3, MYL5, Map9, NBPF3, NUSAP1, OAS2, OCEL1, OR2W1, OR8B3, PCBD2, PHF7, PIMREG, PIP4K2C, PLA2G4D, POGZ, PP2D1, PRR15, PRRC1, PTTG2, RASL11B, RGS10, SEPT5, SMTNL2, SPANXN3, SPZ1, TAF9B, TBC1D7, TCEAL2, TCEANC, TCP10L, TIGD1, TMA7, TPD52L2, TRIM40, TRIM52, TSPY2, UBE2S, VCY, ZADH2, ZC3HAV1L, ZMAT4, ZMYM3, ZNF2, ZNF22, ZNF684, ZSCAN1, adap2, adat2, add2, afap1l2, agpat3, aifm3, aknad1, ankzf1, armc1, arnt2, atp6v1g1, bik, bod1, brwd1, bud31, cacnb1, carnmt1, ccdc15, ccnb3, chka, cplx2, crip2, ddhd2, ddx43, ddx55, dennd6b, dhx58, diras1, dnah1, dus3l, e2f8, echdc1, eci2, eepd1, eif2b5, elk3, epb41l4a, fancM, fndc3a, gadd45gip1, gnao1, gorab, gpank1, gpkow, gpt2, gsap, gtf2e2, gyg2, hadh, hbs1l, hddc3, hint2, hs3st1, imp4, iqch, kcnab1, kcnn3, kif3b, klf12, krtcap2, larp6, lrrc8d, map2, mob3a, mrpl11, mrpl34, mrps18a, mrps24, mtg1, nat6, nedd9, nkiras1, nob1, nol7, nsrp1, olfml2a, orc6, osbpl11, otx2, pacrg, papss2, pde4d, pdzd4, phyh, plekhg2, plekho2, pnkd, pold3, pole3, polr2k, pop7, ppp1r14a, prr14, rad51ap1, rasgrp3, rgl1, rgs5, ripply1, rnpc3, ropn1l, rp9, rpusd2, rsrc2_2, rtf1, scyl1, serp1, setbp1, sirt7, slc4a1ap, sp2, stoml2, sycp2l, taco1, taf1b, tasp1, tbcc, tcea1, tcp10, tfpt_2, tipin, tnfrsf21, tph1, trpt1, trub1, ttll7, ube2e2, ung, xaf1, zfyve1, zfyve27, znf410, znf574, znf706, znf740	1	app_3
55	ACSL3, ANO5, ATP1B1, CAVIN1, CEND1, CMTM8, CYLC2, Collagen-IX_2, Collagen-XVII_2, DNAJC13, DOK1, FRAT2, GPM6B, MGARP, NDUFA4, PTPRD, ap1b1, camlg, chd5, cntn2, csrp1, dbr1, dnajc4, dok4, efnb1, engase, ercc1, esr1, exoc2, gpnmb, hexim1, hoxc10, lyn, pag1, plch1, pnpla2, prkar1b, ptpn18, rapgef1, raph1, rgs4, rin2, rubcn, sgpl1, sh3bgrl3, sh3d21, slc5a1, slc7a5, spcs2, stap2, susd1, tstd2, vps13a, wasf3, ythdf1	1	egfr
78	ACSM2B, C19orf68, CCDC25, CFAP47, CNN1, DNTTIP1, FBLL1, GCC2, HEATR4, HR, KLHL41, KRT24, KRT37, KRT75, LRRC8E, LZTS3, MLLT1, MYH4, NBPF8, NEFH, OR4K3, PABPC5, PURB, RARB, RBM43, RPL13AP3, RPL36AL, RPL3L, RPLP0P6, SMARCAD1, SQOR, SYNGAP1, Sprr1b, TOGARAM1, acad11, arid5a, baz1a, brd8, ccdc87, clasp2, gal3st4, gigyf1, gnb3, golga3, gorasp1, gtf3c3, ikzf5, kif5a, lactb, mrc2, mrpl45, mrps21, myh7b, nebl, pabpc1l, pcbp3, pik3r4, polr1e, pprc1_2, prepl, pura_2, rbm47, rims2, rnft2, rrbp1, slc7a6, smtn, sned1, stk31, tcof1_2, thoc6, tmf1, txnrd1_2, ubn1, ubr3, vmac, vps13c, zc3h18_2	1	ESR2_2
32	ACTRT1, CALD1_2, CALML3, GCA, INF2_2, JMY, MYO18A, Pnma3, YES1_2, ahdc1, atp13a2_2, cdca8, cep83, cep89, efhd2, immt, kdm3b, krt17, lmo7, lss, mettl17, mylk, narfl, oard1, picalm, pip5k1a_2, rbpms, rnf170, rpl22, tpm1_4, trpm6, ttll6	1	myh9
43	ACY3, BLCAP, C11orf87, C16orf59, CXCL5, DNAL4, FAAH, GLP1R, HEL-S-90n, HIST1H2AK, ITGB5_3, KRTAP12-4, KRTAP4-7, LOC200261, NEU2, NR1D2, NUBP2, POLR2G, R3HDM2_2, SELENOM, TMEM41A, TNIP3, TNP2, WT1-AS, ZNF32, ZNF439, ZNF440, cdk5r1, chic2, gabrd, lims2, lrch4, mxd3, nab2, pigs, pomgnt2, rab3il1, reck, ret, slc22a23, themis2, trpv6, tspan4	1	NOTCH2NL
10	ADAMTS20, LCN12, MUC5AC, TMPRSS11A, clec11a, matn4, mfge8, nptx2, tnr, xdh	1	MYC_2
3	ADH1B, abcc5, dnajc1	1	SERPINA3
2	ADM, RAMP1	1	CALCRL
4	ADORA2A, Ifitm3, MT-ND1, ggt1	1	NAMPT
3	ADRA1B, IGL@, OR8D2	2	IGHG1, ALB
65	AGAP4, AGAP5, AGAP9, ANKRD7, ARRDC5, BICDL1, C15orf57, C2orf73, CCHCR1_2, CT55, EPB41L1, ERICH6, FAM71D, GOLGA8A, GRK3, Gtsf1, LBHD1, LCE3A, MSL1, PHYHIPL, PNPT1, SPACA7, SRMS, TBC1D3B, TTC39C, ZNF197, acap2, adcy9, adprhl2, agap3, amd1, ank1, arhgap28, armt1, bves, ccno, cdc123, cenpk, cep78, cetn3, clcn3, crnkl1, crybb2, dnajc21, enpp2, gnpat, gripap1, guca1a, hinfp, lig1, mylk_2, nek10, nsmce4a, osbpl9, palm3, pelo, pnisr, ptpra_2, rab43, rsph3, spata7, tsnaxip1, uqcrb, wdr66, zbtb37	1	hspb1
17	AGO3_2, ARAF_2, FYN, HIG-1, PIWIL4, PRR14L, TUBAL3, cdc37l1, cdk13, edrf1, lck, map3k8_2, pdrg1, piwil1, plce1, prkacb, tesk2_2	1	HSP90AA1_2
2	AGR3, PRSS50	2	ESR2_2, tgfb1
11	AHNAK2, C16orf72, CDYL2, KIAA1191, NCLN, kif13a, lsm14b, ndufs5, rad51d, rbm10, slc25a19	1	huwe1
34	AKAP2, ARHGAP42, BICC1, BST2, CAMK2G, CARD10, FBXO46, ITPR1, KIAA1671, MTFR1, Ssfa2_2, WASHC2A, WASHC5, amotl1, dctn3, fam161a_2, farp1, fdx1, fgd4, flii_2, gas2l1, ints3, lin7c, lmo7_3, lrrfip2, myo1c_2, n4bp3, nckipsd_2, nexn, numb_3, rbbp6_2, tango6, tpm1_3, tpm4	1	CAPZA2
5	AKAP2_2, CD44_2, gng12, rai14_2, zbtb20_2	2	myh9, flna_3
7	AKAP5, KDM5B, cdyl, dnajc11, fblim1, fgf14, ubr7	1	HIST1H3A
23	AKR1C1, ALDH1B1, BPTP-2, BROX, acot13, arhgef1, bzw2, cd79a, clic2, fau_2, gale, h2afv, idi1, mrps6, napg, nars, ndufv2, pdlim5, rbm12, sar1a, smap2, snrpe, stxbp3	1	fn1_2
52	AKR7A2, ANKRD17_2, BOLA2, CHD4, CSNK1A1L, GNB1_2, ITSN2, PA2G4_2, SEPT11, SRSF6, UCK2, WUGSC:H_RG054D04.1, acp1, acsm3, agfg1, alyref, asns, atp5i, ctsh, dazap1, decr1, drg1, eef1e1, esd, gnb1l, gp1bb, gtf2b, lypla1, macrod1, msi2, ndufs1_2, nqo1, pfdn2, phf5a, pmvk, ppih, pum1, rpl24_2, sar1b, scap, sec31a, sept7, sept9_2, slirp, snx3, srm, taldo1, tcerg1, trappc3, tyms, ube2nl, vta1	1	vcam1
2	ALOXE3, rin3	1	tgm1
3	AMBN, AMTN, ENAM	2	FAM20C, fam20a
11	AMELX, MENT, PPP1R3A, bmp15, chrdl2, ecm2, gtf2a1, mxra7, pkmyt1, ptprn2, slc2a2	1	FAM20C
2	AMER1, topbp1	2	ubc, egln3
8	AMHR2, CCDC117, FBXO24, KLHL1, dyrk4, fbxw2, musk, unc45a	2	HSP90AA1_2, HSP90AB1_2
121	ANKMY2, ASB17, BCR/ABL fusion, C20orf194, CAMKV, CEBPE, DLX6, DMRTA1, ENC1, FBXL12, FBXO27, FBXO6, FOXD4L6, GSG2, HERC6, HES4, INSRR, ISX, KCNS3, KLHL10, MKX, NHLRC1, NR1I3, PPARD, PRKY, RAB40A, RAG1, STK32B, SUGT1, TAOK3, TFDP3, TRIM10, TRIM17, TRIM49, TRIM7, TRIM73, TSSK1B, ZNF215, ZNF74, alpk1, anapc2, arel1, armc5, asb4, aurkb, camk1g, camk4, ddr1_2, det1, dtx4, eif2ak1, eif4ebp1, fam162a, fastk, fbxl13, fbxl18_2, fbxl8, fbxo18, fbxo3, fbxo34, fbxo4, fbxo9, fkbp6, g2e3, grk4, grk6_2, grk7, hectd3, herc4, kbtbd4, kcna6, kcng1, kctd8, klhl13, klhl15, klhl22, klhl26, klhl32, klhl36, klhl6, lrsam1, map3k15, map3k9, mink1, mylk4, nek11, nelfe, npr2, nr1h3, pdik1l, pim2, prdm1, preb, prkaa1, prkcg, prkx, pskh1, rapsn, rcbtb1, ret_3, rgs11, rgs7, rgs9_2, rhobtb1, rnf111, rnf19b, ror2, rps6kc1, sars2, sgk3, spsb1, styk1, tbx22, tesk2, thap4, tnni3k_2, tp53rk, trim36, zbtb20, zbtb49, zc3h7b	1	HSP90AB1_2
4	ANKRD17, cars2, cog1, rcan1	1	CAPN1
19	ANKRD35, DPPA4, ING5, LOR, PNMA5, ZYG11B, dis3l2, kif15, nefm, nek6, nelfcd, nmt1, sh3yl1, sync, trim16, triobp_2, tubgcp4, txn2, xpnpep3_2	1	vim
6	ANKRD36B, QRICH2, gss, osmr, prep, rbm5	1	gapdh
42	ANKRD36BP1, C19orf73, C1orf216, CCDC112, CDC20B, COMT_2, FAM90A1, FBF1_2, KRT77, MARK4_3, NAV1_2, OTUB2, PRR19, RPUSD3, SLC15A3, SPON2, ZNF20, ZNF569, ZNF69, amot_2, arsj, asmtl, atxn7l1, catip, ccdc120, coa5, dgkb, fam110a, gng10, krt71, lmf2, map3k7cl, p2rx7_2, radil, rsph14, sfrs2, smg9, snrnp25, tmem106c, tmsb4x_2, ttc23, znf148	1	KRT31
19	ANKRD54, BTBD1, GPATCH2L, IFT43, KLF10, TNNT3, ZNF619, ZNF793, ZNF835, ZSCAN23, boc, chd2, esrrg, ift140, mbtd1, mga, myo18b, neb_2, wdr35	1	TULP3
21	ANO9, CYSLTR2, FAM163A, FRMPD4, IQSEC1, KCNA3, MARCH3, ZSCAN30, adgra1, adgra3, adrb1, cript, dcun1d1, fam163b, kcnj12, kif1b, net1, pbk, plac8l1, slco1c1, tbx15	1	dlg1_2
7	ANTXR1_2, Anastellin, Collagen-XVII, ITGB1_5, cspg5, epgn, mt-Nd3	1	Beta-amyloid peptide 1-42
9	AOAH, CDH12, IGHV3-23, IGHV3-7, SETDB2, SLC48A1, rfx7, rtkn2, slc6a9	1	IGHG1
28	AP2A2, ARMCX3, C10orf88, CPSF7_2, DSTYK, FAM83A, KIDINS220, MARF1, SCYL2, SLC2A4, atp6v1d, btbd3_2, chmp1a, cpvl, dennd1a, fam83b, helz, numb, plekha5, ptrh2, reps1, sec16a, sec24b, slc35b2, tnk1_2, tnrc6a, wnk1, xpr1	1	cltc_2
3	AP2M1_2, ap2a1_2, clint1	4	myh9, cltc_2, flna_3, CAPZA2
5	APBA1, GPR3, ITM2A, ptger2, rab6b	1	app
2	APBA1_2, spata2	2	app_3, cask_2
2	APBA3, ercc4	2	egfr, egln3
4	APBB2, apbb3, numb_2, vps33b	2	app_3, egfr
2	APH1A, mpl	1	thpo
2	APOL4, PAPLN	1	tfap2c
3	ARHGAP32, FAM53C, osbpl3	2	SFN, egln3
18	ARHGAP4, DOCK4, FNBP1, MPP4, MYO15A, RIMBP3C, SNX18, SPTA1, TRIP10, cacnb3, dnmbp, eps8l3, macc1, mia, samsn1, sh3pxd2b, skap2, tjp3	1	faslg
28	ARHGDIB, BAIAP2_2, FICD, IL18RAP, PAK3, RTKN, SNX31, TNFAIP8L2, als2, arhgap15, arhgap31, arhgef19, arhgef4, arl2bp, brinp1, cfap36, cog5, dock1, fhod1, hps4, iqgap2, mcm3ap, ngef, prex1, spata13, trio, unkl, ush1c_2	1	rac1
10	ARHGEF12, HDAC9, SSU72, STAG2, hdac8, mcmbp, neurl4_2, pds5b_2, stag1, tmem165	1	smc3
7	ARID1A, SYT-SSX2, dpf2, rcor1, rest, smarce1_2, tet2_2	1	smarca4
36	ARMCX1, CCDC116, CCDC42, CCDC68, EIF3A_2, FAM13C, GNG4, LCA5L, LOC729862, PAXBP1, PDE4DIP_2, SFR1, TDP2, THAP8, TSHZ3, TSPYL4, ZGPAT, ZGPAT_3, ZSCAN12, arhgef9, ccdc151, eaf2, fam161a, hook1, imp3, mcm7, mettl17_2, mtfr2, oip5, pbx4, pcm1, poll, sap30bp, snx20, tfpt, zfyve26	1	tfip11
2	ART1, PGC	1	cAMP
14	ARVCF, ATP2B1, BANF1, GPR87, GUCY1A2, SCN4A, SLC6A12, abcc4, abr, gas2l2, grin2c, nr2e1, slc5a5, vipr2	1	Erbin
4	ASB2, hgh1, myo3b, vps41	2	HSP90AB1_2, ESR2_2
2	ATG3, atg10	1	atg7
2	ATP1A3, ATP1B2	1	rs1
3	ATP6V0D2, FOLH1, polg2	1	rps3
9	ATP9A, GRTP1, gpatch4_2, las1l, rnf13, rpl10, rrp9, sf3b1_2, tmem132a	1	NES
2	ATRAID, sltm	1	NELL1
12	B3GNT4, C1orf174, DEXI, NRSN2, U5-116KD, dck, elac2, gemin7, grik5, med22, nipsnap3a, syt1	1	GOLM1_2
4	BAAT, fbp2, tbc1d2, tmem129	1	pdgfrl
6	BATF2, KAT14, esrra, kat2b, supt3h, trrap	1	kat2a_2
25	BBS5, CCDC138, CETN1, CHTOP, CSPP1, HMGN1, ISOC1, KDELR2, LRRC49, MPHOSPH9, TPGS1, bbs9, ccdc61, fopnl, gpatch1, haus6, iqcb1, kif14, mib1, plp2, pmpcb, srek1, tbc1d31, ttc8, znf423	1	cep290_2
21	BCL11B, CARMIL2, IKZF2, NCKAP1L, RBPJ_2, RFX1, anapc1, ascc3, fryl, hcls1, maml3, mau2, med25, nbea, ppp6r3, trappc10, trappc9, vps11, vps39, wdr11, zbtb2	1	NOTCH1
4	BCL2L12, dis3l, nfyb, sstr3	2	HSPA1A, HSPA1B
2	BCL2L12_2, gata1	3	HSPA1A, ubc, HSPA1B
52	BCL2L15, C11orf57_2, CGGBP1, COX4I1_2, CT45A3, Dmc1, FAM118A, GAL3ST1, HEL-S-25, HMGB3, IFNL3, KCNV1, MRFAP1L1, OTUB2_2, PTS, RUNDC3A, SEPT3, SPERT_2, SREK1IP1, SULT1B1, TBC1D3H, TDO2, TMEM239, TNFAIP8, ankrd40, brinp2, cadps, ccdc36, dctpp1, drap1, eaf1, edaradd, eif1ad, eif5a2, fzd3, gpatch11, ino80e, kcnh1, kctd1, klhl2, lztfl1, ppp6r2, rtn1, sdccag3_2, smarca2, smarca2_3, sp8, srsf11, ssna1, thg1l, tkfc, zcchc17	1	sdcbp
7	BEND7, CDCA7L, ZNF398, dhx38, gkap1, katnbl1, zfp64	1	mfap1
3	BEX5, ift20, mtmr9	1	EMILIN1_2
2	BLID, thrsp	3	fgfr4, cdh1, tgfb1
2	BOK, bcl2l10	1	MT-RNR2
31	BOP1, LENG8, NOP10, PAK1IP1, UTP15, WDR12, ZCCHC3, ctcf, ddx10, ddx31_2, ddx51, dhx57, dkc1, exosc7, knop1, mak16, ngdn, nifk, nol8, nop53, nsa2, papd5_2, rbm19, rpf1, rpp30, rrp8, stat3_2, urb2, utp20, wdr75, znf711	1	MNDA
4	BRD3, ccdc106, epb41l5, golga4_2	2	app_3, ESR2_2
25	BRSK1, CBARP, EBF4, EP400NL, FAM122A, KIF26A, PHACTR4, R3HDM2, SLC50A1, TAOK2, WAC, ZXDC, bean1, cass4, ccdc88c, cyth1, epha8, fsd1, kank4, msmo1, papola, pcif1, prkd3, snap91, wnk2	1	PKM_2
2	BTBD10, rnaseh2a	1	lama5
14	BTLA, CD300A, DUSP22, KIR2DL1, LILRB3, MPIG6B, SIGLEC7, SIGLEC9, SIRPA, SLAMF6, THEMIS, cd22, irf8, ntrk1	1	ptpn6_3
5	BTN3A1, BTNL8, Cd300ld, SIGLEC8, ZNF250	1	TFF1
16	BZW1, PTDSS1, RFT1, cand2, dnaaf1, ei24, gpaa1, ipo11, ipo9, mboat7, pigt, rabl3, stard3nl, tm9sf3, tnpo3, uqcrc1	1	stom
11	Bud13, GRM5, IL32_4, card11, chd9, fam192a, gap43, lysmd2, pprc1, tp53inp1, trappc13	1	prkcd
16	C10orf62, C4orf42, Depp, GDPD5, HOXA9, ILF3, KIAA1683, PKD2, PLSCR3, VSIR, ZNF764, cdc42ep1, exd3, neu4, p2ry6, slc35a2	1	PLSCR1
21	C12orf10, FERMT2, GLTP, SSX3, TUBB, TUBB_2, ZNF599, aacs, acsf2, armc9, fam114a1, gad1, gad2, mterf3, ndrg4, rbfa, rmdn2, rnf185, rsrc2, sucla2_2, vars2	1	CMTM5
2	C12orf10_2, iars2	2	HSP90AB1_2, hspb1
51	C12orf43, C19orf53, CACNA2D1, CD5, IFI16_2, MRPS33, POC1B-GALNT4, PRR3, RPL19, RPS21_2, RPSA, SPATS2, TADA1, cdca4, cenpv_2, chd1, dap3_2, ddx24_2, ddx31, ddx54, dhx29, dhx30_2, eefsec, eif2b4, espl1, focad, hnrnpab_2, ighmbp2, mepce, metap1, mrpl27_2, mrps35, mus81, nbeal1, nepro, nip7, nol6_2, npm3, pabpc4, phf14_2, rfc1, rfc3, riok2, riox2, rpl17_2, rpp25l, srbd1, stau2, trub2, ttc37, uhrf1	1	hnrnpu
62	C12orf57, CAMSAP2, CIAPIN1, GPATCH2, IFFO1, KIAA1462, LIMD1, MAP7D2, NCAPH2_2, NFATC3, NHSL1, RAB11FIP5, RBM20, SLAIN1, TICRR, TTC17, TUBGCP6, USP54, ZFPM2, acaca_2, arhgap39, blm, camsap1, cep85, cnn3, cpeb3, etv6, fam135a, fam168b, fam193a, foxn4, gata6, gli3, haus5, hif1a_2, mastl, mios, mis18a, mtfr1l, mtmr3, mycbp2, ncor2_2, nde1, osbpl6, patl1, pdzrn3, phldb1, proser1, prrc2b, r3hcc1l, rad54l2, rmi1, sec24b_2, tbkbp1, tmem131, top3a, ubap2, vgll3, wdr59, zbtb1, zfyve16, znf318	1	egln3
4	C15orf39, KIF20B, brinp1_2, derl1	1	hsp90b1
7	C16orf45, C6orf47, ENSA, nat9, ndufs7, st3gal2, ube2c	1	eno2
17	C17orf49, MAP3K6, NDST1, NFIB, RNF8, asap3, brpf1_2, cep128, cox6b1, erf, golga5, lims1, mib2, ncoa3_2, nhej1, smyd5, wwp1_2	1	xrcc5
61	C17orf53, C8orf59, CSNK1G3, CUEDC1, DUX3, DVL1_2, FAM27E3, GIMAP8, LDHAL6A, MAPT_2, MAPT_4, MRNIP, NAT1, NOMO2, QPCTL, TAF7L, TEX33, TOR1AIP2, WIPF1, acsl5, aldh8a1, anks4b, ap1g2, arfgap1_2, arhgef7, ccdc43, cdc42ep3, cenpf, cfap20, csnk1g1, dbf4b, dnm1l_2, dpm3, enkur, eogt, faap24, gemin8, hells, hoga1, irak1bp1, lbr, lims2_2, lrrc47, ndufaf7, ndufb4, opa1, pgm3, pole, rab1b, rab32, rgs1, safb, sf3b1, sf3b2, sh3gl3, trib2, trove2, ube3c, vash2, xirp2, yme1l1	1	lrrk2
9	C19orf47_2, angel2, arhgap39_2, camsap3, ghdc, ppp1r9a, prkrip1, tyk2, usp11_2	1	lrp8
4	C19orf57, NDEL1, birc6, lpxn	1	vcl_2
10	C19orf60, chd3_2, ipp, ncoa4_2, psmd4_2, ptpn2_2, rbm15b, sucla2, ube3a_2, uchl5	1	psmd14
24	C1orf106, CDC42BPG, DKFZp686P15220, FAM117B, Pard3b, REEP4, SASH1, SPIRE1, ajuba, anpep, arhgef5, cdc25b, chst1, fam53b, ildr2, klhdc2, pi4kb, rassf1, rhpn2, samd4a, shcbp1, shroom1, sipa1l1, wdr37	1	SFN
15	C1orf131, GLUD2, NMD3, PEF1, VN1R5, ZNF326, csrp2, ddx23, gpx1, idh3b, nphp3, ppm1f, sdccag8, ssr3, timm23b	1	CEP164_2
46	C1orf52, C4orf19, ELF1, ETFA, HOXC8, HSP90AB2P, LRRIQ4, RBBP8NL, RPS10P5, RSF1, SPAG9, SYPL2, TRIM72, abcc2, aldh5a1, atp5j, bcl3, cd82, cep112, cfap73, commd2, commd4, commd7, ddx46, dhrs7b, diras2, dpm1, frmd8, hmga2, hpf1, hsd17b8, ica1, ints3_2, isg20, jakmip1, mccc1, mpp6, nav3, nfkbiz, nsdhl, pc, pcca, pde8a, saraf, stxbp4, vapb	1	nfkb1
2	C21orf2, RHOXF1	1	vtn
2	C21orf2_2, haus4	2	cep290_2, egln3
3	C4orf26, REG3A, apln	1	MDFI
5	C5orf24, ZNF426, hhex, il16_2, rhpn1	1	efemp2
16	C5orf60, FAM71C, ICAM4_2, LINC00526, MGC13033, NPBWR2, WDR25, ZNF124, aldh3b1, ca6, chrng_2, cldn2, hspa12b, josd1, ptpmt1, zfyve21	2	NOTCH2NL, KRT31
29	C6orf136, IER3IP1, KDM6B, LRP5L, TCEAL7, ZNF44, ZNF71, ZNF784, abhd4, auts2, cep170_2, dennd5a, ercc8, fbxl5, kdm5c, kif5c, npas2, nrbp1, odc1, pacs1, pfkfb4, phf11, phrf1_2, pitpna, ppp2r5d, pyroxd2, rorb, tsen54, yaf2	1	csnk2b
4	C6orf182, cep63, hhipl2, ltc4s	1	alox5
10	C6orf226, HNRNPLL, PCDHB14, ZFC3H1_2, ZNF792, cnnm3, dido1, prmt3, rbm41, znf385c	1	hnrnpk
18	C7orf25, CAAP1, CDK5RAP2, COMMD3-BMI1, EVA1A, NAP1L5, SLC25A36, cdh10, dfna5, dusp12, gpd1, hspbap1, ptprs, rit1, supt7l, txndc9, utp3, wfdc2	1	ptn
5	C7orf50, bms1, exosc3, exosc6, grwd1	2	MNDA, HDGF
2	C9orf142, recql	2	xrcc6, xrcc5
15	CAPN11, EID1, POR, abcd4, atp6v1e1, btg1, ccdc57_2, dnm2_2, jpt2, nit1, pnrc2, tbcd, tinf2, tnrc18, vbp1	1	xrcc6
14	CAPN2, NAV1, blvra, dusp2, dusp5, enah, gnptab, hsf4, itgb6, mtif3, pea15, ppp2r5c, prpsap1, shc1_3	1	mapk1
4	CARD16, CARD17, MEFV_2, tirap	1	CASP1
2	CASP10_2, CASP10_3	2	faslg, tnfsf10
2	CAVIN2, INPP5A	1	plek
5	CBWD2, KCTD12, ZNF420, heatr6, slc1a3	1	tnfrsf1b
7	CCDC121, CCDC42_2, FAM156A, LOC729862_2, ZGPAT_2, ccdc151_2, tfpt_3	1	tfip11
5	CCDC184, HEL-S-70, UBALD1, mocs2, zbtb7b	1	rpl9
6	CCDC196, KRT6C, armc7, gps2, lats1, leng1	2	tfip11, KRT31
10	CCDC26, LCE1B, LCE3E, NMUR2, Ryden, SLC6A20, adamtsl5_2, gata2, pid1, tmem150a	2	ADAMTSL4, NOTCH2NL
15	CCDC8, CENPC, MAZ, SUPT20H_2, TCEAL1, UGT2B10, YY1AP1, ccdc97, dusp26, map2k4, nktr, robo1_2, rps6ka4, tcf20, znf142	1	MAPK14
3	CCER1, DMRT3, SMCP	3	NOTCH2NL, PLSCR1, KRT31
3	CCNL2, mki67_2, usp3	1	CBR3
14	CD1A, CD1b, HLA-A, HLA-A_5, HLA-B_3, HLA-B_5, HLA-B_7, HLA-B_9, HLA-C_4, HLA-F, KIR3DS1, KLRC1, KLRD1, NCR2	1	b2m
3	CD1D, HLA-A_2, HLA-A_9	2	LILRB2, b2m
2	CD300LF, LILRB4	1	ptpn6_3
9	CD3D, TMX2, TU3A, chst15, oprd1, praf2, tmx3, trpv4, trpv4_3	1	canx
5	CD3E, CD7, SUSD2, gemin2, pou2af1	1	LGALS1
7	CD5L, F11, SAA1, TFPI, colec11, itln1, pon1	1	pitx3
7	CDC42BPA, Collagen-V_3, HSPA1A_2, TMEM176A, srgap3_2, tmem126a, twistnb	1	tgm2
27	CDCA2, CEP192, NUSAP1_2, RGPD8, SENP1_2, SP110, comtd1, dlgap5, kifc1, kpna7, lcor, ndc1, nemp1, nsf_2, nup155, nup214, nup37, nup85, nup98, plekha8, smn1_2, smpd4, taf11, taf4b, tmem209, ythdc1_2, zc3h14	1	kpnb1
4	CDK3, POGK, TRIM41, bbx	2	app_3, HSP90AB1_2
4	CELA3A, CTSW, PNLIPRP1, spock3	1	CREB3
13	CELF3, DVL1, HOXD8, TIAM2, ZNF135, ZNF431, cpne2, dync1i1, hmgxb3, mpped1, nprl2, tmem108, wdr73	1	ANXA7
3	CELSR1, PRSS3, maff	1	psap_2
5	CFHR1, CFHR3, CYP27A1, SULT2A1, alg12	1	prdx4
4	CGB3, gphb5, lhb, tshb	1	gpha2
39	CHCHD2P9, HNRNPUL2, NAT10, Par1b, RPRC1, YBX2, ddx18_2, ddx28, ddx5_2, eif4a2, fam98a, fxr1_3, g3bp2, hnrnpc, hnrnpl, hnrpa1, lgsn, mrpl12, mrpl15, mrpl20, mrpl23, mrpl3, mrpl37, mrpl53, mrps7, nop56_2, pop1_2, ptcd1, pura, ralyl, rcc2, sec31b, sepsecs, stau1, tab3, tdrd3, trim25, usp10, zcrb1	1	ybx1
4	CHIT1, alas2, piga, vps29	1	ELANE
23	CHLR1, DNM3, EIF2C2, GNA15, Hus1b, MAOA_2, PRAME, PSMC1_2, RUVBL, STEAP1, TSSK4, adra2a, cnr2, eIF2aK4, gnaz, gnb2_2, gtf3c5_2, mc1r, psmc4, rec8, rgs11_2, rgs9, ublcp1	1	psmd2
18	CHML, LAX1, MICAL1, RAB18, RAB39A, Rab6C, TBC1D8B, arl1, ctla4, inpp5b, micall1, rab8b, rabggta, rabif, samm50, sytl4, tbc1d9b, trim25_2	1	rab8a
3	CHRDL1, IFNA16, habp2	1	parp2
4	CHRNB2, chrna3, chrna5, chrnb4	1	LYPD6
5	CKAP2, GDF10, UNC79, cacna2d2, tbc1d19	1	IGHA1
41	CLCA2, FAM71E2, GJC2, KCNMA1, KIAA0232, KIAA1551, NLRC4_2, OR2T6, PCDH1, PEG3, PF4V1, PLA2G4F, PRSS3P2, RYR2, SPAST_2, SPATA31A7, ZNF292, aga, ap1m1, bbc3, cables1, cacna1i, camta1, cdc45, cfd, chkb, crot, dgkg, foxj3, igdcc4, ldb3, nphs1, pdzrn4, plag1, rlf, sh3bp5, slc9a8, tln2, trappc11, ttpal, usp37	1	ALB
3	CLDN4, CLDN7, cldn1	1	TACSTD2
14	CNOT4, CNOT9, PI4K2A, TNRC6C, Tob2, aurkaip1, btg2, cnot10, cnot3, cnot6l, ibtk, thrb, tnks1bp1, tnrc6a_2	1	cnot1
24	CNPY3, EMC3, MKL1, MLEC, bri3bp, chid1, clcc1, cnpy2, emc1, emc8, erap2, fkbp10, gfpt1, gramd1a, kdelc2, magt1, minpp1, nenf, pofut1, sdf2l1, sec63, spcs3, tmtc3, uggt2	1	tctn1
2	CNTN3, cntn4	2	app, aplp1
9	CNTNAP2, CNTNAP4, MLLT6, RPH3A, TRIM22, WHRN, ell2, id1, tbr1	1	cask_2
3	COPG1, celf1, pmaip1	1	PPBP
3	COPRS, PHF20, dek	2	HIST1H3A, Hist1h4a
2	COPS8, cops2	1	gfer
2	CPNE6, SP110_2	2	ttr, ANXA7
11	CPSF7, KIDINS220_2, MACF1_2, UBE2M, YTHDF2, arl2, ndufa2, rap2b, sec61b, snrpd3, ttll12	2	fn1_2, vcam1
3	CRNN, emilin3, reln	1	sqstm1
3	CS, hint1, marcks	1	phospho1
12	CSE1L_2, DPYSL5, HNRNPA1L2, MAP4, ano3, ghitm, hells_2, hnrnpa1_2, n6amt1, ncor2, ppp4r4, sept6	1	hspa5
2	CSH1, CSH2	2	LOXL2, lox
4	CST7, SAE1, SGO1, tbc1d16	1	ctsc
3	CTPS2, HTR1A, frs2	1	FGFR1
3	CUL9, btbd3, spock2	1	plxnb3
13	CYP19A1, MAOA, SEPT8, SPACA3, cdk2ap2, cyp11a1, dlst, elavl3, ncdn, scarb2, sts, tpp1, trappc5	1	A2M
2	CYP2C8, gcdh	2	APOE, A2M
2	CYP2S1, NATD1	2	ADAMTSL4_2, ADAMTSL4
2	CYTH2, SH2D3A	2	SFN, egfr
3	Collagen-VIII_3, MSMB, SOD3	1	sgta
3	Collagen-XV, TNXA, wisp2	2	tfap2c, tfap2a
3	Collagen-XXIV, FAM19A4, wnt5b	1	appbp2
2	Collagen_XXV, pitrm1	2	Beta-amyloid peptide 1-40, Beta-amyloid peptide 1-42
2	Complement C3 beta chain, KLK1	1	cfh
8	DAB2IP, PRKAR2B, arfgef2, cyba, dnajb12, gys2, nox1, rfk	1	tnfrsf1a
11	DCAF1, DCAF1_3, DTL, TRPC4AP, WDR5B, cops3, crbn, dcaf11, dcaf5, invs, wdtc1	1	ddb1
5	DCAF4, crbn_2, dcaf12, dcaf6, wdtc1_2	1	ddb1
7	DDX17_2, ncoa1, rorc, tp53_2, tp53_4, tp53_6, wbp11	1	ddx5
3	DEFB121, EDDM3B, bricd5	1	SYNE4
2	DESI1, fgfr2_3	1	fgf7
8	DEUP1, NACAP1, TCL1A, btf3l4, hypk, mbip, ppfia1, rint1	1	txlna
4	DGKD, aldh2, ethe1, sephs1	1	IGSF21
10	DKFZP586J0619, INTS11_2, dot1l, golga4, ints2, ints6, ppl_2, taf1a, zmynd8, znf609	1	INTS14
2	DLEU1, rsrc1	2	EEF1A1, gdf9
4	DLX2, arfgap1_3, fam131c, fancl	1	GRN
5	DNAJA3, HGF, SH2B2, shd, socs1	1	met
34	DNAJA4, KCNAB2, MRPL55, NOMO1, PALMD, PLPPR3, TARBP1, TCIRG1, ZNF286A, actr8, cstf2, fam173a, fancd2_2, gtf2ird1, hspa13, iqcg, mrpl17, ndufa6, nhs, osbpl2, pdcl, pdf, phka2, pnpla8, ppp4r3b, ptma_2, rad54l, rnf126_2, sbf2, srsf2, tcof1, tsen2, uhrf1bp1, uvssa	1	bag6_2
4	DNMT3A, DNMT3L, phf21a, taf3	1	H3F3A
3	DOK5, ercc2, exoc3	1	egfr
2	DRC1, galnt6	1	aldoa_2
13	DRC7, ERVK-19, PML_3, PYDC1, RALB, casp8, dnajc28, fstl5, inpp4b, lemd3, lig3, nlrc3, tshz2	1	pycard
3	DSC2, sec22a, ubac1	1	DSP_2
9	DSCR8, GOLGA8DP, RAB2B, dip2a, lrrc29, morn3, rhoj, susd6, top3b	1	ADAMTSL4
7	DUSP13, FYCO1, SYNE1, cc2d2a, lats2, mlip, zmpste24	1	lmna_3
3	DUSP9, SUPT20H, dusp4	2	MAPK14, mapk1
12	DZIP3, SEPT1, TOM1, ankrd13a, chd6, cstf1, n4bp2, nedd4l, nt5dc2, rcan1_2, tbx3, wrnip1	1	tollip
3	Defa6, ghrl, pik3ip1	2	UBQLN1, UBQLN1_2
5	EBLN2, STRADB, stk26, stk39, strada	1	cab39
2	EDNRB, ednra	1	edn1
5	EGR2, FOXN2, POU2F1, crebzf, gabpb1_3	1	hcfc1
2	EL52, tmod4	2	HSP90AB1_2, cdc37l1_2
8	ELF4, higd1a, msh6, mycbpap, smc4, srprb, tmem147, ufl1	1	CASP4
10	EMP3, LEPROTL1, OSTCL, PLN, cyb561, dolk, edar, mal, nipal3, ostc	1	eda
4	EPB41L2, TARBP2, acbd6, mrpl28	2	app_3, hspb1
5	EPHA1, TSSK2, dclk2, nfic, prkg2	2	PKM_2, HSP90AB1_2
2	EPOP, FGFR1OP2	1	CCT8
2	EPS15L1, arcn1	2	ESR2_2, vcam1
6	ERC1, PALD1, clgn, elovl1, pip5k1a, rnf216	1	tlr9
6	ESCO2, PHF12, bbx_2, coro7, hbegf, npat	1	S100A4
2	ESYT2_2, ube2e1	1	PAEP
2	EVL, sptbn1_3	1	SPTAN1_2
6	FAAP20, PRR12, ascc1, ccs, dync2li1, nfs1	1	sod1
2	FABP1, Rflna	1	flna
10	FAM104A, HMGCR, SYF2, ZNF778, dgat2, kif20a, syvn1, ube4b, ubxn2a, ubxn8	1	VCP
2	FAM160A2, rab33a	1	rtn3
4	FAM213A, SCCPDH, pla2r1, scpep1	1	HSCB
3	FAM47B, TP53TG3, csnk1g2	1	lrrk2
3	FBP1, dpp3, phc1	1	HSPA8
17	FBXL3, FBXO40, KLHL25, STK32C, TRIM2, TRIM74, asb6, fbxl14, fbxo10, fbxo38, grk6_3, klhl14, klhl29, pim3, prkch, rcbtb2, rps6kl1	1	HSP90AB1_2
2	FGFR1_2, fgfr2_2	1	fgf2
7	FLYWCH1, HLA-A_3, HLA-B_4, mrps17, nrg1, nrg1_4, pik3cb	1	erbb3
2	FNBP4, cemip	1	plxna2
2	FNDC11, zbtb24	1	CDA
4	FNDC3B, UGP2, ablim2, synm	1	ttn
6	FYTTD1, alkbh2, kansl2, spen, taf1b_2, zc3h18	1	FERMT3
2	GALR1, GALR2	1	GAL
4	GATC, ZSCAN21_2, aar2, cdh5	1	KDR
2	GFRA1, GFRA1_2	1	gdnf_2
2	GID4, ube2h	1	armc8
2	GPIHBP1, ube2z	1	lpl
2	GPRC5A, specc1	2	myh9, ACTR2
4	GPSM3, fgf4, rnf130, smg7	1	fgfr3_2
3	GREB1, cilp, lrrc23	1	tgfb1
2	GRHL2, trps1	1	C4A
2	GRIP2, pick1	1	NECTIN1
21	GSPT2, HMGN4, LZIC, OXCT1, TCEAL6, Tceal3, adss, cdc6, clpx, dbi, fdps, gga3, lrrfip1, mrrf, nucks1, orc1, otud7b, ptma, tbca, uchl3, znf385a	1	ubb
2	GTF2IRD2, rgs6	2	psmd2, HSP90AB1_2
2	H2BFS, dld	2	ESR2_2, fn1_2
3	HAMP, THOC7, ndufb7	1	CKAP4
3	HAUS2, plaa, stk17b	1	faf2
2	HBE1, HBG2	2	HBA1, vcam1
5	HBG1, PYCR2, aco2, coasy, hsd17b10	2	app_3, vcam1
10	HECW2, NAT2, PLEKHA7, ank2, ctnnd1_2, galnt12, hsd17b3, phlpp1, pip5k1c, ptprm	1	cdh1
2	HIST1H1D, HIST1H2BD	2	HDGF, ywhaz
7	HIST2H2AA3, PADI4, cmas, dffb, dnm1, smap1, stk40	2	app_3, lrrk2
12	HJURP, JMJD4, KMT5A, PSME4, brd4, brpf1, etaa1, fkbp14, kdm4b, naa40, sfmbt1, sirt2	1	Hist1h4a
2	HLA-A_4, mrps18b	1	erbb3
2	HLA-A_7, HLA-A_8	1	hyou1
2	HLA-B, HLA-G	3	LILRB1, LILRB2, b2m
2	HLA-B_8, KLRC2	1	b2m
7	HLA-DRB1, TSPAN9, igsf8, lrrc74a, ptgfrn, slc44a1, tspan14	1	cd9
3	HNRNPCL1, mrps5, zfr	2	ESR2_2, ybx1
4	HOXB7, erg, etv1, nr1h4	3	xrcc6, xrcc5, prkdc
5	HRK, retreg1, rsrp1, scarf1, xrcc1	1	c1qbp
2	HSP70-1, fancd2	2	tnfrsf1b, tnfrsf1a
2	HSP90AB3P, copb2	2	ESR2_2, nfkb1
3	HSPB9, dync1i2, tiprl	1	dynlt1
3	HTN1, HTN3, PRR4	1	MUC7
2	ICAM5, polr2j	2	bag6_2, CD14
2	IFNA8, IFNW1	2	IFNAR1, IFNAR2
3	IFNB1, Ifna2, Ifna5	1	IFNAR2
2	IFT122, wdr19	2	TULP3, PFKP
3	IGFL1, IGFL2, Igfl3	1	igflr1
3	IGIP, angpt1, c1qtnf3	1	mapk8ip2
2	IGLL5, arsj_2	1	jun
3	IGM, ITGAX, VSIG4	1	C3
2	IL18BP, IL18R1	2	IL18, IL37
5	INF2, MISP, arpc5l, cobl, lima1	4	myh9, flna_3, ACTR2, CAPZA2
3	INTS12, ints4, ints9	1	INTS14
2	INTS13, ints10	2	INTS14, HDGF
7	ISYNA1, LSM2, RANBP6, RBBP7_2, ctbp1_2, htr1b, nme4	1	nme2
5	JAGN1, fam3a, ninj2, pttg1ip, tmprss4	1	CLEC7A
10	JDP2, PTPRCAP, TMPRSS3, Tspy1, mnat1, mrpl42, ormdl3, papss1, pole2, rras	1	EEF1A1
2	JPT1, hnf4a	1	sfpq
2	KANSL1, nfu1	2	tfip11, hspb1
13	KCNN2, SAXO1, SP100, ZNF446, angptl7, atp5g1, cacna1d, crabp2, lrp12, nrap, pdlim3, spa17, zc2hc1c	1	ACTN2
6	KDM2A, agtpbp1, glis3, snapc3, tead1, zbtb44	1	eno1
2	KDM5A, impa2	1	cct6a
4	KHDRBS3, PRR3_2, RBMY1A1, rbm7	2	hnrnpk, rbmx
4	KIAA0087, dpf1, hacd1, slx4ip	1	rpn1
2	KIAA0753, ccdc13	2	pibf1, cep290_2
14	KIAA0930, PPFIBP1_2, PPP1R3D, arhgef16, bad, foxo4, kank1, kif23, mprip, nedd4l_2, pacs2, ralgps2, reps2, tpd52l1	2	SFN, ywhaz
3	KIAA1211, PHLDB2, kctd10	2	flna_3, CAPZA2
2	KIAA1522, fzd6	1	sfrp1
12	KIAA2013, LTBP4, MTCH1, NLRP5, SPAST, ZC3H8, fem1a, gemin2_2, luc7l3, phf14, phrf1, uqcrq	1	NLRP3
2	KIR2DL2, KIR2DS4	1	HLA-C_2
2	KLK13, KLK14	1	SPINK5
3	KLKB1, bdkrb1, bdkrb2_2	1	kng1
4	KRTAP10-11, KRTAP4-11, KRTAP5-6, ZNF587	3	ADAMTSL4, PLSCR1, NOTCH2NL
3	KRTAP13-3, cdk5r1_2, mxi1	1	NOTCH2NL
2	KRTAP3-1, gtf3c5	2	NOTCH2NL, ESR2_2
19	LAMTOR4, RREB1, abl1_2, akap17a, cgrrf1, cmbl, dhcr24, fmr1_2, fxr1_2, nos1ap, polr2h_2, slc6a3, sncaip, srrm1, srrt_2, srsf4, tppp, wdfy3_2, zcchc8	1	SNCA
2	LARP4, larp7	3	app_3, MNDA, ybx1
2	LEMD2, bdkrb2	2	lmna_3, lmna
6	LENG8_2, bub3_2, mphosph6, papolg, pcid2, unc119b	1	ZFC3H1
3	LEO1, fsbp, jakmip2	1	ELOA
3	LPAL2, PRADC1, cd209	1	vac14
3	LY6G6C, NPFF, cnp_2	1	zdhhc17
2	MACF1_3, triobp	3	myh9, bag6_2, CAPZA2
2	MAEA, RMND5A	3	armc8_2, ddx5, armc8
3	MAGEA2B, MAGEC2, zc3h12a	1	p4ha3
2	MAGEA8, rbfox1	1	GCA_2
2	MAGEB4, polr3c	2	tnr_2, rock1
3	MAGOHB, nfe2l2, robo3	1	rbmx
2	MC4R, ccni	1	IL1RAP
2	MDH1, psap	1	HSPB2
2	MED21, sec23ip	1	SSC5D
2	MEFV, NLRC4	3	NLRP3, pycard, CASP1
4	MELTF_2, dcbld1, plxna1, tapbp	1	pdia3
3	METTL3, churc1, pdcl3	1	ACTR2
2	MLLT6_2, cib3	1	enox2_2
2	MLPH, sytl1	1	rab27a
3	MPDU1, chn1, edem2	1	RPS3A
9	MPST, SAMD3, bcl2l13, fdxr, fhit, hmg20a, tmcc2_2, tmem11, znf703	1	hspd1
3	MRE11, orc2, orc3_2	1	ILF2
4	MRPL58, SNRNP27, slc25a25, tmtc3_2	1	LAMB3
4	MRPS12, MT1G, MT2A, RABL6	1	SPINK7
2	MRPS15, mrps2	2	ESR2_2, hnrnpu
6	MRPS33_2, cars, nt5dc3, rbck1, slu7, spock1	1	tnf
3	MYO1D, RPS4Y1, copg2	2	ESR2_2, lrrk2
2	MYOM1, mybpc1	2	ttn, c1qtnf9
2	MYOZ1, myoz2	3	ACTN2, actn1, actn4
3	MZB1, kdsr, susd4	1	mapk6
4	MZT2A, TUBGCP6_2, fbxo45, uggt1	1	LGALS3BP
4	NABP2, irf3, rab4b, srxn1	1	prdx1
11	NAPB, SCAMP5, STX3, STX7, bet1, snap47, stx16, stx6, vamp1, vamp4, vamp5	1	stx4
2	NDUFA4L2, arhgef10l	1	ANXA9
15	NFIX, RDH11, SENP1, acot8, arid5b, chd1_2, gbp1, gsr, mynn, ppp1r10, txnrd1, uba7, wars, wdr33, zc3h15	1	isg15
7	NIPBL, PHF23, SRPRA, chp1, recql4, shmt1, tmem222	1	prss23
2	NLRP7, TRIM16L	2	il1b, CASP1
2	NMB, NMB_2	1	birc2
4	NOP16, ddx52, nol9, rrs1	1	MNDA
2	NRP2, VEGFB	1	VEGFA_2
2	NSD2, ppan	2	app_3, MNDA
2	NUP62CL, fabp2	1	AGR2
2	Npy1r, npy2r	2	npy, PYY
7	OASL, ap3s1, bcas3, exo1, hps5, phf20l1_2, taf1	1	CD14
2	ORAI1, ORAI3	1	CRACR2A
3	PAIP2, TIGAR, senp8	1	rpl11
2	PAN2, ank3	1	PLEC
3	PCDHA1, Pcdha10, optc	1	crk
5	PCED1A, ZNF581, bcl6b, dhrs1, yipf3	2	NOTCH2NL, PLSCR1
2	PDE4DIP, trappc2	2	eno1, eno3
3	PDGF-AA, ZNF579, stab1	1	sparc
9	PGBD1, ZKSCAN7, ZNF165, ZNF397, ZNF496, ZSCAN16, ZSCAN22, ZSCAN32, ZSCAN9	1	ZNF446_2
2	PHF8_2, THAP11	2	hcfc1, hnrnpu
2	PIGM, smurf1	1	chek1
3	PITX2, cbs, tat	2	HSPA8, HSP90AB1_2
8	PKIA, RGPD5, ankrd49, nr4a2, nupr1, ppp1r13b, vrk1, vrk2_2	1	ran
2	PLAC8, atrn	1	COPS5
3	PLD1, hunk, pld2	1	cfl1
14	PLEKHG3, PPP1R9B, SYNPO_2, afap1, coro2a, mprip_2, myo1b, myo1e, nexn_2, specc1_2, sptbn1_2, tpm1, tpm2, tprn	3	myh9, flna_3, CAPZA2
3	PLIN3, TPD52L3, ttpa	2	app_3, CMTM5
5	PML, ctdp1, polr3b, spc24, spc25	1	dsn1
2	PML-RAR, atp6v0b	1	fas
2	PPP4R2, ilkap	1	rps11
2	PRSS38, slit3	1	otub1
2	PRTG, serpina7	1	ripk4
2	PSMB7_2, dcp2	1	psmb1
2	PSMB9, psmb8_3	1	PSMB7
4	PSMB9_2, psma1, psma3, psmb8	1	psma2
2	PSMG1, clns1a	2	fn1_2, lrrk2
2	PTDSS2, pigu	1	stom
4	PTPA, b9d1, cttnbp2, ppp2r2c	3	CCT8, cct6a, cct2
2	PTPN7, nf2	1	hsph1
2	QRSL1, cmtm6	2	xrcc6, PPBP
2	RAPGEF5, RNF213	1	PLAC9
4	RBM4B, lmo3, plrg1, rfxank	1	hnrnpm
2	RBMXL2, mrps31	3	ybx1, ESR2_2, nfkb1
8	RDH13, SDHD, SMIM20, TIMM21, TMEM223, cmc1, cox14, surf1	1	SLC25A5
5	RHOBTB2, fgf10, fgf3, fgf6, fgf9	1	fgfr2
9	RHOC, TMCO1, cisd2, dut, gstm3, nudt5, pam16, pfdn5, rps26_2	1	gh1
2	RIN1, VAV1	2	erbb3, egfr
3	RPP25, pop5, rpp40	1	pop1
2	RPS26P11, dok6	2	ESR2_2, egfr
2	RTL8C, bsg	1	APOL2
4	RXRG, mgll, ogg1, taz	1	chgb
6	S100A3, acad8, gda, klhdc3, mrpl22, ss18l2	1	dlg3_2
3	SAMD4B_2, wdr62, wwc1	1	ywhaz
4	SCTR, cdh23, pcdh10, rfx6	1	cyfip1
2	SERPINB10, SPAG11B	1	srpk1
3	SERPINB13, SERPINB2, qpct	1	GABARAPL1
2	SERTAD1_2, slc7a9	2	tgm2, hspb1
2	SERTAD3, spef2	2	IGHA1, APOA1
2	SH3GLB2, nrbf2	2	pgk1, PA2G4
2	SH3PXD2A, cntln	1	prss12
2	SH3PXD2A_2, snx33	2	faslg, adam15
3	SHC4, sh2d3c, shc2	3	KIT, met, egfr
2	SLC16A6, TRIM26	1	cask
2	SLC25A47, gnpnat1	1	c1qa
6	SLC30A3, SPPL2B, slc30a10, slc30a4, tbc1d14, vps51	1	TFRC
4	SLC38A2, SLC38A9, frmd3, nme6	1	atp5o
3	SLC43A3, cwc25, epb41l4b_2	1	lamc3
2	SLFN5, mms19	2	NOTCH1, lrrk2
4	SMCR8, crx, eif2b2, eif2b2_3	1	C9orf72
2	SMYD2, pex6	1	rps14
4	SNRNP35, fam213b, mbtps1, zc3hc1	1	tnfsf11
2	SNRPC, foxk1	1	aggf1
2	SPSB3, fbxl15	2	HSP90AB1_2, csnk2b
2	SRSF3, sub1	2	HDGF, fn1_2
2	SS18L1, ppig	1	lgals3
2	STAP1, tns1	2	met, KIT
2	SUPT6H, cwc27	2	ESR2_2, ywhaz
2	SYNJ2, magi1	2	SFN, rac1
2	Sprr1a, ggct	2	nfkb1, egfr
2	TACR1, tacr2	1	tac1
2	TACR3, vopp1	1	TAC3
2	TAF1C, rai1	1	ttr
2	TAF4, zzz3	2	kat2a_2, lrrk2
5	TBC1D10A, nolc1, plcb3, scyl3, slc12a2	1	ezr
10	TCF19, TCP11, TSPYL1, ZMYM5, echdc2, mrpl35, prr16, rasl12, tcp11l1, zhx2	1	app_3
2	TLR6, wnt1	1	CD36
9	TMEM55B, TRIM14, USMG5, iws1, ndufb5, pcf11, pum2, r3hcc1, sdcbp_2	1	SAMD1
3	TMPRSS6, TMPRSS6_2, bmp6	1	hfe2
3	TNFRSF10A, acp5, cflar_2	1	tnfsf10
2	TNFRSF13C, TNFRSF17	1	tnfsf13b
2	TPSAB1, TPSB2	2	nck1, pik3r1
6	TTC23L, cpeb4, fam171a1, r3hdm1, vgll4, zbtb10	1	egln3
2	UBXN10, ubxn6	2	app_3, VCP
2	UBXN2B, gucd1	1	ngly1
3	UNC5CL, peli1, tlr5	1	irak4
2	USP46, fam13a	1	erp44
2	Uqcr11, rragc	1	WNT2
2	VAV3, txk	3	erbb3, met, KIT
2	VEGFA_3, VEGFA_4	1	UBIAD1
2	VSTM4, glb1l	1	ppp1cc
2	WAPL, brca2	2	smc3, egln3
2	WFDC9, oit3	1	MEOX2
9	YTHDC2, ccdc137, cenpv, ddx27, noc3l, pum3, rbm34, rexo4, trmt1l	2	MNDA, hnrnpu
3	ZNF165_2, ZSCAN21, ZSCAN32_2	1	ZNF446_2
2	ZNF184, ZNF302	1	clic1
2	ZNF211, trip12	1	rpl39
3	ZNF253, csmd1, pax7	1	akr1b1
2	ZNF572, gng5	1	KRT31
3	ZNF677, fosl1, xrcc2	1	wfdc1
2	ZNF830, ttc14	1	ik
2	aaas, nup43	2	isg15, kpnb1
2	abcg8, fst	1	ANG
2	acat1, sars	2	gh1, vcam1
2	ace, dnase1l3	1	cd247
3	acy1, gabpb1_2, txnl4a	1	gstp1
2	adamtsl5, ltbp1	2	fbn2, fbn1
2	adcyap1r1, adcyap1r1_2	1	ADCYAP1
2	aldh7a1, epb41l4b	2	ppia, erp44
2	ampd1, znf407	1	c1qtnf9
5	anapc4, ecscr, otud3, phlpp1_2, tmeff1	1	pten
2	angpt1_2, angpt4	1	tek
2	angptl2, angptl5	1	LILRB2
2	ankhd1, pdha1	2	nfkb1, vcam1
4	ar, cib1, dclre1c, zic2	1	prkdc
2	arhgap33, trio_2	1	rac1
2	atg16l1_2, zmat3	1	HNRNPA2B1_2
7	atp5s, bcl7b, dcaf15, lyst, mknk1_2, ptprn, zer1	1	ppia
3	atpaf1, fzd1, kank2	1	atp5b
2	atxn7l2, sept12	1	lamb1
4	axin1_2, bambi, caprin2, dkk2	1	lrp6
2	bcl11a, mpc1	1	actc1
5	bcl2l11, bcl2l11_3, bcl2l11_5, fibp, znf408	1	MIF
2	bcl7a, gramd1c	1	cd151
3	bet1_2, vamp2, vamp4_2	1	stx4
2	bicra, rprd2	1	dync1h1
2	blnk, ptpru	1	KIT
2	bloc1s2, bloc1s5	2	app_3, bloc1s1
3	bloc1s3, bloc1s4, pbx2	1	bloc1s1
2	btg3, cnot11	1	cnot1
2	c21orf59, cenpo	1	PLXNB1_2
2	c2cd5, xrn1_2	2	qsox2, bag6_2
2	ca12, wipi1	1	LGALS7
2	cacna1f, cacna1f_2	1	cabp4
3	carf, nfya, tox2	2	app_3, PKM_2
2	cblb, stam2	2	ubc, egfr
2	ccdc77, haus7	1	cep290_2
5	cept1, fbxo30, impact, nap1l1, orc3	1	qsox2
4	chrng, gne, mapkbp1, slc23a1	3	ADAMTSL4, KRT31, NOTCH2NL
2	cntrl, wdfy3	2	bag6_2, S100A4
2	commd10, commd5	2	commd9, nfkb1
2	cpa1, pla1a	1	ARRB1
2	cpb2, tmem45b	1	TINAG
2	cps1, pde3a	2	hspa5, ywhaz
2	ctbp1, per3	1	cry2
2	cyhr1, srf	1	aldh3a1
3	cyp1a1, mcee, timm44	2	CMTM5_2, CMTM5
2	dctn4, dctn5	2	dync1h1, CAPZA2
2	ddx42, fubp3	3	app_3, isg15, vcam1
3	dlgap4, gspt1, myh14	2	ubb, ESR2_2
12	dock7_2, gas2l3, itpr2, limch1, lmo7_2, lrrfip2_2, mprip_3, nap1l1_3, tnfaip1, tpm3_2, unc45a_2, wdr76	2	myh9, CAPZA2
4	dync1li1, dync1li2, dynlrb1, dynlt3	2	dync1h1, dynlt1
2	efs, med28	1	ostf1
2	ephx2, mt-cyb	1	mvp
2	ero1a, ero1b	4	pdia3, p4hb, pdia4, tctn1
2	f5, spp2	2	FAM20C, pitx3
3	fbxl18, npdc1, spg7	3	NOTCH2NL, hnrnpk, PLSCR1
2	fbxl6, hnrnpc_3	2	NLRP3, hnrnpu
2	fbxo25_2, rpa3	1	ACTB
2	fbxw8, fbxw8_2	2	cct6a, cct2
4	fcho2, picalm_2, picalm_4, sec16a_4	3	myh9, cltc_2, CAPZA2
3	fosl2, g0s2, zfand2a	1	rpl30
2	foxn1, yod1	1	txndc5_2
4	fxn, gtf2h1, hsf5, pdhx	1	actn1
3	g6pd, gsto1, sf3a3	2	fn1_2, hspb1
2	gab1, sh2b1	2	met, egfr
2	gab2, pik3c2b	3	SFN, egfr, ywhaz
2	gfod2, qsox1	1	BEGAIN
2	gli2, sik3	2	egln3, ywhaz
2	glyr1, krr1	3	MNDA, ybx1, hnrnpu
2	gpam, setx_2	1	clu_3
2	gtf3c4, txnrd1_3	1	ESR2_2
2	hipk2, sox18	1	mecp2
2	hist1h2ba, rgs14	2	app_3, nfkb1
5	hspa14, osbpl1a, parva, sec24d, vps36	1	GCNT1
2	id2, srebf2	2	mapk1, hspa5
2	il22ra2, il22ra2_2	1	il22
2	ing4, nasp_2	2	HIST1H3A, H3F3A
2	ipo8, mon2	3	stom, tnfrsf1b, tnfrsf1a
2	kctd2, rb1cc1_2	2	dlg3_2, huwe1
2	klhl7, uhrf1bp1l	2	FERMT3, ywhaz
4	kri1, rbm28, rrp12, surf6	3	MNDA, ESR2_2, hnrnpu
2	laptm5, ube2r2	1	uba52
2	larp1b, mrpl49	2	app_3, ybx1
2	las1l_2, mki67	3	MNDA, ESR2_2, lrrk2
2	lasp1, necap2	2	PLSCR1, fn1_2
2	lrp2, slc22a17	1	LCN2
3	lsm11, rsrc1_2, sorbs1_2	1	tgs1
3	lypla2, ppil1, taldo1_2	1	vcam1
2	map3k4, pde12	2	INTS14, bag6_2
2	mcfd2, tmed5	1	lman1
2	med1, med16	2	ESR2_2, kat2a_2
3	mief1, mief2, rnf144b	1	tomm20
2	mras, rnd1	1	PLXNB1
2	mrpl16, mrpl27	1	ybx1
2	narf, pms2	1	SFRP4
2	ncs1, zmiz2	1	NBL1
2	ndufb9, snrpg	1	gdf9
5	nelfb, ppp3cb, sdhaf1, uqcrfs1, ykt6	1	hspa9
2	nfe2, psph	1	txn
3	nol6, stau2_2, strbp	2	MNDA, ybx1
2	ntpcr, pycr1	2	lrrk2, vcam1
2	nup160, nup50	2	kpnb1, lrrk2
2	nup58, setd4	1	GDF15
3	nup88, tmem214, zc3h14_2	1	kpnb1
3	nutf2, ppp1r13l, vrk2	1	ran
2	papd5, smarcd2	2	psmd2, smarca4
2	pbrm1, smarcc2	3	NOTCH1, ESR2_2, smarca4
2	phf10, tcf21	1	aplp1
2	pllp, rrad	1	MMP14
2	pltp, pltp_2	1	CREB3_2
2	ppa1, snrpf	2	vcam1, hspb1
2	prpsap2, sfxn1	2	nfkb1, lrrk2
3	pwp1, rrp1, tex10	2	MNDA, ESR2_2
2	rab14, tysnd1	1	cat
2	rab4a, ska3	1	gdi2
2	rbm42, senp2	2	app_3, hnrnpk
2	rgma, rgmb	1	BMP2
2	rnf7, wbp2	1	CLEC4G
4	robo4, tmc4, tmco4, tmem245	1	flt1
2	sec16a_2, stambpl1	2	cltc_2, CAPZA2
3	sept10, sept2, sept7_2	2	hspa5, tgs1
2	shkbp1, zc3h7a	1	Collagen-VII_2
2	ssbp2, ssbp3	1	IL36RN
2	syncrip, syncrip_3	1	HABP4
2	tmed10, tmed9	2	tctn1, copa
2	tp53_3, tp53_5	1	ddx5
2	unc5b, unc5b_2	1	ntn1
2	usp33, usp33_2	1	selenbp1
2	usp36, wdr3	3	MNDA, hnrnpu, CEP164_2
2	wasf1, wasf2	3	cyfip1, lrrk2, rac1
