node id	node name
A0A024R493	efhd1
A0A087WZU1	ptprq
A0A0C4DG91	nme6
A0AUL9	ATG2A_2
A0AVI4	tmem129
A0FGR8	ESYT2
A0JLT2	MED19
A0JNW5	uhrf1bp1l
A0MZ66	shtn1
A0PJW6	TMEM223
A1A4E9	KRT13_2
A1A5B4	ANO9
A1E959	odam
A1L162	ERICH2
A1L306	tnr_2
A1L453	PRSS38
A1L4H1	SSC5D
A1L4L8	plac8l1
A1X283	sh3pxd2b
A2A2Q9	aar2
A2A2Y4	frmd3
A2ABF9	ehmt2_2
A2RRN7	cadps_2
A2RRP1	nbas
A3KMH1	vwa8
A3KMH1-3	vwa8_2
A4D0S4	lamb4
A4D1P6	wdr91
A4D1W7	inhba
A4D212	DKFZP586J0619
A4PIV7	SYT-SSX1
A4PIV9	SYT-SSX2
A5A3E0	POTEF
A5D8T8	CLEC18A
A5PKW4	PSD
A5PLN9-2	trappc13
A5YKK6	cnot1
A5YKK6-2	cnot1_2
A6BM72	megf11
A6ND01	IZUMO1R
A6NIH7	unc119b
A6NJ69	IGIP
A6NJZ7	RIMBP3C
A6NK89	RASSF10
A6NMY6	ANXA2P2
A6ZKI3	RTL8C
A8K2U0	A2ML1
A8K571	bmp7_2
A8K5I0	HSPA1A_2
A8K660	ADIPOQ
A8K7I4	clca1
A8MW92	phf20l1
A8MW92-2	phf20l1_2
B0I1T2	MYO1G
B0YJ81	hacd1
B2RNN3	C1QTNF9B
B2RUY7	VWC2L
B2Y833	erg_3
B3KTP4	ApoL6
B4DDK6	timm23b
B4DF87	ncoa4
B4DJ51	CALM1
B4E1G1	derl1
C3PTT6	PAUF
C6GKH1	IL32_4
C9J1X0	wdr91_2
C9JA69	bbx_2
C9JRY4	sec22a
D3DR86	nfkb2_2
D3W0D1	KLRF2
D6RA96	RTEL1-TNFRSF6B
E5KS60	sucla2_2
E7EPI0	ibtk
E7ERS3	zc3h18
E7EVG6	pprc1
E7EW69	sept10
E9PAU2	raver1_2
E9PAV9	gpatch4_2
E9PJ24	phrf1
E9PM19	tyk2
F8VY35	nap1l1
F8W7C6	rpl10
F8WC19	sf3b1_2
G3V1M0	ZSCAN21_2
G5E9A6	usp11_2
H0Y507	SH3PXD2A
H0Y8D1	PRSS1_2
H0Y9L7	taf1
H3BNT4	mphosph6
H3BQM0	papd5
H7BXI1	ESYT2_2
H7C2E6	FAAP20
H7C5Q0	rsrc1_2
H9ZYI9	gabpb1_2
I3L2W2	neurl4_2
I3L3J2	ZSCAN32
I3WAC9	ins
I4AY87	MIF_2
J3KMY6	zc2hc1c
J3KMZ7	ints2
J3KNB8	map3k4
J3KNF4	ccs
J3KPF9	kif3a
J3KQY1	mrpl22
J3KS15	MRPL58
J3QT77	pon2
K7EJH0	spc24_2
K7EKI8	ppl_2
K7ELE9	dcaf15
K9JA46	EL52
O00139	KIF2A
O00141	sgk1
O00148	ddx39a
O00151	pdlim1
O00159	myo1c_3
O00159-3	myo1c
O00161	SNAP23
O00165	hax1
O00167-2	eya2
O00170	aip
O00175	CCL24
O00182	LGALS9
O00187	masp2
O00189	ap4m1
O00192	ARVCF
O00193	SMAP
O00198	HRK
O00203	AP3B1
O00206	TLR4
O00212	RHOD
O00213	apbb1
O00214	LGALS8
O00220	TNFRSF10A
O00221	nfkbie_2
O00231	PSMD11
O00232	psmd12
O00233	psmd9
O00238	bmpr1b
O00254	f2rl2
O00255	men1
O00257	cbx4
O00257-3	cbx4_2
O00264	pgrmc1
O00267	supt5h
O00268	TAF4
O00273	dffa
O00291	hip1
O00292	Lefty2
O00294	TULP1
O00295	TULP2
O00299	clic1
O00300	tnfrsf11b
O00303	eif3f
O00305	CACNB4
O00308	wwp2
O00322	upk1a
O00330	pdhx
O00339	MATN2
O00358	foxe1
O00391	qsox1
O00400	slc33a1
O00401	wasl
O00409	foxn3
O00410	IPO5
O00411	polrmt
O00418	eef2k
O00421	CCRL2
O00422	sap18
O00429	dnm1l
O00442	rtca
O00443	pik3c2a
O00444	plk4
O00453	LST1
O00459	pik3r2
O00463	traf5
O00468	agrn
O00469	plod2
O00471	exoc5
O00472	ell2
O00478	BTN3A3
O00481	BTN3A1
O00487	psmd14
O00499	bin1
O00505	kpna3
O00506	stk25
O00515	lad1
O00522	krit1
O00533	CHL1
O00548	DLL1
O00555	CACNA1A
O00560-2	sdcbp_2
O00567	nop56
O00585	CCL21
O00590	ACKR2
O00592	podxl
O00602	FCN1
O00622	cyr61
O00626	CCL22
O00634	NTN3
O00716	e2f3
O00746	nme4
O00755	wnt7a
O00757	fbp2
O00762	ube2c
O00764	pdxk
O14493	CLDN4
O14497	ARID1A
O14503	bhlhe40
O14508	SOCS2
O14519	CDK2AP1
O14521	SDHD
O14526	fcho1
O14543	socs3
O14544	socs6
O14545	trafd1
O14558	hspb6
O14579	cope
O14593	rfxank
O14618	ccs_2
O14625	CXCL11
O14641	dvl2
O14645	dnali1
O14647	chd2
O14649	KCNK3
O14653	gosr2
O14654	IRS4
O14656	TOR1A
O14662	stx16
O14669	prrg2
O14672	ADAM10
O14681	ei24
O14713	itgb1bp1
O14717	trdmt1
O14727	apaf1
O14730	riok3
O14733	map2k7
O14735	cdipt
O14737	pdcd5
O14744	prmt5
O14745	slc9a3r1
O14746	tert
O14757	chek1
O14763	TNFRSF10B
O14770	Meis2
O14775	GNB5
O14777	ndc80
O14786	NRP1_2
O14786-2	NRP1
O14788	tnfsf11
O14791	apol1
O14793	mstn
O14796	SH2D1B
O14798	TNFRSF10C
O14807	mras
O14818	PSMA7
O14829	ppef1
O14836	TNFRSF13B
O14862	AIM2
O14863	slc30a4
O14874	bckdk
O14879	IFIT3
O14880	mgst3
O14893	gemin2
O14893-2	gemin2_2
O14896	irf6
O14901	klf11
O14908	gipc1
O14910	lin7a
O14920	ikbkb
O14929	hat1
O14931	NCR3
O14933	UBE2L6
O14936	cask_2
O14936-2	cask_3
O14936-3	cask
O14939	pld2
O14948	tfec
O14949	uqcrq
O14950	MYL12B
O14957	Uqcr11
O14964	hgs
O14965	aurka
O14967	clgn
O14974	ppp1r12a
O14976	gak
O14978	ZNF263
O14980	XPO1
O14983	atp2a1
O15014	znf609
O15018	pdzd2
O15020	sptbn2
O15027	sec16a_3
O15031	plxnB2
O15041	sema3e
O15047	setd1a
O15062	ZBTB5
O15067	pfas
O15068	mcf2l
O15078-2	cep290
O15084	ANKRD28
O15085	arhgef11
O15111	chuk
O15116	lsm1
O15117	FYB
O15118	NPC1
O15119	tbx3
O15123	angpt2
O15127	scamp2
O15130	NPFF
O15143	arpc1b
O15144	arpc2
O15145	arpc3
O15151	MDM4
O15155	bet1_2
O15156	zbtb7b
O15160	polr1c
O15169	axin1
O15169-2	axin1_2
O15197	ephb6_2
O15197-2	ephb6
O15198	smad9
O15226	nkrf
O15230	lama5
O15232	MATN3
O15234	CASC3
O15235	MRPS12
O15240	vgf
O15243	LEPROT
O15244	slc22a2
O15259	nphp1
O15260	SURF4
O15263	DEFB4A
O15264	mapk13
O15265	atxn7
O15269	sptlc1
O15273	tcap
O15287	fancg
O15294	ogt
O15297	ppm1d
O15304	siva1
O15315	rad51b
O15318	polr3g
O15320	ctage5
O15327	inpp4b
O15350	tp73
O15353	foxn1
O15355	ppm1g
O15357	INPPL1
O15360	fanca
O15371	eif3d
O15372	EIF3H
O15379	hdac3
O15381	nvl
O15382	bcat2
O15389	SIGLEC5
O15392	BIRC5
O15397	ipo8
O15400	STX7
O15403	SLC16A6
O15439	abcc4
O15440	abcc5
O15444	CCL25
O15455	tlr3
O15460	p4ha2_2
O15460-2	p4ha2
O15467	CCL16
O15479	MAGEB2
O15481	MAGEB4
O15492	rgs16
O15496	PLA2G10
O15504	NUPL2
O15511	ARPC5
O15519	cflar
O15519-2	cflar_2
O15520	fgf10
O15527	ogg1
O15530	PDPK1
O15533	tapbp
O15535	ZSCAN9
O15537	rs1
O15541	rnf113a
O15551	CLDN3
O15553	MEFV
O15553-2	MEFV_2
O19691	HLA-B_9
O43143	dhx15
O43147	sgsm2
O43149	zzef1
O43150	ASAP2
O43151	tet3
O43155	flrt2
O43156	tti1
O43157	PLXNB1
O43157-2	PLXNB1_2
O43164	pja2
O43167	zbtb24
O43172	prpf4
O43184	adam12_2
O43184-2	adam12
O43186	crx
O43187	IRAK2
O43237	dync1li2
O43240	KLK10
O43242	psmd3
O43251	rbfox2
O43255	SIAH2
O43261	DLEU1
O43264	zw10
O43278	SPINT1
O43281	efs
O43290	sart1
O43291	spint2
O43292	gpaa1
O43294	TGFB1I1
O43295	srgap3
O43295-2	srgap3_2
O43298	zbtb43
O43301	hspa12a
O43318	map3k7_2
O43318-2	map3k7
O43323	dhh
O43353	ripk2
O43374	rasa4
O43379	wdr62_2
O43395	prpf3
O43396	txnl1
O43405	coch
O43427	fibp
O43432	eif4g3
O43439	cbfa2t2
O43463	SUV39H1
O43464	HTRA2
O43490	PROM1
O43493	TGOLN2
O43502	rad51c
O43504	lamtor5
O43508	tnfsf12
O43521	bcl2l11_2
O43521-2	bcl2l11_3
O43521-3	bcl2l11_5
O43521-5	bcl2l11
O43521-6	bcl2l11_4
O43524	FOXO3
O43542	xrcc3
O43543	xrcc2
O43557	tnfsf14
O43559	frs3
O43567	rnf13
O43570	ca12
O43586	PSTPIP1
O43597	spry2
O43598	dnph1
O43603	GALR2
O43609	spry1
O43612	hcrt
O43615	timm44
O43617	trappc3_2
O43633	CHMP2A
O43638	FOXS1
O43639	NCK2
O43653	PSCA
O43660	plrg1
O43670	znf207
O43674	ndufb5
O43680	tcf21
O43681	asna1
O43683	bub1
O43684-2	bub3_2
O43699	SIGLEC6
O43707	actn4
O43709	bud23
O43715	triap1
O43716	GATC
O43734	TRAF3IP2
O43736	ITM2A
O43741	prkab2
O43752	stx6
O43765	sgta
O43768	ENSA
O43781	DYRK3
O43790	KRT86
O43791	spop
O43809	nudt21
O43812	DUX1
O43818	rrp9
O43820	hyal3
O43822-4	C21orf2
O43827	angptl7
O43829	zbtb14
O43837	idh3b
O43847	NRDC
O43852	CALU_2
O43852-2	CALU
O43854	edil3
O43866	CD5L
O43889	CREB3
O43889-2	CREB3_2
O43896	kif1c
O43913	orc5
O43914	tyrobp
O43915	VEGFD
O43918	aire
O43920	ndufs5
O43927	CXCL13
O43929	orc4
O60216	rad21
O60218	AKR1B10
O60229	KALRN
O60231	dhx16
O60232	sssca1
O60234	gmfg
O60235	TMPRSS11D
O60237	ppp1r12b
O60238	bnip3l
O60244	med14
O60245	PCDH7
O60259	KLK8
O60260	PRKN
O60264	smarca5
O60285	NUAK1
O60287	urb1
O60292	sipa1l3
O60293	ZFC3H1
O60294	lcmt2
O60303	KIAA0556
O60306	aqr
O60307	MAST3
O60308	cep104
O60333	kif1b_2
O60333-3	kif1b
O60336	mapkbp1
O60341	kdm1a
O60346-2	phlpp1_2
O60353	fzd6
O60356	nupr1
O60383	gdf9
O60437	ppl
O60462	NRP2
O60477-3	brinp1_2
O60486	plxnc1
O60494	cubn
O60496	dok2
O60504	sorbs3
O60506	syncrip_2
O60506-2	syncrip
O60506-3	syncrip_3
O60518	RANBP6
O60551	nmt2
O60565	grem1
O60566	BUB1B
O60568	plod3
O60573	eif4e2
O60602	tlr5
O60603	tlr2
O60609	gfra3
O60610	DIAPH1
O60613	SELENOF
O60664	PLIN3
O60674	jak2
O60684	kpna6
O60687	srpx2
O60711	lpxn
O60733	pla2g6
O60739	eif1b
O60749	snx2
O60760	HPGDS
O60763	uso1
O60784	TOM1
O60814	HIST1H2BK
O60826	ccdc22
O60828	pqbp1
O60831	praf2
O60840	cacna1f
O60840-5	cacna1f_2
O60841	eif5b
O60844	ZG16
O60861	gas7
O60880	SH2D1A
O60882	MMP20
O60884	dnaja2
O60894	RAMP1
O60896	RAMP3
O60907	tbl1x
O60911	CTSV
O60921	HUS1
O60925	PFDN1
O60938	kera
O60941	dtnb
O75022	LILRB3
O75030	Mitf
O75037	kif21b
O75044	SRGAP2
O75051	plxna2
O75052	nos1ap_2
O75056	sdc3
O75063	fam20b
O75069	tmcc2
O75077	ADAM23
O75078	adam11
O75081	cbfa2t3
O75083	wdr1
O75084	FZD7
O75093	SLIT1
O75094	slit3
O75095	MEGF6
O75096	LRP4
O75110	ATP9A
O75128	cobl
O75154	RAB11FIP3
O75155	cand2
O75159	socs5
O75161	nphp4
O75164	KDM4A
O75173	ADAMTS4
O75175	cnot3
O75177	SS18L1
O75179-2	ANKRD17
O75182	sin3b
O75190	dnajb6
O75197	lrp5
O75251	ndufs7
O75317	USP12
O75323	NIPSNAP2
O75325	lrrn2
O75326	sema7a
O75330	hmmr
O75339	cilp
O75340	pdcd6
O75342	ALOX12B
O75346	ZNF253
O75352	MPDU1
O75354	entpd6
O75354-2	entpd6_2
O75356	ENTPD5
O75360	prop1
O75364	pitx3
O75365	ptp4a3
O75367	h2afy
O75369	flnb
O75369-8	flnb_2
O75376	ncor1
O75379	vamp4
O75379-2	vamp4_2
O75380	ndufs6
O75381	pex14
O75386	TULP3
O75390	CS
O75396	SEC22B
O75398	deaf1
O75400	prpf40a
O75400-2	prpf40a_2
O75436	vps26a
O75445	ush2a
O75448	MED24
O75449	KATNA1
O75461	E2F6
O75462	crlf1
O75469	nr1i2
O75477	erlin1
O75478	tada2a
O75486	supt3h
O75487	gpc4
O75489	ndufs3
O75494	SRSF10
O75496	gmnn
O75525	KHDRBS3
O75528	TADA3
O75529	taf5l
O75530	eed
O75531	BANF1
O75534	csde1
O75553	dab1
O75554	wbp4
O75556	Scgb2a1
O75558	STX11
O75563	skap2
O75569	prkra
O75581	lrp6
O75582	rps6ka5
O75592	mycbp2_2
O75593	foxh1
O75594	PGLYRP1
O75618	dedd
O75636	FCN3
O75643	snrnp200
O75663	tiprl
O75665	ofd1
O75674	TOM1L1
O75688	PPM1B
O75694	nup155_2
O75711	SCRG1
O75716	stk16
O75717	wdhd1
O75718	crtap
O75746	slc25a12
O75771	rad51d_2
O75771-8	rad51d
O75787	atp6ap2
O75791	GRAP2
O75792	rnaseh2a
O75807	ppp1r15a
O75815	bcar3
O75818	rpp40
O75822	EIF3J
O75828	CBR3
O75829	CNMD_2
O75829-2	CNMD
O75830	SERPINI2
O75832	psmd10
O75844	zmpste24
O75874	idh1
O75882	atrn
O75888	tnfsf13
O75899	gabbr2
O75900	MMP23A
O75901	rassf9
O75909	ccnk
O75923	dysf
O75925	PIAS1
O75928	pias2
O75940	smndc1
O75947	atp5h
O75953	dnajb5
O75954	TSPAN9
O75955	flot1
O75970	MPDZ
O75973	C1QL1
O75976	CPD
O76003	glrx3
O76009	KRT33A
O76011	KRT34
O76013	KRT36
O76015	KRT38
O76021	rsl1d1
O76027	ANXA9
O76036	NCR1
O76038	SCGN
O76061	stc2
O76070	SNCG
O76071	CIAO1
O76076	wisp2
O76080	ZFAND5
O76081	rgs20
O76081-6	rgs20_2
O76083	pde9a
O76093	fgf18
O76094	srp72
O76096	CST7
O94761	recql4
O94762	recql5
O94763	uri1
O94768	stk17b
O94769	ecm2
O94772	LY6H
O94776	mta2
O94779	cntn5
O94782	usp1
O94813	slit2
O94817	Atg12
O94822	LTN1
O94829	ipo13
O94842	tox4
O94854	Kiaa0754
O94855	sec24d
O94874	ufl1
O94875	SORBS2
O94875-10	SORBS2_2
O94880-2	phf14
O94905	erlin2
O94906	prpf6
O94907	dkk1
O94913	pcf11
O94916	nfat5
O94919	ENDOD1
O94921	cdk14
O94923	glce
O94964	soga1_2
O94964-2	soga1
O94966	usp19
O94972	trim37
O94985	clstn1
O94986	cep152
O94988	fam13a
O94993	SOX30
O95049	tjp3
O95059	rpp14
O95071	ubr5
O95073	fsbp
O95084	prss23
O95149	snupn
O95150	TNFSF15
O95157	nxph3
O95163	ikbkap
O95180	CACNA1H
O95183	vamp5
O95185	unc5c
O95196	cspg5
O95197	rtn3
O95218	zranb2
O95229	ZWINT
O95232	luc7l3
O95243	MBD4
O95248	sbf1
O95251	kat7
O95255	ABCC6
O95257	gadd45g
O95271	tnks
O95273	ccndbp1
O95274	LYPD3
O95295	Snapin
O95299	ndufa10
O95342	ABCB11
O95347	smc2
O95352	atg7
O95352-2	atg7_2
O95363	fars2
O95376	arih2
O95388	WISP1
O95390	gdf11
O95391	slu7
O95393	bmp10
O95395	gcnt3
O95399	UTS2
O95400	cd2bp2
O95402	MED26
O95405	ZFYVE9
O95407	TNFRSF6B
O95424	DEXI
O95425	svil_2
O95425-2	svil
O95427	pign
O95428	PAPLN
O95429	bag4
O95445	apom
O95450	adamts2
O95471	CLDN7
O95477	ABCA1
O95503	CBX6
O95571	ethe1
O95613	pcnt
O95619	yeats4
O95628-5	CNOT4
O95630	stambp
O95631	ntn1
O95633	fstl3
O95644	nfatc1
O95661	DIRAS3
O95684	fgfr1op
O95696	brd1_2
O95696-2	brd1
O95707	pop4
O95711	ly86
O95714	herc2
O95715	cxcl14
O95721	snap29
O95741	CPNE6
O95747	OXSR1
O95750	fgf19
O95751	LDOC1
O95757	hspa4l
O95758	ptbp3
O95760	IL33
O95772	stard3nl
O95777	lsm8
O95785	WIZ
O95786	ddx58
O95793	stau1_2
O95801	ttc4
O95810	CAVIN2
O95816	bag2
O95817	bag3
O95819	map4k4
O95831	aifm1
O95832	cldn1
O95859	tspan12
O95863	Snai1
O95865	ddah2
O95866	MPIG6B
O95867	LY6G6C
O95873	C6orf47
O95897	olfm2
O95931	CBX7
O95944	NCR2
O95967	efemp2
O95972	bmp15
O95973	IGM
O95980	reck_2
O95985	top3b
O95989	NUDT3
O95990	FAM107A
O95994	AGR2
O95996	apc2
O95997	pttg1
O95998	IL18BP
O95999	bcl10
O96006	ZBED1
O96007	mocs2
O96008	tomm40
O96014	wnt11
O96017	chek2
O96019	actl6a
P00156	mt-cyb
P00325	ADH1B
P00338	ldha
P00367	GLUD1
P00387	cyb5r3
P00395	mt-co1
P00403	mt-co2
P00414	mt-co3
P00441	sod1
P00450	cp
P00451	f8
P00488	f13a1
P00491	PNP
P00505	got2
P00519	abl1
P00540	mos
P00558	pgk1
P00734	f2
P00736	c1r
P00738	hp
P00740	f9
P00742	f10
P00747	plg
P00747-PRO_0000028057	Angiostatin
P00748	F12
P00749	PLAU
P00750	plat
P00751	cfb
P00797	ren
P00813	ada
P00973	OAS1_2
P00973-2	OAS1
P01008	serpinc1
P01009	serpina1
P01011	SERPINA3
P01019	agt
P01024	C3
P01024-PRO_0000005908	Complement C3 beta chain
P01031	c5
P01033	TIMP1
P01034	cst3
P01036	Cst4
P01037	CST1
P01040	CSTA
P01042	kng1
P01100	fos
P01111	nras
P01112	hras
P01116	kras
P01127	PDGFB
P01130	ldlr
P01133	egf
P01135	tgfa
P01137	tgfb1
P01138	ngf
P01160	nppa
P01178	oxt
P01185	avp
P01210	penk
P01215	cga
P01222	tshb
P01225	fshb
P01229	lhb
P01236	prl
P01258	calca
P01270	PTH
P01275	GCG
P01282	vip
P01286	GHRH
P01303	npy
P01308	ins_2
P01344	igf2
P01350	GAST
P01374	lta
P01375	tnf
P01562	IFNA1
P01563	Ifna2
P01569	Ifna5
P01574	IFNB1
P01579	ifng
P01583	IL1A
P01584	il1b
P01588	epo
P01589	IL2RA
P01591	JCHAIN
P01602	IGKV1-5
P01614	IGKV2D-40
P01615	IGKV2D-28
P01619	IGKV3-20
P01700	IGLV1-47
P01709	IGLV2-8
P01730	cd4
P01732	cd8a
P01764	IGHV3-23
P01772	IGHV3-33
P01780	IGHV3-7
P01833	pigr
P01834	IGKC
P01854	IGHE
P01857	IGHG1
P01859	IGHG2
P01860	IGHG3
P01861	IGHG4
P01871	ighm
P01876	IGHA1
P01877	IGHA2
P01880	ighd
P01891	HLA-A_5
P01892	HLA-A_6
P01909	HLA-DQA1
P02008	hbz
P02100	HBE1
P02452	Collagen-I
P02458	Collagen-II
P02461	Collagen-III
P02462	Collagen-IV_4
P02462-2	Collagen-IV_9
P02462-PRO_0000390482	Arresten
P02511	cryab
P02533	KRT14
P02538	KRT6A
P02545	lmna_3
P02545-2	lmna
P02545-6	lmna_2
P02549	SPTA1
P02647	APOA1
P02649	APOE
P02652	apoa2
P02654	apoc1
P02655	apoc2
P02656	APOC3
P02671	fga
P02671-2	fga_2
P02675	fgb
P02679	fgg
P02686	mbp
P02741	CRP
P02743	APCS
P02745	c1qa
P02746	c1qb
P02747	c1qc
P02748	c9
P02749	APOH
P02750	LRG1
P02751-12	fn1
P02751-PRO_0000390479	Anastellin
P02753	rbp4
P02760	ambp
P02763	ORM1
P02765	ahsg
P02766	ttr
P02771	AFP
P02774	gc
P02775	PPBP
P02776	PF4
P02778	CXCL10
P02786	TFRC
P02787	TF
P02788	LTF
P02790	HPX
P02792	FTL
P02794	fth1_2
P02795	MT2A
P02808	STATH
P02810	PRH1
P02814	SMR3B
P03886	MT-ND1
P03897	mt-Nd3
P03950	ANG
P03951	F11
P03952	KLKB1
P03956	MMP1
P03971	amh
P03973	SLPI
P03989	HLA-B
P04003	C4BPA
P04004	vtn
P04040	cat
P04049	raf1
P04053	dntt
P04054	pla2g1b
P04062	gba
P04066	fuca1
P04070	proc
P04075	aldoa_2
P04075-2	aldoa
P04080	CSTB
P04083	ANXA1
P04085	pdgfa
P04114	APOB
P04141	CSF2
P04150	nr3c1
P04155	TFF1
P04156	prnp
P04179	sod2
P04180	lcat
P04181	oat
P04183	tk1
P04196	HRG
P04216	thy1
P04217	A1BG
P04222	HLA-C_4
P04229	HLA-DRB1
P04233	cd74
P04234	CD3D
P04264	KRT1
P04271	s100b
P04275	vwf
P04278	shbg
P04279	SEMG1
P04350	TUBB4A
P04424	asl
P04626	erbb2
P04628	wnt1
P04629	ntrk1_2
P04629-2	ntrk1
P04632	capns1
P04637	tp53
P04745	AMY1A
P04746	amy2a
P04798	cyp1a1
P04843	rpn1
P04844	rpn2
P04899	gnai2
P04908	HIST1H2AB
P05000	IFNW1
P05014	Ifna4
P05015	IFNA16
P05019	igf1
P05023	atp1a1
P05060	chgb
P05062	aldob
P05067-4	app
P05067-8	app_2
P05067-PRO_0000000092	Beta-amyloid peptide 1-42
P05067-PRO_0000000093	Beta-amyloid peptide 1-40
P05089	arg1
P05090	apod
P05091	aldh2
P05106	ITGB3_2
P05107	ITGB2
P05109	S100A8
P05111	inha
P05112	il4
P05113	IL5
P05121	serpine1
P05141	SLC25A5
P05154	SERPINA5
P05155	serping1
P05156	cfi
P05162	LGALS2
P05164	MPO
P05181	CYP2E1
P05186	alpl
P05187	ALPP
P05204	hmgn2
P05230	FGF1
P05231	il6
P05305	edn1
P05362	ICAM1
P05386	rplp1
P05387	rplp2
P05388	rplp0
P05408	scg5
P05413	fabp3
P05452	CLEC3B
P05455	ssb
P05496	atp5g1
P05534	HLA-A_9
P05543	serpina7
P05546	serpind1
P05549	tfap2a
P05556	ITGB1_3
P05771	PRKCB
P05783	krt18
P05787	krt8
P05814	CSN2
P05997	Collagen-V_3
P06126	CD1A
P06132	urod
P06213	INSR_2
P06213-2	INSR
P06239	lck_2
P06241	FYN_2
P06280	gla
P06307	CCK
P06312	IGKV4-1
P06396	gsn
P06396-2	gsn_2
P06400	rb1
P06401	pgr
P06493	cdk1
P06576	atp5b
P06681	C2
P06702	S100A9
P06703	S100A6
P06727	apoa4
P06729	CD2
P06730	eif4e
P06731	CEACAM5
P06733	eno1
P06734	FCER2
P06737	pygl
P06744	GPI
P06746	polb
P06748	npm1
P06756	ITGAV
P06850	crh
P06858	lpl
P06865	hexa
P06870	KLK1
P06881	calca_2
P06899	HIST1H2BJ
P07093	serpine2
P07098	lipf
P07148	FABP1
P07196	nefl
P07199	CENPB
P07203	gpx1
P07204	thbd
P07225	pros1
P07237	p4hb
P07288	KLK3
P07305	h1f0
P07306	ASGR1
P07332	fes
P07333	csf1r
P07339	ctsd
P07355	ANXA2
P07357	c8a
P07359	GP1BA
P07384	CAPN1
P07477	PRSS1
P07498	CSN3
P07510-2	chrng
P07550	ADRB2
P07585	dcn
P07602	psap_2
P07602-2	psap
P07686	hexb
P07711	CTSL
P07737	pfn1
P07738	bpgm
P07741	aprt
P07766	CD3E
P07814	eprs
P07858	ctsb
P07900-2	HSP90AA1
P07910	hnrnpc_2
P07910-2	hnrnpc_3
P07911	umod
P07942	lamb1
P07947	YES1
P07948	lyn_2
P07949	ret_2
P07954	fh
P07996	THBS1
P07998	RNASE1
P08047	sp1
P08069	IGF1R
P08118	MSMB
P08123	Collagen-I_3
P08133	anxa6
P08138	ngfr
P08151	gli1
P08174	CD55
P08183	ABCB1
P08195	slc3a2
P08235	nr3c2
P08236	gusb
P08237	pfkm
P08240	SRPRA
P08246	ELANE
P08253	mmp2
P08253-PRO_0000391626	PEX
P08254	MMP3
P08263	GSTA1
P08294	SOD3
P08311	Ctsg
P08473	MME
P08476	inhba_2
P08519	LPA
P08567	plek
P08571	CD14
P08572	Collagen-IV_6
P08572-PRO_0000283775	Canstatin
P08575	ptprc
P08582	MELTF_2
P08582-2	MELTF
P08588	adrb1
P08590	MYL3
P08603	cfh
P08620	fgf4
P08621	snrnp70
P08631	hck
P08637	FCGR3A
P08648	ITGA5
P08697	serpinf2
P08700	IL3
P08708	rps17
P08709	f7
P08727	KRT19
P08729	KRT7
P08754	gnai3
P08758	anxa5
P08779	KRT16
P08833	igfbp1
P08865	RPSA_2
P08887	il6r
P08908	HTR1A
P08922	ros1
P08949	NMB
P08949-2	NMB_2
P08962	cd63
P09012	snrpa
P09038	fgf2
P09038-2	fgf2_2
P09093	CELA3A
P09104	eno2
P09110	acaa1
P09172	dbh
P09211	gstp1
P09228	CST2
P09234	SNRPC
P09237	MMP7
P09238	MMP10
P09326	CD48
P09341	CXCL1
P09382	LGALS1
P09417	QDPR
P09429	hmgb1
P09466	PAEP
P09486	sparc
P09493	tpm1_2
P09496-2	clta
P09497	cltb_2
P09497-2	cltb
P09525	anxa4
P09529	inhbb
P09543	cnp
P09543-2	cnp_2
P09544	WNT2
P09564	CD7
P09601	hmox1
P09603	CSF1
P09619	pdgfrb
P09630	HOXC6
P09651	hnrnpa1
P09661	snrpa1
P09681	gip
P09758	TACSTD2
P09769	FGR
P09871	c1s
P09874	parp1
P09913	ifit2
P09914	IFIT1
P09917	alox5
P09919	csf3
P09923	alpi
P09936	uchl1
P09958	FURIN
P09960	lta4h
P09972	aldoc
P0C0L4	C4A
P0C0L5	C4B
P0C0S8	HIST1H2AG
P0C2L3	fam163b
P0C2W1	fbxo45
P0C7H8	KRTAP2-3
P0C7U0	elfn1
P0C862	c1qtnf9
P0C869	PLA2G4B
P0CG04	IGLC1
P0CG38	POTEI
P0DI81	trappc2
P0DJD3	RBMY1A1
P0DJI8	SAA1
P0DJI9	SAA2
P0DML2	CSH1
P0DML3	CSH2
P0DN86	CGB3
P0DP25	CALM3
P10073	ZSCAN22
P10074	zbtb48
P10082	PYY
P10114	RAP2A
P10124	srgn
P10144	GZMB
P10145	CXCL8
P10147	CCL3
P10176	cox8a
P10242	myb
P10266	ERVK-10
P10275	ar_2
P10276	RARA
P10398	ARAF
P10412	HIST1H1E
P10415	bcl2
P10451	spp1
P10515	dlat
P10586	ptprf
P10588	nr2f6
P10599	txn
P10600	tgfb3
P10606	COX5B
P10619	ctsa
P10632	CYP2C8
P10636	MAPT_3
P10636-8	MAPT_5
P10644	prkar1a
P10645	chga
P10646	TFPI
P10721	KIT
P10767	fgf6
P10827	thra
P10828	thrb
P10909	clu_3
P10909-4	clu_2
P10909-5	clu
P10911	mcf2
P10912	ghr
P10914	IRF1
P10916	myl2
P10997	IAPP
P11047	lamc1
P11049	CD37
P11055	MYH3
P11150	lipc
P11161	EGR2
P11166	slc2a1
P11168	slc2a2
P11171	epb41
P11172	umps
P11177	pdhb
P11182	dbt
P11215	ITGAM
P11216	pygb
P11217	PYGM
P11226	MBL2
P11233	rala
P11234	RALB
P11274	bcr
P11277	sptb
P11279	lamp1
P11309	pim1
P11362	FGFR1
P11362-14	FGFR1_2
P11362-7	FGFR1_3
P11387	top1
P11388	top2a
P11441	UBL4A
P11464	PSG1
P11465	PSG2
P11473	VDR
P11474	esrra
P11487	fgf3
P11532	dmd
P11532-5	dmd_2
P11597	cetp
P11678	epx
P11684	SCGB1A1
P11686	SFTPC
P11717	igf2r
P11766	adh5
P11802	cdk4
P11831	srf
P11836	MS4A1
P11940	PABPC1
P12004	pcna_2
P12018	VPREB1
P12034	fgf5
P12104	fabp2
P12109	Collagen-VI
P12110	Collagen-VI_3
P12111	Collagen-VI_4
P12236	slc25a6
P12259	f5
P12268	impdh2
P12272	pthlh
P12273	PIP
P12277	ckb
P12314	FCGR1A
P12318	FCGR2A
P12319	FCER1A
P12429	anxa3
P12532	CKMT1A
P12544	gzma
P12643	BMP2
P12644	BMP4
P12645	bmp3
P12757	SKIL
P12814	actn1
P12821	ace
P12883	MYH7
P12931	src
P12955	pepd
P13196	alas1
P13232	IL7
P13236	CCL4
P13284	ifi30
P13385	tdgf1
P13473	lamp2
P13489	rnh1
P13497	BMP1_2
P13497-2	BMP1
P13497-4	BMP1_3
P13500	CCL2
P13501	CCL5
P13521	SCG2
P13533	myh6
P13569	cftr
P13591	ncam1
P13611	VCAN
P13612	ITGA4
P13631	RARG
P13637	ATP1A3
P13639	EEF2
P13640	MT1G
P13645	KRT10
P13646	KRT13
P13647	krt5
P13667	pdia4
P13671	c6
P13674	p4ha1
P13674-2	p4ha1_2
P13686	acp5
P13688	ceacam1
P13693	tpt1
P13725	OSM
P13726	F3
P13727	PRG2
P13747	HLA-E
P13760	HLA-DRB1_2
P13796	lcp1
P13798	apeh
P13805	tnnt1
P13807	gys1
P13928	ANXA8
P13929	eno3
P13942	Collagen-XI
P13984	gtf2f2
P13987	cd59
P13994	ccdc130
P13995	mthfd2
P14091	Ctse
P14136	gfap
P14151	SELL
P14174	MIF
P14210	HGF_2
P14210-6	HGF_3
P14222	PRF1
P14314	prkcsh
P14316	irf2
P14373	TRIM27
P14384	cpm
P14415	ATP1B2
P14543	NID1
P14550	AKR1A1
P14555	PLA2G2A
P14598	ncf1
P14618-2	PKM
P14625	hsp90b1
P14635	ccnb1
P14678	snrpb_2
P14678-2	snrpb
P14735	ide
P14770	gp9
P14778	IL1R1
P14780	mmp9
P14784	il2rb
P14859	POU2F1
P14866	hnrnpl_2
P14921	ets1
P14923	jup
P15018	lif
P15056	BRAF
P15085	cpa1
P15090	FABP4
P15121	akr1b1
P15151	PVR
P15153	rac2
P15169	cpn1
P15173	myog
P15248	IL9
P15260	ifngr1
P15289	arsa
P15309	ACPP
P15311	ezr
P15328	FOLR1
P15336	atf2
P15391	CD19
P15407	fosl1
P15408	fosl2
P15498	VAV1_2
P15502	ELN
P15502-2	ELN_2
P15509	CSF2RA
P15514	areg
P15515	HTN1
P15516	HTN3
P15529	CD46
P15531	NME1
P15586	Gns
P15622-3	ZNF250
P15692	VEGFA_2
P15692-12	VEGFA_4
P15692-14	VEGFA_3
P15692-4	VEGFA
P15735	phkg2
P15813	CD1D
P15814	IGLL1
P15822	hivep1
P15882	chn1
P15884	tcf4
P15923	tcf3
P15924	DSP_2
P15924-2	DSP
P15927	rpa2
P15941	MUC1
P16035	timp2
P16070	CD44
P16104	H2AFX
P16109	selp
P16112	acan
P16144	ITGB4
P16150	SPN
P16152	cbr1
P16220	creb1
P16233	PNLIP
P16234	pdgfra
P16278	glb1
P16278-3	glb1_2
P16284	pecam1
P16333	nck1
P16383	gcfc2
P16401	HIST1H1B
P16403	HIST1H1C
P16410	ctla4
P16444	dpep1
P16452	EPB42
P16471	prlr
P16471-7	prlr_2
P16581	sele
P16615	atp2a2
P16671	CD36
P16860	nppb
P16870	cpe
P16885	plcg2
P16930	fah
P16949	stmn1
P16989	YBX3
P17020	ZNF16
P17028	ZNF24
P17066	HSPA6
P17096	hmga1
P17174	got1
P17181	IFNAR1
P17252	prkca
P17275	junb
P17301	ITGA2
P17405	smpd1
P17480	ubtf
P17540	ckmt2
P17544	ATF7
P17568	ndufb7
P17612	PRKACA
P17661	DES
P17676	cebpb_2
P17676-2	cebpb
P17677	gap43
P17693	HLA-G
P17706	ptpn2
P17706-2	ptpn2_2
P17787	CHRNB2
P17813	ENG
P17858	PFKL
P17861	xbp1
P17900	gm2a
P17927	CR1
P17931	lgals3
P17936	igfbp3
P17947	spi1
P17948	flt1_2
P17948-2	flt1
P17980	psmc3
P17987	Tcp1
P18031	ptpn1
P18054	alox12
P18065	IGFBP2
P18075	bmp7
P18077	rpl35a
P18084	ITGB5
P18085	arf4
P18124	rpl7
P18146	egr1
P18206	vcl_2
P18206-2	vcl
P18428	LBP
P18433-4	ptpra
P18464	HLA-B_8
P18465	HLA-B_10
P18509	ADCYAP1
P18510	IL1RN
P18669	PGAM1
P18754	rcc1
P18827	SDC1
P18847	atf3
P18848	ATF4
P18850	atf6
P18887	xrcc1
P19012	krt15
P19013	krt4
P19021	pam
P19022	cdh2
P19174	plcg1
P19235	epor
P19256	CD58
P19338	NCL
P19367	hk1
P19387	polr2c
P19388	polr2e
P19440	ggt1
P19525	eif2ak2
P19532	TFE3
P19544	wt1
P19652	Orm2
P19784	CSNK2A2
P19793	RXRA
P19823	itih2
P19827	itih1
P19835	CEL
P19838-2	nfkb1_2
P19875	CXCL2
P19876	CXCL3
P19878	ncf2
P19883	fst_2
P19883-2	fst
P19961	AMY2B
P20020	ATP2B1
P20023	CR2
P20042	eif2s2
P20062	tcn2
P20138	CD33_2
P20138-3	CD33
P20142	PGC
P20151	KLK2
P20155	SPINK2
P20160	AZU1
P20226	TBP
P20231	TPSB2
P20248	ccna2
P20273	cd22
P20290	btf3
P20292	alox5ap
P20336	rab3a
P20338	rab4a
P20339	rab5a
P20340	rab6a
P20366	tac1
P20393	nr1d1
P20618	psmb1
P20645	m6pr
P20674	cox5a
P20700	lmnb1
P20701	ITGAL
P20702	ITGAX
P20742	PZP
P20774	ogn
P20783	ntf3
P20794	mak_2
P20807	capn3
P20809	IL11
P20810	cast
P20823	hnf1a
P20827	efna1
P20839	IMPDH1
P20908	Collagen-V_2
P20929	neb
P20929-4	neb_2
P20930	FLG
P20936	RASA1
P20963	cd247
P21127	cdk11b
P21145	mal
P21333-2	flna
P21359	NF1
P21452	tacr2
P21579	syt1
P21580	tnfaip3
P21583	KITLG
P21673	sat1
P21731	tbxa2r
P21741	MDK
P21781	fgf7
P21796	VDAC1
P21802	fgfr2
P21802-3	fgfr2_3
P21802-5	fgfr2_2
P21810	bgn
P21817	RYR1
P21912	SDHB
P21926	cd9
P21964	COMT
P21980	tgm2
P22001	KCNA3
P22004	bmp6
P22061	PCMT1
P22087	fbl
P22102	gart
P22105	tnxb
P22234	paics
P22301	il10
P22303	ache_2
P22303-2	ache
P22314	uba1
P22352	gpx3
P22362	ccl1
P22392	nme2
P22413	enpp1
P22415	usf1
P22455	fgfr4
P22459	kcna4
P22460	KCNA5
P22466	GAL
P22557	alas2
P22607	fgfr3_2
P22612	PRKACG
P22626	HNRNPA2B1_2
P22626-2	HNRNPA2B1
P22681	cbl
P22692	IGFBP4
P22695	uqcrc2
P22732	slc2a5
P22735	tgm1
P22736	nr4a1
P22894	MMP8
P23025	XPA
P23109	ampd1
P23142	fbln1
P23229	ITGA6
P23246	sfpq
P23258	tubg1
P23284	ppib
P23297	S100A1
P23352	ANOS1
P23396	rps3
P23416	glra2
P23443	rps6kb1
P23458	jak1
P23467	ptprb
P23469	PTPRE
P23470	PTPRG
P23471	PTPRZ1
P23497	SP100_2
P23497-2	SP100
P23508	Mcc
P23510	TNFSF4
P23528	cfl1
P23560	bdnf
P23588	eif4b
P23634	atp2b4
P23743	DGKA
P23759	pax7
P23763	vamp1
P23769	gata2
P23771	gata3
P23945	fshr
P23946	CMA1
P24001	IL32_2
P24001-2	IL32
P24001-4	IL32_3
P24043	Lama2
P24071	FCAR
P24158	PRTN3
P24278	zbtb25
P24385	ccnd1
P24386	chm
P24394	il4r
P24522	gadd45a
P24530	EDNRB
P24534	EEF1B2
P24539	atp5f1
P24588	AKAP5
P24592	IGFBP6
P24593	igfbp5
P24821	tnc
P24863	ccnc
P24928	polr2a
P24941	cdk2
P25024	CXCR1
P25025	cxcr2
P25054	apc
P25067	Collagen-VIII
P25101	ednra
P25103	TACR1
P25106	ACKR3
P25116	f2r
P25205	mcm3
P25311	AZGP1
P25391	lama1
P25398	rps12
P25440	brd2
P25445	fas
P25490	yy1
P25705	atp5a1
P25713	MT3
P25774	CTSS
P25786	psma1_2
P25786-2	psma1
P25787	psma2
P25788	psma3_2
P25788-2	psma3
P25789	psma4
P25791	LMO2
P25800	lmo1
P25815	S100P
P25929	Npy1r
P25942	cd40
P25963	NFKBIA
P26006	ITGA3
P26022	PTX3
P26038	msn
P26045	ptpn3
P26196	ddx6
P26232	ctnna2
P26367	PAX6
P26368	U2AF2
P26368-2	U2AF2_2
P26371	KRTAP5-9
P26374	CHML
P26441	cntf
P26447	S100A4
P26583	hmgb2
P26599	ptbp1
P26639	tars
P26641	eef1g
P26651	ZFP36
P26678	PLN
P26715	KLRC1
P26717	KLRC2
P26718	KLRK1
P26842	cd27
P26927	mst1
P26951	IL3RA
P26992	cntfr
P27037	acvr2a
P27105	stom
P27169	pon1
P27348	YWHAQ
P27352	GIF
P27361	mapk3
P27448	mark3
P27449	atp6v0c
P27469	g0s2
P27487	dpp4
P27540	arnt
P27635	rpl10_2
P27658	Collagen-VIII_2
P27694	RPA1
P27695	apex1
P27707	dck
P27708	cad
P27797	calr
P27816	MAP4_2
P27824	canx
P27918	cfp
P27930	IL1R2
P27986	pik3r1
P27987	itpkb
P28039	AOAH
P28062	psmb8_3
P28062-2	psmb8
P28065	PSMB9
P28065-2	PSMB9_2
P28066	psma5
P28070	psmb4
P28072	psmb6
P28074	psmb5
P28222	htr1b
P28223	htr2a
P28288	ABCD3
P28300	lox
P28331	ndufs1
P28340	pold1
P28347	tead1
P28566	htr1e
P28676	GCA_2
P28702	rxrb
P28715	ercc5
P28749	rbl1
P28799	GRN
P28838	lap3
P28908	TNFRSF8
P29016	CD1b
P29033	GJB2
P29034	S100A2
P29074	ptpn4
P29122	pcsk6
P29274	ADORA2A
P29279	ctgf
P29317	epha2
P29320	epha3
P29323	EPHB2
P29350	ptpn6_3
P29350-2	ptpn6_2
P29350-3	ptpn6
P29353	shc1_2
P29353-7	shc1
P29371	TACR3
P29372	mpg
P29373	crabp2
P29376	ltk
P29400	Collagen-IV_3
P29401	tkt
P29459	IL12A
P29460	IL12B
P29466	CASP1
P29474	NOS3
P29508	SERPINB3
P29590	PML_2
P29590-4	PML
P29590-9	PML_3
P29597	tyk2_2
P29622	SERPINA4
P29692	eef1d_2
P29692-2	eef1d
P29965	cd40lg
P29966	marcks
P29972	AQP1
P30038	aldh4a1
P30041	prdx6
P30043	blvrb
P30044	prdx5
P30044-2	prdx5_2
P30048	prdx3
P30049	atp5d
P30050	rpl12
P30084	echs1
P30086	pebp1
P30101	pdia3
P30153	ppp2r1a
P30154	ppp2r1b
P30203	CD6
P30260	cdc27
P30273	fcer1g
P30281	ccnd3
P30291	wee1
P30304	cdc25A
P30305	cdc25b_2
P30307	CDC25C
P30405	ppif
P30408	TM4SF1
P30411	bdkrb2_2
P30411-2	bdkrb2
P30443	HLA-A
P30447	HLA-A_2
P30450	HLA-A_7
P30457	HLA-A_8
P30460	HLA-B_5
P30480	HLA-B_6
P30483	HLA-B_2
P30491	HLA-B_3
P30504	HLA-C
P30508	HLA-C_3
P30511	HLA-F
P30519	HMOX2
P30530	AXL
P30532	chrna5
P30533	lrpap1
P30556	AGTR1
P30566	adsl
P30613	pklr
P30622	CLIP1_2
P30626	sri
P30685	HLA-B_7
P30711	GSTT1
P30838	aldh3a1
P30926	chrnb4
P30989	ntsr1
P30990	nts
P31025	LCN1
P31040	SDHA
P31146	coro1a
P31150	gdi1
P31151	S100a7
P31152	mapk4
P31371	fgf9
P31431	SDC4
P31483	TIA1
P31749	akt1
P31751	akt2
P31785	IL2RG
P31930	uqcrc1
P31939	atic
P31942	hnrnph3
P31944	CASP14
P31946	YWHAB
P31947-2	SFN_2
P31948	stip1
P31949	s100a11
P31994	FCGR2B
P31995	FCGR2C
P31997	CEACAM8
P32019	inpp5b
P32119	prdx2
P32121	arrb2
P32189	GK
P32239	CCKBR
P32241	vipr1
P32242	otx1
P32245	MC4R
P32246	CCR1
P32248	ccr7
P32297	chrna3
P32302	cxcr5
P32314	FOXN2
P32320	CDA
P32321	dctd
P32456	gbp2
P32780	gtf2h1
P32856	STX2
P32881	IFNA8
P32927	csf2rb
P32942	ICAM3
P32969	rpl9
P32971	TNFSF8
P33151	cdh5
P33176	KIF5B
P33241	lsp1
P33260	CYP2C18
P33402	GUCY1A2
P33527	abcc1
P33552	cks2
P33681	CD80
P33763	S100A5
P33764	S100A3
P33991	mcm4
P33992	mcm5
P33993	mcm7_2
P34059	galns
P34130	NTF4
P34741	sdc2
P34820	BMP8B
P34896	shmt1
P34897	shmt2
P34913	ephx2
P34931	HSPA1L
P34932	hspa4
P34969	htr7
P34998	crhr1
P35030	PRSS3_2
P35030-3	PRSS3
P35052	gpc1
P35070	btc
P35080	pfn2
P35221	ctnna1
P35222	ctnnb1
P35225	il13
P35226	BMI1
P35227	PCGF2
P35228	nos2
P35232	phb
P35236-2	PTPN7
P35237	SERPINB6
P35240	nf2
P35241	rdx
P35243	RCVRN
P35247	SFTPD
P35250	rfc2
P35268	rpl22_2
P35318	ADM
P35348	ADRA1A
P35354	ptgs2
P35367	hrh1
P35368	ADRA1B
P35372	oprm1
P35498	scn1a
P35499	SCN4A
P35527	KRT9
P35542	SAA4
P35555	fbn1
P35556	fbn2
P35558	pck1
P35568	irs1
P35573	AGL
P35579-2	myh9_2
P35590	tie1
P35609	ACTN2
P35610	soat1
P35611	add1_2
P35611-2	add1
P35613	bsg_2
P35613-3	bsg
P35625	TIMP3
P35637	fus
P35638	ddit3
P35638-2	ddit3_2
P35658	nup214_2
P35659	dek
P35711	sox5
P35713	sox18
P35749	myh11
P35754	glrx
P35813	ppm1a
P35900	KRT20
P35908	KRT2
P35914	hmgcl
P35916	flt4
P35968	KDR
P35998	psmc2
P36405	arl3
P36406	trim23
P36507	map2k2
P36542	atp5c1
P36544	chrna7
P36575	arr3
P36578	rpl4
P36776	LONP1
P36871	pgm1
P36873	ppp1cc_2
P36873-2	ppp1cc
P36894	bmpr1a
P36897	tgfbr1
P36915	gnl1
P36941	LTBR
P36952	SERPINB5
P36955	serpinf1
P36956	SREBF1
P36969	GPX4
P37023	acvrl1
P37108	srp14
P37173	tgfbr2_2
P37173-2	tgfbr2
P37198	NUP62
P37231	pparg
P37235	hpcal1
P37268	fdft1
P37287	piga
P37288	avpr1a
P37802	tagln2
P38159	rbmx
P38398	BRCA1
P38432	coil
P38484	IFNGR2
P38606	ATP6V1A
P38919	eif4a3
P38936	cdkn1a
P39019	rps19
P39059	Collagen-XV
P39060	Collagen-XVIII
P39060-PRO_0000005794	Endostatin
P39060-PRO_0000441861	NC1-XVIII
P39656	ddost
P39687	anp32a
P39900	MMP12
P39905	gdnf_2
P39905-3	gdnf
P40121	capg
P40189	il6st
P40197	GP5
P40198	CEACAM3
P40199	CEACAM6
P40222	txlna
P40225	thpo
P40238	mpl
P40306	psmb10
P40313	ctrl
P40337	vhl
P40337-3	vhl_2
P40425	pbx2
P40429	rpl13a
P40616	arl1
P40692	mlh1
P40763	stat3
P40818	usp8
P40855	pex19
P40925	MDH1_2
P40925-3	MDH1
P40926	mdh2
P40933	il15
P40937	rfc5
P40939	hadha
P41091	eif2s3
P41134	id1_2
P41134-2	id1
P41143	oprd1
P41146	oprl1
P41159	lep
P41161	etv5
P41182	bcl6
P41208	cetn2
P41217	CD200
P41220	rgs2
P41221	wnt5a
P41222	ptgds
P41235	hnf4a
P41240	csk
P41250	gars
P41271	NBL1
P41273	TNFSF9
P41279	map3k8
P41567	EIF1
P41586	adcyap1r1_2
P41586-3	adcyap1r1
P41587	vipr2
P41594	GRM5
P41597	CCR2
P41743	prkci
P42025	ACTR1B
P42166	tmpo
P42167	tmpo_2
P42224	stat1
P42226	stat6
P42229	stat5a
P42285	skiv2l2
P42336	pik3ca
P42345	mtor
P42566	eps15
P42574	casp3
P42575	casp2
P42677	RPS27
P42680	tec
P42681	txk
P42684	abl2
P42685	FRK
P42695	ncapd3
P42701	IL12RB1
P42702	LIFR
P42766	RPL35
P42768	was
P42771	CDKN2A
P42773	cdkn2c
P42785	prcp
P42830	CXCL5_2
P42858	htt
P43026	gdf5
P43034	PAFAH1B1
P43115-12	ptger3
P43116	ptger2
P43121	mcam
P43146	dcc
P43235	ctsk
P43243	MATR3
P43246	msh2
P43250	grk6
P43251	btd
P43307	ssr1
P43351	rad52
P43354	nr4a2
P43355	MAGEA1
P43360	MAGEA6
P43361	MAGEA8
P43363	MAGEA10
P43364	MAGEA11_2
P43364-2	MAGEA11
P43365	MAGEA12
P43378	PTPN9
P43403	zap70
P43405	syk
P43487	ranbp1
P43489	TNFRSF4
P43490	NAMPT
P43626	KIR2DL1
P43627	KIR2DL2
P43628	KIR2DL3
P43629	KIR3DL1
P43632	KIR2DS4
P43681	chrna4
P43686	psmc4_2
P45378	TNNT3
P45452	mmp13
P45877	ppic
P45880	vdac2
P45973	cbx5
P45983	mapk8
P45984	mapk9
P46013-2	mki67_2
P46060	rangap1
P46089	GPR3
P46092	ccr10
P46094	XCR1
P46100	atrx
P46108	crk
P46108-2	crk_2
P46109	crkl
P46379-2	bag6
P46459	nsf
P46527	cdkn1b
P46663	bdkrb1
P46695	IER3
P46734	MAP2K3
P46736	brcc3
P46777	RPL5
P46778	rpl21
P46779	rpl28
P46781	rps9
P46782	rps5
P46783	rps10
P46821	map1b
P46934	NEDD4
P46937	YAP1
P46939	utrn
P46940	IQGAP1
P46976	gyg1
P47211	GALR1
P47224	rabif
P47710	CSN1S1
P47712	PLA2G4A
P47756	capzb
P47756-2	capzb_2
P47813	eif1ax
P47871	GCGR
P47872	SCTR
P47897	qars
P47914	rpl29
P47929	LGALS7
P47992	XCL1
P48023	faslg
P48039	MTNR1A
P48047	atp5o
P48059	lims1_2
P48061	CXCL12
P48061-2	CXCL12_2
P48065	SLC6A12
P48067	slc6a9
P48304	REG1B
P48307	tfpi2
P48357	lepr
P48443	RXRG
P48454	ppp3cc
P48506	gclc
P48509	cd151
P48546	gipr
P48551	IFNAR2
P48552	NRIP1
P48556	psmd8
P48594	SERPINB4
P48595	SERPINB10
P48634	prrc2a
P48643	CCT5
P48645	nmu
P48651	PTDSS1
P48681	NES
P48729	csnk1a1
P48735	idh2
P48736	pik3cg
P48740	masp1
P48745	NOV
P48960	cd97_2
P48960-2	cd97
P49006	marcksl1
P49023	pxn
P49116	nr2c2
P49137	MAPKAPK2
P49146	npy2r
P49221	TGM4
P49238	CX3CR1
P49257	lman1
P49281	slc11a2
P49286	MTNR1B
P49321	nasp
P49321-2	nasp_2
P49327	fasn
P49336	cdk8
P49354	fnta
P49366	dhps
P49368	cct3
P49407	ARRB1
P49411	tufm
P49419-2	aldh7a1
P49447	cyb561
P49448	GLUD2
P49450	CENPA
P49458	srp9
P49459	ube2a
P49589	cars
P49593	ppm1f
P49638	ttpa
P49639	HOXA1
P49641	man2a2
P49662	CASP4
P49674	csnk1e
P49682	CXCR3
P49703	arl4d
P49715	cebpa
P49720	psmb3
P49721	psmb2
P49736	mcm2
P49747	comp
P49748	acadvl
P49750	ylpm1
P49755	tmed10
P49756	rbm25
P49759	CLK1
P49760	CLK2
P49761	CLK3
P49763	PGF
P49765	VEGFB
P49767	vegfc
P49768	psen1
P49770	eif2b2_2
P49771	FLT3LG
P49773	hint1
P49790	nup153
P49792	RANBP2
P49810	psen2
P49840	gsk3a
P49841	gsk3b
P49848	taf6
P49862	KLK7
P49863	gzmk
P49888	SULT1E1
P49902	nt5c2
P49903	sephs1
P49908	SELENOP
P49910	ZNF165
P49913	cAMP
P49915	gmps
P49916	lig3
P49917	lig4
P49959	MRE11
P50052	agtr2
P50053	khk
P50148	gnaq
P50221	MEOX1
P50222	MEOX2
P50281	MMP14
P50395	gdi2
P50402	emd
P50416	CPT1A
P50453	SERPINB9
P50454	SERPINH1
P50461	csrp3
P50502	st13
P50539	mxi1_2
P50542	pex5
P50570	dnm2
P50591	tnfsf10
P50613	cdk7
P50616	Tob1
P50749	rassf2
P50750	cdk9
P50897	ppt1
P50991	cct4
P50995	ANXA11
P51114	fxr1
P51114-2	fxr1_4
P51116	fxr2
P51124	GZMM
P51148	rab5c
P51149	RAB7A
P51159	rab27a
P51178	PLCD1
P51398	dap3
P51451	blk
P51452	dusp3
P51511	MMP15
P51512	MMP16
P51531	smarca2_2
P51532	smarca4
P51570	galk1
P51571	ssr4
P51572	bcap31
P51587	brca2
P51608	mecp2
P51608-2	mecp2_2
P51610	hcfc1
P51617	irak1
P51636	cav2
P51654	gpc3
P51659	hsd17b4
P51665	psmd7
P51668	ube2d1
P51671	CCL11
P51677	CCR3
P51679	CCR4
P51681	CCR5
P51684	CCR6
P51685	CCR8
P51692	stat5b
P51693	aplp1
P51784	usp11
P51788	clcn2
P51798	clcn7
P51805	plxna3
P51808	dynlt3
P51812	rps6ka3
P51813	BMX
P51878	CASP5
P51884	lum
P51946	ccnh
P51955	nek2
P51956	NEK3
P51959	ccng1
P51965	ube2e1
P52179	MYOM1
P52209	pgd
P52272	hnrnpm
P52272-2	hnrnpm_2
P52292	kpna2
P52294	kpna1
P52333	jak3
P52434	polr2h
P52435	polr2j
P52564	map2k6
P52565	arhgdia
P52597	HNRNPF
P52630	stat2
P52655	gtf2a1
P52701	msh6
P52732	kif11
P52735	vav2
P52739	znf131
P52758	RIDA
P52788	sms
P52789	hk2
P52790	HK3
P52797	efna3
P52798	EFNA4
P52799	EFNB2
P52803	EFNA5
P52907	capza1
P52961	ART1
P53007	slc25a1
P53041	ppp5c_2
P53350	plk1
P53355	dapk1
P53365	ARFIP2
P53396	acly
P53420	Collagen-IV_8
P53611	rabggtb
P53618	COPB1
P53621	copa
P53634	ctsc
P53667	limk1
P53671	limk2
P53673	cryba4
P53680	ap2s1
P53778	mapk12
P53779	mapk10
P53801	pttg1ip
P53804	ttc3
P53805	rcan1_2
P53805-2	rcan1
P53990	ist1_3
P53990-2	ist1
P53990-4	ist1_2
P54136	rars
P54198	hira
P54252	atxn3
P54253	ATXN1
P54257	HAP1
P54259	atn1
P54274	terf1
P54278	pms2
P54284	cacnb3
P54296	MYOM2
P54315	PNLIPRP1
P54368	OAZ1
P54577	yars
P54578	usp14
P54619	prkag1
P54646	prkaa2
P54652	HSPA2
P54707	ATP12A
P54725	rad23a
P54727	rad23b
P54753	EPHB3
P54760	EPHB4
P54762	ephb1
P54764	ephA4
P54793	ARSF
P54819	AK2
P54829	ptpn5
P54852	EMP3
P54886	aldh18a1
P54920	napa
P55000	SLURP1
P55001	mfap2
P55011	slc12a2
P55036	psmd4
P55040	GEM
P55042	rrad
P55055	NR1H2
P55058	pltp_2
P55058-2	pltp
P55060	CSE1L
P55064	AQP5
P55075	fgf8_2
P55075-4	fgf8
P55081	mfap1
P55082	MFAP3
P55083	mfap4
P55084	hadhb
P55085	f2rl1
P55107	GDF10
P55145	manf
P55196	AFDN
P55198	MLLT6
P55199	ell
P55209	nap1l1_2
P55210	casp7
P55211	casp9
P55212	casp6
P55259	GP2
P55265	adar
P55268	lamb2
P55289	CDH12
P55290	cdh13
P55316	foxg1
P55317	foxa1
P55318	foxa3
P55345	prmt2
P55769	SNU13
P55774	CCL18
P55786	npepps
P55789	gfer
P55795	HNRNPH2
P55854	SUMO3
P55899	FCGRT
P55957	Bid
P56134	atp5j2
P56159	GFRA1
P56159-2	GFRA1_2
P56180-2	tpte
P56192	mars
P56199	itga1
P56202	CTSW
P56279	TCL1A
P56470	LGALS4
P56524	hdac4
P56537	eif6
P56545	ctbp2
P56645	per3
P56703	wnt3
P56704	wnt3a
P56705	WNT4
P56706	WNT7B
P56730	prss12
P56817	bace1
P56851	EDDM3B
P56945	bcar1
P56962	stx17
P57058	hunk
P57073	sox8
P57076	c21orf59
P57078	ripk4
P57081	WDR4
P57087	jam2
P57088	tmem33
P57105	synj2bp
P57678	gemin4
P57730	CARD18
P57737	coro7
P57740	nup107
P57764	GSDMD
P57796	cabp4
P57796-2	cabp4_2
P58012	foxl2
P58062	SPINK7
P58107	eppk1
P58215	LOXL3
P58335	ANTXR2
P58340	mlf1
P58397	adamts12
P58546	MTPN
P58753	tirap_2
P58753-2	tirap
P59047	NLRP5
P59665	Defa1
P59826	BPIFB3
P59991	KRTAP12-2
P59998	arpc4
P60006	ANAPC15
P60022	DEFB1
P60033	cd81
P60059	sec61g
P60174	TPI1
P60228	EIF3E
P60370	KRTAP10-5
P60372	KRTAP10-4
P60409	KRTAP10-7
P60410	KRTAP10-8
P60411	KRTAP10-9
P60412	KRTAP10-11
P60484	pten
P60510	PPP4C
P60568	IL2
P60660	myl6_2
P60660-2	myl6
P60827	C1QTNF8
P60842	EIF4A1
P60866	rps20
P60880	SNAP25
P60896	SEM1
P60900	PSMA6
P60903	S100A10
P60953	CDC42
P61006	rab8a
P61018	rab4b
P61020	rab5b
P61026	rab10
P61073	CXCR4
P61077	ube2d3
P61086	ube2k
P61088	ube2n
P61106	rab14
P61158	actr3
P61160	ACTR2
P61163	ACTR1A
P61201	cops2
P61224	rap1b
P61244	max
P61247	RPS3A
P61254	rpl26
P61289	psme3
P61313	rpl15
P61326	MAGOH
P61328	fgf12_2
P61328-2	fgf12
P61353	rpl27
P61457	pcbd1
P61513	RPL37A
P61586	rhoa
P61587	rnd3
P61601	NCALD
P61604	hspe1
P61619	SEC61A1
P61626	lyz
P61764	stxbp1
P61769	b2m
P61812	tgfb2
P61916	NPC2
P61925	PKIA
P61927	rpl37
P61956	SUMO2
P61962	dcaf7
P61964	wdr5
P61968	LMO4
P61970	nutf2
P61978-2	hnrnpk_2
P61981	YWHAG
P62068	USP46
P62070	rras2
P62081	RPS7
P62136	ppp1ca
P62140	ppp1cb
P62166	ncs1
P62191	PSMC1
P62195	psmc5
P62241	RPS8
P62244	rps15a
P62249	rps16
P62256	ube2h
P62258	YWHAE
P62263	rps14
P62269	rps18
P62273	rps29
P62277	rps13
P62280	rps11
P62308	snrpg
P62310	lsm3
P62316	snrpd2
P62328	tmsb4x
P62330	ARF6
P62333	psmc6
P62341	SELENOT
P62380	TBPL1
P62491	rab11a
P62508	esrrg
P62633	cnbp
P62699	ypel5
P62701	RPS4X
P62714	ppp2cb
P62736	acta2
P62745	RHOB
P62753	rps6
P62807	HIST1H2BC
P62820	rab1a
P62826	ran
P62829	RPL23
P62834	rap1a
P62837	ube2d2
P62841	rps15
P62851	rps25
P62854	rps26
P62857	rps28
P62861	fau
P62873	GNB1
P62877	rbx1
P62879	gnb2
P62888	rpl30
P62891	rpl39
P62913	rpl11
P62917	rpl8
P62937	ppia
P62979	rps27a
P62987	uba52
P62995	tra2b
P63000-2	rac1_2
P63010	ap2b1
P63027	vamp2
P63096	gnai1
P63151	ppp2r2a
P63165	sumo1
P63167	dynll1
P63172	dynlt1
P63173	rpl38
P63208	skp1
P63220	RPS21
P63241	eif5a
P63244	RACK1
P63267	ACTG2
P63272	supt4h1
P63279	UBE2I
P67775	ppp2ca
P67936	tpm4_2
P68032	actc1
P68106	fkbp1b
P68133	acta1
P68363	tuba1b
P68366	TUBA4A
P68371	tubb4b
P68400	csnk2a1
P68402	pafah1b2
P68431	HIST1H3A
P68871	HBB
P69892	HBG2
P69905	HBA1
P78310	cxadr
P78314	sh3bp2
P78318	igbp1
P78324	SIRPA
P78325	adam8
P78330	psph
P78333	GPC5
P78344	EIF4G2
P78345	rpp38
P78347	GTF2I
P78352	dlg4
P78362	srpk2
P78380	OLR1
P78385	KRT83
P78386	KRT85
P78396	ccna1
P78406	rae1
P78423	CX3CL1
P78504	JAG1
P78509	reln
P78527-2	prkdc_2
P78536	ADAM17
P78537	bloc1s1
P78539	srpx
P78543	btg2
P78545	elf3
P78552	il13ra1
P78556	CCL20
P78560	cradd
P79522	PRR3_2
P80075	CCL8
P80098	CCL7
P80162	CXCL6
P80188	LCN2
P80217	ifi35
P80294	MT1H
P80303	NUCB2
P80511	S100A12
P80723	BASP1
P81172	HAMP
P81534	DEFB103A
P81605	DCD
P81877	ssbp2
P82251	slc7a9
P82279	crb1
P82663	mrps25
P82933	mrps9
P82987	adamtsl3
P83105	htra4
P83369	lsm11
P83731	rpl24
P83876	txnl4a
P83916	cbx1
P84022	SMAD3
P84077	arf1
P84085	arf5
P84090	ERH
P84101	serf2
P84157	mxra7
P84243	H3F3A
P84996	gnas_2
P85037	foxk1
P85299	prr5
P98066	tnfaip6
P98073	tmprss15
P98077	shc2
P98082	dab2
P98095	fbln2
P98155	vldlr
P98160	hspg2
P98160-PRO_0000391621	Endorepellin
P98160-PRO_0000391622	LG3
P98164	lrp2
P98170	xiap
P98171	ARHGAP4
P98173	fam3a_2
P98174	fgd1
P98175	rbm10_2
P98175-4	rbm10
P98179	RBM3
P98187	CYP4F8
P99999	cycs
Q00005	ppp2r2b
Q00005-7	ppp2r2b_2
Q00013	mpp1
Q00532	cdkl1
Q00534	cdk6
Q00535	cdk5
Q00597	fancc
Q00604	ndp
Q00610-2	cltc
Q00613	hsf1
Q00653	nfkb2
Q00765	reep5
Q00796	sord
Q00839-2	hnrnpu_2
Q00872	mybpc1
Q00887	PSG9
Q00978	irf9
Q00987	mdm2
Q00994	BEX3
Q01081	u2af1
Q01082	sptbn1
Q01082-2	sptbn1_3
Q01094	e2f1
Q01105	SET
Q01113	IL9R
Q01130	srsf2_2
Q01167	foxk2
Q01196	runx1
Q01201	relb
Q01344	IL5RA_2
Q01344-2	IL5RA
Q01469	FABP5
Q01518	cap1
Q01523	Defa5
Q01524	Defa6
Q01628	Ifitm3
Q01638	il1rl1_2
Q01638-2	il1rl1
Q01668	cacna1d
Q01780	exosc10
Q01804	otud4
Q01813	PFKP
Q01814	atp2b2
Q01844	EWSR1
Q01850	CDR2
Q01955	Collagen-IV_5
Q01955-PRO_0000279684	Tumstatin
Q01968	ocrl
Q01970	plcb3
Q01973	ror1
Q01995	tagln
Q02078	mef2a
Q02156	PRKCE
Q02221	cox6a2
Q02223	TNFRSF17
Q02224	cenpe
Q02297	nrg1_3
Q02297-7	nrg1_2
Q02318	CYP27A1
Q02383	SEMG2
Q02388	Collagen-VII_2
Q02388-2	Collagen-VII
Q02410	APBA1_2
Q02410-2	APBA1
Q02413	DSG1
Q02446	sp4
Q02487	DSC2
Q02505	MUC3A
Q02539	Hist1h1a
Q02543	rpl18a
Q02556	irf8
Q02742	GCNT1
Q02750	map2k1
Q02763	tek
Q02779	map3k10
Q02790	fkbp4
Q02809	plod1
Q02817	MUC2
Q02818	nucb1
Q02833	RASSF7
Q02880	top2b
Q02930	CREB5_2
Q02930-3	CREB5
Q02962	PAX2
Q02978	slc25a11
Q02985	CFHR3
Q03001	DST
Q03001-3	DST_2
Q03001-8	DST_3
Q03013	GSTM4
Q03014	hhex
Q03112	mecom
Q03135	cav1
Q03154	acy1
Q03164	kmt2a
Q03167	tgfbr3
Q03169	TNFAIP2
Q03252	lmnb2
Q03403	TFF2
Q03405	PLAUR
Q03518	tap1
Q03591	CFHR1
Q03692	Collagen-X
Q03701	cebpz
Q03933	hsf2
Q04206	relA_2
Q04206-2	relA
Q04323	ubxn1
Q04446	GBE1
Q04609	FOLH1
Q04637	EIF4G1
Q04656	atp7a
Q04721	notch2
Q04724	TLE1
Q04725	tle2
Q04726	TLE3
Q04756	HGFAC
Q04759	prkcq
Q04864	rel
Q04900	cd164
Q04912	MST1R
Q04917	ywhah
Q05048	cstf1
Q05084	ica1_2
Q05086	ube3a
Q05086-2	ube3a_2
Q05209	ptpn12
Q05329	gad2
Q05397	PTK2
Q05513	prkcz
Q05516	zbtb16
Q05586	GRIN1
Q05655	prkcd
Q05682	CALD1
Q05707	Collagen-XIV
Q05996	zp2
Q05BQ5	mbtd1
Q05D60	DEUP1
Q06033	itih3
Q06124	ptpn11
Q06136	kdsr
Q06141	REG3A
Q06187	btk
Q06265	exosc9
Q06323	psme1
Q06330	RBPJ
Q06413	mef2c
Q06418	tyro3
Q06455	runx1t1
Q06481	aplp2
Q06520	SULT2A1
Q06546	gabpa
Q06547	gabpb1
Q06547-2	gabpb1_3
Q06587	RING1
Q06609	rad51
Q06643	LTB
Q06710	Pax8
Q06787	fmr1
Q06830	prdx1
Q07002	CDK18
Q07011	TNFRSF9
Q07020	rpl18
Q07021	c1qbp
Q07065	CKAP4
Q07092	Collagen-XVI
Q07157	tjp1
Q07283	TCHH
Q07325	CXCL9
Q07343	PDE4B
Q07352	ZFP36L1
Q07507	dpt
Q07654	TFF3
Q07666	khdrbs1
Q07687	DLX2
Q07812	bax
Q07817	bcl2l1
Q07820	MCL1_2
Q07889	sos1
Q07890	sos2
Q07912	tnk2
Q07954	lrp1
Q08050	foxm1
Q08117	aes
Q08117-2	aes_2
Q08188	TGM3
Q08211	dhx9
Q08334	il10rb
Q08345	ddr1
Q08345-2	ddr1_3
Q08379	golga2
Q08380	LGALS3BP
Q08397	loxl1
Q08493-3	PDE4C
Q08495	dmtn
Q08629	spock1
Q08648	SPAG11B
Q08722	CD47
Q08752	ppid
Q08830	fgl1
Q08881	itk
Q08945	SSRP1
Q08AG7	MZT1
Q08AM6	vac14
Q08J23	nsun2
Q09013	DMPK
Q09019	DMWD
Q09028	rbbp4
Q09161	NCBP1
Q09472	EP300
Q09666	ahnak
Q0D2H9	GOLGA8DP
Q0IIM8	TBC1D8B
Q0P5P2	C17orf67
Q0P6H9	tmem62
Q0VAA2	lrrc74a
Q0VD86	INCA1
Q0VDD7	C19orf57
Q0VDF9	hspa14
Q0WX57	USP17L24
Q0ZGT2	nexn_3
Q10471	galnt2
Q10472	galnt1
Q10588	BST1
Q10713	pmpca
Q11201	st3gal1
Q11203	st3gal3
Q12778	foxo1
Q12788	tbl3
Q12789	GTF3C1
Q12794	hyal1
Q12797	asph
Q12800	tfcp2
Q12802	AKAP13
Q12805	efemp1
Q12809	kcnh2
Q12815	TROAP
Q12816	TRO
Q12824	smarcb1
Q12829	rab40b
Q12830	bptf
Q12830-4	bptf_2
Q12834	cdc20
Q12841	fstl1
Q12846	stx4
Q12851	map4k2
Q12852	map3k12
Q12860	CNTN1
Q12866	MERTK
Q12873	chd3
Q12873-2	chd3_2
Q12884	fap
Q12888	tp53bp1
Q12889	ovgp1
Q12891	HYAL2
Q12894	ifrd2
Q12899	TRIM26
Q12904	aimp1
Q12905	ILF2
Q12906	ILF3_2
Q12907	lman2
Q12913	PTPRJ
Q12918	KLRB1
Q12923	ptpn13
Q12929	eps8
Q12931	trap1
Q12933	TRAF2
Q12948	FOXC1
Q12950	FOXD4
Q12952	foxl1
Q12955	ank3
Q12959	dlg1_2
Q12959-2	dlg1
Q12959-5	dlg1_3
Q12962	taf10
Q12967	RALGDS
Q12972	ppp1r8
Q12974	ptp4a2
Q12979	abr
Q12982	bnip2
Q12983	BNIP3
Q12988	HSPB3
Q13007	IL24
Q13009	TIAM1
Q13011	ech1
Q13018	pla2r1
Q13033	strn3
Q13042	cdc16
Q13043	STK4
Q13045	flii
Q13049	trim32
Q13064	MKRN3
Q13077	traf1
Q13085	acaca
Q13087	pdia2
Q13094	lcp2
Q13098	gps1
Q13099	ift88
Q13103	spp2
Q13105	zbtb17
Q13107	usp4
Q13111	chaf1a
Q13112	chaf1b
Q13114	traf3
Q13118	KLF10
Q13123	ik
Q13127	rest
Q13131	prkaa1_2
Q13136	ppfia1
Q13137	calcoco2
Q13145	bambi
Q13148	tardbp
Q13153	pak1
Q13155	aimp2
Q13158	FADD
Q13162	prdx4
Q13164	mapk7
Q13177	pak2
Q13185	CBX3
Q13188	stk3
Q13190	STX5
Q13201	MMRN1
Q13203	MYBPH
Q13214	sema3b_2
Q13214-2	sema3b
Q13217	dnajc3
Q13219	PAPPA
Q13224	GRIN2B
Q13228	selenbp1
Q13231	CHIT1
Q13232	nme3
Q13233	map3k1
Q13239	sla
Q13241	KLRD1
Q13242	srsf9
Q13243	SRSF5
Q13253	Nog
Q13257	mad2l1
Q13261	IL15RA
Q13268	dhrs2
Q13275	SEMA3F
Q13277	STX3
Q13277-2	STX3_2
Q13283	g3bp1
Q13285	NR5A1
Q13286	cln3
Q13287	nmi
Q13291	SLAMF1
Q13310	pabpc4_2
Q13315	atm
Q13316	DMP1
Q13322	grb10
Q13326	sgcg
Q13330	mta1_2
Q13347	EIF3I
Q13352	ITGB3BP
Q13363	ctbp1_2
Q13363-2	ctbp1
Q13368	MPP3
Q13387	mapk8ip2
Q13393	PLD1
Q13398	ZNF211
Q13404	ube2v1
Q13409	dync1i2
Q13410	BTN1A1
Q13416	orc2
Q13418	ilk
Q13421	MSLN
Q13422	ikzf1
Q13423	nnt
Q13424	SNTA1
Q13425	sntb2
Q13426	xrcc4
Q13427	ppig
Q13432	UNC119
Q13438	os9
Q13439-4	golga4
Q13442	pdap1
Q13443	adam9
Q13444	adam15
Q13449	lsamp
Q13451	fkbp5
Q13464	rock1
Q13467	fzd5
Q13478	IL18R1
Q13485	smad4
Q13489	birc3
Q13490	birc2
Q13492	picalm_3
Q13501	sqstm1
Q13503	MED21
Q13508	ART3
Q13509	TUBB3
Q13510	asah1
Q13519	pnoc
Q13522	PPP1R1A
Q13523	prpf4b
Q13526	pin1
Q13530	SERINC3
Q13535	atr
Q13546	RIPK1
Q13547	hdac1
Q13554	CAMK2B
Q13555	CAMK2G_2
Q13557	CAMK2D
Q13561	dctn2
Q13568	irf5
Q13571	laptm5
Q13573	snw1
Q13586	STIM1
Q13588	grap
Q13595	tra2a
Q13596	snx1
Q13608	pex6
Q13609	dnase1l3
Q13616	CUL1
Q13617	cul2
Q13618	cul3
Q13619	cul4a
Q13620	cul4b
Q13620-2	cul4b_2
Q13625	tp53bp2
Q13625-3	tp53bp2_2
Q13635	ptch1
Q13642	FHL1
Q13643	fhl3
Q13651	il10ra
Q13705	acvr2b
Q13724	mogs
Q13740	alcam
Q13748	TUBA3C
Q13751	LAMB3
Q13753	lamc2
Q13765	naca
Q13769	thoc5
Q13772	ncoa4_2
Q13794	pmaip1
Q13813	SPTAN1_2
Q13813-2	SPTAN1_3
Q13813-3	SPTAN1
Q13835-2	pkp1
Q13838	ddx39b
Q13867	blmh
Q13868	exosc2
Q13873	BMPR2
Q13882	PTK6
Q13885	TUBB2A
Q13895	bysl
Q13936	cacna1c_2
Q13936-20	cacna1c
Q13951	cbfb
Q13952	nfyc
Q13956	pde6h
Q13976	prkg1
Q14002	CEACAM7
Q14004	cdk13_3
Q14004-2	cdk13_2
Q14005	il16
Q14008	ckap5
Q14011	cirbp
Q14012	CAMK1
Q14019	COTL1
Q14031	Collagen-IV
Q14032	BAAT
Q14055	Collagen-IX
Q14061	cox17
Q14088	rab33a
Q14094	ccni
Q14103	hnrnpd
Q14103-3	hnrnpd_3
Q14106	Tob2
Q14112	NID2
Q14114	lrp8
Q14116	IL18
Q14118	dag1
Q14126	dsg2
Q14134	TRIM29
Q14142	TRIM14
Q14145	keap1
Q14151	SAFB2
Q14152	EIF3A
Q14155	arhgef7_2
Q14157	ubap2l
Q14160	scrib
Q14161	GIT2
Q14162	scarf1
Q14164	ikbke
Q14168	mpp2
Q14181	pola2
Q14186	tfdp1
Q14192	FHL2
Q14194	crmp1
Q14195	dpysl3
Q14195-2	dpysl3_2
Q14197	MRPL58_2
Q14201	btg3
Q14203	DCTN1
Q14207	npat
Q14210	LY6D
Q14213	ebi3
Q14232	eif2b1
Q14240	eif4a2_2
Q14241	ELOA
Q14242	selplg
Q14247	cttn
Q14254	FLOT2
Q14258	trim25_2
Q14289	ptk2b
Q14315	FLNC
Q14318	fkbp8
Q14324	MYBPC2
Q14344	gna13
Q14353	gamt
Q14392	lrrc32
Q14393	gas6
Q14451	GRB7
Q14457	becn1
Q14469	HES1
Q14494	nfe2l1
Q14500	kcnj12
Q14512	Fgfbp1
Q14515	sparcl1_2
Q14520	habp2
Q14524	SCN5A
Q14525	KRT33B
Q14527	hltf
Q14533	KRT81
Q14534	SQLE
Q14562	dhx8
Q14563	SEMA3A
Q14566	Mcm6
Q14573	itpr3
Q14574	DSC3
Q14592	ZNF460
Q14596	nbr1
Q14623	IHH
Q14624	ITIH4
Q14626	il11ra
Q14627	il13ra2
Q14642	INPP5A
Q14643	ITPR1_2
Q14653	irf3_2
Q14667-2	KIAA0100
Q14669	trip12
Q14676	mdc1
Q14681	kctd2
Q14683	smc1a
Q14684	RRP1B
Q14686	ncoa6
Q14687	gse1
Q14689	dip2a_2
Q14689-6	dip2a
Q14690	pdcd11
Q14695	KIAA0087
Q14696	mesdc2
Q14697	ganab
Q14703	mbtps1
Q14764	mvp
Q14766	ltbp1_2
Q14766-2	ltbp1
Q14767	LTBP2
Q14773	ICAM4
Q14781	cbx2
Q14789	golgb1
Q14790	casp8_2
Q14790-4	casp8
Q14807	kif22
Q14896	mybpc3
Q14934	nfatc4
Q14943	KIR3DS1
Q14957	grin2c
Q14964	RAB39A
Q14966	ZNF638
Q14978-3	nolc1
Q14982	opcml
Q14999	CUL7
Q14BN4	slmap
Q14CM0	FRMPD4
Q14CN4	KRT72
Q14CS0	UBXN2B
Q14CZ0	C16orf72
Q14CZ7	fastkd3
Q14D33	RTP5
Q15003	ncaph
Q15006	EMC2
Q15008	psmd6
Q15011	herpud1
Q15013	mad2l1bp
Q15018	Abraxas2
Q15019-2	sept2
Q15020	sart3
Q15022	SUZ12
Q15025	tnip1
Q15027	acap1
Q15029	eftud2
Q15034	herc3
Q15036	snx17
Q15038	dazap2
Q15046	kars
Q15047	SETDB1
Q15051	iqcb1_2
Q15052	arhgef6
Q15056	eif4h
Q15063	postn
Q15075	eea1
Q15084	pdia6
Q15102	pafah1b3
Q15109	AGER
Q15113	PCOLCE
Q15116	PDCD1
Q15118	pdk1
Q15125	ebp
Q15131	cdk10
Q15139	prkd1
Q15149	PLEC
Q15149-2	PLEC_3
Q15149-4	PLEC_2
Q15154	pcm1_2
Q15156	PML-RAR
Q15165	pon2_2
Q15172	ppp2r5a
Q15185	ptges3
Q15198	pdgfrl
Q15223	NECTIN1
Q15223-2	NECTIN1_2
Q15233	nono
Q15238	PSG5
Q15256	ptprr
Q15262	ptprk
Q15286	rab35
Q15287	RNPS1
Q15291	rbbp5
Q15303	ErbB4
Q15303-3	ErbB4_2
Q15311	ralbp1
Q15327	ANKRD1
Q15334	llgl1
Q15363	tmed2
Q15365	PCBP1
Q15366	pcbp2
Q15369	ELOC
Q15375	epha7
Q15382	rheb
Q15388	tomm20
Q15389	angpt1_2
Q15389-2	angpt1
Q15393	SF3B3
Q15399	tlr1
Q15404	rsu1
Q15415	RBMY1F
Q15418	rps6ka1
Q15427	sf3b4
Q15428	sf3a2
Q15435	ppp1r7
Q15436	sec23a
Q15459	sf3a1
Q15464	SHB
Q15465	SHH
Q15466	NR0B2
Q15468	stil
Q15475	SIX1
Q15477	skiv2l
Q15485	FCN2
Q15486	GUSBP1
Q15506	spa17
Q15517	CDSN
Q15526	surf1
Q15527	surf2
Q15528	med22
Q15532	ss18
Q15542	taf5
Q15545	taf7
Q15554	TERF2
Q15555	mapre2
Q15560	tcea2
Q15562	TEAD2
Q15569	TESK1
Q15572	TAF1C
Q15573	taf1a
Q15582	tgfbi
Q15583	tgif1
Q15599	slc9a3r2
Q15628	TRADD
Q15637	SF1
Q15642	TRIP10
Q15642-2	TRIP10_2
Q15645	trip13
Q15646	OASL
Q15648	med1
Q15653	nfkbib
Q15654	trip6
Q15661	TPSAB1
Q15691	mapre1
Q15700	dlg2
Q15714	tsc22d1
Q15750	tab1
Q15759	mapk11
Q15762	cd226
Q15773	mlf2
Q15782	CHI3L2
Q15785	tomm34
Q15796	smad2
Q15797	smad1
Q15811	itsn1
Q15819	UBE2V2
Q15825	chrna6
Q15828	CST6
Q15831	stk11
Q15833	stxbp2
Q15834	ccdc85b
Q15836	vamp3
Q15843	nedd8
Q15848	ADIPOQ_2
Q15853	usf2
Q15904	atp6ap1
Q15907	rab11b
Q15910	ezh2
Q15942	zyx
Q16082	HSPB2
Q16181-2	sept7_2
Q16186	adrm1
Q16204	CCDC6
Q16206	enox2
Q16206-2	enox2_2
Q16236	nfe2l2
Q16270	igfbp7
Q16288	NTRK3
Q16352	INA
Q16363	lama4
Q16378	PRR4
Q16394	EXT1
Q16401	psmd5
Q16473	TNXA
Q16478	grik5
Q16513	pkn2
Q16526	CRY1
Q16527	csrp2
Q16537	PPP2R5E
Q16539-2	MAPK14_3
Q16539-3	MAPK14_2
Q16543	Cdc37
Q16552	il17a
Q16555	dpysl2
Q16557	PSG3
Q16560	SNRNP35
Q16568	CARTPT
Q16570	ACKR1
Q16576	RBBP7
Q16584	MAP3K11
Q16586	sgca
Q16594	taf9
Q16595	fxn
Q16602	CALCRL
Q16609	LPAL2
Q16610	ECM1
Q16611	BAK1
Q16612	NREP
Q16619	CTF1
Q16620	NTRK2
Q16621	nfe2
Q16623	stx1a
Q16625	ocln
Q16627	CCL14
Q16629	srsf7
Q16633	pou2af1
Q16635	taz
Q16637	smn1
Q16643	dbn1
Q16644	mapkapk3
Q16650	tbr1
Q16651	PRSS8
Q16658	fscn1
Q16659	mapk6
Q16663	CCL15
Q16665	hif1a
Q16666	IFI16
Q16666-2	IFI16_3
Q16667-2	cdkn3
Q16670	ZSCAN26
Q16674	mia
Q16695	HIST3H3
Q16718	ndufa5
Q16740	clpp
Q16760	DGKD
Q16762	TST
Q16778	HIST2H2BE
Q16787	lama3
Q16795	ndufa9
Q16819	MEP1A
Q16820	mep1b
Q16821	PPP1R3A
Q16822	pck2
Q16827	ptpro
Q16829	dusp7
Q16832	ddr2
Q16842	st3gal2
Q16849	ptprn
Q16853	AOC3
Q16873	ltc4s
Q16891	immt_2
Q17RB8	lonrf1
Q17RF5	C4orf26
Q17RG0	atg16l1_2
Q17RP2	TIGD6
Q17RW2	Collagen-XXIV
Q19T08	ecscr
Q1KLZ0	PS1TP5BP1
Q24JP5	tmem132a
Q27J81-2	INF2
Q29960	HLA-C_2
Q29983	MICA
Q29RF7	pds5a
Q2KHM9	KIAA0753
Q2KHR2	rfx7
Q2KJY2	KIF26B
Q2M1P5	kif7
Q2MKA7	rspo1
Q2PPJ7	ralgapa2
Q2T9J0	tysnd1
Q2TAC2	ccdc57
Q2TAY7	smu1
Q2TAZ0	ATG2A
Q2VWP7	PRTG
Q30201	HFE
Q309B1	TRIM16L
Q31604	DMA
Q32NC0	C18orf21
Q32P28	p3h1
Q38SD2	lrrk1
Q3B726	twistnb
Q3B7J2	gfod2
Q3B8N2	LGALS9B
Q3B8N2-2	LGALS9B_2
Q3KQU3	MAP7D1
Q3KRB4	MRPS33_2
Q3L8U1-2	chd9
Q3MHD2	LSM12
Q3MIX3	adck5
Q3MJ62	ZSCAN23
Q3V6T2	CCDC88A
Q3YEC7	RABL6
Q3ZCQ8	timm50
Q3ZCW2	LGALSL
Q495A1	TIGIT
Q496Y0	LONRF3
Q49A88	ccdc14
Q49AN0	cry2
Q4ACW9	TWEAK
Q4G0F5	vps26b
Q4G112	hsf5
Q4LDE5	svep1
Q4VAQ0	Collagen-VIII_3
Q4VC05	bcl7a
Q4VCS5	amot
Q4ZG55	GREB1
Q504Q3	PAN2
Q52MB2	CCDC184
Q53EL6	PDCD4
Q53EL9	SEZ6
Q53EV4	lrrc23
Q53EZ4	CEP55
Q53F19	ncbp3
Q53FD0	zc2hc1c_2
Q53FE4	C4orf17
Q53G59	klhl12
Q53GC0	SERTAD1
Q53GG5	pdlim3
Q53GG5-2	pdlim3_2
Q53GI4	TEAD4
Q53GL0	PLEKHO1
Q53GQ0	HSD17B12
Q53GS7	gle1
Q53GS9	USP39
Q53H76	pla1a
Q53H96	pycr3
Q53HC0	ccdc92
Q53HC9	eipr1
Q53SE7	FLJ13057
Q53SF7-4	COBLL1
Q53T94-2	taf1b_2
Q53TN4	cybrd1
Q53XC2	eif2b2
Q53XK0	bet1
Q53Z40	ZNF165_2
Q53ZZ1	TNFSF6
Q549N0	CFL2_2
Q562E7	wdr81
Q562R1	ACTBL2
Q567U6	ccdc93
Q56NI9	ESCO2
Q56P42	PYDC2
Q58DX5	NAALADL2
Q59H18	tnni3k
Q5BIV9	sprn
Q5BJF6	odf2
Q5BKZ1	ZNF326
Q5C9Z4	nom1
Q5D1E8	zc3h12a
Q5D862	FLG2
Q5EB52	mest
Q5EBL8	pdzd11
Q5EG05	CARD16
Q5FBB7	SGO1
Q5FYB1	ARSI
Q5GFL6	vwa2
Q5H8C1	FREM1
Q5H9J7	BEX5
Q5HY54	flna_2
Q5HYA8	tmem67
Q5HYI8	rabl3
Q5HYK7	sh3d19
Q5J5C9	DEFB121
Q5JNW7	psmb8_2
Q5JR59	mtus2
Q5JRA6	mia3
Q5JRX3	pitrm1
Q5JSJ4	INTS6L
Q5JST6	efhc2
Q5JTB6	PLAC9
Q5JTV8	TOR1AIP1
Q5JU00	tcte1
Q5JVF3-3	pcid2
Q5JVS0	HABP4
Q5JWF2	gnas_3
Q5JY77	GPRASP1
Q5JZY3-3	epha10
Q5KU26	colec12
Q5LJA5	uchl5
Q5M775-4	specc1
Q5MNZ9	wipi1
Q5PSV4	BRMS1L
Q5QJE6	dnttip2
Q5R3F8	elfn2
Q5RL73	rbm48
Q5SQN1	snap47
Q5ST30-3	vars2
Q5SU16	TUBB
Q5SVZ6	ZMYM1
Q5SW79	cep170
Q5SW96	LDLRAP1
Q5T2D3	otud3
Q5T3F8	TMEM63B
Q5T3I0	gpatch4
Q5T3J3	LRIF1
Q5T4S7	ubr4
Q5T4W7	ARTN
Q5T5A8	LCE3C
Q5T5B0	LCE3E
Q5T5C0	STXBP5
Q5T5U3	ARHGAP21
Q5T653	mrpl2
Q5T655	cfap58
Q5T6C5	atxn7l2
Q5T700	LDLRAD1
Q5T7N2	L1td1
Q5T7P3	LCE1B
Q5T7Y6	S100A1_2
Q5T8P6-3	rbm26
Q5TA45-3	INTS11_2
Q5TA50	cptp
Q5TA78	LCE4A
Q5TA82	LCE2D
Q5TAQ9	dcaf8
Q5TAX3	zcchc11
Q5TB80	CEP162
Q5TBB1	rnaseh2b
Q5TC12	atpaf1
Q5TC63	GRTP1
Q5TCQ9	MAGI3
Q5TCZ1	SH3PXD2A_2
Q5TF85	fam46a
Q5TGY1	tmco4
Q5TKA1	lin9
Q5TZK3	FAM74A4
Q5TZZ9	ANXA1_2
Q5U5Q3	mex3c
Q5U649	C12orf60
Q5UCC4	emc10_2
Q5UCC4-2	emc10
Q5UIP0	rif1
Q5VSY0	gkap1
Q5VSY0-2	gkap1_2
Q5VT25-4	CDC42BPA
Q5VTD9	gfi1b
Q5VTE6	angel2
Q5VTR2	rnf20
Q5VU43	PDE4DIP_3
Q5VU43-11	PDE4DIP
Q5VU69	C1orf189
Q5VUJ6	lrch2
Q5VV17	otud1
Q5VVQ6	yod1
Q5VW52	gpam
Q5VWC4	psmd4_2
Q5VWG9	taf3
Q5VWK5	il23r
Q5VWP3	mlip
Q5VWX1	khdrbs2
Q5VX71	susd4
Q5VYK3	Ecm29
Q5VYS8	ZCCHC6
Q5VYV7	slx4ip
Q5VYX0	rnls
Q5VYY2	LIPM
Q5VZK9-2	CARMIL1
Q5VZL5	zmym4
Q5VZM2	RRAGB
Q5VZP5	dusp27
Q5W0B1	rnf219
Q5W0Q7	USPL1
Q5XKE5	KRT79
Q5XLA6	CARD17
Q63HN8	RNF213
Q63HR2	TNS2
Q63ZY3	kank2_2
Q63ZY3-2	kank2
Q641Q3	metrnl
Q659A1	ice2
Q66GS9	cep135
Q66K14	tbc1d9b
Q66K74	MAP1S
Q66LE6	ppp2r2d
Q676U5	atg16l1
Q68CP9	arid2
Q68CZ1	rpgrip1l
Q68CZ2	TNS3
Q68CZ6	haus3
Q68DV7	RNF43
Q69FE3	irak4_2
Q6A162	KRT40
Q6AHZ1	ZNF518A
Q6DD88	atl3
Q6DKI2	LGALS9C
Q6DN90	IQSEC1
Q6E0U4	DMKN
Q6EIG7	CLEC6A
Q6EMK4	vasn
Q6FG55	lta_2
Q6FHJ7	SFRP4
Q6FHL7	LEPROTL1
Q6FHQ0	RBBP7_2
Q6GTX8	LAIR1
Q6H3X3	RAET1G
Q6I9Y2	THOC7
Q6IA17	sigirr
Q6IA98	RNPC4
Q6IAM1	TU3A
Q6IBM8	U5-116KD
Q6IBS0	TWF2
Q6IBT1	PSMB7_2
Q6IBW4	NCAPH2
Q6ICB0	DESI1
Q6IMN6	caprin2
Q6IN84	mrm1
Q6IN85	PPP4R3A
Q6IPW1	C11orf71
Q6IQ22	rab12
Q6IQ43	PTPN9_2
Q6IQ55	ttbk2
Q6ISB3	GRHL2
Q6ISS4	LAIR2
Q6K0P9	PYHIN1
Q6KC79	NIPBL
Q6KCM7-3	slc25a25
Q6L8G9	KRTAP5-6
Q6L8Q7	pde12
Q6MZP7	lin54
Q6N021	tet2
Q6N021-2	tet2_2
Q6N063	OGFOD2
Q6NS38	alkbh2
Q6NSX1	CCDC70
Q6NT76	hmbox1
Q6NUK4	REEP3
Q6NUQ1	rint1
Q6NUS6	TCTN3
Q6NW40	rgmb
Q6NXE6	armc6
Q6NXT1	ANKRD54
Q6NYC1	JMJD6
Q6NZ44	fth1
Q6P0Q8	mast2
Q6P1J9	cdc73
Q6P1K1	SLC48A1
Q6P1K2	PMF1
Q6P1M3	llgl2
Q6P1X5	taf2
Q6P2C6	MLLT6_2
Q6P2C8	med27
Q6P2E9	edc4
Q6P2I7	EBLN2
Q6P2Q9	prpf8
Q6P2R3	C6orf182
Q6P499	nipal3
Q6P4A8	plbd1
Q6P4R8	nfrkb
Q6P582	MZT2A
Q6P597	klc3
Q6P5S2	Leg1
Q6P5Z2	pkn3
Q6P602	TUBB_2
Q6P988	NOTUM
Q6P9B9	ints5
Q6PCD5	rfwd3
Q6PD62	ctr9
Q6PEX3	KRTAP26-1
Q6PF11	CSH1_2
Q6PF18	morn3
Q6PGN9	PSRC1
Q6PGQ7	bora
Q6PIV2	FOXR1
Q6PJE2	POMZP3
Q6PJG9	LRFN4
Q6PJQ5	FOXR2
Q6PK50	HSP90AB1
Q6PKC3	txndc11
Q6PKG0	larp1
Q6PL18	atad2
Q6PL45	bricd5
Q6Q0C1	SLC25A47
Q6Q788	APOA5
Q6QNY0	bloc1s3
Q6QNY1	bloc1s2
Q6R327	RICTOR
Q6RFH8	DUX4L9
Q6RVD6	SPATA8
Q6RW13	agtrap
Q6RW13-2	agtrap_2
Q6S5L8	SHC4
Q6S8J3	POTEE
Q6SPF0	SAMD1
Q6SZW1	sarm1
Q6UB35	mthfd1l
Q6UN15	fip1l1
Q6UUV7	crtc3
Q6UVJ0	sass6
Q6UVK1	cspg4
Q6UVW9	CLEC2A
Q6UVY6	moxd1
Q6UW32	IGFL1
Q6UW56	ATRAID
Q6UW88	epgn
Q6UWF7	NXPE4
Q6UWP8	SBSN
Q6UWQ5	LYZL1
Q6UWQ7	IGFL2
Q6UWU2	glb1l
Q6UWX4	hhipl2
Q6UX06	OLFM4
Q6UX07-2	dhrs13
Q6UX39	AMTN
Q6UX41	BTNL8
Q6UX46	ALKAL2
Q6UX71	plxdc2
Q6UXB0	fam131a
Q6UXB1	Igfl3
Q6UXB4	CLEC4G
Q6UXH0	ANGPTL8
Q6UXH1	creld2
Q6UXH8	ccbe1
Q6UXL0	IL20RB
Q6UXM1	lrig3
Q6UXN8	CLEC9A
Q6UXT8	Alkal1
Q6UXV4	apool
Q6UXX9	rspo2
Q6UXZ3	Cd300ld
Q6UY11	dlk2
Q6UY14	ADAMTSL4_2
Q6UY14-3	ADAMTSL4
Q6V1X1	DPP8
Q6VAB6	ksr2
Q6VMQ6	atf7ip
Q6VN20	ranbp10
Q6W2J9	bcor
Q6WN34-2	chrdl2
Q6XQN6	naprt
Q6XQN6-2	naprt_2
Q6XR72	slc30a10
Q6XUX3	DSTYK_2
Q6XZF7	dnmbp
Q6YHK3	cd109
Q6ZMI0	ppp1r21
Q6ZMJ4	il34
Q6ZMK1	cyhr1
Q6ZMM2	adamtsl5
Q6ZMM2-2	adamtsl5_2
Q6ZMQ8	AATK
Q6ZN11	ZNF793
Q6ZN17	lin28b
Q6ZN18	AEBP2
Q6ZN28	macc1
Q6ZNC8	mboat1
Q6ZNJ1-3	nbeal2
Q6ZQN5	foxi2
Q6ZRI6	C15orf39
Q6ZRP7	qsox2
Q6ZTI6	Rflna
Q6ZTQ3	rassf6
Q6ZU65	ubn2
Q6ZU80	cep128_2
Q6ZUT1	C11orf57
Q6ZVD8	phlpp2
Q6ZVM7	tom1l2
Q6ZVN8	hfe2
Q6ZW49	paxip1
Q6ZXV5-2	tmtc3_2
Q70CQ1	usp49
Q70EK8	USP53
Q70EL2	usp45
Q70EL3	USP50
Q70EL4	USP43
Q70IA8	mob3c
Q70Z53	fra10ac1
Q712K3	ube2r2
Q71DI3	HIST2H3A
Q71F23	CENPU
Q71U36	tuba1a
Q75LH2	FLJ10324
Q75N90	FBN3
Q76I76	SSH2
Q76L83	asxl2
Q76LX8	adamts13
Q76M96	ccdc80
Q7KZF4	snd1
Q7KZI7	MARK2
Q7L1Q6	BZW1
Q7L2E3	dhx30
Q7L2H7	EIF3M
Q7L2Z9	CENPQ
Q7L311	ARMCX2
Q7L3B6	cdc37l1_2
Q7L4I2-2	rsrc2
Q7L4P6	bend5
Q7L576	cyfip1
Q7L5D6	get4
Q7L5N1	cops6
Q7L5Y9	MAEA
Q7L775	EPM2AIP1
Q7L8A9	vash1
Q7L9L4	MOB1B
Q7LAP4	VEGFB_2
Q7LBR1	chmp1b
Q7LFX5	chst15
Q7RTN6	strada
Q7RTP6	MICAL3
Q7RTR2	nlrc3
Q7Z2H8	slc36a1
Q7Z2W4	ZC3HAV1
Q7Z2X4	pid1
Q7Z333	setx
Q7Z333-3	setx_2
Q7Z3B1	negr1
Q7Z3C6	atg9a
Q7Z3E5-2	armc9
Q7Z3U7	mon2
Q7Z401	dennd4a
Q7Z404	tmc4
Q7Z417	nufip2
Q7Z419	rnf144b
Q7Z434	mavs
Q7Z465	bnipl
Q7Z479	capn7_2
Q7Z494	nphp3
Q7Z4G1	commd6
Q7Z4L5	ttc21b
Q7Z4N8	p4ha3
Q7Z4Q2	heatr3
Q7Z4R8	C6orf120
Q7Z4S6	kif21a
Q7Z569	brap
Q7Z5A9	FAM19A1
Q7Z5G4	golga7
Q7Z5H4	VN1R5
Q7Z5J4	rai1
Q7Z5K2	WAPL
Q7Z628	net1
Q7Z6A9	BTLA
Q7Z6B7	srgap1
Q7Z6E9	rbbp6
Q7Z6G3	necab2_2
Q7Z6G3-2	necab2
Q7Z6G8	anks1b
Q7Z6I8	C5orf24
Q7Z6J0	sh3rf1
Q7Z6J6	frmd5
Q7Z6L1	TECPR1
Q7Z6M2	fbxo33
Q7Z6Z7	huwe1
Q7Z6Z7-2	huwe1_2
Q7Z7A1	cntrl_2
Q7Z7A1-5	cntrl
Q7Z7E8	ube2q1
Q7Z7G0	abi3bp
Q7Z7G1	CLNK
Q7Z7H8	MRPL10
Q7Z7J5	DPPA2
Q7Z7K0	cmc1
Q7Z7L7	zer1
Q7Z7M0	megf8
Q86SE9	PCGF5
Q86SG6	nek8
Q86SQ6	adgra1
Q86SQ7	sdccag8
Q86SQ9	dhdds
Q86T03	TMEM55B
Q86TA1	MOB3B
Q86TE4	LUZP2
Q86TG1	tmem150a
Q86TG7	PEG10
Q86TH1	adamtsl2
Q86TI0	tbc1d1
Q86TW2	adck1_2
Q86TW2-2	adck1
Q86U38	nop9
Q86U42	pabpn1
Q86U44	METTL3
Q86U70	ldb1
Q86U86	pbrm1
Q86UA3	C12orf10
Q86UD3	MARCH3
Q86UK5	EVC2
Q86UL8	MAGI2
Q86UN2	rtn4rl1
Q86UN3	RTN4RL2
Q86UP2	ktn1
Q86UW6	n4bp2
Q86UW9	dtx2
Q86UX2	itih5
Q86UX7	FERMT3
Q86UY0	txndc5
Q86UY8	nt5dc3
Q86V21	aacs
Q86V42	FAM124A
Q86V48	luzp1
Q86VF7	nrap
Q86VI4	laptm4b
Q86VK4-3	znf410_2
Q86VN1	vps36
Q86VP1	TAX1BP1
Q86VP6	cand1
Q86VQ0	lca5
Q86VQ3	TXNDC2
Q86VR8	fjx1
Q86W11	ZSCAN30
Q86W26	NLRP10
Q86WB0	zc3hc1
Q86WJ1	chd1l
Q86WT6	TRIM69
Q86WU2	ldhd
Q86WV6	tmem173
Q86X10	ralgapb
Q86X19	TMEM17
Q86X52	chsy1
Q86XI6	ppp1r3b
Q86XK2	fbxo11
Q86XM6	LPPR4
Q86XR7	TICAM2
Q86XS5	angptl5
Q86XS8	rnf130
Q86XU0	ZNF677
Q86XX4	fras1
Q86Y01	dtx1
Q86Y07	vrk2
Q86Y07-5	vrk2_2
Q86Y13	DZIP3
Q86Y22	Collagen-XXIII
Q86Y26	NUTM1
Q86Y38	xylt1
Q86Y56	DNAAF5
Q86Y78	LYPD6
Q86Y82	stx12
Q86YB8	ero1b
Q86YC2	palb2
Q86YD1	PTOV1
Q86YD3	tmem25
Q86YJ5	march9
Q86YJ6	thnsl2
Q86YL7	PDPN
Q86YS3	rab11fip4
Q86YS7	c2cd5
Q86YT9	JAML
Q86YV5	PRAG1
Q86YW7	gphb5
Q86YZ3	Hrnr
Q86Z14	klb
Q8HWS3	rfx6
Q8IU54	IFNL1
Q8IU57	ifnlr1
Q8IU60	dcp2
Q8IU80	TMPRSS6
Q8IU80-4	TMPRSS6_2
Q8IU85	camk1d
Q8IUD2	ERC1
Q8IUG5	myo18b
Q8IUH5	zdhhc17
Q8IUI8	crlf3
Q8IUQ4	siah1
Q8IUQ4-2	siah1_2
Q8IUR7	armc8_2
Q8IUR7-6	armc8
Q8IUU6	il16_2
Q8IUX8	egfl6
Q8IV16	GPIHBP1
Q8IV45	UNC5CL
Q8IV50	lysmd2
Q8IV63	vrk3
Q8IVA8	gad1_2
Q8IVD9	nudcd3
Q8IVF2	AHNAK2
Q8IVG9	MT-RNR2
Q8IVH2	foxp4
Q8IVI9	Nostrin
Q8IVL1	NAV2
Q8IVL5	p3h2
Q8IVM0	ccdc50
Q8IVT2	MISP
Q8IVT5	KSR1
Q8IVV7	GID4
Q8IW00	VSTM4
Q8IW19	APLF
Q8IW35	cep97
Q8IW45	Naxd
Q8IWE2	fam114a1
Q8IWF7	UBE2DNL
Q8IWI9	mga
Q8IWK6	adgra3
Q8IWK6-3	adgra3_2
Q8IWL1	SFTPA2
Q8IWL2	SFTPA1
Q8IWL3	HSCB
Q8IWR0	zc3h7a
Q8IWR1	trim59
Q8IWT3	CUL9
Q8IWV1	LAX1
Q8IWV2	cntn4
Q8IWV7	ubr1
Q8IWV8	ubr2
Q8IWW8	adhfe1
Q8IWX7	unc45b
Q8IWX8	cherp
Q8IWZ5	TRIM42
Q8IX15-3	homez
Q8IX21	slf2
Q8IX30	scube3
Q8IX90	ska3
Q8IXJ6	sirt2_2
Q8IXJ9	asxl1
Q8IXK0	phc2
Q8IXL6	FAM20C
Q8IXN4	mak
Q8IXQ5-2	klhl7
Q8IXZ2	zc3h3
Q8IY31	ift20
Q8IY33	micall2
Q8IY67	raver1
Q8IY81	FTSJ3
Q8IY82	DRC7
Q8IY92	slx4
Q8IYD9	Las2
Q8IYE0-2	ccdc146
Q8IYE1	ccdc13
Q8IYF3	tex11
Q8IYH5	zzz3
Q8IYJ3	sytl1
Q8IYL3	C1orf174
Q8IYM1	sept12
Q8IYM9	TRIM22
Q8IYR0	cfap206
Q8IYR6	tmeff1
Q8IYS0	gramd1c
Q8IYS2	KIAA2013
Q8IYT4	KATNAL2
Q8IYT8	ulk2
Q8IYV9	IZUMO1
Q8IYW5	RNF168
Q8IYX7	SAXO1
Q8IYX8	cep57l1
Q8IYX8-2	cep57l1_2
Q8IZ07	ankrd13a
Q8IZ69	trmt2a
Q8IZC4	rtkn2
Q8IZE3	scyl3
Q8IZH2	xrn1
Q8IZH2-2	xrn1_2
Q8IZJ1	unc5b_2
Q8IZJ1-2	unc5b
Q8IZL8	pelp1
Q8IZL9	cdk20
Q8IZP0	abi1
Q8IZQ1-2	wdfy3
Q8IZR5	cmtm4
Q8IZT6	aspm
Q8IZU0	FAM9B
Q8IZW8	TNS4
Q8IZY5	BLID
Q8J025	APCDD1
Q8N0S2	SYCE1
Q8N0V3	rbfa
Q8N0X7	SPG20
Q8N0Z3	spice1
Q8N104	DEFB106A
Q8N122	rptor
Q8N129	cnpy4
Q8N137	CNTROB
Q8N139	ABCA6
Q8N157	ahi1
Q8N163	ccar2
Q8N1B4	Vps52
Q8N1F7	nup93
Q8N1F8	stk11ip
Q8N1G1	rexo1
Q8N1I0	DOCK4
Q8N1K5	THEMIS
Q8N1L9	BATF2
Q8N1N0	CLEC4F
Q8N1N4	KRT78
Q8N201	ints1
Q8N205	SYNE4
Q8N205-2	SYNE4_2
Q8N239	klhl34
Q8N2G8	ghdc
Q8N2I2	ZNF619
Q8N2S1	LTBP4_3
Q8N2S1-2	LTBP4
Q8N2S1-3	LTBP4_2
Q8N2W9	pias4
Q8N2X6	EXOC3-AS1
Q8N302	aggf1
Q8N307	MUC20
Q8N355	IGL@
Q8N357	slc35f6
Q8N398	vwa5b2
Q8N3C7	CLIP4
Q8N3F8	micall1
Q8N3K9	cmya5
Q8N3L3	TXLNB
Q8N3R9	MPP5
Q8N3U4	STAG2_2
Q8N3U4-2	STAG2
Q8N3V7	SYNPO
Q8N3X1	FNBP4
Q8N423	LILRB2
Q8N443	ribc1
Q8N448	lnx2
Q8N474	sfrp1
Q8N475	fstl5
Q8N4C6	nin
Q8N4L8	ccdc24
Q8N4P2	Ttc30b
Q8N4S1	sparcl1
Q8N4V1	mmgt1
Q8N531	fbxl6
Q8N5G0	SMIM20
Q8N5H7	sh2d3c
Q8N5I4	dhrsx
Q8N5M1	atpaf2
Q8N5M9	JAGN1
Q8N5N7	MRPL50
Q8N5P1	ZC3H8
Q8N5R6	ccdc33
Q8N5S9	camkk1
Q8N5T2	tbc1d19
Q8N5U6	rnf10
Q8N612	FAM160A2
Q8N668	commd1
Q8N6C5	IGSF1
Q8N6C8	LILRA3
Q8N6G6	ADAMTSL1
Q8N6L0	CCDC155
Q8N6M9	zfand2a
Q8N6N6	NATD1
Q8N6P7	IL22RA1
Q8N6R1	serp2
Q8N6T3	arfgap1
Q8N6T3-3	arfgap1_3
Q8N6Y0	ushbp1
Q8N726	CDKN2A_2
Q8N799	SPATA24
Q8N7B6	PACRGL
Q8N7H5	paf1
Q8N7W2-2	BEND7
Q8N806	ubr7
Q8N8R5	C2orf69
Q8N8U2	CDYL2
Q8N8Y2	ATP6V0D2
Q8N8Z6	dcbld1
Q8N960	cep120
Q8N9M1	C19orf47
Q8N9M1-3	C19orf47_2
Q8N9N2-2	ascc1
Q8N9N5	banp
Q8NA19	L3MBTL4
Q8NA61	SPERT
Q8NA72	poc5
Q8NAC3	il17rc
Q8NAF0	ZNF579
Q8NAV1	PRPF38A
Q8NB14	usp38
Q8NB16	MLKL
Q8NB25	fam184a
Q8NB37	gatd1
Q8NB90	SPATA5
Q8NBE8	klhl23
Q8NBF2	nhlrc2
Q8NBF2-2	nhlrc2_2
Q8NBI3	Draxin
Q8NBI5	SLC43A3
Q8NBJ4	GOLM1_2
Q8NBJ4-2	GOLM1
Q8NBJ5	colgalt1
Q8NBN7	RDH13
Q8NBP7	pcsk9
Q8NBQ5	HSD17B11
Q8NBS9	txndc5_2
Q8NBT0	poc1a
Q8NBT2	spc24
Q8NBW4	SLC38A9
Q8NBX0	SCCPDH
Q8NC24	rell2
Q8NC44	retreg2
Q8NC51	serbp1
Q8NC56	LEMD2
Q8NC60	noa1
Q8NC69	KCTD6
Q8NCC3	pla2g15
Q8NCE2	mtmr14
Q8NCF0	CLEC18C
Q8NCJ5	spryd3
Q8NCL4	galnt6
Q8NCN4	RNF169
Q8NCP5	zbtb44
Q8NCW5	NAXE
Q8ND30	PPFIBP2
Q8ND90	PNMA1
Q8NDC4	morn4
Q8NDD1	C1orf131
Q8NDT2	rbm15b
Q8NDV7	tnrc6a_2
Q8NDX5	phc3
Q8NDZ2	SIMC1
Q8NE62	chdh
Q8NE63	HIPK4
Q8NE71	abcf1
Q8NEA6	glis3
Q8NEA9	GMCL1P1
Q8NEB9	pik3c3
Q8NEC5	CatSper1
Q8NEN0	armc2
Q8NEP3	dnaaf1
Q8NER5	ACVR1C
Q8NEU8	appl2
Q8NEV9	IL27
Q8NEW0	slc30a7
Q8NEX5	WFDC9
Q8NEY8	pphln1
Q8NEZ3	wdr19
Q8NEZ4	KMT2C
Q8NF50	dock8_2
Q8NF50-2	dock8
Q8NF64-2	zmiz2
Q8NF91-11	SYNE1
Q8NF99	ZNF397
Q8NFA0	usp32
Q8NFC6	bod1l1
Q8NFD5	arid1b
Q8NFJ5	GPRC5A
Q8NFJ9	bbs1
Q8NFM7	il17rd
Q8NFR9	IL17RE
Q8NFZ5	tnip2
Q8NG11	tspan14
Q8NG31	KNL1
Q8NG31-2	KNL1_2
Q8NGV6	OR5H6
Q8NHH9	atl2
Q8NHJ6	LILRB4
Q8NHL6	LILRB1
Q8NHQ1	cep70
Q8NHQ8	rassf8
Q8NHV4	nedd1
Q8NHV9	RHOXF1
Q8NHW4	CCL4L1
Q8NHY2	rfwd2
Q8NHY3	gas2l2
Q8NI16	fgfr3
Q8NI22	mcfd2
Q8NI35	PATJ
Q8NI37	pptc7
Q8NI60	COQ8A
Q8NI77	kif18a
Q8TAA9	vangl1
Q8TAB7	CCDC26
Q8TAC9	SCAMP5
Q8TAD8	snip1
Q8TAF3	WDR48
Q8TAG5	VSTM2A
Q8TAG9	exoc6
Q8TAK6	olig1
Q8TAM1	bbs10
Q8TAP4	lmo3
Q8TAP6	cep76
Q8TAQ2	smarcc2
Q8TAS3	prrg2_2
Q8TAT5	neil3
Q8TAT6	nploc4
Q8TAU3	ZNF417
Q8TAX7	MUC7
Q8TAX9	GSDMB
Q8TAZ6	CMTM2
Q8TB05	UBALD1
Q8TB22	spata20
Q8TB24	rin3
Q8TB52	fbxo30
Q8TB72	pum2
Q8TB96	itfg1
Q8TBB1	lnx1
Q8TBC3	shkbp1
Q8TBE7	slc35g2
Q8TBF2	fam213b
Q8TBK6	zcchc10
Q8TBP0	tbc1d16
Q8TBU1	OSTCL
Q8TBZ2	mycbpap
Q8TBZ3	WDR20
Q8TC07	tbc1d15
Q8TC92	enox1
Q8TCE9	LGALS14
Q8TCG1	KIAA1524
Q8TCJ0	fbxo25_3
Q8TCJ0-3	fbxo25
Q8TCJ2	stt3b
Q8TCT0	cerk
Q8TCT1	phospho1
Q8TCT7-2	SPPL2B
Q8TCT8	SPPL2A
Q8TCT9	hm13
Q8TCX1	dync2li1
Q8TCX5	rhpn1
Q8TD06	AGR3
Q8TD08	mapk15
Q8TD10	mipol1
Q8TD17	ZNF398
Q8TD19	NEK9
Q8TD26	chd6
Q8TD31-3	CCHCR1
Q8TD46	CD200R1
Q8TD84	dscaml1
Q8TDD1	ddx54_2
Q8TDH9	bloc1s5
Q8TDJ6	dmxl2
Q8TDQ0	havcr2
Q8TDQ1	CD300LF
Q8TDR0	traf3ip1
Q8TDU9	RXFP4
Q8TDX7	nek7
Q8TDY2	rb1cc1
Q8TDY2-2	rb1cc1_2
Q8TDZ2	MICAL1
Q8TE67	eps8l3
Q8TE77-2	SSH3
Q8TEC5	sh3rf2
Q8TEJ3	SH3RF3
Q8TEK3	dot1l_2
Q8TEK3-2	dot1l
Q8TEQ6	gemin5
Q8TER5	arhgef40
Q8TES7	FBF1
Q8TEU8	WFIKKN2
Q8TEV9	SMCR8
Q8TEW0	pard3
Q8TEX9	ipo4
Q8TEY5	CREB3L4
Q8TEY7	usp33_2
Q8TEY7-2	usp33
Q8TF09	DYNLRB2
Q8TF42	UBASH3B
Q8TF50	znf526
Q8TF65	gipc2
Q8WTP9	XAGE3
Q8WTS6	setd7
Q8WTT0	CLEC4C
Q8WTU0	DDI1
Q8WTV0	scarb1
Q8WTW3	cog1
Q8WU20	frs2
Q8WU39	MZB1
Q8WUA4	gtf3c2
Q8WUA8	tsku
Q8WUB8	phf10
Q8WUD1	RAB2B
Q8WUF5	ppp1r13l
Q8WUF8	fam172a
Q8WUG5	slc22a17
Q8WUH1	churc1
Q8WUH6	TMEM263
Q8WUJ3	cemip
Q8WUM4	pdcd6ip
Q8WUP2	fblim1
Q8WUW1	brk1
Q8WUY1	THEM6
Q8WV28	blnk
Q8WV35	lrrc29
Q8WV41	snx33
Q8WVC0	LEO1
Q8WVJ2	nudcd2
Q8WVK2	SNRNP27
Q8WVL7	ankrd49
Q8WVM7	stag1
Q8WVM8	scfd1
Q8WVS4	wdr60
Q8WVZ9	kbtbd7
Q8WW24	tekt4
Q8WW35	tctex1d2
Q8WWA0	itln1
Q8WWG1	NRG4
Q8WWI5	slc44a1
Q8WWK9	CKAP2
Q8WWM7	atxn2l
Q8WWQ8	stab2
Q8WWW0	RASSF5
Q8WWY3	prpf31
Q8WWZ8	oit3
Q8WX93-3	palld
Q8WX94	NLRP7
Q8WXA2	PATE1
Q8WXC3	PYDC1
Q8WXD2	SCG3
Q8WXD9	caskin1
Q8WXE1	atrip
Q8WXF1	pspc1
Q8WXF3	rln3
Q8WXH0	SYNE2
Q8WXH5	socs4
Q8WXI2	cnksr2
Q8WXI7	MUC16
Q8WXI8	CLEC4D
Q8WXI9	gatad2b
Q8WXS4	tmem37
Q8WXW3	pibf1
Q8WXX5	dnajc9
Q8WYA6	ctnnbl1
Q8WYJ6	SEPT1
Q8WYL5	SSH1
Q8WYR1	pik3r5
Q8WZ19	kctd13
Q8WZ42-3	ttn_2
Q8WZ75	robo4
Q8WZA1	pomgnt1
Q92484	smpdl3a
Q92496	CFHR4
Q92499	ddx1
Q92504	slc39a7
Q92520	fam3c
Q92529	SHC3
Q92537	susd6
Q92538	gbf1
Q92540	smg7
Q92542	ncstn
Q92544	tm9sf4
Q92552	mrps27
Q92556	elmo1
Q92558	wasf1
Q92560	bap1
Q92561	PHYHIP
Q92563	spock2
Q92565	RAPGEF5
Q92569	pik3r3
Q92572	ap3s1
Q92574	TSC1
Q92583	CCL17
Q92585	maml1
Q92597	ndrg1
Q92598	hsph1
Q92600	CNOT9
Q92608	DOCK2
Q92611	edem1
Q92614	MYO18A_2
Q92615	larp4b
Q92616	gcn1
Q92619	ARHGAP45
Q92620	dhx38
Q92621	nup205
Q92624	appbp2
Q92625	ANKS1A
Q92626	pxdn
Q92629	sgcd
Q92667	akap1
Q92673	sorl1
Q92688	anp32b
Q92692	NECTIN2
Q92696	rabggta
Q92729	ptpru
Q92730	rnd1
Q92731-3	ESR2
Q92733	prcc
Q92734	tfg
Q92743	htra1
Q92747	ARPC1A
Q92748	thrsp
Q92754	tfap2c
Q92764	KRT35
Q92765	frzb
Q92769	HDAC2
Q92782	dpf1
Q92785	dpf2
Q92793	crebbp
Q92796	dlg3_2
Q92796-3	dlg3
Q92797	sympk
Q92802	n4bp2l2
Q92804	taf15
Q92820	ggh
Q92823	nrcam
Q92824	PCSK5
Q92830	kat2a_2
Q92830-2	kat2a
Q92831	kat2b
Q92832	NELL1
Q92834	RPGR
Q92835	inpp5d
Q92837	FRAT1
Q92838	eda
Q92841	DDX17
Q92843	BCL2L2
Q92844	tank
Q92845	kifap3
Q92851	CASP10
Q92851-2	CASP10_3
Q92851-3	CASP10_2
Q92854	sema4d
Q92859	neo1
Q92874	DNASE1L2
Q92876	Klk6
Q92878	rad50
Q92879	celf1
Q92882	ostf1
Q92890	UFD1
Q92896	GLG1
Q92900	upf1_2
Q92900-2	upf1
Q92905	COPS5
Q92911	slc5a5
Q92913	fgf13_2
Q92913-2	fgf13
Q92915	fgf14
Q92918	MAP4K1
Q92922	smarcc1
Q92925	smarcd2
Q92930	rab8b
Q92932	ptprn2
Q92945	khsrp
Q92947	gcdh
Q92956	TNFRSF14
Q92966	snapc3
Q92973	tnpo1
Q92979	emg1
Q92985	irf7
Q92990	GLMN
Q92993	KAT5
Q92995	USP13
Q92997	dvl3
Q93008	USP9X
Q93009	usp7
Q93034	cul5
Q93038	TNFRSF25
Q93045	stmn2
Q93050	atp6v0a1
Q93062	rbpms_2
Q93063	ext2
Q93074	med12
Q93091	RNASE6
Q93096	ptp4a1
Q93097	wnt2b
Q95460	MR1
Q969D9	TSLP
Q969F0	FATE1
Q969F2	NKD2
Q969G3	smarce1
Q969G3-2	smarce1_2
Q969H0	fbxw7
Q969H6	pop5
Q969H8	mydgf
Q969J5	il22ra2_3
Q969J5-2	il22ra2
Q969J5-3	il22ra2_2
Q969L4	lsm10
Q969M3	YIPF5
Q969N2	pigt
Q969P0	igsf8
Q969Q1	trim63
Q969Q5	rab24
Q969Q6	ppp2r3c
Q969R5	l3mbtl2
Q969S3	znf622
Q969S8	hdac10
Q969T4	ube2e3
Q969T9	wbp2
Q969U6	fbxw5
Q969V3-2	NCLN
Q969V4	tekt1
Q969X6	UTP4
Q969Y2	gtpbp3
Q969Z0	tbrg4
Q96A19	ccdc102a
Q96A56	tp53inp1
Q96A65	exoc4
Q96A72	MAGOHB
Q96A73-3	KIAA1191
Q96A83	Collagen-XXVI
Q96A84	emid1
Q96AA3	RFT1
Q96AA8	jakmip2
Q96AC1	FERMT2
Q96AE4	fubp1
Q96AH0	NABP1
Q96AP0	acd
Q96AQ9	fam131c
Q96AW1	vopp1
Q96AY2	eme1
Q96B21	tmem45b
Q96B26	exosc8
Q96B86	rgma
Q96B97	sh3kbp1
Q96BA8	creb3l1
Q96BD5	phf21a
Q96BD5-2	phf21a_2
Q96BD8	SKA1
Q96BI3	APH1A
Q96BK5	pinx1
Q96BK8	C8orf30A
Q96BQ3	TRIM43
Q96BR9	zbtb8a
Q96C03	mief2
Q96C24	sytl4
Q96C86	dcps
Q96CB8	INTS12
Q96CF2	chmp4c
Q96CG3	TIFA
Q96CG8	CTHRC1
Q96CM8	acsf2
Q96CN9	gcc1
Q96CS3	faf2
Q96CS7	plekhb2
Q96CV9	optn
Q96CW1	AP2M1
Q96CW5	tubgcp3
Q96CW9	NTNG2
Q96D09	GPRASP2
Q96D31	ORAI1
Q96D46	NMD3
Q96DA0	ZG16B
Q96DB2	hdac11
Q96DF8	dgcr14
Q96DI7	snrnp40
Q96DL1	NXPE2
Q96DN2	VWCE
Q96DR5	BPIFA2
Q96DR8	MUCL1
Q96DT6	atg4c
Q96DU3	SLAMF6
Q96DX4	rspry1
Q96DX5	ASB9
Q96DZ9	CMTM5
Q96DZ9-2	CMTM5_2
Q96E03	MAGEA2B
Q96E29	mterf3
Q96E35	zmynd19
Q96EB6	sirt1
Q96ED9	hook2
Q96EE3	seh1l
Q96EE4	ccdc126
Q96EK4	THAP11
Q96EK5	kif1bp
Q96EK6	gnpnat1
Q96EK7	fam120b
Q96EN8	mocos
Q96EN9	C19orf60
Q96EP0	RNF31
Q96EP0-3	RNF31_2
Q96EP1	CHFR
Q96EQ0	sgtb
Q96ER3	SAAL1
Q96ES7	sgf29
Q96EV8	DTNBP1
Q96EX3	wdr34
Q96EY1	DNAJA3_2
Q96F07	cyfip2
Q96F15	GIMAP5
Q96F24	nrbf2
Q96F31	nfkbie
Q96F46	IL17RA
Q96F86	edc3
Q96FA3	peli1
Q96FE5	LINGO1
Q96FE7	pik3ip1
Q96FF9	cdca5
Q96FJ2	dynll2
Q96FQ6	S100A16
Q96FT9	IFT43
Q96FV9	thoc1
Q96FW1	otub1
Q96FZ7	CHMP6
Q96G03	pgm2
Q96G23	CERS2
Q96G75	rmnd5b
Q96GC5	mrpl48
Q96GF1	rnf185
Q96GG9	dcun1d1
Q96GL3	irf3
Q96GL9	FAM163A
Q96GM5	smarcd1
Q96GM8	toe1
Q96GN5	CDCA7L
Q96GS6	ABHD17A
Q96GW7	bcan
Q96GX1	tctn2
Q96GX9	APIP
Q96GY3	lin37
Q96H12	MSANTD3
Q96H35	rbm18
Q96H55	myo19
Q96HA1	pom121
Q96HA7	tonsl
Q96HA8	WDYHV1
Q96HD1	CRELD1
Q96HE7	ero1a
Q96HF1	sfrp2
Q96HH0	robo3
Q96HH9	GRAMD2B
Q96HP0	dock6
Q96HP8	TMEM176A
Q96HR8	naf1
Q96HR9	reep6
Q96HW7	ints4
Q96I34	ppp1r16a
Q96I36	cox14
Q96I87	PKNOX1
Q96ID5	IGSF21
Q96II8	lrch3
Q96IJ6	GMPPA
Q96IP4	fam46a_2
Q96IT1	ZNF496
Q96IV0	ngly1
Q96IW7	sec22a_2
Q96IX5	USMG5
Q96IY1	nsl1
Q96IY4	cpb2
Q96IZ0	pawr
Q96IZ2	ADTRP
Q96IZ7	rsrc1
Q96J02	ITCH
Q96J02-2	ITCH_2
Q96J77	TPD52L3
Q96J88	epsti1
Q96JB5	cdk5rap3
Q96JB6	loxl4
Q96JB8	MPP4
Q96JG6	vps50
Q96JH7	vcpip1
Q96JJ7	tmx3
Q96JM2	ZNF462
Q96JM7	l3mbtl3
Q96JN0	lcor_2
Q96JN2-2	CCDC136
Q96JN8	neurl4
Q96JP5	ZFP91_2
Q96JP5-2	ZFP91
Q96JS3	PGBD1
Q96JX3	serac1
Q96JY6	pdlim2
Q96JZ2	hsh2d
Q96K17	btf3l4
Q96K37	slc35e1
Q96KB5	pbk
Q96KC8	dnajc1
Q96KG7	megf10
Q96KM6	ZNF512B
Q96KN1	FAM84B
Q96KQ4	ppp1r13b
Q96KQ7	ehmt2
Q96KR7	PHACTR3
Q96KS0	egln2
Q96L11	C7orf34
Q96L14	CEP170P1
Q96L34	MARK4_2
Q96L92	snx27
Q96LA8	prmt6
Q96LB8	PGLYRP4
Q96LB9	PGLYRP3
Q96LC7	SIGLEC10
Q96LC9	BMF
Q96LD8	senp8
Q96LI5	cnot6l
Q96LK0	CEP19
Q96LR4	FAM19A4
Q96LT7	C9orf72
Q96LX7	ccdc17
Q96LZ3	PPP3R2
Q96LZ7	rmdn2
Q96M32	ak7
Q96MC2	DRC1
Q96MC5	C16orf45
Q96MF7	nsmce2
Q96MK3	fam20a
Q96MS0	robo3_2
Q96MT8	cep63_2
Q96MT8-3	cep63
Q96MU7	ythdc1
Q96MU8	kremen1
Q96MX0	cmtm3
Q96N03	vstm2l
Q96N21	TEPSIN
Q96N46	ttc14
Q96N66	mboat7
Q96N67	dock7
Q96NB3	ZNF830
Q96NC0	zmat2
Q96NL3	ZNF599
Q96NL6	sclt1
Q96NR8	rdh12
Q96NT3	gucd1
Q96NW7	lrrc7
Q96NY8	NECTIN4
Q96NZ8	wfikkn1
Q96NZ9	PRAP1
Q96P20	NLRP3
Q96P48	ARAP1
Q96P63	SERPINB12
Q96P70	ipo9
Q96PB7	olfm3
Q96PC2	IP6K3
Q96PD4	IL17F
Q96PE1	adgra2
Q96PE7	mcee
Q96PJ5	FCRL4
Q96PK6	RBM14
Q96PL1	SCGB3A2
Q96PM5	rchy1
Q96PN8	TSSK3
Q96PQ0	sorcs2
Q96PU4	UHRF2
Q96PU5	nedd4l
Q96PV6-2	LENG8_2
Q96PX8	slitrk1
Q96PY6	nek1
Q96PZ7	csmd1
Q96Q15	smg1
Q96Q40	CDK15
Q96Q45	TMEM237
Q96Q77	cib3
Q96Q89	KIF20B
Q96QB1	dlc1
Q96QD8	SLC38A2
Q96QD9	FYTTD1
Q96QF0	rab3ip
Q96QF0-2	rab3ip_2
Q96QG7	mtmr9
Q96QK1	vps35
Q96QR1	SCGB3A1
Q96QS3	arx
Q96QT6	PHF12
Q96QV1	hhip
Q96R06	SPAG5
Q96RF0	SNX18
Q96RG2	pask
Q96RJ3	TNFRSF13C
Q96RK4	bbs4
Q96RL1	uimc1
Q96RR1	TWNK
Q96RR4	CAMKK2
Q96RS0	tgs1
Q96RS6	nudcd1
Q96RT1	Erbin
Q96RT1-2	Erbin_2
Q96RT1-5	Erbin_3
Q96RT7-2	TUBGCP6_2
Q96RT8	tubgcp5
Q96RU3	FNBP1
Q96RU7	trib3
Q96RY7	ift140
Q96S55	wrnip1
Q96S59	ranbp9
Q96S79	RASL10B
Q96S82	ubl7
Q96S94	CCNL2
Q96SB4	srpk1
Q96SB8	smc6
Q96SF7	tbx15
Q96SI1	KCTD15
Q96SL4	gpx7
Q96SM3	CPXM1
Q96SN7	orai2
Q96SQ5	ZNF587
Q96SQ9	CYP2S1
Q96ST2-3	iws1
Q96ST3	SIN3A
Q96ST8	cep89_2
Q96SY0	INTS14
Q96T49	ppp1r16b
Q96T51	rufy1
Q96T58	spen
Q96T60	pnkp
Q96T68	SETDB2
Q96T75	DSCR8
Q96T91	gpha2
Q96TC7	rmdn3
Q99062	csf3r
Q99075	hbegf
Q99081	tcf12
Q99217	AMELX
Q99259	gad1
Q99417	mycbp
Q99435	NELL2
Q99436	PSMB7
Q99437	atp6v0b
Q99439	cnn2
Q99447	pcyt2
Q99459	cdc5l
Q99460	psmd1
Q99466	NOTCH4
Q99467	cd180
Q99469	stac
Q99470	sdf2
Q99496	rnf2
Q99497	park7
Q99519	neu1
Q99523	SORT1
Q99536	vat1
Q99538	lgmn
Q99541	plin2
Q99543	dnajc2
Q99547	mphosph6_2
Q99549	mphosph8
Q99558	MAP3K14
Q99569	pkp4_2
Q99569-2	pkp4
Q99571	P2RX4
Q99572	p2rx7
Q99574	serpini1
Q99575	pop1
Q99584	S100A13
Q99590	scaf11
Q99598	tsnax
Q99607	ELF4
Q99608	NDN
Q99612	KLF6
Q99614	ttc1
Q99615	dnajc7
Q99616	CCL13
Q99623	phb2
Q99624	slc38a3
Q99627	COPS8
Q99640	pkmyt1
Q99643	sdhc
Q99645	epyc
Q99653	chp1
Q99661	kif2c
Q99665	il12rb2
Q99666	RGPD5
Q99676	ZNF184
Q99683	map3k5
Q99684	gfi1
Q99685	mgll
Q99689	fez1
Q99698	lyst
Q99700	atxn2
Q99708	rbbp8
Q99715	Collagen-XII
Q99717	smad5
Q99720	sigmar1
Q99726	SLC30A3
Q99727	TIMP4
Q99731	CCL19
Q99733	nap1l4
Q99750	MDFI
Q99755	pip5k1a
Q99758	ABCA3
Q99759	map3k3
Q99766	atp5s
Q99784	OLFM1_2
Q99784-5	OLFM1
Q99814	epas1
Q99816	tsg101
Q99832	cct7
Q99836	myd88
Q99848	ebna1bp2
Q99853	FOXB1
Q99856	arid3a
Q99873	prmt1
Q99895	CTRC
Q99909	SSX3
Q99933	bag1
Q99944	EGFL8
Q99959	pkp2
Q99961	SH3GL1
Q99962	sh3gl2
Q99963	sh3gl3_2
Q99969	RARRES2
Q99972	myoc
Q99986	vrk1
Q99988	GDF15
Q99996	akap9
Q99996-2	akap9_2
Q9BPU9	B9D2
Q9BPW4	APOL4
Q9BPW8	nipsnap1
Q9BPX4	eif2b2_3
Q9BPX5	arpc5l
Q9BPY3	fam118b
Q9BPZ3	PAIP2
Q9BPZ7	mapkap1
Q9BQ04	RBM4B
Q9BQ15	NABP2
Q9BQ16	spock3
Q9BQ51	PDCD1LG2
Q9BQ52	elac2
Q9BQ66	KRTAP4-12
Q9BQ70	tcf25
Q9BQ75	cmss1
Q9BQ83	SLX1A
Q9BQ90	klhdc3
Q9BQ95	ECSIT
Q9BQA1	wdr77
Q9BQB4	sost
Q9BQC3	dph2
Q9BQD3	kxd1
Q9BQE3	tuba1c
Q9BQE5	APOL2
Q9BQE9	bcl7b
Q9BQF6	SENP7
Q9BQI6	slf1
Q9BQN1	fam83c
Q9BQS6	HSPB9
Q9BQS8	FYCO1
Q9BQT9	clstn3
Q9BQY4	RHOXF2
Q9BQY9	DBNDD2
Q9BRD0	Bud13
Q9BRF8	cpped1
Q9BRG1	vps25
Q9BRI3	slc30a2
Q9BRK4	lzts2
Q9BRK5	SDF4
Q9BRP4	PAAF1
Q9BRP8	pym1
Q9BRQ5	ORAI3
Q9BRQ8	aifm2
Q9BRR6	adpgk
Q9BRR9	ARHGAP9
Q9BRT2	UQCC2
Q9BRU9	utp23
Q9BRV8	SIKE1
Q9BRX8	FAM213A
Q9BS26	erp44
Q9BS31	ZNF649
Q9BS86	ZPBP
Q9BSB4	atg101
Q9BSC4	nol10
Q9BSE2	TMEM79
Q9BSF8	BTBD10
Q9BSG0	PRADC1
Q9BSI4	tinf2_2
Q9BSJ2	tubgcp2
Q9BSJ8	ESYT1
Q9BSK4	fem1a
Q9BSL1	ubac1
Q9BSM1	pcgf1
Q9BSQ5	ccm2
Q9BSW2	CRACR2A
Q9BT40	INPP5K
Q9BT67	ndfip1
Q9BTC8	mta3
Q9BTE0	nat9
Q9BTE3	mcmbp
Q9BTE6	aarsd1_2
Q9BTE6-2	aarsd1
Q9BTL3	FAM103A1
Q9BTM9	URM1
Q9BTT4	MED10
Q9BTT6	lrrc1
Q9BTU6	PI4K2A
Q9BTY2	fuca2
Q9BU20	rsg1
Q9BU27	fam3a
Q9BU40	CHRDL1
Q9BU64	cenpo
Q9BU70	trmo
Q9BU76	Mmtag2
Q9BUB5-2	mknk1_2
Q9BUG6	ZSCAN5A
Q9BUH8	BEGAIN
Q9BUI4	polr3c
Q9BUJ2	hnrnpul1
Q9BUL5	PHF23
Q9BUL8	PDCD10
Q9BUL9	RPP25
Q9BUN1	MENT
Q9BUQ8	ddx23
Q9BUR5	APOO
Q9BUV0	rsrp1
Q9BUV8	c20orf24
Q9BUW7	C9orf16
Q9BUY5	ZNF426
Q9BUZ4	traf4
Q9BV10	alg12
Q9BV36	MLPH
Q9BV40	vamp8
Q9BV57	ADI1
Q9BV68	rnf126
Q9BV73	CEP250
Q9BV94	edem2
Q9BVC4	mlst8
Q9BVG8	kifc3
Q9BVG9	PTDSS2
Q9BVI0	PHF20
Q9BVI4	noc4l
Q9BVJ6	UTP14A
Q9BVJ7	DUSP23
Q9BVK6	tmed9
Q9BVK8	tmem147
Q9BVL2	nup58
Q9BVP2	gnl3_2
Q9BVP2-2	gnl3
Q9BVV2	FNDC11
Q9BVV7	TIMM21
Q9BW60	elovl1
Q9BW61	dda1
Q9BW83	ift27
Q9BW85	ccdc94
Q9BWF3	RBM4
Q9BWG4	ssbp4
Q9BWM7	sfxn3
Q9BWP8	colec11
Q9BWT3	papolg
Q9BWT6	mnd1
Q9BWU1	cdk19
Q9BWV1	boc
Q9BWW4	ssbp3
Q9BWW8	ApoL6_2
Q9BWW9	APOL5
Q9BX10	gtpbp2
Q9BX10-4	gtpbp2_2
Q9BX40	lsm14b
Q9BX66	sorbs1
Q9BX66-12	sorbs1_2
Q9BX67	jam3
Q9BX70	btbd2
Q9BXB5	osbpl10
Q9BXI6	TBC1D10A
Q9BXI9	C1QTNF6
Q9BXJ1	c1qtnf1_2
Q9BXJ1-2	c1qtnf1
Q9BXJ4	c1qtnf3
Q9BXJ5	c1qtnf2
Q9BXJ7	amn
Q9BXJ9	NAA15
Q9BXK1	KLF16
Q9BXL7	card11
Q9BXM7	pink1
Q9BXN2	CLEC7A
Q9BXP8	pappa2
Q9BXR5	TLR10
Q9BXR6	CFHR5
Q9BXW4	map1lc3c
Q9BXW6	osbpl1a
Q9BXY4	rspo3
Q9BXY8	BEX2
Q9BY11	pacsin1
Q9BY21	GPR87
Q9BY27	DGCR6L
Q9BY41	hdac8
Q9BY43	CHMP4A
Q9BY44	eif2a_2
Q9BY44-2	eif2a
Q9BY76	angptl4
Q9BY77	poldip3
Q9BY84	dusp16
Q9BYD2	mrpl9
Q9BYD6	mrpl1
Q9BYE7	pcgf6
Q9BYF1	ace2
Q9BYG5	pard6b
Q9BYJ1	ALOXE3
Q9BYM8	rbck1
Q9BYN0	srxn1
Q9BYN8	mrps26
Q9BYQ2	KRTAP9-4
Q9BYQ4	KRTAP9-2
Q9BYQ6	KRTAP4-11
Q9BYR5	KRTAP4-2
Q9BYR7	Krtap3-2
Q9BYT8	nln
Q9BYV2	trim54
Q9BYX2	tbc1d2
Q9BYX4	ifih1
Q9BYX7	POTEKP
Q9BYZ6	RHOBTB2
Q9BZ11	ADAM33
Q9BZ11-2	ADAM33_2
Q9BZ71	pitpnm3
Q9BZ95	NSD3
Q9BZC7	abca2
Q9BZD4	nuf2
Q9BZD6	prrg4
Q9BZE4	gtpbp4
Q9BZE9	aspscr1
Q9BZF9	UACA
Q9BZK3	NACAP1
Q9BZK7	tbl1xr1
Q9BZL1	UBL5
Q9BZL3	SMIM3
Q9BZL4	ppp1r12c
Q9BZL6	prkd2
Q9BZM1	pla2g12a
Q9BZM5	ULBP2
Q9BZS1	foxp3
Q9BZW7	tsga10
Q9BZW8	CD244
Q9C000	NLRP1
Q9C005	dpy30
Q9C009	foxq1
Q9C010	pkib
Q9C086	ino80b
Q9C093	spef2
Q9C0A0	CNTNAP4
Q9C0C2	tnks1bp1
Q9C0C4	sema4c
Q9C0C7	AMBRA1
Q9C0C9	ube2o
Q9C0E4	GRIP2
Q9C0F1	cep44
Q9C0G0	znf407
Q9C0H5-2	arhgap39_2
Q9C0J1	B3GNT4
Q9C0K7	STRADB
Q9GZM6	OR8D2
Q9GZM7	tinagl1_2
Q9GZM7-3	tinagl1
Q9GZM8	NDEL1
Q9GZN1	actr6
Q9GZP1	NRSN2
Q9GZQ3	commd5
Q9GZQ4	NMUR2
Q9GZR7	ddx24
Q9GZT6	ccdc90b
Q9GZT8	nif3l1
Q9GZT9	egln1
Q9GZU8	fam192a
Q9GZV5	wwtr1
Q9GZV9	fgf23
Q9GZX6	il22
Q9GZX9	TWSG1
Q9GZZ8	LACRT
Q9GZZ9	uba5
Q9H013	ADAM19
Q9H061	tmem126a
Q9H079	katnbl1
Q9H081	mis12
Q9H0A6	rnf32
Q9H0B6	klc2
Q9H0B8	crispld2
Q9H0C5	BTBD1
Q9H0C8	ilkap
Q9H0D6	xrn2
Q9H0E2	tollip
Q9H0F6	SHARPIN
Q9H0H5	racgap1
Q9H0K1	SIK2
Q9H0N0	Rab6C
Q9H0Q3	fxyd6
Q9H0R3	tmem222
Q9H0R6	QRSL1
Q9H0S4	ddx47
Q9H0T7	RAB17
Q9H0U6	mrpl18
Q9H0Y0	atg10
Q9H106	SIRPD
Q9H115	NAPB
Q9H160	ing2
Q9H165	bcl11a
Q9H171	ZBP1
Q9H173	SIL1
Q9H190	sdcbp2
Q9H1B7	irf2bpl
Q9H1C4	unc93b1
Q9H1D9	polr3f
Q9H1E5	tmx4
Q9H1H9	kif13a
Q9H1I8	ascc2
Q9H1J7	wnt5b
Q9H1M0	NUP62CL
Q9H1M4	DEFB127
Q9H1R2-3	DUSP15
Q9H1Y0	Atg5
Q9H204	med28
Q9H213	MAGEH1
Q9H221	abcg8
Q9H223	ehd4
Q9H239	mmp28
Q9H251-9	cdh23
Q9H257	card9
Q9H269	vps16
Q9H293	IL25
Q9H2E6	sema6a
Q9H2F3	hsd3b7
Q9H2H8	ppil3
Q9H2H9	SLC38A1
Q9H2J4	pdcl3
Q9H2K2	TNKS2
Q9H2P0	adnp
Q9H2R5	KLK15
Q9H2S1	KCNN2
Q9H2W6	mrpl46
Q9H2X0	CHRD
Q9H2X3	CLEC4M
Q9H2X6	hipk2
Q9H324	adamts10
Q9H329	epb41l4b_2
Q9H329-2	epb41l4b
Q9H330	tmem245
Q9H3D4	tp63
Q9H3M7	txnip
Q9H3N1	tmx1
Q9H3R2	MUC13
Q9H3S1	SEMA4A
Q9H3S5	PIGM
Q9H3S7	PTPN23
Q9H3U7	smoc2
Q9H410	dsn1
Q9H422	HIPK3
Q9H444	chmp4b
Q9H461	Fzd8
Q9H490	pigu
Q9H4A3	wnk1_2
Q9H4A4	rnpep
Q9H4A6	golph3
Q9H4B6	sav1
Q9H4E5	rhoj
Q9H4F1	st6galnac4
Q9H4F8	smoc1
Q9H4G1	CST9L
Q9H4K1	ribc2
Q9H4L4	SENP3
Q9H4M9	ehd1
Q9H4P4	rnf41
Q9H4T2	ZSCAN16
Q9H501	esf1
Q9H582	ZNF644
Q9H583	heatr1
Q9H596	DUSP21
Q9H5I1	SUV39H2
Q9H5J8	TAF1D
Q9H5V8	CDCP1
Q9H5Z6	fam124b
Q9H665	igflr1
Q9H6E4	CCDC134
Q9H6F5	CCDC86
Q9H6J7	C11orf49
Q9H6L5	retreg1
Q9H6Q3	sla2
Q9H6R0	dhx33
Q9H6R3	acss3
Q9H6R7	wdcp
Q9H6S1	azi2
Q9H6S3	EPS8L2
Q9H6U6	bcas3_2
Q9H6U6-2	bcas3
Q9H6X2	ANTXR1
Q9H6X2-2	ANTXR1_2
Q9H6Y7	rnf167
Q9H6Z4	ranbp3
Q9H741	C12orf49
Q9H788	sh2d4a_2
Q9H788-2	sh2d4a
Q9H7B2	rpf2
Q9H7D0	dock5
Q9H7D7	WDR26
Q9H7E9	C8orf33
Q9H7L2	KIR3DX1
Q9H7L9	suds3
Q9H7N4	scaf1
Q9H7U1	CCSER2
Q9H7Z7	PTGES2
Q9H814	phax
Q9H832	ube2z
Q9H840	gemin7
Q9H845	acad9
Q9H857	nt5dc2
Q9H871	RMND5A
Q9H875	prkrip1
Q9H8E8	KAT14
Q9H8H0	nol11
Q9H8H3	mettl7a
Q9H8L6	MMRN2
Q9H8S9	mob1a
Q9H8T0	aktip
Q9H8U3	zfand3
Q9H8V3	ect2
Q9H8W4	plekhf2
Q9H8Y8	gorasp2
Q9H936	slc25a22
Q9H972	C14orf93
Q9H974	QTRT2
Q9H9A5	cnot10
Q9H9D4	znf408
Q9H9F9	actr5
Q9H9G7	AGO3
Q9H9J2	mrpl44
Q9H9L4	kansl2
Q9H9Q2	COPS7B
Q9H9T3	elp3
Q9H9Z2	lin28a
Q9HA38	zmat3
Q9HA47	uck1
Q9HA65	tbc1d17
Q9HA77	cars2
Q9HAR2	ADGRL3
Q9HAT0	ROPN1
Q9HAT1	LMAN1L
Q9HAT8	peli2
Q9HAU0	plekha5_2
Q9HAU4	SMURF2
Q9HAU5	upf2
Q9HAV4	XPO5
Q9HAV5	EDA2R
Q9HAW0	brf2
Q9HAW4	CLSPN
Q9HB03	ELOVL3
Q9HB40	scpep1
Q9HB58	SP110_2
Q9HB63	ntn4
Q9HB63-3	ntn4_2
Q9HB65	ELL3
Q9HB71	cacybp
Q9HB75	pidd1
Q9HB90	rragc
Q9HBA0	trpv4_2
Q9HBA0-2	trpv4_3
Q9HBA0-4	trpv4
Q9HBE4	il21
Q9HBG6	IFT122
Q9HBH7	BEX1
Q9HBH9	MKNK2
Q9HBJ7	USP29
Q9HBL0	tns1
Q9HBL7	plgrkt
Q9HBM1	spc25
Q9HBW1	LRRC4
Q9HC07	tmem165
Q9HC16	APOBEC3G
Q9HC21	slc25a19
Q9HC24	tmbim4
Q9HC29	nod2
Q9HC44	gpbp1l1
Q9HC52	cbx8
Q9HC57	wfdc1
Q9HC73	crlf2
Q9HC77	cenpj
Q9HC98	nek6_2
Q9HCB6	SPON1
Q9HCD5	ncoa5
Q9HCE1	MOV10
Q9HCE6	arhgef10l
Q9HCE7	smurf1
Q9HCE7-2	smurf1_2
Q9HCG1	ZNF160
Q9HCG7	gba2
Q9HCJ0	TNRC6C
Q9HCJ2	lrrc4c
Q9HCK4	robo2
Q9HCK5	AGO4
Q9HCM3	KIAA1549
Q9HCM9	TRIM39
Q9HCQ7	npvf
Q9HCS2	CYP4F12
Q9HCS7	xab2
Q9HCU0	CD248
Q9HCU4	celsr2
Q9HCU9	brms1
Q9HCY8	S100A14
Q9HD26	gopc
Q9HD36	bcl2l10
Q9HD43	ptprh
Q9HD45	tm9sf3
Q9HD67	myo10
Q9HD90	neurod4
Q9HDC5	JPH1
Q9HDC9	apmap
Q9NNW5	wdr6
Q9NNX1	TUFT1
Q9NNX6	cd209
Q9NP31	SH2D2A
Q9NP55	BPIFA1
Q9NP58	abcb6
Q9NP59	slc40a1
Q9NP61	arfgap3
Q9NP70	AMBN
Q9NP72	RAB18
Q9NP77	SSU72
Q9NP84	TNFRSF12A
Q9NP91	SLC6A20
Q9NP97	dynlrb1
Q9NP98	MYOZ1
Q9NP99	TREM1
Q9NPB6	pard6a
Q9NPB9	ACKR4
Q9NPC6	myoz2
Q9NPD3	exosc4
Q9NPE2	ngrn
Q9NPF5	dmap1
Q9NPF7	il23A
Q9NPH2	ISYNA1
Q9NPH3	IL1RAP
Q9NPH9	il26
Q9NPI1	brd7
Q9NPI5	nmrk2
Q9NPI8	fancf
Q9NPJ6	med4
Q9NPL8	timmdc1
Q9NPP4	NLRC4
Q9NPQ8-4	ric8a
Q9NPY3	CD93
Q9NQ11	atp13a2
Q9NQ29	luc7l
Q9NQ38	SPINK5
Q9NQ50	mrpl40
Q9NQ76	MEPE
Q9NQ79	crtac1
Q9NQ84	gprc5c
Q9NQ88	TIGAR
Q9NQ92	COPRS
Q9NQB0	tcf7l2
Q9NQC3	rtn4
Q9NQC7	CYLD
Q9NQG6	mief1
Q9NQR4	nit2
Q9NQS1	aven
Q9NQS3	NECTIN3
Q9NQT4	exosc5
Q9NQT8	KIF13B
Q9NQU5	pak6
Q9NQW6	anln
Q9NQX4	myo5c
Q9NR09	birc6
Q9NR11	ZNF302
Q9NR12	pdlim7
Q9NR21	PARP11
Q9NR28	diablo
Q9NR45	nans
Q9NR46	SH3GLB2
Q9NR50	eif2b3
Q9NR56	mbnl1
Q9NR96	tlr9
Q9NR97	TLR8
Q9NR99	Mxra5
Q9NRA1	pdgfc
Q9NRA8	eif4enif1
Q9NRD5	pick1
Q9NRE2	tshz2
Q9NRF8	CTPS2
Q9NRG1	prtfdc1
Q9NRG4	SMYD2
Q9NRH1	YAE1D1
Q9NRI5	disc1
Q9NRJ3	CCL28
Q9NRL3	strn4
Q9NRM1	ENAM
Q9NRM6	IL17RB
Q9NRM7	lats2
Q9NRN5	OLFML3
Q9NRP0	ostc
Q9NRQ2	PLSCR4
Q9NRR4	DROSHA
Q9NRR5	ubqln4
Q9NRS4-3	tmprss4
Q9NRV9	HEBP1
Q9NRW1	rab6b
Q9NRW3	APOBEC3C
Q9NRW4	DUSP22
Q9NRX1	pno1
Q9NRX3	NDUFA4L2
Q9NS15	ltbp3
Q9NS37	crebzf
Q9NS69	tomm22
Q9NS71	GKN1
Q9NS73-5	mbip
Q9NS75	CYSLTR2
Q9NS91	rad18
Q9NSA1	fgf21
Q9NSA3	ctnnbip1
Q9NSB4	KRT82
Q9NSB8	homer2
Q9NSC5	homer3
Q9NSE2	cish
Q9NSI8	samsn1
Q9NSK0	klc4
Q9NT22	emilin3
Q9NT62	ATG3
Q9NTG7	sirt3
Q9NTI5	pds5b
Q9NTI5-2	pds5b_2
Q9NTJ3	smc4
Q9NTJ5	SACM1L
Q9NTK5	ola1
Q9NTM9	cutc
Q9NTN9	SEMA4G
Q9NTN9-3	SEMA4G_2
Q9NTU7	cbln4
Q9NTW7	zfp64
Q9NU22	mdn1
Q9NUL5	Ryden
Q9NUP1	bloc1s4
Q9NUQ6	SPATS2L_2
Q9NUQ8	ABCF3
Q9NUQ9	fam49b
Q9NUX5	pot1
Q9NV70	exoc1
Q9NV88-2	ints9
Q9NVC6	med17
Q9NVD3	setd4
Q9NVD7	parva
Q9NVF7	fbxo28
Q9NVH1	dnajc11
Q9NVI1	Fanci
Q9NVI7	ATAD3A
Q9NVJ2	ARL8B
Q9NVM4	prmt7
Q9NVM9	INTS13
Q9NVN8	gnl3l
Q9NVP2	ASF1B
Q9NVR2	ints10
Q9NVS9	pnpo
Q9NVU0	polr3e
Q9NVV9	thap1
Q9NVW2	rlim
Q9NVX0	HAUS2
Q9NW08	polr3b
Q9NW38	fancl
Q9NW61	plekhj1
Q9NWA0	MED9
Q9NWB1	rbfox1
Q9NWD8	tmem248
Q9NWF9	rnf216
Q9NWH9	sltm
Q9NWQ4	GPATCH2L
Q9NWS0	pih1d1
Q9NWS9	ZNF446
Q9NWS9-2	ZNF446_2
Q9NWT6	hif1an
Q9NWT8	aurkaip1
Q9NWU2	GID8
Q9NWV4	C1orf123
Q9NWV8	babam1
Q9NWZ3	irak4
Q9NX02	NLRP2
Q9NX08	commd8
Q9NX14	ndufb11
Q9NX36	dnajc28
Q9NX55	hypk
Q9NX58	lyar
Q9NX61	tmem161a
Q9NX63	chchd3
Q9NX65	ZSCAN32_2
Q9NX70	med29
Q9NX76	cmtm6
Q9NXB0	mks1
Q9NXC2	GFOD1
Q9NXE8	cwc25
Q9NXG0-2	cntln
Q9NXR7	babam2
Q9NXU5	ARL15
Q9NXV6	cdkn2aip
Q9NY12	gar1
Q9NY15	stab1
Q9NY27	PPP4R2
Q9NY47	cacna2d2
Q9NY59	smpd3
Q9NY61	aatf
Q9NY93	ddx56
Q9NYA1	SPHK1_2
Q9NYA1-2	SPHK1
Q9NYA4	mtmr4
Q9NYB0	terf2ip
Q9NYB5	slco1c1
Q9NYB9	ABI2
Q9NYF8	BCLAF1
Q9NYJ8	tab2
Q9NYK1	tlr7
Q9NYL2	map3k20
Q9NYL5	cyp39a1
Q9NYL9	TMOD3
Q9NYQ6	CELSR1
Q9NYQ7	celsr3
Q9NYS7	wsb2
Q9NYU2	uggt1_2
Q9NYU2-2	uggt1
Q9NYV4	cdk12
Q9NYY1	IL20
Q9NYY3	plk2
Q9NYZ3	gtse1
Q9NYZ4	SIGLEC8
Q9NZ08	ERAP1
Q9NZ20	PLA2G3
Q9NZ23	YA61
Q9NZ32	actr10
Q9NZ42	psenen
Q9NZ43	use1
Q9NZ71	RTEL1
Q9NZ81	prr13
Q9NZA1	clic5
Q9NZC2	TREM2
Q9NZC4	ehf
Q9NZC7	wwox
Q9NZD2	GLTP
Q9NZD4	AHSP
Q9NZD8	spg21
Q9NZF1	PLAC8
Q9NZG7	ninj2
Q9NZH0	GPRC5B
Q9NZH6	IL37
Q9NZI8	igf2bp1
Q9NZJ4	sacs
Q9NZJ5	eif2ak3
Q9NZJ7-2	MTCH1
Q9NZM1-6	myof_2
Q9NZM3	ITSN2_2
Q9NZN1	IL1RAPL1
Q9NZN4	ehd2
Q9NZN5-2	ARHGEF12
Q9NZN8	cnot2
Q9NZQ3	nckipsd
Q9NZQ9	tmod4
Q9NZT1	CALML5
Q9NZU0	flrt3
Q9NZU1	FLRT1
Q9NZU5	lmcd1
Q9NZU7	cabp1_2
Q9NZU7-2	cabp1
Q9NZV1	crim1
Q9NZW4	DSPP
Q9NZZ3	CHMP5
Q9P000	commd9
Q9P013	cwc15
Q9P021	cript
Q9P031	CCDC59
Q9P035	hacd3
Q9P0G3	KLK14
Q9P0J0	ndufa13
Q9P0J7	kcmf1
Q9P0K1	adam22
Q9P0K1-3	adam22_2
Q9P0K8	foxj2
Q9P0L0	vapa
Q9P0L1	ZKSCAN7
Q9P0L2	mark1
Q9P0N5	TMEM216
Q9P0U4	cxxc1
Q9P0V3	sh3bp4
Q9P0W5	schip1
Q9P121	ntm
Q9P126	CLEC1B
Q9P1U0	znrd1
Q9P1U1	actr3b
Q9P1Y5	camsap3
Q9P1Z9	ccdc180
Q9P202	WHRN
Q9P206	KIAA1522
Q9P209	cep72
Q9P218	Collagen-XX_2
Q9P218-2	Collagen-XX
Q9P232	CNTN3
Q9P243	zfat
Q9P244	lrfn1
Q9P253	vps18
Q9P258	rcc2_2
Q9P270	slain2
Q9P275	usp36
Q9P283	sema5b
Q9P286	PAK5
Q9P287	bccip
Q9P289	stk26
Q9P2B2	ptgfrn
Q9P2B7	cfap97
Q9P2D0	ibtk_2
Q9P2D1	chd7
Q9P2D8	UNC79
Q9P2E7	pcdh10
Q9P2F8	sipa1l2
Q9P2H0	cep126
Q9P2K1	cc2d2a
Q9P2K2	txndc16
Q9P2K3	rcor3
Q9P2K5	myef2
Q9P2L0	wdr35
Q9P2M4	tbc1d14
Q9P2N4	adamts9
Q9P2N5	rbm27
Q9P2N6	kansl3
Q9P2R3	ankfy1
Q9P2R6	RERE
Q9P2R7	sucla2
Q9P2S5	wrap73
Q9P2W1	psmc3ip
Q9P2W7	b3gat1
Q9P2X3	impact
Q9P2Y5	uvrag
Q9UBB4	atxn10
Q9UBC1	nfkbil1
Q9UBC3	dnmt3b
Q9UBD0	HSFX1
Q9UBD3	XCL2
Q9UBD5	orc3_2
Q9UBD5-2	orc3
Q9UBD9	clcf1
Q9UBE0	SAE1
Q9UBE8	nlk
Q9UBF1	MAGEC2
Q9UBF6	rnf7
Q9UBG3	CRNN
Q9UBH0	IL36RN
Q9UBI1	commd3
Q9UBK9	uxt
Q9UBL3	ash2l_2
Q9UBL3-2	ash2l
Q9UBL6	cpne7
Q9UBM4	optc
Q9UBN6	TNFRSF10D
Q9UBN7	hdac6
Q9UBP0-3	SPAST
Q9UBP4	dkk3
Q9UBP5	hey2
Q9UBQ0	vps29
Q9UBR2	ctsz
Q9UBS0	RPS6KB2
Q9UBS3	DNAJB9
Q9UBS4	dnajb11
Q9UBS5	gabbr1
Q9UBS5-2	gabbr1_2
Q9UBS9	suco
Q9UBT6	polk
Q9UBT7	ctnnal1
Q9UBU2	dkk2
Q9UBU3	ghrl
Q9UBU8	morf4l1
Q9UBU9	nxf1
Q9UBV2	sel1l
Q9UBV4	wnt16
Q9UBV7	b4galt7
Q9UBV8	PEF1
Q9UBW5	bin2
Q9UBW7	zmym2
Q9UBW8	cops7a
Q9UBX2	DUX4
Q9UBX5	fbln5
Q9UBY9	hspb7
Q9UBZ4	apex2
Q9UDV6	ZNF212
Q9UDW1	uqcr10
Q9UDY2	TJP2
Q9UDY4	dnajb4
Q9UDY8	malt1
Q9UER7	daxx
Q9UET6	ftsj1
Q9UEU0	vti1b
Q9UEW3	marco
Q9UEW8	stk39
Q9UFF9	cnot8
Q9UFN0	nipsnap3a
Q9UG63	abcf2
Q9UGJ0	prkag2
Q9UGJ1	tubgcp4_2
Q9UGL1	KDM5B
Q9UGL9	CRCT1
Q9UGM3	DMBT1
Q9UGN4	CD300A
Q9UGN5	parp2
Q9UGT4	SUSD2
Q9UH99	SUN2
Q9UHA2	ss18l2
Q9UHA4	lamtor3
Q9UHB6	lima1_2
Q9UHB6-4	lima1
Q9UHB7	aff4
Q9UHC1	mlh3
Q9UHC6	CNTNAP2
Q9UHD0	IL19
Q9UHD1	chordc1
Q9UHD2	tbk1
Q9UHD9	UBQLN2
Q9UHF0	TAC3
Q9UHF1	egfl7
Q9UHF4	il20ra
Q9UHF5	IL17B
Q9UHF7	trps1
Q9UHG2	PCSK1N
Q9UHI7	slc23a1
Q9UHI8	adamts1
Q9UHL4	dpp7
Q9UHN1	polg2
Q9UHP3	usp25
Q9UHP7	CLEC2D
Q9UHP7-3	CLEC2D_2
Q9UHQ1	narf
Q9UHQ7	TCEAL9
Q9UHR4	baiap2l1
Q9UHV2	SERTAD1_2
Q9UHV7	MED13
Q9UHV8	LGALS13
Q9UHX1	PUF60
Q9UHY7	ENOPH1
Q9UI08	EVL
Q9UI09	ndufa12
Q9UI14	rabac1
Q9UI26	ipo11
Q9UI36-2	DACH1
Q9UI38	PRSS50
Q9UI95	MAD2L2
Q9UID3	vps51
Q9UIG0	baz1b
Q9UII6	DUSP13
Q9UIM3	fkbpl
Q9UIQ6	lnpep
Q9UIV1	cnot7
Q9UIW2	plxna1
Q9UJ70	nagk
Q9UJ72	ANXA10
Q9UJJ9	gnptg
Q9UJM3	errfi1
Q9UJU6	dbnl
Q9UJV3-2	mid2
Q9UJV9	ddx41
Q9UJW2	TINAG
Q9UJW3	DNMT3L
Q9UJW9	SERTAD3
Q9UJX0	OSGIN1
Q9UJX2	Cdc23
Q9UJX3	anapc7
Q9UJX4	anapc5
Q9UJX5	anapc4
Q9UJY1	hspb8
Q9UJY4	GGA2
Q9UJY5	gga1
Q9UK17	kcnd3
Q9UK32	RPS6KA6
Q9UK41	vps28
Q9UK53	ing1
Q9UK55	SERPINA10
Q9UK76	JPT1
Q9UK80	usp21
Q9UK85	DKKL1
Q9UKB1	fbxw11
Q9UKC9	fbxl2
Q9UKE5	TNIK
Q9UKF5	ADAM29
Q9UKF6	cpsf3
Q9UKF7	PITPNC1
Q9UKG1	appl1
Q9UKJ1	PILRA
Q9UKJ3	gpatch8
Q9UKL0	rcor1
Q9UKN1	MUC12
Q9UKN7	MYO15A
Q9UKP3	ITGB1BP2
Q9UKP4	ADAMTS7
Q9UKP5	adamts6
Q9UKQ9	KLK9
Q9UKR3	KLK13
Q9UKR5	C14orf1
Q9UKS6	pacsin3
Q9UKT9	IKZF3
Q9UKU7	acad8
Q9UKU9	angptl2
Q9UKV0	HDAC9
Q9UKV3	ACIN1
Q9UKV5	amfr
Q9UKV8	AGO2
Q9UKW4	VAV3
Q9UKW6	ELF5
Q9UKX3	MYH13
Q9UKY1	ZHX1
Q9UKZ1	cnot11
Q9UL03-3	ints6
Q9UL18	ago1
Q9UL32	BOK
Q9UL33	trappc2l
Q9UL42	PNMA2
Q9UL45	bloc1s6
Q9UL63	mkln1
Q9ULA0	dnpep
Q9ULB1	NRXN1
Q9ULB5	cdh7
Q9ULC6	PADI1
Q9ULD2	MTUS1_2
Q9ULD2-2	MTUS1
Q9ULD4	BRPF3
Q9ULD6-2	intu
Q9ULE6	PALD1
Q9ULH1	asap1
Q9ULI3	heg1
Q9ULJ1	ODF2L
Q9ULJ8	ppp1r9a
Q9ULK4	med23
Q9ULL4	plxnb3
Q9ULL5-3	PRR12
Q9ULM6	cnot6
Q9ULP0	ndrg4
Q9ULT6	znrf3
Q9ULT8	hectd1
Q9ULU4	zmynd8_2
Q9ULU4-12	zmynd8
Q9ULV0	myo5b
Q9ULV1	fzd4
Q9ULV4	coro1c
Q9ULW2	fzd10
Q9ULW8	PADI3
Q9ULX9	maff
Q9ULZ1	apln
Q9ULZ2	STAP1
Q9ULZ3	pycard
Q9UM22	epdr1
Q9UM47	notch3
Q9UM54-6	MYO6_2
Q9UM73	alk
Q9UM82	spata2
Q9UMF0	ICAM5
Q9UMN6	KMT2B
Q9UMW8	usp18
Q9UMX0	UBQLN1
Q9UMX0-2	UBQLN1_2
Q9UMX1	sufu
Q9UN19	dapp1
Q9UN37	vps4a
Q9UN73	PCDHA6
Q9UN74	PCDHA4
Q9UN81	L1RE1
Q9UNA0	ADAMTS5
Q9UNA1	ARHGAP26
Q9UNE0	edar
Q9UNE7	stub1
Q9UNF0	pacsin2
Q9UNF1	MAGED2
Q9UNG2	tnfsf18
Q9UNK0	stx8
Q9UNL2	ssr3
Q9UNL4	ing4
Q9UNM6	psmd13
Q9UNN5	faf1
Q9UNN8	PROCR
Q9UNP9	ppie
Q9UNS1	timeless
Q9UNX4	wdr3
Q9UNY4	ttf2
Q9UNY5	ZNF232
Q9UNZ2	nsfl1c
Q9UP38	fzd1
Q9UP52	tfr2
Q9UPE1	srpk3
Q9UPM8	ap4e1
Q9UPN3-4	MACF1
Q9UPN4	cep131
Q9UPN7	PPP6R1
Q9UPN9	trim33
Q9UPP1	PHF8
Q9UPP1-2	PHF8_2
Q9UPQ8	dolk
Q9UPQ9	tnrc6b
Q9UPR0	plcl2
Q9UPT5	exoc7
Q9UPT9	usp22
Q9UPU3	SORCS3
Q9UPV0	CEP164_2
Q9UPV0-2	CEP164
Q9UPW5	agtpbp1
Q9UPY3	dicer1
Q9UPY8	MAPRE3
Q9UPZ3-2	hps5
Q9UPZ6	thsd7a
Q9UPZ9	ICK
Q9UQ07	MOK
Q9UQ13	SHOC2
Q9UQ80	PA2G4
Q9UQ84	exo1
Q9UQ88	CDK11A
Q9UQB3	CTNND2
Q9UQB8	BAIAP2
Q9UQE7	smc3
Q9UQF2	mapk8ip1
Q9UQK1	PPP1R3C
Q9UQM7	camk2a
Q9UQQ2	sh2b3
Q9UQV4	LAMP3
Q9WJR5	ERVK-19
Q9Y215	colq
Q9Y223	gne
Q9Y230	RUVBL2
Q9Y232	cdyl
Q9Y234	lipt1
Q9Y237	pin4
Q9Y239	nod1
Q9Y241	higd1a
Q9Y244	pomp
Q9Y247	FAM50B
Q9Y251-3	hpse
Q9Y253	polh
Q9Y258	CCL26
Q9Y261	foxa2
Q9Y263	plaa
Q9Y264	angpt4
Q9Y265	RUVBL1
Q9Y266	nudc
Q9Y275	tnfsf13b
Q9Y277	vdac3
Q9Y279	VSIG4_2
Q9Y279-2	VSIG4
Q9Y281	CFL2
Q9Y285	farsa
Q9Y286	SIGLEC7
Q9Y287	itm2b
Q9Y289	slc5a6
Q9Y294	ASF1A
Q9Y296	trappc4
Q9Y297	BTRC
Q9Y2A7	nckap1
Q9Y2C9	TLR6
Q9Y2D8	ssx2ip
Q9Y2F5	ice1
Q9Y2F9	btbd3
Q9Y2G2	CARD8
Q9Y2H1	stk38l
Q9Y2H6-2	fndc3a_2
Q9Y2H8	ZNF510
Q9Y2H9	MAST1
Q9Y2I2	NTNG1
Q9Y2I6	ninl
Q9Y2J0	RPH3A
Q9Y2J2	EPB41L3
Q9Y2J4	AMOTL2
Q9Y2J4-4	AMOTL2_2
Q9Y2J8	padi2
Q9Y2K6	usp20
Q9Y2K7	KDM2A
Q9Y2L1	dis3
Q9Y2L9	lrch1
Q9Y2M0	fan1
Q9Y2P0	ZNF835
Q9Y2Q3	gstk1
Q9Y2R2	ptpn22
Q9Y2S7	poldip2
Q9Y2T1	axin2
Q9Y2T2	ap3m1
Q9Y2T3	gda
Q9Y2T4-3	ppp2r2c_2
Q9Y2U8	lemd3
Q9Y2V2	carhsp1
Q9Y2V7	cog6
Q9Y2W1	THRAP3
Q9Y2X0	med16
Q9Y2X3	nop58
Q9Y2X9	ZNF281
Q9Y2Z0	SUGT1_2
Q9Y315	dera
Q9Y316	memo1
Q9Y320	TMX2
Q9Y328	Nsg2
Q9Y333	LSM2
Q9Y336	SIGLEC9
Q9Y337	KLK5
Q9Y342	pllp
Q9Y371	sh3glb1
Q9Y375	ndufaf1
Q9Y376	cab39
Q9Y383	LUC7L2
Q9Y3A2	UTP11
Q9Y3A3	mob4
Q9Y3A6	tmed5
Q9Y3B2	exosc1
Q9Y3C0	WASHC3
Q9Y3C5	rnf11
Q9Y3C7	MED31
Q9Y3D6	FIS1
Q9Y3D8	AK6
Q9Y3E0	golt1b
Q9Y3F4	strap
Q9Y3I1	fbxo7
Q9Y3M8	STARD13
Q9Y3M9	ZNF337
Q9Y3Q8	TSC22D4
Q9Y3T6	r3hcc1
Q9Y3T9	noc2l
Q9Y3Z3	samhd1
Q9Y463	dyrk1b
Q9Y466	nr2e1
Q9Y467	sall2
Q9Y468	l3mbtl1
Q9Y478	prkab1
Q9Y490	tln1
Q9Y496	kif3a_2
Q9Y4A5	trrap
Q9Y4B5	mtcl1
Q9Y4B5-4	mtcl1_2
Q9Y4B6-2	DCAF1_2
Q9Y4C2	TCAF1
Q9Y4D1	DAAM1
Q9Y4D7	plxnd1
Q9Y4E8	USP15
Q9Y4F9	RIPOR2
Q9Y4G2	plekhm1
Q9Y4H4	GPSM3
Q9Y4K0	LOXL2
Q9Y4K3	TRAF6
Q9Y4L1	hyou1
Q9Y4P8	wipi2
Q9Y4R8	telo2
Q9Y4W2-2	las1l
Q9Y4W6	afg3l2
Q9Y4X0	AMMECR1
Q9Y4X3	CCL27
Q9Y512	samm50
Q9Y561	lrp12
Q9Y572	ripk3
Q9Y573-2	ipp
Q9Y580	rbm7
Q9Y587	ap4s1
Q9Y5A6	ZSCAN21
Q9Y5B0	ctdp1
Q9Y5B8	nme7
Q9Y5B9	supt16h
Q9Y5C1	angptl3
Q9Y5E8	PCDHB15
Q9Y5I2	Pcdha10
Q9Y5I3	PCDHA1
Q9Y5J1	utp18
Q9Y5J5	PHLDA3
Q9Y5J9	timm8b
Q9Y5K2	KLK4
Q9Y5K5	uchl5_2
Q9Y5K6	cd2ap
Q9Y5L0	tnpo3
Q9Y5L2	HILPDA
Q9Y5L3	ENTPD2
Q9Y5L4	timm13
Q9Y5M8	srprb
Q9Y5P4	COL4A3BP
Q9Y5R8	trappc1
Q9Y5S2	cdc42bpb
Q9Y5S9	RBM8A
Q9Y5U2	tssc4
Q9Y5U5	tnfrsf18
Q9Y5U8	mpc1
Q9Y5V3	MAGED1
Q9Y5W5	wif1
Q9Y5X1	snx9
Q9Y5X9	lipg
Q9Y5Y6	st14
Q9Y5Z4	hebp2
Q9Y5Z7	hcfc2
Q9Y5Z9	UBIAD1
Q9Y600	csad
Q9Y603	etv7
Q9Y605	MRFAP1
Q9Y616	irak3
Q9Y617	psat1
Q9Y620	rad54b
Q9Y624	f11r
Q9Y625	GPC6
Q9Y678	COPG1
Q9Y696	clic4
Q9Y697-2	nfs1
Q9Y6A5	tacc3
Q9Y6C2	EMILIN1_2
Q9Y6C2-2	EMILIN1
Q9Y6D9	mad1l1
Q9Y6E0	stk24
Q9Y6E7	sirt4
Q9Y6F1	parp3
Q9Y6G5	commd10
Q9Y6G9	dync1li1
Q9Y6H1	chchd2
Q9Y6H6	KCNE3
Q9Y6I4	usp3
Q9Y6I9	TEX264
Q9Y6J8	styxl1
Q9Y6K0	cept1
Q9Y6K1	DNMT3A
Q9Y6K5	OAS3
Q9Y6K9	ikbkg
Q9Y6M0	PRSS21
Q9Y6M0-2	PRSS21_2
Q9Y6M1	igf2bp2
Q9Y6M9	ndufb9
Q9Y6N6	lamc3
Q9Y6N7	robo1
Q9Y6N9-4	ush1c
Q9Y6Q1	CAPN6
Q9Y6Q6	tnfrsf11a
Q9Y6Q9	ncoa3
Q9Y6R0	numbl
Q9Y6R4	map3k4_2
Q9Y6R7	FCGBP
Q9Y6W3	capn7
Q9Y6W5	wasf2
Q9Y6W6	dusp10
Q9Y6W8	ICOS
Q9Y6X2	PIAS3
Q9Y6X4	FAM169A
Q9Y6X6	myo16
Q9Y6Y0	IVNS1ABP
Q9Y6Y8	sec23ip
Q9Y6Y9	LY96
V9HW60	HEL-S-182mP
V9HW80	HEL-S-70
V9HWH2	HEL-S-29
W5RWE1	CSN2_2
ebi:EBI-11682400	Collagen_XXV
ebi:EBI-12735745	Complement C3
ebi:EBI-2325312	Collagen-I_2
ebi:EBI-2431477	Collagen-II_2
ebi:EBI-2431547	Collagen-III_2
ebi:EBI-2461395	Collagen-IV_2
ebi:EBI-2461456	Collagen-IV_7
ebi:EBI-2464572	Collagen-V
ebi:EBI-2465980	Collagen-VI_2
ebi:EBI-2528478	Collagen-XIII
ebi:EBI-2528731	Collagen-XVII
ebi:EBI-2529702	Laminin-111
ebi:EBI-2530370	Thrombospondin-1
ebi:EBI-2550721	ITGB1_6
ebi:EBI-2550735	ITGB3
ebi:EBI-2550754	ITGB5_2
ebi:EBI-2550808	ITGB1
ebi:EBI-2554495	ITGB1_2
ebi:EBI-2565117	ITGB1_5
ebi:EBI-2881436	PDGF-AA
ebi:EBI-2881451	PDGF-BB
ebi:EBI-6264901	Complement 1Q
ebi:EBI-6397384	Fibrinogen
ebi:EBI-6910621	VEGF-A165
