# CONNECTED COMPONENT 1
NODE	efhd1
NODE	TCHH
EDGE	TCHH	efhd1	1.0

# CONNECTED COMPONENT 2
NODE	ccdc57
NODE	ehmt2_2
NODE	naprt_2
SET	PWRN-ccdc57-1-1	1.0
IN	ccdc57	PWRN-ccdc57-1-1
IN	ehmt2_2	PWRN-ccdc57-1-1
EDGE	PWRN-ccdc57-1-1	naprt_2	1.0

# CONNECTED COMPONENT 3
NODE	gopc
NODE	SEMA4G
NODE	cadps_2
NODE	C17orf67
SET	PWRN-C17orf67-1-1	1.0
IN	gopc	PWRN-C17orf67-1-1
IN	cadps_2	PWRN-C17orf67-1-1
EDGE	C17orf67	PWRN-C17orf67-1-1	1.0
EDGE	SEMA4G	gopc	1.0

# CONNECTED COMPONENT 4
NODE	VEGFD
NODE	STXBP5
NODE	STX2
NODE	sms
NODE	vamp3
NODE	Cdc23
NODE	vwa8_2
NODE	apol1
NODE	stxbp2
NODE	Fanci
NODE	pdk1
SET	PWRN-Cdc23-1-1	1.0
SET	PWRN-Cdc23-2-1	1.0
SET	PWRN-Cdc23-3-1	1.0
IN	pdk1	PWRN-Cdc23-1-1
IN	STXBP5	PWRN-Cdc23-1-1
IN	Fanci	PWRN-Cdc23-1-1
IN	sms	PWRN-Cdc23-1-1
IN	VEGFD	PWRN-Cdc23-2-1
IN	STX2	PWRN-Cdc23-2-1
IN	vwa8_2	PWRN-Cdc23-3-1
IN	apol1	PWRN-Cdc23-3-1
EDGE	PWRN-Cdc23-1-1	stxbp2	1.0
EDGE	PWRN-Cdc23-2-1	vamp3	1.0
EDGE	Cdc23	PWRN-Cdc23-3-1	1.0
EDGE	pdk1	vwa8_2	1.0
EDGE	STX2	STXBP5	1.0

# CONNECTED COMPONENT 5
NODE	lamb4
NODE	kctd13
NODE	srpx
SET	PWRN-kctd13-1-1	1.0
IN	lamb4	PWRN-kctd13-1-1
IN	srpx	PWRN-kctd13-1-1
EDGE	PWRN-kctd13-1-1	kctd13	1.0

# CONNECTED COMPONENT 6
NODE	inhba
NODE	dip2a_2
EDGE	dip2a_2	inhba	1.0

# CONNECTED COMPONENT 7
NODE	gmfg
NODE	tnfsf13
NODE	TNFRSF13C
NODE	PSD
NODE	TNFRSF17
NODE	asah1
NODE	camk1d
NODE	TNFRSF13B
NODE	tnfsf13b
NODE	vangl1
SET	PWRN-PSD-1-1	1.0
SET	PWRN-PSD-2-1	1.0
IN	tnfsf13	PWRN-PSD-1-1
IN	TNFRSF13C	PWRN-PSD-1-1
IN	TNFRSF13B	PWRN-PSD-1-1
IN	TNFRSF17	PWRN-PSD-1-1
IN	PSD	PWRN-PSD-2-1
IN	camk1d	PWRN-PSD-2-1
IN	vangl1	PWRN-PSD-2-1
EDGE	PWRN-PSD-1-1	tnfsf13b	1.0
EDGE	PWRN-PSD-2-1	gmfg	1.0
EDGE	TNFRSF13B	tnfsf13	1.0
EDGE	asah1	camk1d	1.0
EDGE	camk1d	tnfsf13	1.0

# CONNECTED COMPONENT 8
NODE	ZFP36
NODE	cnot1_2
EDGE	ZFP36	cnot1_2	1.0

# CONNECTED COMPONENT 9
NODE	IZUMO1R
NODE	IZUMO1
EDGE	IZUMO1	IZUMO1R	1.0

# CONNECTED COMPONENT 10
NODE	foxh1
NODE	FOXD4
NODE	DMKN
NODE	A2ML1
SET	PWRN-A2ML1-1-1	1.0
IN	foxh1	PWRN-A2ML1-1-1
IN	FOXD4	PWRN-A2ML1-1-1
EDGE	A2ML1	PWRN-A2ML1-1-1	1.0
EDGE	DMKN	FOXD4	1.0

# CONNECTED COMPONENT 11
NODE	C1QTNF9B
NODE	bnip3l
NODE	LEMD2
NODE	SYCE1
NODE	ADIPOQ_2
NODE	lmna
NODE	bdkrb2
NODE	SYNE4_2
SET	PWRN-ADIPOQ_2-1-1	1.0
SET	PWRN-ADIPOQ_2-2-1	1.0
IN	bnip3l	PWRN-ADIPOQ_2-1-1
IN	bdkrb2	PWRN-ADIPOQ_2-1-1
IN	LEMD2	PWRN-ADIPOQ_2-1-1
IN	SYCE1	PWRN-ADIPOQ_2-1-1
IN	C1QTNF9B	PWRN-ADIPOQ_2-2-1
IN	SYNE4_2	PWRN-ADIPOQ_2-2-1
EDGE	PWRN-ADIPOQ_2-1-1	lmna	1.0
EDGE	ADIPOQ_2	PWRN-ADIPOQ_2-2-1	1.0
EDGE	ADIPOQ_2	bnip3l	1.0

# CONNECTED COMPONENT 12
NODE	il17rc
NODE	IL17F
NODE	il17a
NODE	kpna3
NODE	ApoL6
NODE	FLJ13057
NODE	dph2
SET	PWRN-ApoL6-1-1	1.0
SET	PWRN-ApoL6-2-1	1.0
IN	FLJ13057	PWRN-ApoL6-1-1
IN	kpna3	PWRN-ApoL6-1-1
IN	il17rc	PWRN-ApoL6-2-1
IN	dph2	PWRN-ApoL6-2-1
EDGE	ApoL6	PWRN-ApoL6-1-1	1.0
EDGE	PWRN-ApoL6-2-1	il17a	1.0
EDGE	FLJ13057	IL17F	1.0
EDGE	IL17F	il17rc	1.0

# CONNECTED COMPONENT 13
NODE	adamts12
NODE	ADAMTS7
NODE	CALM1
NODE	comp
NODE	MATN3
SET	PWRN-ADAMTS7-1-1	1.0
IN	adamts12	PWRN-ADAMTS7-1-1
IN	MATN3	PWRN-ADAMTS7-1-1
IN	ADAMTS7	PWRN-ADAMTS7-1-1
EDGE	PWRN-ADAMTS7-1-1	comp	1.0
EDGE	CALM1	adamts12	1.0

# CONNECTED COMPONENT 14
NODE	KLRF2
NODE	CLEC2A
EDGE	CLEC2A	KLRF2	1.0

# CONNECTED COMPONENT 15
NODE	PRSS21_2
NODE	mboat1
NODE	RTEL1-TNFRSF6B
SET	PWRN-PRSS21_2-1-1	1.0
IN	mboat1	PWRN-PRSS21_2-1-1
IN	RTEL1-TNFRSF6B	PWRN-PRSS21_2-1-1
EDGE	PRSS21_2	PWRN-PRSS21_2-1-1	1.0

# CONNECTED COMPONENT 16
NODE	prss12
NODE	prpf40a_2
NODE	SH3PXD2A
NODE	ppil3
NODE	cntln
SET	PWRN-SH3PXD2A-1-1	1.0
IN	SH3PXD2A	PWRN-SH3PXD2A-1-1
IN	ppil3	PWRN-SH3PXD2A-1-1
IN	cntln	PWRN-SH3PXD2A-1-1
IN	prpf40a_2	PWRN-SH3PXD2A-1-1
EDGE	PWRN-SH3PXD2A-1-1	prss12	1.0

# CONNECTED COMPONENT 17
NODE	rgs20_2
NODE	ins
EDGE	ins	rgs20_2	1.0

# CONNECTED COMPONENT 18
NODE	MAGEA10
NODE	gpatch8
NODE	MTUS1
NODE	pon2
NODE	strn3
NODE	pcnt
SET	PWRN-MAGEA10-1-1	1.0
IN	pcnt	PWRN-MAGEA10-1-1
IN	gpatch8	PWRN-MAGEA10-1-1
IN	MAGEA10	PWRN-MAGEA10-1-1
IN	strn3	PWRN-MAGEA10-1-1
EDGE	PWRN-MAGEA10-1-1	pon2	1.0
EDGE	MAGEA10	MTUS1	1.0

# CONNECTED COMPONENT 19
NODE	ddr2
NODE	Collagen-XI
NODE	Collagen-II_2
NODE	WDR20
SET	PWRN-Collagen-II_2-1-1	1.0
IN	Collagen-XI	PWRN-Collagen-II_2-1-1
IN	Collagen-II_2	PWRN-Collagen-II_2-1-1
EDGE	PWRN-Collagen-II_2-1-1	ddr2	1.0
EDGE	Collagen-XI	WDR20	1.0

# CONNECTED COMPONENT 20
NODE	NID2
NODE	Collagen-XIII
EDGE	Collagen-XIII	NID2	1.0

# CONNECTED COMPONENT 21
NODE	Canstatin
NODE	ITGB5_2
EDGE	Canstatin	ITGB5_2	1.0

# CONNECTED COMPONENT 22
NODE	Arresten
NODE	ITGB1_2
EDGE	Arresten	ITGB1_2	1.0

# CONNECTED COMPONENT 23
NODE	Collagen_XXV
NODE	pitrm1
NODE	Beta-amyloid_c32_peptide_c32_1-40
SET	PWRN-Beta-amyloid_c32_peptide_c32_1-40-1-1	1.0
IN	Collagen_XXV	PWRN-Beta-amyloid_c32_peptide_c32_1-40-1-1
IN	pitrm1	PWRN-Beta-amyloid_c32_peptide_c32_1-40-1-1
EDGE	Beta-amyloid_c32_peptide_c32_1-40	PWRN-Beta-amyloid_c32_peptide_c32_1-40-1-1	1.0

# CONNECTED COMPONENT 24
NODE	Thrombospondin-1
NODE	stk38l
NODE	PRSS1
SET	PWRN-PRSS1-1-1	1.0
IN	Thrombospondin-1	PWRN-PRSS1-1-1
IN	stk38l	PWRN-PRSS1-1-1
EDGE	PRSS1	PWRN-PRSS1-1-1	1.0

# CONNECTED COMPONENT 25
NODE	CD33
NODE	Complement_c32_1Q
NODE	LAIR1
SET	PWRN-CD33-1-1	1.0
IN	CD33	PWRN-CD33-1-1
IN	LAIR1	PWRN-CD33-1-1
EDGE	Complement_c32_1Q	PWRN-CD33-1-1	1.0

# CONNECTED COMPONENT 26
NODE	Complement_c32_C3
NODE	CD46
NODE	CR1
NODE	JAG1
NODE	cfi
SET	PWRN-CD46-1-1	1.0
IN	Complement_c32_C3	PWRN-CD46-1-1
IN	CD46	PWRN-CD46-1-1
IN	CR1	PWRN-CD46-1-1
EDGE	PWRN-CD46-1-1	cfi	1.0
EDGE	CD46	JAG1	1.0

# CONNECTED COMPONENT 27
NODE	ICK
NODE	KIAA0556
NODE	mak_2
NODE	llgl2
NODE	KIF2A
SET	PWRN-ICK-1-1	1.0
IN	mak_2	PWRN-ICK-1-1
IN	llgl2	PWRN-ICK-1-1
IN	ICK	PWRN-ICK-1-1
IN	KIF2A	PWRN-ICK-1-1
EDGE	KIAA0556	PWRN-ICK-1-1	1.0

# CONNECTED COMPONENT 28
NODE	DST_3
NODE	SCGN
NODE	SNAP23
SET	PWRN-DST_3-1-1	1.0
IN	DST_3	PWRN-DST_3-1-1
IN	SCGN	PWRN-DST_3-1-1
EDGE	PWRN-DST_3-1-1	SNAP23	1.0

# CONNECTED COMPONENT 29
NODE	masp2
NODE	C2
NODE	FCN1
SET	PWRN-C2-1-1	1.0
IN	C2	PWRN-C2-1-1
IN	FCN1	PWRN-C2-1-1
EDGE	PWRN-C2-1-1	masp2	1.0

# CONNECTED COMPONENT 30
NODE	hhip
NODE	SHH
NODE	IHH
NODE	dhh
NODE	RHOD
NODE	ptch1
SET	PWRN-IHH-1-1	1.0
IN	SHH	PWRN-IHH-1-1
IN	IHH	PWRN-IHH-1-1
IN	ptch1	PWRN-IHH-1-1
IN	dhh	PWRN-IHH-1-1
EDGE	PWRN-IHH-1-1	hhip	1.0
EDGE	SHH	ptch1	1.0
EDGE	IHH	RHOD	1.0

# CONNECTED COMPONENT 31
NODE	bmpr1b
NODE	bmp7
NODE	gdf5
NODE	Nog
SET	PWRN-Nog-1-1	1.0
IN	Nog	PWRN-Nog-1-1
IN	bmpr1b	PWRN-Nog-1-1
EDGE	PWRN-Nog-1-1	gdf5	1.0
EDGE	Nog	bmp7	1.0

# CONNECTED COMPONENT 32
NODE	acss3
NODE	Lefty2
EDGE	Lefty2	acss3	1.0

# CONNECTED COMPONENT 33
NODE	TULP1
NODE	NRXN1
NODE	pdzd2
NODE	ARHGAP26
SET	PWRN-ARHGAP26-1-1	1.0
IN	TULP1	PWRN-ARHGAP26-1-1
IN	pdzd2	PWRN-ARHGAP26-1-1
EDGE	NRXN1	PWRN-ARHGAP26-1-1	1.0
EDGE	ARHGAP26	TULP1	1.0

# CONNECTED COMPONENT 34
NODE	tnfrsf11a
NODE	tmprss15
NODE	tnfrsf11b
SET	PWRN-tmprss15-1-1	1.0
IN	tmprss15	PWRN-tmprss15-1-1
IN	tnfrsf11b	PWRN-tmprss15-1-1
EDGE	PWRN-tmprss15-1-1	tnfrsf11a	1.0

# CONNECTED COMPONENT 35
NODE	dab1
NODE	wwp2
NODE	CST9L
NODE	prtfdc1
NODE	slc22a2
NODE	LGALS9C
NODE	hyal3
NODE	LGALS9B
SET	PWRN-CST9L-1-1	1.0
SET	PWRN-CST9L-2-1	1.0
IN	dab1	PWRN-CST9L-1-1
IN	wwp2	PWRN-CST9L-1-1
IN	prtfdc1	PWRN-CST9L-1-1
IN	LGALS9C	PWRN-CST9L-2-1
IN	hyal3	PWRN-CST9L-2-1
EDGE	LGALS9B	PWRN-CST9L-1-1	1.0
EDGE	PWRN-CST9L-2-1	dab1	1.0
EDGE	hyal3	slc22a2	1.0
EDGE	CST9L	slc22a2	1.0

# CONNECTED COMPONENT 36
NODE	dvl3
NODE	cbfa2t3
NODE	ppp1r16a
NODE	MATN2
NODE	LY6H
SET	PWRN-LY6H-1-1	1.0
IN	LY6H	PWRN-LY6H-1-1
IN	MATN2	PWRN-LY6H-1-1
EDGE	PWRN-LY6H-1-1	dvl3	1.0
EDGE	LY6H	ppp1r16a	1.0
EDGE	MATN2	cbfa2t3	1.0

# CONNECTED COMPONENT 37
NODE	gfod2
NODE	qsox1
NODE	BEGAIN
SET	PWRN-BEGAIN-1-1	1.0
IN	gfod2	PWRN-BEGAIN-1-1
IN	qsox1	PWRN-BEGAIN-1-1
EDGE	BEGAIN	PWRN-BEGAIN-1-1	1.0

# CONNECTED COMPONENT 38
NODE	chsy1
NODE	foxn3
EDGE	chsy1	foxn3	1.0

# CONNECTED COMPONENT 39
NODE	ccr10
NODE	CCRL2
NODE	CCL19
NODE	ccr7
SET	PWRN-CCL19-1-1	1.0
IN	ccr10	PWRN-CCL19-1-1
IN	CCRL2	PWRN-CCL19-1-1
IN	ccr7	PWRN-CCL19-1-1
EDGE	CCL19	PWRN-CCL19-1-1	1.0

# CONNECTED COMPONENT 40
NODE	SCG3
NODE	dnm1l
EDGE	SCG3	dnm1l	1.0

# CONNECTED COMPONENT 41
NODE	exoc5
NODE	adck1_2
NODE	OAS1
NODE	OAS1_2
NODE	bud23
NODE	rab1a
SET	PWRN-OAS1-1-1	1.0
IN	adck1_2	PWRN-OAS1-1-1
IN	OAS1	PWRN-OAS1-1-1
IN	OAS1_2	PWRN-OAS1-1-1
EDGE	PWRN-OAS1-1-1	exoc5	1.0
EDGE	adck1_2	rab1a	1.0
EDGE	OAS1_2	bud23	1.0

# CONNECTED COMPONENT 42
NODE	bin2
NODE	bin1
EDGE	bin1	bin2	1.0

# CONNECTED COMPONENT 43
NODE	ccm2
NODE	itgb1bp1
NODE	PDCD10
NODE	heg1
NODE	vstm2l
NODE	krit1
SET	PWRN-PDCD10-1-1	1.0
IN	itgb1bp1	PWRN-PDCD10-1-1
IN	ccm2	PWRN-PDCD10-1-1
IN	PDCD10	PWRN-PDCD10-1-1
IN	heg1	PWRN-PDCD10-1-1
EDGE	PWRN-PDCD10-1-1	krit1	1.0
EDGE	ccm2	vstm2l	1.0

# CONNECTED COMPONENT 44
NODE	synj2bp
NODE	DLL1
EDGE	DLL1	synj2bp	1.0

# CONNECTED COMPONENT 45
NODE	ZWINT
NODE	cyr61
EDGE	ZWINT	cyr61	1.0

# CONNECTED COMPONENT 46
NODE	NTN3
NODE	bmp6
NODE	TMPRSS6
NODE	unc5b
NODE	TMPRSS6_2
NODE	Draxin
NODE	unc5b_2
NODE	ntn4
NODE	unc5c
NODE	ntn1
NODE	hfe2
NODE	neo1
SET	PWRN-Draxin-1-1	1.0
SET	PWRN-Draxin-2-1	1.0
SET	PWRN-Draxin-3-1	1.0
IN	unc5b	PWRN-Draxin-1-1
IN	unc5b_2	PWRN-Draxin-1-1
IN	unc5c	PWRN-Draxin-1-1
IN	Draxin	PWRN-Draxin-1-1
IN	neo1	PWRN-Draxin-1-1
IN	TMPRSS6_2	PWRN-Draxin-2-1
IN	bmp6	PWRN-Draxin-2-1
IN	TMPRSS6	PWRN-Draxin-2-1
IN	hfe2	PWRN-Draxin-3-1
IN	ntn4	PWRN-Draxin-3-1
EDGE	PWRN-Draxin-1-1	ntn1	1.0
EDGE	PWRN-Draxin-2-1	hfe2	1.0
EDGE	PWRN-Draxin-3-1	neo1	1.0
EDGE	Draxin	NTN3	1.0

# CONNECTED COMPONENT 47
NODE	wnt3a
NODE	APCDD1
NODE	Fzd8
NODE	gpc3
NODE	NOTUM
NODE	wnt7a
SET	PWRN-APCDD1-1-1	1.0
SET	PWRN-APCDD1-2-1	1.0
IN	wnt7a	PWRN-APCDD1-1-1
IN	gpc3	PWRN-APCDD1-1-1
IN	wnt3a	PWRN-APCDD1-1-1
IN	APCDD1	PWRN-APCDD1-2-1
IN	Fzd8	PWRN-APCDD1-2-1
EDGE	NOTUM	PWRN-APCDD1-1-1	1.0
EDGE	PWRN-APCDD1-2-1	wnt3a	1.0

# CONNECTED COMPONENT 48
NODE	CLDN4
NODE	TACSTD2
NODE	CLDN7
NODE	cldn1
SET	PWRN-CLDN4-1-1	1.0
IN	CLDN4	PWRN-CLDN4-1-1
IN	CLDN7	PWRN-CLDN4-1-1
IN	cldn1	PWRN-CLDN4-1-1
EDGE	PWRN-CLDN4-1-1	TACSTD2	1.0

# CONNECTED COMPONENT 49
NODE	pla2g1b
NODE	SOCS2
EDGE	SOCS2	pla2g1b	1.0

# CONNECTED COMPONENT 50
NODE	cdk14
NODE	NUAK1
NODE	rassf6
NODE	CDK2AP1
NODE	AMY1A
NODE	IGHA2
SET	PWRN-AMY1A-1-1	1.0
IN	cdk14	PWRN-AMY1A-1-1
IN	NUAK1	PWRN-AMY1A-1-1
IN	CDK2AP1	PWRN-AMY1A-1-1
EDGE	IGHA2	PWRN-AMY1A-1-1	1.0
EDGE	AMY1A	rassf6	1.0
EDGE	AMY1A	CDK2AP1	1.0

# CONNECTED COMPONENT 51
NODE	hspb6
NODE	hspb8
EDGE	hspb6	hspb8	1.0

# CONNECTED COMPONENT 52
NODE	DPP8
NODE	CXCL11
NODE	CXCL12_2
NODE	CXCL10
SET	PWRN-CXCL10-1-1	1.0
IN	CXCL11	PWRN-CXCL10-1-1
IN	CXCL12_2	PWRN-CXCL10-1-1
IN	CXCL10	PWRN-CXCL10-1-1
EDGE	DPP8	PWRN-CXCL10-1-1	1.0

# CONNECTED COMPONENT 53
NODE	KCNK3
NODE	fstl3
NODE	selplg
NODE	ARL8B
NODE	PHACTR3
NODE	etv5
NODE	amh
NODE	adam12
NODE	adam8
NODE	zmat2
SET	PWRN-ARL8B-1-1	1.0
SET	PWRN-ARL8B-2-1	1.0
IN	ARL8B	PWRN-ARL8B-1-1
IN	PHACTR3	PWRN-ARL8B-1-1
IN	zmat2	PWRN-ARL8B-1-1
IN	etv5	PWRN-ARL8B-1-1
IN	fstl3	PWRN-ARL8B-2-1
IN	selplg	PWRN-ARL8B-2-1
EDGE	PWRN-ARL8B-1-1	amh	1.0
EDGE	PWRN-ARL8B-2-1	adam8	1.0
EDGE	adam12	fstl3	1.0
EDGE	adam8	etv5	1.0
EDGE	KCNK3	PHACTR3	1.0

# CONNECTED COMPONENT 54
NODE	lrrc7
NODE	CTNND2
NODE	cnksr2
NODE	TOR1A
SET	PWRN-CTNND2-1-1	1.0
IN	CTNND2	PWRN-CTNND2-1-1
IN	cnksr2	PWRN-CTNND2-1-1
IN	TOR1A	PWRN-CTNND2-1-1
EDGE	PWRN-CTNND2-1-1	lrrc7	1.0

# CONNECTED COMPONENT 55
NODE	IGKV2D-28
NODE	trdmt1
EDGE	IGKV2D-28	trdmt1	1.0

# CONNECTED COMPONENT 56
NODE	Meis2
NODE	ANXA1_2
EDGE	ANXA1_2	Meis2	1.0

# CONNECTED COMPONENT 57
NODE	mgst3
NODE	f10
EDGE	f10	mgst3	1.0

# CONNECTED COMPONENT 58
NODE	tgfbr1
NODE	tgfbr2
NODE	acvrl1
NODE	gipc1
NODE	tgfbr3
NODE	tgfb2
NODE	LRG1
SET	PWRN-LRG1-1-1	1.0
IN	tgfbr1	PWRN-LRG1-1-1
IN	tgfbr2	PWRN-LRG1-1-1
IN	acvrl1	PWRN-LRG1-1-1
EDGE	LRG1	PWRN-LRG1-1-1	1.0
EDGE	acvrl1	tgfbr3	1.0
EDGE	tgfb2	tgfbr1	1.0
EDGE	gipc1	tgfbr3	1.0

# CONNECTED COMPONENT 59
NODE	KIF26B
NODE	TRIM26
NODE	SLC16A6
NODE	dlg1_3
NODE	cask
SET	PWRN-KIF26B-1-1	1.0
IN	KIF26B	PWRN-KIF26B-1-1
IN	SLC16A6	PWRN-KIF26B-1-1
IN	TRIM26	PWRN-KIF26B-1-1
EDGE	PWRN-KIF26B-1-1	cask	1.0
EDGE	KIF26B	dlg1_3	1.0

# CONNECTED COMPONENT 60
NODE	caskin1
NODE	cask_3
EDGE	cask_3	caskin1	1.0

# CONNECTED COMPONENT 61
NODE	DEFB127
NODE	tfec
EDGE	DEFB127	tfec	1.0

# CONNECTED COMPONENT 62
NODE	rragc
NODE	sfrp1
NODE	KIAA1522
NODE	WNT2
NODE	Uqcr11
NODE	fzd6
NODE	AQP5
SET	PWRN-AQP5-1-1	1.0
SET	PWRN-AQP5-2-1	1.0
IN	Uqcr11	PWRN-AQP5-1-1
IN	sfrp1	PWRN-AQP5-1-1
IN	AQP5	PWRN-AQP5-1-1
IN	rragc	PWRN-AQP5-1-1
IN	KIAA1522	PWRN-AQP5-2-1
IN	fzd6	PWRN-AQP5-2-1
EDGE	PWRN-AQP5-1-1	WNT2	1.0
EDGE	PWRN-AQP5-2-1	sfrp1	1.0

# CONNECTED COMPONENT 63
NODE	plcl2
NODE	MACF1
NODE	frmd5
NODE	MAGI3
NODE	plxnd1
NODE	nrcam
NODE	MAGI2
NODE	SEMA4A
NODE	sema3e
NODE	hspa12a
NODE	ddx54_2
NODE	dscaml1
SET	PWRN-MACF1-1-1	1.0
SET	PWRN-MACF1-2-1	1.0
SET	PWRN-MACF1-3-1	1.0
IN	MAGI3	PWRN-MACF1-1-1
IN	MACF1	PWRN-MACF1-1-1
IN	frmd5	PWRN-MACF1-1-1
IN	hspa12a	PWRN-MACF1-1-1
IN	SEMA4A	PWRN-MACF1-2-1
IN	sema3e	PWRN-MACF1-2-1
IN	MAGI2	PWRN-MACF1-3-1
IN	plcl2	PWRN-MACF1-3-1
EDGE	PWRN-MACF1-1-1	nrcam	1.0
EDGE	PWRN-MACF1-2-1	plxnd1	1.0
EDGE	PWRN-MACF1-3-1	dscaml1	1.0
EDGE	MACF1	plxnd1	1.0
EDGE	MAGI3	dscaml1	1.0
EDGE	SEMA4A	ddx54_2	1.0

# CONNECTED COMPONENT 64
NODE	ZBTB5
NODE	st3gal3
NODE	rpl8
NODE	scamp2
SET	PWRN-ZBTB5-1-1	1.0
IN	rpl8	PWRN-ZBTB5-1-1
IN	scamp2	PWRN-ZBTB5-1-1
IN	ZBTB5	PWRN-ZBTB5-1-1
EDGE	PWRN-ZBTB5-1-1	st3gal3	1.0

# CONNECTED COMPONENT 65
NODE	YAE1D1
NODE	rabac1
NODE	mest
NODE	cmtm3
NODE	mcf2l
NODE	mob3c
SET	PWRN-YAE1D1-1-1	1.0
IN	rabac1	PWRN-YAE1D1-1-1
IN	mob3c	PWRN-YAE1D1-1-1
IN	mest	PWRN-YAE1D1-1-1
EDGE	PWRN-YAE1D1-1-1	cmtm3	1.0
EDGE	YAE1D1	mcf2l	1.0
EDGE	mcf2l	rabac1	1.0

# CONNECTED COMPONENT 66
NODE	cep290
NODE	C9orf16
EDGE	C9orf16	cep290	1.0

# CONNECTED COMPONENT 67
NODE	dhdds
NODE	NPC1
NODE	tmem173
NODE	unc93b1
NODE	lsamp
NODE	NPC2
NODE	negr1
SET	PWRN-NPC1-1-1	1.0
SET	PWRN-NPC1-2-1	1.0
IN	NPC2	PWRN-NPC1-1-1
IN	unc93b1	PWRN-NPC1-1-1
IN	tmem173	PWRN-NPC1-1-1
IN	dhdds	PWRN-NPC1-2-1
IN	negr1	PWRN-NPC1-2-1
EDGE	NPC1	PWRN-NPC1-1-1	1.0
EDGE	NPC2	PWRN-NPC1-2-1	1.0
EDGE	lsamp	negr1	1.0

# CONNECTED COMPONENT 68
NODE	SFN_2
NODE	cabp4_2
NODE	lnx2
NODE	sat1
NODE	aes_2
NODE	ephb6_2
NODE	IKZF3
NODE	MKRN3
NODE	wnt16
NODE	bcl6
SET	PWRN-IKZF3-1-1	1.0
SET	PWRN-IKZF3-2-1	1.0
IN	IKZF3	PWRN-IKZF3-1-1
IN	aes_2	PWRN-IKZF3-1-1
IN	bcl6	PWRN-IKZF3-1-1
IN	lnx2	PWRN-IKZF3-1-1
IN	ephb6_2	PWRN-IKZF3-2-1
IN	wnt16	PWRN-IKZF3-2-1
EDGE	PWRN-IKZF3-1-1	cabp4_2	1.0
EDGE	PWRN-IKZF3-2-1	bcl6	1.0
EDGE	MKRN3	SFN_2	1.0
EDGE	SFN_2	lnx2	1.0
EDGE	ephb6_2	sat1	1.0

# CONNECTED COMPONENT 69
NODE	INCA1
NODE	nif3l1
NODE	SERTAD1
NODE	TRIM39
NODE	ephb6
NODE	PATE1
NODE	fam49b
SET	PWRN-INCA1-1-1	1.0
IN	INCA1	PWRN-INCA1-1-1
IN	TRIM39	PWRN-INCA1-1-1
IN	nif3l1	PWRN-INCA1-1-1
EDGE	PWRN-INCA1-1-1	ephb6	1.0
EDGE	INCA1	PATE1	1.0
EDGE	fam49b	nif3l1	1.0
EDGE	PATE1	SERTAD1	1.0

# CONNECTED COMPONENT 70
NODE	MT2A
NODE	MT1G
NODE	SPINK7
NODE	MRPS12
NODE	EPB42
NODE	MT1H
NODE	RABL6
SET	PWRN-EPB42-1-1	1.0
IN	MT2A	PWRN-EPB42-1-1
IN	MT1G	PWRN-EPB42-1-1
IN	MRPS12	PWRN-EPB42-1-1
IN	EPB42	PWRN-EPB42-1-1
IN	MT1H	PWRN-EPB42-1-1
IN	RABL6	PWRN-EPB42-1-1
EDGE	PWRN-EPB42-1-1	SPINK7	1.0

# CONNECTED COMPONENT 71
NODE	MMP7
NODE	DEFB4A
NODE	ELN_2
NODE	DEFB1
NODE	CCR6
SET	PWRN-CCR6-1-1	1.0
IN	DEFB4A	PWRN-CCR6-1-1
IN	ELN_2	PWRN-CCR6-1-1
IN	DEFB1	PWRN-CCR6-1-1
EDGE	MMP7	PWRN-CCR6-1-1	1.0
EDGE	CCR6	DEFB4A	1.0

# CONNECTED COMPONENT 72
NODE	PSG1
NODE	ogt
EDGE	PSG1	ogt	1.0

# CONNECTED COMPONENT 73
NODE	siva1
NODE	UHRF2
NODE	cd27
SET	PWRN-UHRF2-1-1	1.0
IN	siva1	PWRN-UHRF2-1-1
IN	UHRF2	PWRN-UHRF2-1-1
EDGE	PWRN-UHRF2-1-1	cd27	1.0

# CONNECTED COMPONENT 74
NODE	PDE4C
NODE	rbfox1
NODE	MAGEA8
NODE	EIF3H
NODE	GCA_2
NODE	sri
SET	PWRN-EIF3H-1-1	1.0
IN	MAGEA8	PWRN-EIF3H-1-1
IN	EIF3H	PWRN-EIF3H-1-1
IN	sri	PWRN-EIF3H-1-1
IN	rbfox1	PWRN-EIF3H-1-1
EDGE	GCA_2	PWRN-EIF3H-1-1	1.0
EDGE	PDE4C	sri	1.0

# CONNECTED COMPONENT 75
NODE	lep
NODE	SIGLEC5
NODE	SH2D1A
NODE	SIGLEC6
SET	PWRN-SH2D1A-1-1	1.0
IN	lep	PWRN-SH2D1A-1-1
IN	SH2D1A	PWRN-SH2D1A-1-1
EDGE	PWRN-SH2D1A-1-1	SIGLEC6	1.0
EDGE	SIGLEC5	lep	1.0

# CONNECTED COMPONENT 76
NODE	ccl1
NODE	CCL17
NODE	CCR4
NODE	cxcr5
NODE	CCR8
NODE	CCL16
NODE	CXCL13
SET	PWRN-CCL16-1-1	1.0
IN	ccl1	PWRN-CCL16-1-1
IN	CCL17	PWRN-CCL16-1-1
IN	CCL16	PWRN-CCL16-1-1
EDGE	CCR8	PWRN-CCL16-1-1	1.0
EDGE	CCL16	cxcr5	1.0
EDGE	CXCL13	cxcr5	1.0
EDGE	CCL17	CCR4	1.0

# CONNECTED COMPONENT 77
NODE	myo10
NODE	PLA2G10
EDGE	PLA2G10	myo10	1.0

# CONNECTED COMPONENT 78
NODE	ATP1B2
NODE	sarm1
NODE	ATP1A3
NODE	rs1
SET	PWRN-ATP1A3-1-1	1.0
IN	ATP1B2	PWRN-ATP1A3-1-1
IN	ATP1A3	PWRN-ATP1A3-1-1
IN	sarm1	PWRN-ATP1A3-1-1
EDGE	PWRN-ATP1A3-1-1	rs1	1.0

# CONNECTED COMPONENT 79
NODE	ocln
NODE	CTSS
NODE	CLDN3
SET	PWRN-CLDN3-1-1	1.0
IN	ocln	PWRN-CLDN3-1-1
IN	CLDN3	PWRN-CLDN3-1-1
EDGE	CTSS	PWRN-CLDN3-1-1	1.0

# CONNECTED COMPONENT 80
NODE	ASAP2
NODE	thsd7a
EDGE	ASAP2	thsd7a	1.0

# CONNECTED COMPONENT 81
NODE	flrt2
NODE	FLRT1
EDGE	FLRT1	flrt2	1.0

# CONNECTED COMPONENT 82
NODE	PLXNB1_2
NODE	cenpo
NODE	c21orf59
NODE	CENPU
NODE	DIAPH1
SET	PWRN-CENPU-1-1	1.0
IN	CENPU	PWRN-CENPU-1-1
IN	c21orf59	PWRN-CENPU-1-1
IN	DIAPH1	PWRN-CENPU-1-1
IN	cenpo	PWRN-CENPU-1-1
EDGE	PLXNB1_2	PWRN-CENPU-1-1	1.0

# CONNECTED COMPONENT 83
NODE	prpf4
NODE	znf410_2
NODE	LIFR
NODE	lif
NODE	Collagen-IV
NODE	OSM
SET	PWRN-Collagen-IV-1-1	1.0
SET	PWRN-Collagen-IV-2-1	1.0
IN	lif	PWRN-Collagen-IV-1-1
IN	prpf4	PWRN-Collagen-IV-1-1
IN	OSM	PWRN-Collagen-IV-1-1
IN	Collagen-IV	PWRN-Collagen-IV-2-1
IN	znf410_2	PWRN-Collagen-IV-2-1
EDGE	LIFR	PWRN-Collagen-IV-1-1	1.0
EDGE	OSM	PWRN-Collagen-IV-2-1	1.0

# CONNECTED COMPONENT 84
NODE	sh3d19
NODE	adam12_2
EDGE	adam12_2	sh3d19	1.0

# CONNECTED COMPONENT 85
NODE	ccbe1
NODE	STX11
NODE	tox4
NODE	SIAH2
SET	PWRN-SIAH2-1-1	1.0
IN	STX11	PWRN-SIAH2-1-1
IN	SIAH2	PWRN-SIAH2-1-1
IN	tox4	PWRN-SIAH2-1-1
EDGE	PWRN-SIAH2-1-1	ccbe1	1.0

# CONNECTED COMPONENT 86
NODE	HGFAC
NODE	SPINT1
EDGE	HGFAC	SPINT1	1.0

# CONNECTED COMPONENT 87
NODE	TGFB1I1
NODE	PLA2G3
EDGE	PLA2G3	TGFB1I1	1.0

# CONNECTED COMPONENT 88
NODE	ovgp1
NODE	asl
NODE	rasa4
NODE	hmox1
SET	PWRN-asl-1-1	1.0
IN	ovgp1	PWRN-asl-1-1
IN	hmox1	PWRN-asl-1-1
EDGE	PWRN-asl-1-1	asl	1.0
EDGE	ovgp1	rasa4	1.0

# CONNECTED COMPONENT 89
NODE	Collagen-XVI
NODE	coch
NODE	Collagen-IV_4
NODE	gfap
NODE	hyal1
NODE	Collagen-II
SET	PWRN-Collagen-II-1-1	1.0
SET	PWRN-Collagen-II-2-1	1.0
IN	hyal1	PWRN-Collagen-II-1-1
IN	coch	PWRN-Collagen-II-1-1
IN	Collagen-IV_4	PWRN-Collagen-II-2-1
IN	gfap	PWRN-Collagen-II-2-1
EDGE	Collagen-II	PWRN-Collagen-II-1-1	1.0
EDGE	Collagen-XVI	PWRN-Collagen-II-2-1	1.0
EDGE	Collagen-IV_4	coch	1.0

# CONNECTED COMPONENT 90
NODE	MARK4_2
NODE	soga1_2
NODE	PROM1
NODE	plekha5_2
SET	PWRN-MARK4_2-1-1	1.0
IN	soga1_2	PWRN-MARK4_2-1-1
IN	PROM1	PWRN-MARK4_2-1-1
EDGE	PWRN-MARK4_2-1-1	plekha5_2	1.0
EDGE	MARK4_2	soga1_2	1.0

# CONNECTED COMPONENT 91
NODE	hebp2
NODE	lamtor5
EDGE	hebp2	lamtor5	1.0

# CONNECTED COMPONENT 92
NODE	tnfsf12
NODE	TNFRSF12A
EDGE	TNFRSF12A	tnfsf12	1.0

# CONNECTED COMPONENT 93
NODE	fgl1
NODE	bcl2l11_2
EDGE	bcl2l11_2	fgl1	1.0

# CONNECTED COMPONENT 94
NODE	wfdc1
NODE	ZNF677
NODE	rab40b
NODE	fosl1
NODE	xrcc2
SET	PWRN-ZNF677-1-1	1.0
IN	xrcc2	PWRN-ZNF677-1-1
IN	rab40b	PWRN-ZNF677-1-1
IN	fosl1	PWRN-ZNF677-1-1
IN	ZNF677	PWRN-ZNF677-1-1
EDGE	PWRN-ZNF677-1-1	wfdc1	1.0

# CONNECTED COMPONENT 95
NODE	sorbs1
NODE	dnph1
NODE	PILRA
SET	PWRN-PILRA-1-1	1.0
IN	sorbs1	PWRN-PILRA-1-1
IN	dnph1	PWRN-PILRA-1-1
EDGE	PILRA	PWRN-PILRA-1-1	1.0

# CONNECTED COMPONENT 96
NODE	GALR2
NODE	GALR1
NODE	GAL
SET	PWRN-GAL-1-1	1.0
IN	GALR2	PWRN-GAL-1-1
IN	GALR1	PWRN-GAL-1-1
EDGE	GAL	PWRN-GAL-1-1	1.0

# CONNECTED COMPONENT 97
NODE	hcrt
NODE	HLA-DQA1
EDGE	HLA-DQA1	hcrt	1.0

# CONNECTED COMPONENT 98
NODE	CMTM5_2
NODE	cyp1a1
NODE	pnpo
NODE	mcee
NODE	COQ8A
NODE	timm44
SET	PWRN-CMTM5_2-1-1	1.0
IN	cyp1a1	PWRN-CMTM5_2-1-1
IN	pnpo	PWRN-CMTM5_2-1-1
IN	mcee	PWRN-CMTM5_2-1-1
IN	COQ8A	PWRN-CMTM5_2-1-1
IN	timm44	PWRN-CMTM5_2-1-1
EDGE	CMTM5_2	PWRN-CMTM5_2-1-1	1.0

# CONNECTED COMPONENT 99
NODE	trappc3_2
NODE	trappc1
EDGE	trappc1	trappc3_2	1.0

# CONNECTED COMPONENT 100
NODE	PSCA
NODE	chrna4
EDGE	PSCA	chrna4	1.0

# CONNECTED COMPONENT 101
NODE	gpx7
NODE	fzd10
NODE	HILPDA
NODE	asna1
SET	PWRN-HILPDA-1-1	1.0
IN	asna1	PWRN-HILPDA-1-1
IN	fzd10	PWRN-HILPDA-1-1
EDGE	HILPDA	PWRN-HILPDA-1-1	1.0
EDGE	asna1	gpx7	1.0

# CONNECTED COMPONENT 102
NODE	DMBT1
NODE	pard6b
NODE	cdk6
NODE	cdk5rap3
NODE	p4ha1_2
NODE	amy2a
NODE	triap1
SET	PWRN-DMBT1-1-1	1.0
IN	pard6b	PWRN-DMBT1-1-1
IN	cdk6	PWRN-DMBT1-1-1
IN	cdk5rap3	PWRN-DMBT1-1-1
EDGE	DMBT1	PWRN-DMBT1-1-1	1.0
EDGE	amy2a	triap1	1.0
EDGE	p4ha1_2	pard6b	1.0
EDGE	amy2a	cdk6	1.0

# CONNECTED COMPONENT 103
NODE	edil3
NODE	cdkl1
EDGE	cdkl1	edil3	1.0

# CONNECTED COMPONENT 104
NODE	tyrobp
NODE	PGLYRP1
NODE	TREM1
NODE	TREM2
SET	PWRN-PGLYRP1-1-1	1.0
IN	tyrobp	PWRN-PGLYRP1-1-1
IN	PGLYRP1	PWRN-PGLYRP1-1-1
EDGE	PWRN-PGLYRP1-1-1	TREM1	1.0
EDGE	TREM2	tyrobp	1.0

# CONNECTED COMPONENT 105
NODE	acaca
NODE	AKR1B10
EDGE	AKR1B10	acaca	1.0

# CONNECTED COMPONENT 106
NODE	ephb1
NODE	dhx16
NODE	megf10
NODE	grb10
SET	PWRN-dhx16-1-1	1.0
IN	ephb1	PWRN-dhx16-1-1
IN	megf10	PWRN-dhx16-1-1
EDGE	PWRN-dhx16-1-1	grb10	1.0
EDGE	dhx16	megf10	1.0

# CONNECTED COMPONENT 107
NODE	BTN1A1
NODE	NDUFA4L2
NODE	ppl
NODE	arhgef10l
NODE	ANXA9
SET	PWRN-ANXA9-1-1	1.0
IN	NDUFA4L2	PWRN-ANXA9-1-1
IN	ppl	PWRN-ANXA9-1-1
IN	arhgef10l	PWRN-ANXA9-1-1
EDGE	ANXA9	PWRN-ANXA9-1-1	1.0
EDGE	BTN1A1	ppl	1.0

# CONNECTED COMPONENT 108
NODE	sema7a
NODE	plxnc1
EDGE	plxnc1	sema7a	1.0

# CONNECTED COMPONENT 109
NODE	cubn
NODE	GIF
EDGE	GIF	cubn	1.0

# CONNECTED COMPONENT 110
NODE	dok2
NODE	epo
NODE	EFNB2
SET	PWRN-EFNB2-1-1	1.0
IN	dok2	PWRN-EFNB2-1-1
IN	EFNB2	PWRN-EFNB2-1-1
EDGE	PWRN-EFNB2-1-1	epo	1.0

# CONNECTED COMPONENT 111
NODE	gfra3
NODE	ARTN
EDGE	ARTN	gfra3	1.0

# CONNECTED COMPONENT 112
NODE	SREBF1
NODE	arf1
NODE	pla2g6
SET	PWRN-SREBF1-1-1	1.0
IN	SREBF1	PWRN-SREBF1-1-1
IN	arf1	PWRN-SREBF1-1-1
EDGE	PWRN-SREBF1-1-1	pla2g6	1.0

# CONNECTED COMPONENT 113
NODE	HPGDS
NODE	MELTF
EDGE	HPGDS	MELTF	1.0

# CONNECTED COMPONENT 114
NODE	brap
NODE	uso1
NODE	fam184a
SET	PWRN-brap-1-1	1.0
IN	brap	PWRN-brap-1-1
IN	uso1	PWRN-brap-1-1
EDGE	PWRN-brap-1-1	fam184a	1.0

# CONNECTED COMPONENT 115
NODE	cabp4
NODE	cacna1f_2
NODE	cacna1f
SET	PWRN-cabp4-1-1	1.0
IN	cacna1f_2	PWRN-cabp4-1-1
IN	cacna1f	PWRN-cabp4-1-1
EDGE	PWRN-cabp4-1-1	cabp4	1.0

# CONNECTED COMPONENT 116
NODE	MMP20
NODE	DSPP
EDGE	DSPP	MMP20	1.0

# CONNECTED COMPONENT 117
NODE	CALCRL
NODE	ADM
NODE	bbs1
NODE	bbs4
NODE	calca_2
NODE	RAMP1
SET	PWRN-ADM-1-1	1.0
SET	PWRN-ADM-2-1	1.0
IN	calca_2	PWRN-ADM-1-1
IN	ADM	PWRN-ADM-1-1
IN	RAMP1	PWRN-ADM-1-1
IN	bbs4	PWRN-ADM-2-1
IN	bbs1	PWRN-ADM-2-1
EDGE	CALCRL	PWRN-ADM-1-1	1.0
EDGE	PWRN-ADM-2-1	calca_2	1.0

# CONNECTED COMPONENT 118
NODE	PFDN1
NODE	chga
NODE	nek2
SET	PWRN-PFDN1-1-1	1.0
IN	PFDN1	PWRN-PFDN1-1-1
IN	nek2	PWRN-PFDN1-1-1
EDGE	PWRN-PFDN1-1-1	chga	1.0

# CONNECTED COMPONENT 119
NODE	foxi2
NODE	ATF4
NODE	HK3
NODE	Mitf
SET	PWRN-ATF4-1-1	1.0
IN	foxi2	PWRN-ATF4-1-1
IN	ATF4	PWRN-ATF4-1-1
IN	Mitf	PWRN-ATF4-1-1
EDGE	HK3	PWRN-ATF4-1-1	1.0

# CONNECTED COMPONENT 120
NODE	raver1
NODE	SIKE1
NODE	kif21b
NODE	vcl
NODE	btd
NODE	cdca5
SET	PWRN-SIKE1-1-1	1.0
IN	cdca5	PWRN-SIKE1-1-1
IN	kif21b	PWRN-SIKE1-1-1
IN	SIKE1	PWRN-SIKE1-1-1
EDGE	PWRN-SIKE1-1-1	btd	1.0
EDGE	cdca5	vcl	1.0
EDGE	raver1	vcl	1.0

# CONNECTED COMPONENT 121
NODE	FNBP4
NODE	cemip
NODE	plxna2
NODE	ubap2l
SET	PWRN-FNBP4-1-1	1.0
IN	FNBP4	PWRN-FNBP4-1-1
IN	cemip	PWRN-FNBP4-1-1
IN	ubap2l	PWRN-FNBP4-1-1
EDGE	PWRN-FNBP4-1-1	plxna2	1.0

# CONNECTED COMPONENT 122
NODE	phax
NODE	gpc1
NODE	fam20b
NODE	DUX4L9
SET	PWRN-DUX4L9-1-1	1.0
IN	phax	PWRN-DUX4L9-1-1
IN	gpc1	PWRN-DUX4L9-1-1
EDGE	PWRN-DUX4L9-1-1	fam20b	1.0
EDGE	DUX4L9	gpc1	1.0

# CONNECTED COMPONENT 123
NODE	FZD7
NODE	wnt3
EDGE	FZD7	wnt3	1.0

# CONNECTED COMPONENT 124
NODE	tspan12
NODE	wnt2b
NODE	sost
NODE	lrp5
NODE	LRP4
NODE	ndp
NODE	tsku
NODE	fzd4
SET	PWRN-LRP4-1-1	1.0
SET	PWRN-LRP4-2-1	1.0
IN	tsku	PWRN-LRP4-1-1
IN	wnt2b	PWRN-LRP4-1-1
IN	ndp	PWRN-LRP4-1-1
IN	tspan12	PWRN-LRP4-2-1
IN	lrp5	PWRN-LRP4-2-1
EDGE	PWRN-LRP4-1-1	fzd4	1.0
EDGE	PWRN-LRP4-2-1	ndp	1.0
EDGE	lrp5	sost	1.0
EDGE	LRP4	sost	1.0

# CONNECTED COMPONENT 125
NODE	ADAMTS4
NODE	acan
EDGE	ADAMTS4	acan	1.0

# CONNECTED COMPONENT 126
NODE	neurod4
NODE	lrrn2
EDGE	lrrn2	neurod4	1.0

# CONNECTED COMPONENT 127
NODE	ALOX12B
NODE	ALOXE3
NODE	tgm1
NODE	rin3
SET	PWRN-ALOX12B-1-1	1.0
IN	ALOXE3	PWRN-ALOX12B-1-1
IN	ALOX12B	PWRN-ALOX12B-1-1
IN	rin3	PWRN-ALOX12B-1-1
EDGE	PWRN-ALOX12B-1-1	tgm1	1.0

# CONNECTED COMPONENT 128
NODE	rab5a
NODE	entpd6_2
EDGE	entpd6_2	rab5a	1.0

# CONNECTED COMPONENT 129
NODE	mxi1_2
NODE	ENTPD5
EDGE	ENTPD5	mxi1_2	1.0

# CONNECTED COMPONENT 130
NODE	ptp4a3
NODE	HSD17B11
NODE	brf2
SET	PWRN-HSD17B11-1-1	1.0
IN	ptp4a3	PWRN-HSD17B11-1-1
IN	brf2	PWRN-HSD17B11-1-1
EDGE	HSD17B11	PWRN-HSD17B11-1-1	1.0

# CONNECTED COMPONENT 131
NODE	ndufs6
NODE	agtrap_2
NODE	ptpra
NODE	gdnf
NODE	GFRA1_2
NODE	GFRA1
NODE	agtrap
NODE	BPIFA2
NODE	gdnf_2
SET	PWRN-BPIFA2-1-1	1.0
IN	ndufs6	PWRN-BPIFA2-1-1
IN	agtrap_2	PWRN-BPIFA2-1-1
IN	ptpra	PWRN-BPIFA2-1-1
IN	GFRA1_2	PWRN-BPIFA2-1-1
IN	agtrap	PWRN-BPIFA2-1-1
IN	GFRA1	PWRN-BPIFA2-1-1
EDGE	PWRN-BPIFA2-1-1	gdnf_2	1.0
EDGE	agtrap_2	gdnf	1.0
EDGE	BPIFA2	agtrap	1.0

# CONNECTED COMPONENT 132
NODE	ush1c
NODE	ush2a
EDGE	ush1c	ush2a	1.0

# CONNECTED COMPONENT 133
NODE	crlf1
NODE	clcf1
EDGE	clcf1	crlf1	1.0

# CONNECTED COMPONENT 134
NODE	sirt2_2
NODE	kat2a
NODE	tada2a
SET	PWRN-kat2a-1-1	1.0
IN	sirt2_2	PWRN-kat2a-1-1
IN	tada2a	PWRN-kat2a-1-1
EDGE	PWRN-kat2a-1-1	kat2a	1.0

# CONNECTED COMPONENT 135
NODE	TADA3
NODE	adpgk
EDGE	TADA3	adpgk	1.0

# CONNECTED COMPONENT 136
NODE	pam
NODE	dedd
NODE	serpini1
SET	PWRN-dedd-1-1	1.0
IN	pam	PWRN-dedd-1-1
IN	serpini1	PWRN-dedd-1-1
EDGE	PWRN-dedd-1-1	dedd	1.0

# CONNECTED COMPONENT 137
NODE	PPP1R1A
NODE	ppp1r15a
EDGE	PPP1R1A	ppp1r15a	1.0

# CONNECTED COMPONENT 138
NODE	hsh2d
NODE	LGALS9B_2
NODE	appl2
NODE	CNMD
NODE	socs4
SET	PWRN-CNMD-1-1	1.0
IN	hsh2d	PWRN-CNMD-1-1
IN	socs4	PWRN-CNMD-1-1
IN	appl2	PWRN-CNMD-1-1
EDGE	CNMD	PWRN-CNMD-1-1	1.0
EDGE	LGALS9B_2	appl2	1.0

# CONNECTED COMPONENT 139
NODE	idh1
NODE	cep57l1
EDGE	cep57l1	idh1	1.0

# CONNECTED COMPONENT 140
NODE	gabbr1_2
NODE	gabbr2
EDGE	gabbr1_2	gabbr2	1.0

# CONNECTED COMPONENT 141
NODE	MMP23A
NODE	glrx
EDGE	MMP23A	glrx	1.0

# CONNECTED COMPONENT 142
NODE	sgcd
NODE	pias2
NODE	ada
SET	PWRN-ada-1-1	1.0
IN	sgcd	PWRN-ada-1-1
IN	pias2	PWRN-ada-1-1
EDGE	PWRN-ada-1-1	ada	1.0

# CONNECTED COMPONENT 143
NODE	C1QTNF8
NODE	C1QL1
EDGE	C1QL1	C1QTNF8	1.0

# CONNECTED COMPONENT 144
NODE	CPD
NODE	aatf
EDGE	CPD	aatf	1.0

# CONNECTED COMPONENT 145
NODE	KRT33A
NODE	cdc20
NODE	dnpep
SET	PWRN-KRT33A-1-1	1.0
IN	cdc20	PWRN-KRT33A-1-1
IN	dnpep	PWRN-KRT33A-1-1
EDGE	KRT33A	PWRN-KRT33A-1-1	1.0

# CONNECTED COMPONENT 146
NODE	KRT34
NODE	plekhb2
EDGE	KRT34	plekhb2	1.0

# CONNECTED COMPONENT 147
NODE	cfp
NODE	NCR1
EDGE	NCR1	cfp	1.0

# CONNECTED COMPONENT 148
NODE	robo1
NODE	slit2
EDGE	robo1	slit2	1.0

# CONNECTED COMPONENT 149
NODE	ENDOD1
NODE	kif21a
EDGE	ENDOD1	kif21a	1.0

# CONNECTED COMPONENT 150
NODE	SOX30
NODE	GP2
NODE	TSSK3
SET	PWRN-GP2-1-1	1.0
IN	SOX30	PWRN-GP2-1-1
IN	TSSK3	PWRN-GP2-1-1
EDGE	GP2	PWRN-GP2-1-1	1.0

# CONNECTED COMPONENT 151
NODE	TNFRSF6B
NODE	TNFSF15
NODE	ppp1r7
NODE	TNFRSF25
SET	PWRN-TNFRSF25-1-1	1.0
IN	TNFRSF6B	PWRN-TNFRSF25-1-1
IN	TNFRSF25	PWRN-TNFRSF25-1-1
EDGE	PWRN-TNFRSF25-1-1	TNFSF15	1.0
EDGE	TNFRSF6B	ppp1r7	1.0

# CONNECTED COMPONENT 152
NODE	ESR2
NODE	ccndbp1
EDGE	ESR2	ccndbp1	1.0

# CONNECTED COMPONENT 153
NODE	LY6D
NODE	ARFIP2
NODE	ABCB11
NODE	pkib
SET	PWRN-ABCB11-1-1	1.0
IN	ARFIP2	PWRN-ABCB11-1-1
IN	ABCB11	PWRN-ABCB11-1-1
IN	pkib	PWRN-ABCB11-1-1
EDGE	LY6D	PWRN-ABCB11-1-1	1.0

# CONNECTED COMPONENT 154
NODE	gdf11
NODE	bmp3
NODE	BMP8B
NODE	WFIKKN2
SET	PWRN-BMP8B-1-1	1.0
IN	gdf11	PWRN-BMP8B-1-1
IN	bmp3	PWRN-BMP8B-1-1
IN	BMP8B	PWRN-BMP8B-1-1
EDGE	PWRN-BMP8B-1-1	WFIKKN2	1.0

# CONNECTED COMPONENT 155
NODE	bmp10
NODE	SERINC3
EDGE	SERINC3	bmp10	1.0

# CONNECTED COMPONENT 156
NODE	gcnt3
NODE	dhrsx
EDGE	dhrsx	gcnt3	1.0

# CONNECTED COMPONENT 157
NODE	svep1
NODE	ZFYVE9
NODE	rnpep
SET	PWRN-ZFYVE9-1-1	1.0
IN	rnpep	PWRN-ZFYVE9-1-1
IN	svep1	PWRN-ZFYVE9-1-1
EDGE	PWRN-ZFYVE9-1-1	ZFYVE9	1.0

# CONNECTED COMPONENT 158
NODE	fjx1
NODE	pign
NODE	GPRC5B
NODE	DKKL1
NODE	C11orf71
SET	PWRN-C11orf71-1-1	1.0
IN	fjx1	PWRN-C11orf71-1-1
IN	C11orf71	PWRN-C11orf71-1-1
EDGE	DKKL1	PWRN-C11orf71-1-1	1.0
EDGE	fjx1	pign	1.0
EDGE	C11orf71	GPRC5B	1.0

# CONNECTED COMPONENT 159
NODE	apom
NODE	KLF6
NODE	C8orf30A
SET	PWRN-C8orf30A-1-1	1.0
IN	KLF6	PWRN-C8orf30A-1-1
IN	C8orf30A	PWRN-C8orf30A-1-1
EDGE	PWRN-C8orf30A-1-1	apom	1.0

# CONNECTED COMPONENT 160
NODE	adamts2
NODE	pik3r5
EDGE	adamts2	pik3r5	1.0

# CONNECTED COMPONENT 161
NODE	amn
NODE	stambp
EDGE	amn	stambp	1.0

# CONNECTED COMPONENT 162
NODE	cd180
NODE	ly86
EDGE	cd180	ly86	1.0

# CONNECTED COMPONENT 163
NODE	TEAD4
NODE	cxcl14
NODE	tex11
NODE	trim23
NODE	Collagen-XX
NODE	EXOC3-AS1
NODE	Collagen-XX_2
SET	PWRN-Collagen-XX-1-1	1.0
SET	PWRN-Collagen-XX-2-1	1.0
IN	Collagen-XX	PWRN-Collagen-XX-1-1
IN	cxcl14	PWRN-Collagen-XX-1-1
IN	Collagen-XX_2	PWRN-Collagen-XX-1-1
IN	trim23	PWRN-Collagen-XX-2-1
IN	TEAD4	PWRN-Collagen-XX-2-1
EDGE	PWRN-Collagen-XX-1-1	tex11	1.0
EDGE	EXOC3-AS1	PWRN-Collagen-XX-2-1	1.0
EDGE	cxcl14	trim23	1.0

# CONNECTED COMPONENT 164
NODE	snap29
NODE	OLFM1
EDGE	OLFM1	snap29	1.0

# CONNECTED COMPONENT 165
NODE	rell2
NODE	OXSR1
EDGE	OXSR1	rell2	1.0

# CONNECTED COMPONENT 166
NODE	exosc8
NODE	lsm8
NODE	Collagen-XXIII
SET	PWRN-Collagen-XXIII-1-1	1.0
IN	exosc8	PWRN-Collagen-XXIII-1-1
IN	lsm8	PWRN-Collagen-XXIII-1-1
EDGE	Collagen-XXIII	PWRN-Collagen-XXIII-1-1	1.0

# CONNECTED COMPONENT 167
NODE	TRIM69
NODE	reck_2
EDGE	TRIM69	reck_2	1.0

# CONNECTED COMPONENT 168
NODE	IL1RAPL1
NODE	IL18BP
NODE	IL37
NODE	IL18R1
SET	PWRN-IL18BP-1-1	1.0
IN	IL1RAPL1	PWRN-IL18BP-1-1
IN	IL18BP	PWRN-IL18BP-1-1
IN	IL18R1	PWRN-IL18BP-1-1
EDGE	IL37	PWRN-IL18BP-1-1	1.0

# CONNECTED COMPONENT 169
NODE	tomm40
NODE	itih1
EDGE	itih1	tomm40	1.0

# CONNECTED COMPONENT 170
NODE	adamtsl3
NODE	KRTAP2-3
EDGE	KRTAP2-3	adamtsl3	1.0

# CONNECTED COMPONENT 171
NODE	POTEI
NODE	DUSP23
EDGE	DUSP23	POTEI	1.0

# CONNECTED COMPONENT 172
NODE	CGB3
NODE	gphb5
NODE	lhb
NODE	tshb
NODE	cga
NODE	fshb
NODE	fshr
NODE	gpha2
SET	PWRN-CGB3-1-1	1.0
SET	PWRN-CGB3-2-1	1.0
IN	gphb5	PWRN-CGB3-1-1
IN	CGB3	PWRN-CGB3-1-1
IN	lhb	PWRN-CGB3-1-1
IN	tshb	PWRN-CGB3-1-1
IN	fshb	PWRN-CGB3-1-1
IN	fshr	PWRN-CGB3-2-1
IN	cga	PWRN-CGB3-2-1
EDGE	PWRN-CGB3-1-1	gpha2	1.0
EDGE	PWRN-CGB3-2-1	fshb	1.0

# CONNECTED COMPONENT 173
NODE	cp
NODE	slc40a1
EDGE	cp	slc40a1	1.0

# CONNECTED COMPONENT 174
NODE	c1r
NODE	pck1
EDGE	c1r	pck1	1.0

# CONNECTED COMPONENT 175
NODE	F12
NODE	GP1BA
EDGE	F12	GP1BA	1.0

# CONNECTED COMPONENT 176
NODE	ccdc24
NODE	ren
NODE	KCTD15
SET	PWRN-KCTD15-1-1	1.0
IN	KCTD15	PWRN-KCTD15-1-1
IN	ccdc24	PWRN-KCTD15-1-1
EDGE	PWRN-KCTD15-1-1	ren	1.0

# CONNECTED COMPONENT 177
NODE	creb3l1
NODE	CFHR5
NODE	c5
NODE	fam3c
SET	PWRN-CFHR5-1-1	1.0
IN	CFHR5	PWRN-CFHR5-1-1
IN	c5	PWRN-CFHR5-1-1
IN	fam3c	PWRN-CFHR5-1-1
EDGE	PWRN-CFHR5-1-1	creb3l1	1.0

# CONNECTED COMPONENT 178
NODE	PDGFB
NODE	pdgfa
EDGE	PDGFB	pdgfa	1.0

# CONNECTED COMPONENT 179
NODE	SORCS3
NODE	NTRK3
NODE	ntf3
NODE	ntrk1_2
NODE	ngf
NODE	sorcs2
SET	PWRN-NTRK3-1-1	1.0
IN	SORCS3	PWRN-NTRK3-1-1
IN	ntrk1_2	PWRN-NTRK3-1-1
IN	sorcs2	PWRN-NTRK3-1-1
EDGE	PWRN-NTRK3-1-1	ngf	1.0
EDGE	ntf3	sorcs2	1.0
EDGE	NTRK3	ntf3	1.0

# CONNECTED COMPONENT 180
NODE	MAGEA12
NODE	nppa
EDGE	MAGEA12	nppa	1.0

# CONNECTED COMPONENT 181
NODE	avpr1a
NODE	avp
EDGE	avp	avpr1a	1.0

# CONNECTED COMPONENT 182
NODE	oprm1
NODE	penk
EDGE	oprm1	penk	1.0

# CONNECTED COMPONENT 183
NODE	prlr
NODE	prl
NODE	NEK3
NODE	prlr_2
SET	PWRN-NEK3-1-1	1.0
IN	NEK3	PWRN-NEK3-1-1
IN	prl	PWRN-NEK3-1-1
EDGE	PWRN-NEK3-1-1	prlr	1.0
EDGE	prl	prlr_2	1.0

# CONNECTED COMPONENT 184
NODE	atp2b2
NODE	atp2b4
NODE	calca
SET	PWRN-atp2b2-1-1	1.0
IN	atp2b2	PWRN-atp2b2-1-1
IN	atp2b4	PWRN-atp2b2-1-1
EDGE	PWRN-atp2b2-1-1	calca	1.0

# CONNECTED COMPONENT 185
NODE	INSR
NODE	ins_2
NODE	gipr
NODE	GCG
NODE	gip
NODE	HLA-DRB1_2
NODE	tbc1d1
SET	PWRN-GCG-1-1	1.0
SET	PWRN-GCG-2-1	1.0
IN	INSR	PWRN-GCG-1-1
IN	HLA-DRB1_2	PWRN-GCG-1-1
IN	GCG	PWRN-GCG-1-1
IN	gipr	PWRN-GCG-2-1
IN	tbc1d1	PWRN-GCG-2-1
EDGE	PWRN-GCG-1-1	ins_2	1.0
EDGE	GCG	PWRN-GCG-2-1	1.0
EDGE	gip	gipr	1.0

# CONNECTED COMPONENT 186
NODE	GAST
NODE	CCK
NODE	CCKBR
SET	PWRN-CCK-1-1	1.0
IN	CCK	PWRN-CCK-1-1
IN	GAST	PWRN-CCK-1-1
EDGE	CCKBR	PWRN-CCK-1-1	1.0

# CONNECTED COMPONENT 187
NODE	CR2
NODE	IFNA1
EDGE	CR2	IFNA1	1.0

# CONNECTED COMPONENT 188
NODE	IFNGR2
NODE	ifng
NODE	ifngr1
SET	PWRN-IFNGR2-1-1	1.0
IN	IFNGR2	PWRN-IFNGR2-1-1
IN	ifngr1	PWRN-IFNGR2-1-1
EDGE	PWRN-IFNGR2-1-1	ifng	1.0

# CONNECTED COMPONENT 189
NODE	il2rb
NODE	IL2RA
NODE	IL2
NODE	znrd1
NODE	il15
SET	PWRN-IL2-1-1	1.0
IN	IL2	PWRN-IL2-1-1
IN	il15	PWRN-IL2-1-1
EDGE	PWRN-IL2-1-1	il2rb	1.0
EDGE	il15	znrd1	1.0
EDGE	IL2	IL2RA	1.0

# CONNECTED COMPONENT 190
NODE	IGLC1
NODE	IGLV2-8
NODE	IGHV3-33
SET	PWRN-IGHV3-33-1-1	1.0
IN	IGLV2-8	PWRN-IGHV3-33-1-1
IN	IGHV3-33	PWRN-IGHV3-33-1-1
EDGE	IGLC1	PWRN-IGHV3-33-1-1	1.0

# CONNECTED COMPONENT 191
NODE	IGHE
NODE	FCER1A
EDGE	FCER1A	IGHE	1.0

# CONNECTED COMPONENT 192
NODE	IGHG3
NODE	SKA1
EDGE	IGHG3	SKA1	1.0

# CONNECTED COMPONENT 193
NODE	MS4A1
NODE	ighd
NODE	CD19
SET	PWRN-CD19-1-1	1.0
IN	MS4A1	PWRN-CD19-1-1
IN	CD19	PWRN-CD19-1-1
EDGE	PWRN-CD19-1-1	ighd	1.0

# CONNECTED COMPONENT 194
NODE	Collagen-IV_9
NODE	kifap3
NODE	ifi30
SET	PWRN-Collagen-IV_9-1-1	1.0
IN	Collagen-IV_9	PWRN-Collagen-IV_9-1-1
IN	ifi30	PWRN-Collagen-IV_9-1-1
EDGE	PWRN-Collagen-IV_9-1-1	kifap3	1.0

# CONNECTED COMPONENT 195
NODE	apoc1
NODE	Nsg2
EDGE	Nsg2	apoc1	1.0

# CONNECTED COMPONENT 196
NODE	trim33
NODE	fga_2
EDGE	fga_2	trim33	1.0

# CONNECTED COMPONENT 197
NODE	c8a
NODE	c9
EDGE	c8a	c9	1.0

# CONNECTED COMPONENT 198
NODE	sympk
NODE	fn1
EDGE	fn1	sympk	1.0

# CONNECTED COMPONENT 199
NODE	STATH
NODE	PTPRE
EDGE	PTPRE	STATH	1.0

# CONNECTED COMPONENT 200
NODE	fuca1
NODE	usp21
EDGE	fuca1	usp21	1.0

# CONNECTED COMPONENT 201
NODE	proc
NODE	MMP15
EDGE	MMP15	proc	1.0

# CONNECTED COMPONENT 202
NODE	Ifna4
NODE	aldoa
EDGE	Ifna4	aldoa	1.0

# CONNECTED COMPONENT 203
NODE	CSF2
NODE	csf3r
NODE	csf3
NODE	PRG2
SET	PWRN-CSF2-1-1	1.0
IN	csf3r	PWRN-CSF2-1-1
IN	PRG2	PWRN-CSF2-1-1
EDGE	CSF2	PWRN-CSF2-1-1	1.0
EDGE	csf3	csf3r	1.0

# CONNECTED COMPONENT 204
NODE	IFNAR1
NODE	IFNW1
NODE	IFNA8
SET	PWRN-IFNA8-1-1	1.0
IN	IFNW1	PWRN-IFNA8-1-1
IN	IFNA8	PWRN-IFNA8-1-1
EDGE	IFNAR1	PWRN-IFNA8-1-1	1.0

# CONNECTED COMPONENT 205
NODE	igf1
NODE	igfbp1
NODE	IGFBP4
NODE	enpp1
NODE	INSR_2
SET	PWRN-IGFBP4-1-1	1.0
IN	igf1	PWRN-IGFBP4-1-1
IN	igfbp1	PWRN-IGFBP4-1-1
IN	IGFBP4	PWRN-IGFBP4-1-1
EDGE	PWRN-IGFBP4-1-1	PWRN-IGFBP4-1-1	1.0
EDGE	INSR_2	igf1	1.0
EDGE	INSR_2	enpp1	1.0

# CONNECTED COMPONENT 206
NODE	MUC20
NODE	ELOVL3
NODE	aldob
SET	PWRN-ELOVL3-1-1	1.0
IN	ELOVL3	PWRN-ELOVL3-1-1
IN	aldob	PWRN-ELOVL3-1-1
EDGE	MUC20	PWRN-ELOVL3-1-1	1.0

# CONNECTED COMPONENT 207
NODE	homer2
NODE	app_2
NODE	homer3
SET	PWRN-app_2-1-1	1.0
IN	homer2	PWRN-app_2-1-1
IN	homer3	PWRN-app_2-1-1
EDGE	PWRN-app_2-1-1	app_2	1.0

# CONNECTED COMPONENT 208
NODE	siah1_2
NODE	inha
EDGE	inha	siah1_2	1.0

# CONNECTED COMPONENT 209
NODE	il4
NODE	il13
NODE	il13ra1
SET	PWRN-il13-1-1	1.0
IN	il13	PWRN-il13-1-1
IN	il4	PWRN-il13-1-1
EDGE	PWRN-il13-1-1	il13ra1	1.0

# CONNECTED COMPONENT 210
NODE	IL5RA
NODE	IL5
NODE	IL5RA_2
SET	PWRN-IL5-1-1	1.0
IN	IL5RA	PWRN-IL5-1-1
IN	IL5RA_2	PWRN-IL5-1-1
EDGE	IL5	PWRN-IL5-1-1	1.0

# CONNECTED COMPONENT 211
NODE	eif4a2_2
NODE	alpl
EDGE	alpl	eif4a2_2	1.0

# CONNECTED COMPONENT 212
NODE	EDNRB
NODE	ednra
NODE	edn1
SET	PWRN-EDNRB-1-1	1.0
IN	EDNRB	PWRN-EDNRB-1-1
IN	ednra	PWRN-EDNRB-1-1
EDGE	PWRN-EDNRB-1-1	edn1	1.0

# CONNECTED COMPONENT 213
NODE	lig4
NODE	pnkp
NODE	ssb
NODE	gzmk
SET	PWRN-gzmk-1-1	1.0
IN	pnkp	PWRN-gzmk-1-1
IN	ssb	PWRN-gzmk-1-1
IN	lig4	PWRN-gzmk-1-1
EDGE	PWRN-gzmk-1-1	gzmk	1.0

# CONNECTED COMPONENT 214
NODE	usp45
NODE	IGKV4-1
EDGE	IGKV4-1	usp45	1.0

# CONNECTED COMPONENT 215
NODE	nr1d1
NODE	apoa4
EDGE	apoa4	nr1d1	1.0

# CONNECTED COMPONENT 216
NODE	UQCC2
NODE	CARTPT
NODE	CEACAM6
NODE	CEACAM8
NODE	CEACAM5
NODE	CEACAM7
SET	PWRN-CARTPT-1-1	1.0
IN	CARTPT	PWRN-CARTPT-1-1
IN	CEACAM7	PWRN-CARTPT-1-1
IN	CEACAM5	PWRN-CARTPT-1-1
IN	CEACAM8	PWRN-CARTPT-1-1
EDGE	CEACAM6	PWRN-CARTPT-1-1	1.0
EDGE	CEACAM5	UQCC2	1.0

# CONNECTED COMPONENT 217
NODE	FCER2
NODE	ache_2
NODE	colq
NODE	ATF7
SET	PWRN-ATF7-1-1	1.0
IN	FCER2	PWRN-ATF7-1-1
IN	ache_2	PWRN-ATF7-1-1
EDGE	ATF7	PWRN-ATF7-1-1	1.0
EDGE	ache_2	colq	1.0

# CONNECTED COMPONENT 218
NODE	crh
NODE	crhr1
EDGE	crh	crhr1	1.0

# CONNECTED COMPONENT 219
NODE	smc6
NODE	TEPSIN
NODE	hexa
NODE	Lama2
NODE	hexb
SET	PWRN-Lama2-1-1	1.0
IN	Lama2	PWRN-Lama2-1-1
IN	hexb	PWRN-Lama2-1-1
EDGE	PWRN-Lama2-1-1	smc6	1.0
EDGE	Lama2	TEPSIN	1.0
EDGE	hexa	hexb	1.0

# CONNECTED COMPONENT 220
NODE	lipf
NODE	psen2
EDGE	lipf	psen2	1.0

# CONNECTED COMPONENT 221
NODE	psenen
NODE	thbd
EDGE	psenen	thbd	1.0

# CONNECTED COMPONENT 222
NODE	ASGR1
NODE	CERS2
NODE	nlk
SET	PWRN-ASGR1-1-1	1.0
IN	CERS2	PWRN-ASGR1-1-1
IN	nlk	PWRN-ASGR1-1-1
EDGE	ASGR1	PWRN-ASGR1-1-1	1.0

# CONNECTED COMPONENT 223
NODE	csf1r
NODE	CSF1
NODE	il34
SET	PWRN-CSF1-1-1	1.0
IN	CSF1	PWRN-CSF1-1-1
IN	il34	PWRN-CSF1-1-1
EDGE	PWRN-CSF1-1-1	csf1r	1.0

# CONNECTED COMPONENT 224
NODE	bpgm
NODE	CEL
EDGE	CEL	bpgm	1.0

# CONNECTED COMPONENT 225
NODE	HSP90AA1
NODE	chordc1
EDGE	HSP90AA1	chordc1	1.0

# CONNECTED COMPONENT 226
NODE	cabp1_2
NODE	sp1
NODE	cacna1c_2
SET	PWRN-cabp1_2-1-1	1.0
IN	sp1	PWRN-cabp1_2-1-1
IN	cacna1c_2	PWRN-cabp1_2-1-1
EDGE	PWRN-cabp1_2-1-1	cabp1_2	1.0

# CONNECTED COMPONENT 227
NODE	GIT2
NODE	gusb
EDGE	GIT2	gusb	1.0

# CONNECTED COMPONENT 228
NODE	GSTA1
NODE	st3gal1
EDGE	GSTA1	st3gal1	1.0

# CONNECTED COMPONENT 229
NODE	inhba_2
NODE	acvr2a
EDGE	acvr2a	inhba_2	1.0

# CONNECTED COMPONENT 230
NODE	FCGR1A
NODE	zbtb25
NODE	FCGR3A
SET	PWRN-FCGR1A-1-1	1.0
IN	FCGR1A	PWRN-FCGR1A-1-1
IN	zbtb25	PWRN-FCGR1A-1-1
EDGE	FCGR3A	PWRN-FCGR1A-1-1	1.0

# CONNECTED COMPONENT 231
NODE	IL3
NODE	IL3RA
EDGE	IL3	IL3RA	1.0

# CONNECTED COMPONENT 232
NODE	ZFP91_2
NODE	il6r
NODE	ERAP1
SET	PWRN-ERAP1-1-1	1.0
IN	ZFP91_2	PWRN-ERAP1-1-1
IN	ERAP1	PWRN-ERAP1-1-1
EDGE	PWRN-ERAP1-1-1	il6r	1.0

# CONNECTED COMPONENT 233
NODE	MAGEA11
NODE	cib3
NODE	enox2_2
NODE	snrpa
NODE	il11ra
NODE	IL11
NODE	MLLT6_2
NODE	MAGEA11_2
NODE	enox2
NODE	Las2
SET	PWRN-IL11-1-1	1.0
SET	PWRN-IL11-2-1	1.0
IN	MLLT6_2	PWRN-IL11-1-1
IN	cib3	PWRN-IL11-1-1
IN	MAGEA11	PWRN-IL11-1-1
IN	snrpa	PWRN-IL11-1-1
IN	IL11	PWRN-IL11-2-1
IN	Las2	PWRN-IL11-2-1
IN	enox2	PWRN-IL11-2-1
EDGE	PWRN-IL11-1-1	enox2_2	1.0
EDGE	MAGEA11_2	PWRN-IL11-2-1	1.0
EDGE	IL11	il11ra	1.0
EDGE	IL11	MAGEA11	1.0

# CONNECTED COMPONENT 234
NODE	fgf2_2
NODE	COMT
EDGE	COMT	fgf2_2	1.0

# CONNECTED COMPONENT 235
NODE	acaa1
NODE	txndc11
EDGE	acaa1	txndc11	1.0

# CONNECTED COMPONENT 236
NODE	itsn1
NODE	dbh
EDGE	dbh	itsn1	1.0

# CONNECTED COMPONENT 237
NODE	MMP10
NODE	ADAMTSL1
EDGE	ADAMTSL1	MMP10	1.0

# CONNECTED COMPONENT 238
NODE	CD48
NODE	CD244
EDGE	CD244	CD48	1.0

# CONNECTED COMPONENT 239
NODE	inhbb
NODE	fnta
NODE	ACVR1C
SET	PWRN-ACVR1C-1-1	1.0
IN	fnta	PWRN-ACVR1C-1-1
IN	ACVR1C	PWRN-ACVR1C-1-1
EDGE	PWRN-ACVR1C-1-1	inhbb	1.0

# CONNECTED COMPONENT 240
NODE	ncam1
NODE	uchl1
NODE	rheb
SET	PWRN-ncam1-1-1	1.0
IN	rheb	PWRN-ncam1-1-1
IN	uchl1	PWRN-ncam1-1-1
EDGE	PWRN-ncam1-1-1	ncam1	1.0

# CONNECTED COMPONENT 241
NODE	zbtb48
NODE	C7orf34
EDGE	C7orf34	zbtb48	1.0

# CONNECTED COMPONENT 242
NODE	Npy1r
NODE	PYY
NODE	npy2r
SET	PWRN-Npy1r-1-1	1.0
IN	Npy1r	PWRN-Npy1r-1-1
IN	npy2r	PWRN-Npy1r-1-1
EDGE	PWRN-Npy1r-1-1	PYY	1.0

# CONNECTED COMPONENT 243
NODE	tubgcp5
NODE	clu
EDGE	clu	tubgcp5	1.0

# CONNECTED COMPONENT 244
NODE	bcl2l1
NODE	clu_2
EDGE	bcl2l1	clu_2	1.0

# CONNECTED COMPONENT 245
NODE	zc3h7a
NODE	cbfb
NODE	shkbp1
NODE	myoc
NODE	Collagen-VII_2
NODE	myl2
NODE	fbxl2
NODE	sparcl1_2
NODE	mia3
SET	PWRN-Collagen-VII_2-1-1	1.0
SET	PWRN-Collagen-VII_2-2-1	1.0
IN	zc3h7a	PWRN-Collagen-VII_2-1-1
IN	cbfb	PWRN-Collagen-VII_2-1-1
IN	shkbp1	PWRN-Collagen-VII_2-1-1
IN	fbxl2	PWRN-Collagen-VII_2-1-1
IN	mia3	PWRN-Collagen-VII_2-1-1
IN	myl2	PWRN-Collagen-VII_2-2-1
IN	sparcl1_2	PWRN-Collagen-VII_2-2-1
EDGE	Collagen-VII_2	PWRN-Collagen-VII_2-1-1	1.0
EDGE	PWRN-Collagen-VII_2-2-1	myoc	1.0
EDGE	cbfb	sparcl1_2	1.0

# CONNECTED COMPONENT 246
NODE	lipc
NODE	adhfe1
EDGE	adhfe1	lipc	1.0

# CONNECTED COMPONENT 247
NODE	fgf23
NODE	FGFR1_3
EDGE	FGFR1_3	fgf23	1.0

# CONNECTED COMPONENT 248
NODE	VDR
NODE	MMRN2
EDGE	MMRN2	VDR	1.0

# CONNECTED COMPONENT 249
NODE	cetp
NODE	PRKACG
EDGE	PRKACG	cetp	1.0

# CONNECTED COMPONENT 250
NODE	trim32
NODE	SCGB1A1
EDGE	SCGB1A1	trim32	1.0

# CONNECTED COMPONENT 251
NODE	srf
NODE	cyhr1
NODE	aldh3a1
SET	PWRN-aldh3a1-1-1	1.0
IN	srf	PWRN-aldh3a1-1-1
IN	cyhr1	PWRN-aldh3a1-1-1
EDGE	PWRN-aldh3a1-1-1	aldh3a1	1.0

# CONNECTED COMPONENT 252
NODE	cox6a2
NODE	Collagen-VI_3
NODE	slc38a3
SET	PWRN-Collagen-VI_3-1-1	1.0
IN	cox6a2	PWRN-Collagen-VI_3-1-1
IN	slc38a3	PWRN-Collagen-VI_3-1-1
EDGE	Collagen-VI_3	PWRN-Collagen-VI_3-1-1	1.0

# CONNECTED COMPONENT 253
NODE	BMP1
NODE	BMP1_3
NODE	DMP1
SET	PWRN-BMP1-1-1	1.0
IN	BMP1	PWRN-BMP1-1-1
IN	BMP1_3	PWRN-BMP1-1-1
EDGE	DMP1	PWRN-BMP1-1-1	1.0

# CONNECTED COMPONENT 254
NODE	c6
NODE	sart3
EDGE	c6	sart3	1.0

# CONNECTED COMPONENT 255
NODE	F3
NODE	f2rl1
EDGE	F3	f2rl1	1.0

# CONNECTED COMPONENT 256
NODE	apeh
NODE	tmem62
EDGE	apeh	tmem62	1.0

# CONNECTED COMPONENT 257
NODE	ANXA8
NODE	rdh12
EDGE	ANXA8	rdh12	1.0

# CONNECTED COMPONENT 258
NODE	parp3
NODE	nagk
NODE	mthfd2
NODE	actr10
SET	PWRN-actr10-1-1	1.0
IN	parp3	PWRN-actr10-1-1
IN	nagk	PWRN-actr10-1-1
EDGE	PWRN-actr10-1-1	mthfd2	1.0
EDGE	actr10	nagk	1.0

# CONNECTED COMPONENT 259
NODE	Ctse
NODE	emg1
EDGE	Ctse	emg1	1.0

# CONNECTED COMPONENT 260
NODE	irf2
NODE	irf2bpl
NODE	RNF169
NODE	ube2q1
SET	PWRN-RNF169-1-1	1.0
IN	RNF169	PWRN-RNF169-1-1
IN	ube2q1	PWRN-RNF169-1-1
IN	irf2	PWRN-RNF169-1-1
EDGE	PWRN-RNF169-1-1	irf2bpl	1.0

# CONNECTED COMPONENT 261
NODE	alox12
NODE	PLA2G2A
EDGE	PLA2G2A	alox12	1.0

# CONNECTED COMPONENT 262
NODE	gp9
NODE	GP5
EDGE	GP5	gp9	1.0

# CONNECTED COMPONENT 263
NODE	IL9
NODE	IL9R
NODE	cradd
SET	PWRN-IL9-1-1	1.0
IN	IL9	PWRN-IL9-1-1
IN	cradd	PWRN-IL9-1-1
EDGE	IL9R	PWRN-IL9-1-1	1.0

# CONNECTED COMPONENT 264
NODE	cetn2
NODE	arsa
NODE	ppic
SET	PWRN-arsa-1-1	1.0
IN	cetn2	PWRN-arsa-1-1
IN	ppic	PWRN-arsa-1-1
EDGE	PWRN-arsa-1-1	arsa	1.0

# CONNECTED COMPONENT 265
NODE	FOLR1
NODE	NCAPH2
NODE	cul3
NODE	irak3
NODE	WNT7B
NODE	ELOC
SET	PWRN-ELOC-1-1	1.0
IN	cul3	PWRN-ELOC-1-1
IN	NCAPH2	PWRN-ELOC-1-1
IN	irak3	PWRN-ELOC-1-1
EDGE	FOLR1	PWRN-ELOC-1-1	1.0
EDGE	ELOC	WNT7B	1.0
EDGE	WNT7B	cul3	1.0

# CONNECTED COMPONENT 266
NODE	SIL1
NODE	areg
NODE	S100A5
NODE	ccnd3
SET	PWRN-S100A5-1-1	1.0
IN	areg	PWRN-S100A5-1-1
IN	SIL1	PWRN-S100A5-1-1
EDGE	PWRN-S100A5-1-1	ccnd3	1.0
EDGE	S100A5	areg	1.0

# CONNECTED COMPONENT 267
NODE	UBIAD1
NODE	VEGFA_3
NODE	VEGFA_4
SET	PWRN-UBIAD1-1-1	1.0
IN	VEGFA_3	PWRN-UBIAD1-1-1
IN	VEGFA_4	PWRN-UBIAD1-1-1
EDGE	PWRN-UBIAD1-1-1	UBIAD1	1.0

# CONNECTED COMPONENT 268
NODE	SPN
NODE	dicer1
EDGE	SPN	dicer1	1.0

# CONNECTED COMPONENT 269
NODE	creb1
NODE	nit2
EDGE	creb1	nit2	1.0

# CONNECTED COMPONENT 270
NODE	dpep1
NODE	kif1bp
EDGE	dpep1	kif1bp	1.0

# CONNECTED COMPONENT 271
NODE	got1
NODE	mbnl1
NODE	wnt5a
NODE	ror1
NODE	abi3bp
NODE	fzd5
SET	PWRN-abi3bp-1-1	1.0
IN	got1	PWRN-abi3bp-1-1
IN	mbnl1	PWRN-abi3bp-1-1
IN	fzd5	PWRN-abi3bp-1-1
EDGE	PWRN-abi3bp-1-1	abi3bp	1.0
EDGE	fzd5	wnt5a	1.0
EDGE	ror1	wnt5a	1.0

# CONNECTED COMPONENT 272
NODE	ckmt2
NODE	OLFML3
NODE	HSPB3
SET	PWRN-HSPB3-1-1	1.0
IN	ckmt2	PWRN-HSPB3-1-1
IN	HSPB3	PWRN-HSPB3-1-1
EDGE	OLFML3	PWRN-HSPB3-1-1	1.0

# CONNECTED COMPONENT 273
NODE	lrp2
NODE	LCN2
NODE	gm2a
NODE	URM1
NODE	GID8
NODE	slc22a17
SET	PWRN-GID8-1-1	1.0
IN	lrp2	PWRN-GID8-1-1
IN	URM1	PWRN-GID8-1-1
IN	slc22a17	PWRN-GID8-1-1
IN	GID8	PWRN-GID8-1-1
EDGE	LCN2	PWRN-GID8-1-1	1.0
EDGE	GID8	gm2a	1.0

# CONNECTED COMPONENT 274
NODE	ino80b
NODE	IGFBP2
NODE	GSDMB
SET	PWRN-GSDMB-1-1	1.0
IN	ino80b	PWRN-GSDMB-1-1
IN	GSDMB	PWRN-GSDMB-1-1
EDGE	IGFBP2	PWRN-GSDMB-1-1	1.0

# CONNECTED COMPONENT 275
NODE	ADCYAP1
NODE	adcyap1r1
NODE	adcyap1r1_2
SET	PWRN-ADCYAP1-1-1	1.0
IN	adcyap1r1	PWRN-ADCYAP1-1-1
IN	adcyap1r1_2	PWRN-ADCYAP1-1-1
EDGE	ADCYAP1	PWRN-ADCYAP1-1-1	1.0

# CONNECTED COMPONENT 276
NODE	IL1RN
NODE	IL1R2
EDGE	IL1R2	IL1RN	1.0

# CONNECTED COMPONENT 277
NODE	cdh2
NODE	ptprr
EDGE	cdh2	ptprr	1.0

# CONNECTED COMPONENT 278
NODE	Orm2
NODE	stk3
NODE	cyp39a1
SET	PWRN-Orm2-1-1	1.0
IN	stk3	PWRN-Orm2-1-1
IN	cyp39a1	PWRN-Orm2-1-1
EDGE	Orm2	PWRN-Orm2-1-1	1.0

# CONNECTED COMPONENT 279
NODE	commd1
NODE	nfkb1_2
EDGE	commd1	nfkb1_2	1.0

# CONNECTED COMPONENT 280
NODE	tcn2
NODE	paxip1
EDGE	paxip1	tcn2	1.0

# CONNECTED COMPONENT 281
NODE	Collagen-XXVI
NODE	TBP
EDGE	Collagen-XXVI	TBP	1.0

# CONNECTED COMPONENT 282
NODE	ccna2
NODE	p3h2
NODE	MYH13
SET	PWRN-MYH13-1-1	1.0
IN	ccna2	PWRN-MYH13-1-1
IN	MYH13	PWRN-MYH13-1-1
EDGE	PWRN-MYH13-1-1	p3h2	1.0

# CONNECTED COMPONENT 283
NODE	PZP
NODE	tubgcp4_2
NODE	tmem248
SET	PWRN-PZP-1-1	1.0
IN	tubgcp4_2	PWRN-PZP-1-1
IN	tmem248	PWRN-PZP-1-1
EDGE	PWRN-PZP-1-1	PZP	1.0

# CONNECTED COMPONENT 284
NODE	FLT3LG
NODE	KITLG
EDGE	FLT3LG	KITLG	1.0

# CONNECTED COMPONENT 285
NODE	rpl18a
NODE	MDK
EDGE	MDK	rpl18a	1.0

# CONNECTED COMPONENT 286
NODE	DESI1
NODE	Endorepellin
NODE	fgf7
NODE	fgfr2_3
SET	PWRN-DESI1-1-1	1.0
IN	DESI1	PWRN-DESI1-1-1
IN	Endorepellin	PWRN-DESI1-1-1
IN	fgfr2_3	PWRN-DESI1-1-1
EDGE	PWRN-DESI1-1-1	fgf7	1.0

# CONNECTED COMPONENT 287
NODE	tnxb
NODE	Collagen-X
NODE	CAMK2D
NODE	epha10
NODE	banp
SET	PWRN-CAMK2D-1-1	1.0
IN	tnxb	PWRN-CAMK2D-1-1
IN	epha10	PWRN-CAMK2D-1-1
IN	Collagen-X	PWRN-CAMK2D-1-1
EDGE	PWRN-CAMK2D-1-1	banp	1.0
EDGE	CAMK2D	epha10	1.0

# CONNECTED COMPONENT 288
NODE	il10ra
NODE	il22
NODE	IL22RA1
NODE	il23r
NODE	pex19
NODE	il10rb
NODE	il10
NODE	IL12B
NODE	IL12RB1
NODE	ebi3
NODE	IL20RB
NODE	IL12A
NODE	il12rb2
NODE	il20ra
NODE	IL20
NODE	il26
NODE	gtpbp2
NODE	il22ra2
NODE	il23A
NODE	IL27
NODE	IL19
NODE	il22ra2_3
NODE	irf5
NODE	il22ra2_2
SET	PWRN-IL12A-1-1	1.0
SET	PWRN-IL12A-1-2	1.0
SET	PWRN-IL12A-2-1	1.0
SET	PWRN-IL12A-3-2	1.0
SET	PWRN-IL12A-3-1	1.0
SET	PWRN-IL12A-4-1	1.0
SET	PWRN-IL12A-5-1	1.0
SET	PWRN-IL12A-6-1	1.0
IN	PWRN-IL12A-6-1	PWRN-IL12A-2-1
IN	il23A	PWRN-IL12A-1-1
IN	IL12B	PWRN-IL12A-1-1
IN	IL12RB1	PWRN-IL12A-1-2
IN	irf5	PWRN-IL12A-1-2
IN	il23r	PWRN-IL12A-1-2
IN	il22ra2_3	PWRN-IL12A-2-1
IN	il22ra2_2	PWRN-IL12A-2-1
IN	il22ra2	PWRN-IL12A-2-1
IN	IL20RB	PWRN-IL12A-3-2
IN	il20ra	PWRN-IL12A-3-2
IN	IL19	PWRN-IL12A-3-1
IN	IL20	PWRN-IL12A-3-1
IN	il10	PWRN-IL12A-4-1
IN	IL12A	PWRN-IL12A-4-1
IN	gtpbp2	PWRN-IL12A-4-1
IN	il12rb2	PWRN-IL12A-5-1
IN	ebi3	PWRN-IL12A-5-1
IN	il10rb	PWRN-IL12A-6-1
IN	IL22RA1	PWRN-IL12A-6-1
EDGE	PWRN-IL12A-1-1	PWRN-IL12A-1-2	1.0
EDGE	PWRN-IL12A-2-1	il22	1.0
EDGE	PWRN-IL12A-3-1	PWRN-IL12A-3-2	1.0
EDGE	PWRN-IL12A-4-1	irf5	1.0
EDGE	IL12A	PWRN-IL12A-5-1	1.0
EDGE	PWRN-IL12A-6-1	il22ra2_3	1.0
EDGE	il23A	pex19	1.0
EDGE	IL12A	IL12B	1.0
EDGE	il10	il10ra	1.0
EDGE	IL12B	il23A	1.0
EDGE	il20ra	il26	1.0
EDGE	il10	il10rb	1.0
EDGE	IL27	ebi3	1.0
EDGE	IL20	IL22RA1	1.0
EDGE	IL12A	IL12RB1	1.0
EDGE	IL12B	il12rb2	1.0

# CONNECTED COMPONENT 289
NODE	HNRNPA2B1
NODE	zmym2
NODE	tardbp
SET	PWRN-HNRNPA2B1-1-1	1.0
IN	zmym2	PWRN-HNRNPA2B1-1-1
IN	tardbp	PWRN-HNRNPA2B1-1-1
EDGE	HNRNPA2B1	PWRN-HNRNPA2B1-1-1	1.0

# CONNECTED COMPONENT 290
NODE	TNFRSF4
NODE	TNFSF4
EDGE	TNFRSF4	TNFSF4	1.0

# CONNECTED COMPONENT 291
NODE	il21
NODE	DGKA
EDGE	DGKA	il21	1.0

# CONNECTED COMPONENT 292
NODE	gata3
NODE	MMRN1
EDGE	MMRN1	gata3	1.0

# CONNECTED COMPONENT 293
NODE	IL32
NODE	cebpa
EDGE	IL32	cebpa	1.0

# CONNECTED COMPONENT 294
NODE	KLRK1
NODE	RAET1G
NODE	MICA
SET	PWRN-KLRK1-1-1	1.0
IN	RAET1G	PWRN-KLRK1-1-1
IN	MICA	PWRN-KLRK1-1-1
EDGE	KLRK1	PWRN-KLRK1-1-1	1.0

# CONNECTED COMPONENT 295
NODE	pon2_2
NODE	htr2a
EDGE	htr2a	pon2_2	1.0

# CONNECTED COMPONENT 296
NODE	pcsk6
NODE	rxrb
EDGE	pcsk6	rxrb	1.0

# CONNECTED COMPONENT 297
NODE	MAPK14_2
NODE	EPHB2
NODE	rbl1
NODE	MAP2K3
NODE	map2k6
NODE	ptp4a2
SET	PWRN-EPHB2-1-1	1.0
SET	PWRN-EPHB2-2-1	1.0
IN	MAP2K3	PWRN-EPHB2-1-1
IN	EPHB2	PWRN-EPHB2-1-1
IN	map2k6	PWRN-EPHB2-1-1
IN	ptp4a2	PWRN-EPHB2-2-1
IN	rbl1	PWRN-EPHB2-2-1
EDGE	MAPK14_2	PWRN-EPHB2-1-1	1.0
EDGE	EPHB2	PWRN-EPHB2-2-1	1.0

# CONNECTED COMPONENT 298
NODE	TNFSF8
NODE	TNFRSF8
EDGE	TNFRSF8	TNFSF8	1.0

# CONNECTED COMPONENT 299
NODE	lims1_2
NODE	adamts9
NODE	ctgf
SET	PWRN-adamts9-1-1	1.0
IN	adamts9	PWRN-adamts9-1-1
IN	ctgf	PWRN-adamts9-1-1
EDGE	PWRN-adamts9-1-1	lims1_2	1.0

# CONNECTED COMPONENT 300
NODE	EFNA5
NODE	epha7
NODE	epha2
NODE	EFNA4
NODE	ephA4
SET	PWRN-EFNA4-1-1	1.0
SET	PWRN-EFNA4-1-2	1.0
IN	EFNA5	PWRN-EFNA4-1-1
IN	EFNA4	PWRN-EFNA4-1-1
IN	epha7	PWRN-EFNA4-1-2
IN	ephA4	PWRN-EFNA4-1-2
EDGE	PWRN-EFNA4-1-1	PWRN-EFNA4-1-2	1.0
EDGE	EFNA5	epha2	1.0

# CONNECTED COMPONENT 301
NODE	alk
NODE	ltk
NODE	Alkal1
NODE	ALKAL2
SET	PWRN-ALKAL2-1-1	1.0
IN	alk	PWRN-ALKAL2-1-1
IN	ltk	PWRN-ALKAL2-1-1
EDGE	Alkal1	PWRN-ALKAL2-1-1	1.0
EDGE	ALKAL2	alk	1.0

# CONNECTED COMPONENT 302
NODE	AQP1
NODE	mapre2
NODE	crtac1
NODE	morn4
SET	PWRN-AQP1-1-1	1.0
IN	AQP1	PWRN-AQP1-1-1
IN	mapre2	PWRN-AQP1-1-1
IN	morn4	PWRN-AQP1-1-1
EDGE	PWRN-AQP1-1-1	crtac1	1.0

# CONNECTED COMPONENT 303
NODE	cdc27
NODE	GKN1
EDGE	GKN1	cdc27	1.0

# CONNECTED COMPONENT 304
NODE	fcer1g
NODE	CLEC4C
EDGE	CLEC4C	fcer1g	1.0

# CONNECTED COMPONENT 305
NODE	wee1
NODE	BRPF3
EDGE	BRPF3	wee1	1.0

# CONNECTED COMPONENT 306
NODE	adsl
NODE	NOV
EDGE	NOV	adsl	1.0

# CONNECTED COMPONENT 307
NODE	ntsr1
NODE	nts
EDGE	nts	ntsr1	1.0

# CONNECTED COMPONENT 308
NODE	LCN1
NODE	khk
EDGE	LCN1	khk	1.0

# CONNECTED COMPONENT 309
NODE	st6galnac4
NODE	vwa5b2
NODE	mybpc3
NODE	spata20
NODE	SPHK1
NODE	coro1a
NODE	xrn1
NODE	dpp7
SET	PWRN-SPHK1-1-1	1.0
SET	PWRN-SPHK1-2-1	1.0
IN	st6galnac4	PWRN-SPHK1-1-1
IN	coro1a	PWRN-SPHK1-1-1
IN	xrn1	PWRN-SPHK1-1-1
IN	mybpc3	PWRN-SPHK1-1-1
IN	vwa5b2	PWRN-SPHK1-2-1
IN	dpp7	PWRN-SPHK1-2-1
EDGE	PWRN-SPHK1-1-1	spata20	1.0
EDGE	PWRN-SPHK1-2-1	xrn1	1.0
EDGE	SPHK1	dpp7	1.0

# CONNECTED COMPONENT 310
NODE	gnl1
NODE	ptp4a1
NODE	gdi1
NODE	ZNF212
SET	PWRN-ZNF212-1-1	1.0
IN	ptp4a1	PWRN-ZNF212-1-1
IN	gdi1	PWRN-ZNF212-1-1
IN	ZNF212	PWRN-ZNF212-1-1
EDGE	PWRN-ZNF212-1-1	gnl1	1.0

# CONNECTED COMPONENT 311
NODE	MRPL50
NODE	dctd
NODE	ngrn
NODE	GDF15
NODE	PSG3
NODE	TST
NODE	nup58
NODE	prkd2
NODE	setd4
NODE	clpp
SET	PWRN-GDF15-1-1	1.0
SET	PWRN-GDF15-2-1	1.0
SET	PWRN-GDF15-3-1	1.0
IN	ngrn	PWRN-GDF15-1-1
IN	GDF15	PWRN-GDF15-1-1
IN	TST	PWRN-GDF15-1-1
IN	nup58	PWRN-GDF15-2-1
IN	setd4	PWRN-GDF15-2-1
IN	prkd2	PWRN-GDF15-3-1
IN	dctd	PWRN-GDF15-3-1
EDGE	MRPL50	PWRN-GDF15-1-1	1.0
EDGE	GDF15	PWRN-GDF15-2-1	1.0
EDGE	PWRN-GDF15-3-1	ngrn	1.0
EDGE	PSG3	prkd2	1.0
EDGE	TST	clpp	1.0

# CONNECTED COMPONENT 312
NODE	NTRK2
NODE	NTF4
EDGE	NTF4	NTRK2	1.0

# CONNECTED COMPONENT 313
NODE	CLEC2D_2
NODE	shmt2
EDGE	CLEC2D_2	shmt2	1.0

# CONNECTED COMPONENT 314
NODE	GMPPA
NODE	btc
EDGE	GMPPA	btc	1.0

# CONNECTED COMPONENT 315
NODE	scn1a
NODE	fgf13_2
NODE	SCN5A
NODE	fgf13
NODE	fgf12
SET	PWRN-SCN5A-1-1	1.0
IN	fgf13_2	PWRN-SCN5A-1-1
IN	fgf13	PWRN-SCN5A-1-1
IN	fgf12	PWRN-SCN5A-1-1
EDGE	PWRN-SCN5A-1-1	SCN5A	1.0
EDGE	fgf12	scn1a	1.0

# CONNECTED COMPONENT 316
NODE	irs1
NODE	ddr1_3
EDGE	ddr1_3	irs1	1.0

# CONNECTED COMPONENT 317
NODE	PSG5
NODE	tie1
EDGE	PSG5	tie1	1.0

# CONNECTED COMPONENT 318
NODE	CLEC9A
NODE	TMOD3
NODE	add1_2
SET	PWRN-CLEC9A-1-1	1.0
IN	TMOD3	PWRN-CLEC9A-1-1
IN	add1_2	PWRN-CLEC9A-1-1
EDGE	CLEC9A	PWRN-CLEC9A-1-1	1.0

# CONNECTED COMPONENT 319
NODE	ddit3_2
NODE	TWEAK
EDGE	TWEAK	ddit3_2	1.0

# CONNECTED COMPONENT 320
NODE	myl6
NODE	myh11
EDGE	myh11	myl6	1.0

# CONNECTED COMPONENT 321
NODE	arr3
NODE	RNASE6
EDGE	RNASE6	arr3	1.0

# CONNECTED COMPONENT 322
NODE	LTB
NODE	LTBR
EDGE	LTB	LTBR	1.0

# CONNECTED COMPONENT 323
NODE	EPM2AIP1
NODE	serpinf1
EDGE	EPM2AIP1	serpinf1	1.0

# CONNECTED COMPONENT 324
NODE	NCALD
NODE	hpcal1
NODE	c1qtnf2
SET	PWRN-NCALD-1-1	1.0
IN	NCALD	PWRN-NCALD-1-1
IN	hpcal1	PWRN-NCALD-1-1
EDGE	PWRN-NCALD-1-1	c1qtnf2	1.0

# CONNECTED COMPONENT 325
NODE	APH1A
NODE	mpl
NODE	thpo
NODE	numbl
SET	PWRN-APH1A-1-1	1.0
IN	APH1A	PWRN-APH1A-1-1
IN	mpl	PWRN-APH1A-1-1
IN	numbl	PWRN-APH1A-1-1
EDGE	PWRN-APH1A-1-1	thpo	1.0

# CONNECTED COMPONENT 326
NODE	ing1
NODE	ctrl
EDGE	ctrl	ing1	1.0

# CONNECTED COMPONENT 327
NODE	pnoc
NODE	oprl1
EDGE	oprl1	pnoc	1.0

# CONNECTED COMPONENT 328
NODE	CD200R1
NODE	CD200
EDGE	CD200	CD200R1	1.0

# CONNECTED COMPONENT 329
NODE	ncs1
NODE	zmiz2
NODE	NBL1
SET	PWRN-NBL1-1-1	1.0
IN	ncs1	PWRN-NBL1-1-1
IN	zmiz2	PWRN-NBL1-1-1
EDGE	NBL1	PWRN-NBL1-1-1	1.0

# CONNECTED COMPONENT 330
NODE	ctsk
NODE	RARRES2
EDGE	RARRES2	ctsk	1.0

# CONNECTED COMPONENT 331
NODE	taf7
NODE	CTF1
NODE	MAGEA6
SET	PWRN-CTF1-1-1	1.0
IN	taf7	PWRN-CTF1-1-1
IN	MAGEA6	PWRN-CTF1-1-1
EDGE	CTF1	PWRN-CTF1-1-1	1.0

# CONNECTED COMPONENT 332
NODE	KIR2DS4
NODE	KIR2DL3
NODE	KIR2DL2
NODE	HLA-C_2
SET	PWRN-HLA-C_2-1-1	1.0
IN	KIR2DS4	PWRN-HLA-C_2-1-1
IN	KIR2DL3	PWRN-HLA-C_2-1-1
IN	KIR2DL2	PWRN-HLA-C_2-1-1
EDGE	HLA-C_2	PWRN-HLA-C_2-1-1	1.0

# CONNECTED COMPONENT 333
NODE	XCR1
NODE	XCL1
EDGE	XCL1	XCR1	1.0

# CONNECTED COMPONENT 334
NODE	gramd1c
NODE	bcl7a
NODE	cd151
SET	PWRN-bcl7a-1-1	1.0
IN	bcl7a	PWRN-bcl7a-1-1
IN	gramd1c	PWRN-bcl7a-1-1
EDGE	PWRN-bcl7a-1-1	cd151	1.0

# CONNECTED COMPONENT 335
NODE	KNL1
NODE	cd97
EDGE	KNL1	cd97	1.0

# CONNECTED COMPONENT 336
NODE	CCL26
NODE	CX3CR1
EDGE	CCL26	CX3CR1	1.0

# CONNECTED COMPONENT 337
NODE	slc11a2
NODE	ndfip1
EDGE	ndfip1	slc11a2	1.0

# CONNECTED COMPONENT 338
NODE	dhps
NODE	vash1
EDGE	dhps	vash1	1.0

# CONNECTED COMPONENT 339
NODE	ube2a
NODE	CMTM2
EDGE	CMTM2	ube2a	1.0

# CONNECTED COMPONENT 340
NODE	cnpy4
NODE	arl4d
EDGE	arl4d	cnpy4	1.0

# CONNECTED COMPONENT 341
NODE	lum
NODE	tra2b
NODE	ppt1
NODE	gnaq
SET	PWRN-gnaq-1-1	1.0
IN	lum	PWRN-gnaq-1-1
IN	ppt1	PWRN-gnaq-1-1
EDGE	PWRN-gnaq-1-1	gnaq	1.0
EDGE	lum	tra2b	1.0

# CONNECTED COMPONENT 342
NODE	ap4s1
NODE	mecp2_2
EDGE	ap4s1	mecp2_2	1.0

# CONNECTED COMPONENT 343
NODE	bod1l1
NODE	usp11
NODE	sema3b
SET	PWRN-bod1l1-1-1	1.0
IN	bod1l1	PWRN-bod1l1-1-1
IN	usp11	PWRN-bod1l1-1-1
EDGE	PWRN-bod1l1-1-1	sema3b	1.0

# CONNECTED COMPONENT 344
NODE	ccng1
NODE	ltbp3
NODE	peli2
SET	PWRN-ccng1-1-1	1.0
IN	ccng1	PWRN-ccng1-1-1
IN	peli2	PWRN-ccng1-1-1
EDGE	PWRN-ccng1-1-1	ltbp3	1.0

# CONNECTED COMPONENT 345
NODE	myef2
NODE	hnrnpm_2
EDGE	hnrnpm_2	myef2	1.0

# CONNECTED COMPONENT 346
NODE	FAM19A1
NODE	tmem25
NODE	rabggtb
SET	PWRN-FAM19A1-1-1	1.0
IN	FAM19A1	PWRN-FAM19A1-1-1
IN	tmem25	PWRN-FAM19A1-1-1
EDGE	PWRN-FAM19A1-1-1	rabggtb	1.0

# CONNECTED COMPONENT 347
NODE	limk1
NODE	Erbin_3
EDGE	Erbin_3	limk1	1.0

# CONNECTED COMPONENT 348
NODE	mapk10
NODE	plin2
EDGE	mapk10	plin2	1.0

# CONNECTED COMPONENT 349
NODE	chmp1b
NODE	ist1_2
EDGE	chmp1b	ist1_2	1.0

# CONNECTED COMPONENT 350
NODE	hira
NODE	ubn2
EDGE	hira	ubn2	1.0

# CONNECTED COMPONENT 351
NODE	noa1
NODE	Collagen-IX
NODE	HAP1
SET	PWRN-Collagen-IX-1-1	1.0
IN	noa1	PWRN-Collagen-IX-1-1
IN	HAP1	PWRN-Collagen-IX-1-1
EDGE	Collagen-IX	PWRN-Collagen-IX-1-1	1.0

# CONNECTED COMPONENT 352
NODE	GBE1
NODE	nfrkb
NODE	EPHB3
SET	PWRN-EPHB3-1-1	1.0
IN	GBE1	PWRN-EPHB3-1-1
IN	nfrkb	PWRN-EPHB3-1-1
EDGE	EPHB3	PWRN-EPHB3-1-1	1.0

# CONNECTED COMPONENT 353
NODE	asxl2
NODE	SLURP1
EDGE	SLURP1	asxl2	1.0

# CONNECTED COMPONENT 354
NODE	LGALS4
NODE	rras2
NODE	KIAA1549
SET	PWRN-KIAA1549-1-1	1.0
IN	rras2	PWRN-KIAA1549-1-1
IN	KIAA1549	PWRN-KIAA1549-1-1
EDGE	LGALS4	PWRN-KIAA1549-1-1	1.0

# CONNECTED COMPONENT 355
NODE	WNT4
NODE	P2RX4
EDGE	P2RX4	WNT4	1.0

# CONNECTED COMPONENT 356
NODE	jam3
NODE	pard3
NODE	jam2
SET	PWRN-jam2-1-1	1.0
IN	pard3	PWRN-jam2-1-1
IN	jam2	PWRN-jam2-1-1
EDGE	PWRN-jam2-1-1	jam3	1.0

# CONNECTED COMPONENT 357
NODE	KCTD6
NODE	GSDMD
EDGE	GSDMD	KCTD6	1.0

# CONNECTED COMPONENT 358
NODE	KRTAP12-2
NODE	tinagl1
NODE	KRTAP4-2
SET	PWRN-KRTAP12-2-1-1	1.0
IN	KRTAP12-2	PWRN-KRTAP12-2-1-1
IN	KRTAP4-2	PWRN-KRTAP12-2-1-1
EDGE	PWRN-KRTAP12-2-1-1	tinagl1	1.0

# CONNECTED COMPONENT 359
NODE	ANAPC15
NODE	C1QTNF6
NODE	vps16
NODE	gnptg
SET	PWRN-ANAPC15-1-1	1.0
IN	ANAPC15	PWRN-ANAPC15-1-1
IN	vps16	PWRN-ANAPC15-1-1
EDGE	C1QTNF6	PWRN-ANAPC15-1-1	1.0
EDGE	ANAPC15	gnptg	1.0

# CONNECTED COMPONENT 360
NODE	fam131a
NODE	KRTAP10-4
NODE	irf9
NODE	PHYHIP
NODE	rspo2
NODE	S100A13
NODE	plekhf2
NODE	JMJD6
SET	PWRN-JMJD6-1-1	1.0
SET	PWRN-JMJD6-2-1	1.0
IN	PHYHIP	PWRN-JMJD6-1-1
IN	plekhf2	PWRN-JMJD6-1-1
IN	irf9	PWRN-JMJD6-1-1
IN	KRTAP10-4	PWRN-JMJD6-2-1
IN	JMJD6	PWRN-JMJD6-2-1
EDGE	PWRN-JMJD6-1-1	S100A13	1.0
EDGE	PWRN-JMJD6-2-1	rspo2	1.0
EDGE	PHYHIP	fam131a	1.0
EDGE	plekhf2	rspo2	1.0

# CONNECTED COMPONENT 361
NODE	rspry1
NODE	ube2d3
NODE	ube2d2
SET	PWRN-rspry1-1-1	1.0
IN	ube2d3	PWRN-rspry1-1-1
IN	ube2d2	PWRN-rspry1-1-1
EDGE	PWRN-rspry1-1-1	rspry1	1.0

# CONNECTED COMPONENT 362
NODE	MUC3A
NODE	TFF3
NODE	pcbd1
NODE	bcan
SET	PWRN-MUC3A-1-1	1.0
IN	TFF3	PWRN-MUC3A-1-1
IN	bcan	PWRN-MUC3A-1-1
EDGE	PWRN-MUC3A-1-1	pcbd1	1.0
EDGE	MUC3A	TFF3	1.0

# CONNECTED COMPONENT 363
NODE	arf5
NODE	rab11a
NODE	rab11fip4
NODE	polh
NODE	gtpbp2_2
SET	PWRN-arf5-1-1	1.0
IN	rab11fip4	PWRN-arf5-1-1
IN	gtpbp2_2	PWRN-arf5-1-1
EDGE	PWRN-arf5-1-1	rab11a	1.0
EDGE	gtpbp2_2	polh	1.0
EDGE	arf5	rab11fip4	1.0

# CONNECTED COMPONENT 364
NODE	JAML
NODE	cxadr
EDGE	JAML	cxadr	1.0

# CONNECTED COMPONENT 365
NODE	GPC5
NODE	dcps
EDGE	GPC5	dcps	1.0

# CONNECTED COMPONENT 366
NODE	TIGIT
NODE	NECTIN2
NODE	NECTIN4
NODE	ERH
SET	PWRN-ERH-1-1	1.0
IN	TIGIT	PWRN-ERH-1-1
IN	NECTIN2	PWRN-ERH-1-1
IN	ERH	PWRN-ERH-1-1
EDGE	NECTIN4	PWRN-ERH-1-1	1.0

# CONNECTED COMPONENT 367
NODE	fam3a_2
NODE	PACRGL
EDGE	PACRGL	fam3a_2	1.0

# CONNECTED COMPONENT 368
NODE	PEX
NODE	TIMP4
EDGE	PEX	TIMP4	1.0

# CONNECTED COMPONENT 369
NODE	USP17L24
NODE	adamts1
EDGE	USP17L24	adamts1	1.0

# CONNECTED COMPONENT 370
NODE	znrf3
NODE	rspo1
EDGE	rspo1	znrf3	1.0

# CONNECTED COMPONENT 371
NODE	ralgapa2
NODE	ralgapb
EDGE	ralgapa2	ralgapb	1.0

# CONNECTED COMPONENT 372
NODE	mad1l1
NODE	LGALSL
EDGE	LGALSL	mad1l1	1.0

# CONNECTED COMPONENT 373
NODE	cep63_2
NODE	INTS6L
EDGE	INTS6L	cep63_2	1.0

# CONNECTED COMPONENT 374
NODE	ccdc14
NODE	RNF213
NODE	PLAC9
NODE	RAPGEF5
SET	PWRN-PLAC9-1-1	1.0
IN	ccdc14	PWRN-PLAC9-1-1
IN	RNF213	PWRN-PLAC9-1-1
IN	RAPGEF5	PWRN-PLAC9-1-1
EDGE	PLAC9	PWRN-PLAC9-1-1	1.0

# CONNECTED COMPONENT 375
NODE	colec12
NODE	exoc1
EDGE	colec12	exoc1	1.0

# CONNECTED COMPONENT 376
NODE	Leg1
NODE	LDLRAP1
EDGE	LDLRAP1	Leg1	1.0

# CONNECTED COMPONENT 377
NODE	cmtm4
NODE	mrpl2
EDGE	cmtm4	mrpl2	1.0

# CONNECTED COMPONENT 378
NODE	cfap58
NODE	NAV2
EDGE	NAV2	cfap58	1.0

# CONNECTED COMPONENT 379
NODE	nod1
NODE	ndufa13
NODE	LDLRAD1
NODE	OLFM4
SET	PWRN-LDLRAD1-1-1	1.0
IN	nod1	PWRN-LDLRAD1-1-1
IN	ndufa13	PWRN-LDLRAD1-1-1
IN	LDLRAD1	PWRN-LDLRAD1-1-1
EDGE	OLFM4	PWRN-LDLRAD1-1-1	1.0

# CONNECTED COMPONENT 380
NODE	CEP164
NODE	rnaseh2b
EDGE	CEP164	rnaseh2b	1.0

# CONNECTED COMPONENT 381
NODE	PTGES2
NODE	C1orf189
EDGE	C1orf189	PTGES2	1.0

# CONNECTED COMPONENT 382
NODE	cnot8
NODE	LIPM
EDGE	LIPM	cnot8	1.0

# CONNECTED COMPONENT 383
NODE	CLEC6A
NODE	CLEC4D
EDGE	CLEC4D	CLEC6A	1.0

# CONNECTED COMPONENT 384
NODE	vasn
NODE	RNF31_2
EDGE	RNF31_2	vasn	1.0

# CONNECTED COMPONENT 385
NODE	lta_2
NODE	slc30a2
NODE	ADAM33_2
NODE	CCL4L1
SET	PWRN-ADAM33_2-1-1	1.0
IN	lta_2	PWRN-ADAM33_2-1-1
IN	ADAM33_2	PWRN-ADAM33_2-1-1
IN	CCL4L1	PWRN-ADAM33_2-1-1
EDGE	PWRN-ADAM33_2-1-1	slc30a2	1.0

# CONNECTED COMPONENT 386
NODE	MR1
NODE	CCDC70
NODE	FATE1
NODE	prrg2_2
NODE	NRG4
SET	PWRN-CCDC70-1-1	1.0
IN	NRG4	PWRN-CCDC70-1-1
IN	MR1	PWRN-CCDC70-1-1
IN	CCDC70	PWRN-CCDC70-1-1
IN	prrg2_2	PWRN-CCDC70-1-1
EDGE	FATE1	PWRN-CCDC70-1-1	1.0

# CONNECTED COMPONENT 387
NODE	Igfl3
NODE	IGFL2
NODE	IGFL1
NODE	igflr1
SET	PWRN-IGFL1-1-1	1.0
IN	Igfl3	PWRN-IGFL1-1-1
IN	IGFL2	PWRN-IGFL1-1-1
IN	IGFL1	PWRN-IGFL1-1-1
EDGE	PWRN-IGFL1-1-1	igflr1	1.0

# CONNECTED COMPONENT 388
NODE	SBSN
NODE	polk
EDGE	SBSN	polk	1.0

# CONNECTED COMPONENT 389
NODE	LYZL1
NODE	XAGE3
EDGE	LYZL1	XAGE3	1.0

# CONNECTED COMPONENT 390
NODE	ENAM
NODE	fam20a
NODE	AMTN
NODE	AMBN
SET	PWRN-AMBN-1-1	1.0
IN	ENAM	PWRN-AMBN-1-1
IN	AMTN	PWRN-AMBN-1-1
IN	AMBN	PWRN-AMBN-1-1
EDGE	PWRN-AMBN-1-1	fam20a	1.0

# CONNECTED COMPONENT 391
NODE	plxdc2
NODE	ZBP1
EDGE	ZBP1	plxdc2	1.0

# CONNECTED COMPONENT 392
NODE	ANGPTL8
NODE	angptl3
EDGE	ANGPTL8	angptl3	1.0

# CONNECTED COMPONENT 393
NODE	PCDHA6
NODE	lrig3
NODE	brk1
SET	PWRN-PCDHA6-1-1	1.0
IN	PCDHA6	PWRN-PCDHA6-1-1
IN	lrig3	PWRN-PCDHA6-1-1
EDGE	PWRN-PCDHA6-1-1	brk1	1.0

# CONNECTED COMPONENT 394
NODE	apool
NODE	ndufa12
EDGE	apool	ndufa12	1.0

# CONNECTED COMPONENT 395
NODE	fras1
NODE	bcor
EDGE	bcor	fras1	1.0

# CONNECTED COMPONENT 396
NODE	naprt
NODE	GRAMD2B
EDGE	GRAMD2B	naprt	1.0

# CONNECTED COMPONENT 397
NODE	ppp1r21
NODE	gatd1
EDGE	gatd1	ppp1r21	1.0

# CONNECTED COMPONENT 398
NODE	POMZP3
NODE	ccdc94
NODE	nmi
NODE	EMILIN1
NODE	necab2
SET	PWRN-EMILIN1-1-1	1.0
IN	ccdc94	PWRN-EMILIN1-1-1
IN	nmi	PWRN-EMILIN1-1-1
IN	necab2	PWRN-EMILIN1-1-1
EDGE	EMILIN1	PWRN-EMILIN1-1-1	1.0
EDGE	POMZP3	nmi	1.0

# CONNECTED COMPONENT 399
NODE	necab2_2
NODE	adamtsl2
EDGE	adamtsl2	necab2_2	1.0

# CONNECTED COMPONENT 400
NODE	pxdn
NODE	bnipl
EDGE	bnipl	pxdn	1.0

# CONNECTED COMPONENT 401
NODE	vac14
NODE	LPAL2
NODE	cd209
NODE	PRADC1
SET	PWRN-LPAL2-1-1	1.0
IN	LPAL2	PWRN-LPAL2-1-1
IN	cd209	PWRN-LPAL2-1-1
IN	PRADC1	PWRN-LPAL2-1-1
EDGE	PWRN-LPAL2-1-1	vac14	1.0

# CONNECTED COMPONENT 402
NODE	ifnlr1
NODE	IFNL1
EDGE	IFNL1	ifnlr1	1.0

# CONNECTED COMPONENT 403
NODE	egfl6
NODE	sh3gl3_2
EDGE	egfl6	sh3gl3_2	1.0

# CONNECTED COMPONENT 404
NODE	nudcd3
NODE	klhl34
EDGE	klhl34	nudcd3	1.0

# CONNECTED COMPONENT 405
NODE	stk11ip
NODE	UBE2DNL
EDGE	UBE2DNL	stk11ip	1.0

# CONNECTED COMPONENT 406
NODE	IGSF1
NODE	hectd1
EDGE	IGSF1	hectd1	1.0

# CONNECTED COMPONENT 407
NODE	L3MBTL4
NODE	pdgfc
EDGE	L3MBTL4	pdgfc	1.0

# CONNECTED COMPONENT 408
NODE	MLKL
NODE	GLG1
EDGE	GLG1	MLKL	1.0

# CONNECTED COMPONENT 409
NODE	nhlrc2
NODE	cep76
EDGE	cep76	nhlrc2	1.0

# CONNECTED COMPONENT 410
NODE	nhlrc2_2
NODE	ANKS1A
EDGE	ANKS1A	nhlrc2_2	1.0

# CONNECTED COMPONENT 411
NODE	fbxo7
NODE	retreg2
NODE	hpse
SET	PWRN-fbxo7-1-1	1.0
IN	fbxo7	PWRN-fbxo7-1-1
IN	retreg2	PWRN-fbxo7-1-1
EDGE	PWRN-fbxo7-1-1	hpse	1.0

# CONNECTED COMPONENT 412
NODE	CLEC18C
NODE	nfkbil1
EDGE	CLEC18C	nfkbil1	1.0

# CONNECTED COMPONENT 413
NODE	PNMA1
NODE	sema4c
EDGE	PNMA1	sema4c	1.0

# CONNECTED COMPONENT 414
NODE	IL17B
NODE	il17rd
NODE	IL17RB
NODE	IL25
SET	PWRN-IL17B-1-1	1.0
IN	IL25	PWRN-IL17B-1-1
IN	IL17B	PWRN-IL17B-1-1
IN	il17rd	PWRN-IL17B-1-1
EDGE	IL17RB	PWRN-IL17B-1-1	1.0

# CONNECTED COMPONENT 415
NODE	VSTM2A
NODE	MSANTD3
EDGE	MSANTD3	VSTM2A	1.0

# CONNECTED COMPONENT 416
NODE	dmxl2
NODE	aktip
NODE	emid1
SET	PWRN-aktip-1-1	1.0
IN	dmxl2	PWRN-aktip-1-1
IN	emid1	PWRN-aktip-1-1
EDGE	PWRN-aktip-1-1	aktip	1.0

# CONNECTED COMPONENT 417
NODE	rln3
NODE	RXFP4
EDGE	RXFP4	rln3	1.0

# CONNECTED COMPONENT 418
NODE	lrrc4c
NODE	LRRC4
NODE	CREB3L4
NODE	NTNG1
NODE	NTNG2
SET	PWRN-CREB3L4-1-2	1.0
SET	PWRN-CREB3L4-1-1	1.0
IN	NTNG2	PWRN-CREB3L4-1-2
IN	NTNG1	PWRN-CREB3L4-1-2
IN	lrrc4c	PWRN-CREB3L4-1-1
IN	LRRC4	PWRN-CREB3L4-1-1
EDGE	PWRN-CREB3L4-1-1	PWRN-CREB3L4-1-2	1.0
EDGE	CREB3L4	lrrc4c	1.0

# CONNECTED COMPONENT 419
NODE	DDI1
NODE	CCL28
EDGE	CCL28	DDI1	1.0

# CONNECTED COMPONENT 420
NODE	TMEM79
NODE	TEX264
EDGE	TEX264	TMEM79	1.0

# CONNECTED COMPONENT 421
NODE	APOO
NODE	timmdc1
EDGE	APOO	timmdc1	1.0

# CONNECTED COMPONENT 422
NODE	LACRT
NODE	map1lc3c
EDGE	LACRT	map1lc3c	1.0

# CONNECTED COMPONENT 423
NODE	mtcl1_2
NODE	rnf41
EDGE	mtcl1_2	rnf41	1.0

# CONNECTED COMPONENT 424
NODE	HIPK3
NODE	tbrg4
NODE	mtmr4
SET	PWRN-HIPK3-1-1	1.0
IN	HIPK3	PWRN-HIPK3-1-1
IN	tbrg4	PWRN-HIPK3-1-1
EDGE	PWRN-HIPK3-1-1	mtmr4	1.0

# CONNECTED COMPONENT 425
NODE	C14orf93
NODE	MRFAP1
EDGE	C14orf93	MRFAP1	1.0

# CONNECTED COMPONENT 426
NODE	ADGRL3
NODE	flrt3
EDGE	ADGRL3	flrt3	1.0

# CONNECTED COMPONENT 427
NODE	exosc5
NODE	lipg
EDGE	exosc5	lipg	1.0

# CONNECTED COMPONENT 428
NODE	fgf21
NODE	cdh7
NODE	klb
SET	PWRN-cdh7-1-1	1.0
IN	cdh7	PWRN-cdh7-1-1
IN	klb	PWRN-cdh7-1-1
EDGE	PWRN-cdh7-1-1	fgf21	1.0

# CONNECTED COMPONENT 429
NODE	SERPINA10
NODE	PIAS3
EDGE	PIAS3	SERPINA10	1.0

# CONNECTED COMPONENT 430
NODE	tnfsf18
NODE	tnfrsf18
EDGE	tnfrsf18	tnfsf18	1.0

# CONNECTED COMPONENT 431
NODE	chdh
NODE	SEZ6
EDGE	SEZ6	chdh	1.0

# CONNECTED COMPONENT 432
NODE	RTN4RL2
NODE	nudcd2
EDGE	RTN4RL2	nudcd2	1.0

# CONNECTED COMPONENT 433
NODE	CLEC1B
NODE	PDPN
EDGE	CLEC1B	PDPN	1.0

# CONNECTED COMPONENT 434
NODE	cpb2
NODE	TINAG
NODE	tmem45b
SET	PWRN-TINAG-1-1	1.0
IN	cpb2	PWRN-TINAG-1-1
IN	tmem45b	PWRN-TINAG-1-1
EDGE	PWRN-TINAG-1-1	TINAG	1.0

# CONNECTED COMPONENT 435
NODE	ZG16B
NODE	usp25
EDGE	ZG16B	usp25	1.0

# CONNECTED COMPONENT 436
NODE	HEL-S-29
NODE	ASB9
EDGE	ASB9	HEL-S-29	1.0

# CONNECTED COMPONENT 437
NODE	hook2
NODE	KLK15
EDGE	KLK15	hook2	1.0

# CONNECTED COMPONENT 438
NODE	ANXA10
NODE	edc3
EDGE	ANXA10	edc3	1.0

# CONNECTED COMPONENT 439
NODE	PGLYRP4
NODE	PGLYRP3
EDGE	PGLYRP3	PGLYRP4	1.0

# CONNECTED COMPONENT 440
NODE	NELL2
NODE	robo3_2
EDGE	NELL2	robo3_2	1.0

# CONNECTED COMPONENT 441
NODE	SCGB3A2
NODE	marco
EDGE	SCGB3A2	marco	1.0

# CONNECTED COMPONENT 442
NODE	EGFL8
NODE	rmdn3
EDGE	EGFL8	rmdn3	1.0

# CONNECTED COMPONENT 443
NODE	TSLP
NODE	crlf2
EDGE	TSLP	crlf2	1.0

# CONNECTED COMPONENT 444
NODE	Defa5
NODE	dtx1
EDGE	Defa5	dtx1	1.0

# CONNECTED COMPONENT 445
NODE	mef2a
NODE	xylt1
EDGE	mef2a	xylt1	1.0

# CONNECTED COMPONENT 446
NODE	cdk10
NODE	SEMG2
EDGE	SEMG2	cdk10	1.0

# CONNECTED COMPONENT 447
NODE	TFF2
NODE	FCRL4
EDGE	FCRL4	TFF2	1.0

# CONNECTED COMPONENT 448
NODE	tle2
NODE	cul4b
EDGE	cul4b	tle2	1.0

# CONNECTED COMPONENT 449
NODE	tyro3
NODE	gas6
NODE	KLK4
SET	PWRN-KLK4-1-1	1.0
IN	gas6	PWRN-KLK4-1-1
IN	KLK4	PWRN-KLK4-1-1
EDGE	PWRN-KLK4-1-1	tyro3	1.0

# CONNECTED COMPONENT 450
NODE	aplp2
NODE	SPON1
EDGE	SPON1	aplp2	1.0

# CONNECTED COMPONENT 451
NODE	loxl1
NODE	gatad2b
EDGE	gatad2b	loxl1	1.0

# CONNECTED COMPONENT 452
NODE	PROCR
NODE	dmtn
EDGE	PROCR	dmtn	1.0

# CONNECTED COMPONENT 453
NODE	galnt1
NODE	sec23a
EDGE	galnt1	sec23a	1.0

# CONNECTED COMPONENT 454
NODE	Krtap3-2
NODE	HYAL2
EDGE	HYAL2	Krtap3-2	1.0

# CONNECTED COMPONENT 455
NODE	CLEC2D
NODE	KLRB1
EDGE	CLEC2D	KLRB1	1.0

# CONNECTED COMPONENT 456
NODE	KIF13B
NODE	adgra2
NODE	dlg1
NODE	adgra3_2
SET	PWRN-KIF13B-1-1	1.0
IN	KIF13B	PWRN-KIF13B-1-1
IN	adgra2	PWRN-KIF13B-1-1
IN	adgra3_2	PWRN-KIF13B-1-1
EDGE	PWRN-KIF13B-1-1	dlg1	1.0

# CONNECTED COMPONENT 457
NODE	pak6
NODE	sema3b_2
EDGE	pak6	sema3b_2	1.0

# CONNECTED COMPONENT 458
NODE	SEMA3F
NODE	slc35g2
EDGE	SEMA3F	slc35g2	1.0

# CONNECTED COMPONENT 459
NODE	MSLN
NODE	rsg1
EDGE	MSLN	rsg1	1.0

# CONNECTED COMPONENT 460
NODE	MAD2L2
NODE	adam9
EDGE	MAD2L2	adam9	1.0

# CONNECTED COMPONENT 461
NODE	ART3
NODE	alcam
EDGE	ART3	alcam	1.0

# CONNECTED COMPONENT 462
NODE	SEMA4G_2
NODE	CAMK2B
EDGE	CAMK2B	SEMA4G_2	1.0

# CONNECTED COMPONENT 463
NODE	cabp1
NODE	cacna1c
EDGE	cabp1	cacna1c	1.0

# CONNECTED COMPONENT 464
NODE	dpysl2
NODE	dpysl3_2
EDGE	dpysl2	dpysl3_2	1.0

# CONNECTED COMPONENT 465
NODE	EMC2
NODE	emc10
EDGE	EMC2	emc10	1.0

# CONNECTED COMPONENT 466
NODE	postn
NODE	trappc2l
EDGE	postn	trappc2l	1.0

# CONNECTED COMPONENT 467
NODE	PDCD1
NODE	PDCD1LG2
EDGE	PDCD1	PDCD1LG2	1.0

# CONNECTED COMPONENT 468
NODE	ErbB4_2
NODE	ITCH_2
EDGE	ErbB4_2	ITCH_2	1.0

# CONNECTED COMPONENT 469
NODE	igfbp7
NODE	rbbp8
EDGE	igfbp7	rbbp8	1.0

# CONNECTED COMPONENT 470
NODE	slc35e1
NODE	lama3
EDGE	lama3	slc35e1	1.0

# CONNECTED COMPONENT 471
NODE	pla2g15
NODE	immt_2
EDGE	immt_2	pla2g15	1.0

# CONNECTED COMPONENT 472
NODE	HFE
NODE	tfr2
EDGE	HFE	tfr2	1.0

# CONNECTED COMPONENT 473
NODE	SH3GL1
NODE	DMA
NODE	b3gat1
SET	PWRN-DMA-1-1	1.0
IN	DMA	PWRN-DMA-1-1
IN	SH3GL1	PWRN-DMA-1-1
EDGE	PWRN-DMA-1-1	b3gat1	1.0

# CONNECTED COMPONENT 474
NODE	ABCA3
NODE	LAMP3
EDGE	ABCA3	LAMP3	1.0
