# CONNECTED COMPONENT 1
NODE	IZUMO1
NODE	IZUMO1R
EDGE	IZUMO1	IZUMO1R	1.0

# CONNECTED COMPONENT 2
NODE	CLEC2A
NODE	KLRF2
EDGE	CLEC2A	KLRF2	1.0

# CONNECTED COMPONENT 3
NODE	Arresten
NODE	ITGB1_2
EDGE	Arresten	ITGB1_2	1.0

# CONNECTED COMPONENT 4
NODE	ANXA1_2
NODE	Meis2
EDGE	ANXA1_2	Meis2	1.0

# CONNECTED COMPONENT 5
NODE	C9orf16
NODE	cep290
EDGE	C9orf16	cep290	1.0

# CONNECTED COMPONENT 6
NODE	MMP20
NODE	DSPP
EDGE	DSPP	MMP20	1.0

# CONNECTED COMPONENT 7
NODE	C1QL1
NODE	C1QTNF8
EDGE	C1QL1	C1QTNF8	1.0

# CONNECTED COMPONENT 8
NODE	SERINC3
NODE	bmp10
EDGE	SERINC3	bmp10	1.0

# CONNECTED COMPONENT 9
NODE	IGHE
NODE	FCER1A
EDGE	FCER1A	IGHE	1.0

# CONNECTED COMPONENT 10
NODE	c8a
NODE	c9
EDGE	c8a	c9	1.0

# CONNECTED COMPONENT 11
NODE	bpgm
NODE	CEL
EDGE	CEL	bpgm	1.0

# CONNECTED COMPONENT 12
NODE	MMP10
NODE	ADAMTSL1
EDGE	ADAMTSL1	MMP10	1.0

# CONNECTED COMPONENT 13
NODE	TNFRSF8
NODE	TNFSF8
EDGE	TNFRSF8	TNFSF8	1.0

# CONNECTED COMPONENT 14
NODE	arr3
NODE	RNASE6
EDGE	RNASE6	arr3	1.0

# CONNECTED COMPONENT 15
NODE	CD200R1
NODE	CD200
EDGE	CD200	CD200R1	1.0

# CONNECTED COMPONENT 16
NODE	XCL1
NODE	XCR1
EDGE	XCL1	XCR1	1.0

# CONNECTED COMPONENT 17
NODE	adamts1
NODE	USP17L24
EDGE	USP17L24	adamts1	1.0

# CONNECTED COMPONENT 18
NODE	LDLRAP1
NODE	Leg1
EDGE	LDLRAP1	Leg1	1.0

# CONNECTED COMPONENT 19
NODE	cfap58
NODE	NAV2
EDGE	NAV2	cfap58	1.0

# CONNECTED COMPONENT 20
NODE	LYZL1
NODE	XAGE3
EDGE	LYZL1	XAGE3	1.0

# CONNECTED COMPONENT 21
NODE	MRFAP1
NODE	C14orf93
EDGE	C14orf93	MRFAP1	1.0

# CONNECTED COMPONENT 22
NODE	PGLYRP4
NODE	PGLYRP3
EDGE	PGLYRP3	PGLYRP4	1.0

# CONNECTED COMPONENT 23
NODE	KLRB1
NODE	CLEC2D
EDGE	CLEC2D	KLRB1	1.0

# CONNECTED COMPONENT 24
NODE	cabp1
NODE	cacna1c
EDGE	cabp1	cacna1c	1.0
