# CONNECTED COMPONENT 1
NODE	IZUMO1
NODE	IZUMO1R
EDGE	IZUMO1	IZUMO1R	1.0

# CONNECTED COMPONENT 2
NODE	KLRF2
NODE	CLEC2A
EDGE	CLEC2A	KLRF2	1.0

# CONNECTED COMPONENT 3
NODE	ITGB1_2
NODE	Arresten
EDGE	Arresten	ITGB1_2	1.0

# CONNECTED COMPONENT 4
NODE	DLL1
NODE	synj2bp
EDGE	DLL1	synj2bp	1.0

# CONNECTED COMPONENT 5
NODE	Meis2
NODE	ANXA1_2
EDGE	ANXA1_2	Meis2	1.0

# CONNECTED COMPONENT 6
NODE	tfec
NODE	DEFB127
EDGE	DEFB127	tfec	1.0

# CONNECTED COMPONENT 7
NODE	C9orf16
NODE	cep290
EDGE	C9orf16	cep290	1.0

# CONNECTED COMPONENT 8
NODE	myo10
NODE	PLA2G10
EDGE	PLA2G10	myo10	1.0

# CONNECTED COMPONENT 9
NODE	flrt2
NODE	FLRT1
EDGE	FLRT1	flrt2	1.0

# CONNECTED COMPONENT 10
NODE	sh3d19
NODE	adam12_2
EDGE	adam12_2	sh3d19	1.0

# CONNECTED COMPONENT 11
NODE	edil3
NODE	cdkl1
EDGE	cdkl1	edil3	1.0

# CONNECTED COMPONENT 12
NODE	GIF
NODE	cubn
EDGE	GIF	cubn	1.0

# CONNECTED COMPONENT 13
NODE	gfra3
NODE	ARTN
EDGE	ARTN	gfra3	1.0

# CONNECTED COMPONENT 14
NODE	DSPP
NODE	MMP20
EDGE	DSPP	MMP20	1.0

# CONNECTED COMPONENT 15
NODE	neurod4
NODE	lrrn2
EDGE	lrrn2	neurod4	1.0

# CONNECTED COMPONENT 16
NODE	ppp1r15a
NODE	PPP1R1A
EDGE	PPP1R1A	ppp1r15a	1.0

# CONNECTED COMPONENT 17
NODE	MMP23A
NODE	glrx
EDGE	MMP23A	glrx	1.0

# CONNECTED COMPONENT 18
NODE	C1QTNF8
NODE	C1QL1
EDGE	C1QL1	C1QTNF8	1.0

# CONNECTED COMPONENT 19
NODE	bmp10
NODE	SERINC3
EDGE	SERINC3	bmp10	1.0

# CONNECTED COMPONENT 20
NODE	IGHE
NODE	FCER1A
EDGE	FCER1A	IGHE	1.0

# CONNECTED COMPONENT 21
NODE	c8a
NODE	c9
EDGE	c8a	c9	1.0

# CONNECTED COMPONENT 22
NODE	bpgm
NODE	CEL
EDGE	CEL	bpgm	1.0

# CONNECTED COMPONENT 23
NODE	GSTA1
NODE	st3gal1
EDGE	GSTA1	st3gal1	1.0

# CONNECTED COMPONENT 24
NODE	MMP10
NODE	ADAMTSL1
EDGE	ADAMTSL1	MMP10	1.0

# CONNECTED COMPONENT 25
NODE	lipc
NODE	adhfe1
EDGE	adhfe1	lipc	1.0

# CONNECTED COMPONENT 26
NODE	gp9
NODE	GP5
EDGE	GP5	gp9	1.0

# CONNECTED COMPONENT 27
NODE	TNFRSF8
NODE	TNFSF8
EDGE	TNFRSF8	TNFSF8	1.0

# CONNECTED COMPONENT 28
NODE	CLEC4C
NODE	fcer1g
EDGE	CLEC4C	fcer1g	1.0

# CONNECTED COMPONENT 29
NODE	ddit3_2
NODE	TWEAK
EDGE	TWEAK	ddit3_2	1.0

# CONNECTED COMPONENT 30
NODE	arr3
NODE	RNASE6
EDGE	RNASE6	arr3	1.0

# CONNECTED COMPONENT 31
NODE	pnoc
NODE	oprl1
EDGE	oprl1	pnoc	1.0

# CONNECTED COMPONENT 32
NODE	CD200
NODE	CD200R1
EDGE	CD200	CD200R1	1.0

# CONNECTED COMPONENT 33
NODE	XCR1
NODE	XCL1
EDGE	XCL1	XCR1	1.0

# CONNECTED COMPONENT 34
NODE	adamts1
NODE	USP17L24
EDGE	USP17L24	adamts1	1.0

# CONNECTED COMPONENT 35
NODE	LDLRAP1
NODE	Leg1
EDGE	LDLRAP1	Leg1	1.0

# CONNECTED COMPONENT 36
NODE	NAV2
NODE	cfap58
EDGE	NAV2	cfap58	1.0

# CONNECTED COMPONENT 37
NODE	LYZL1
NODE	XAGE3
EDGE	LYZL1	XAGE3	1.0

# CONNECTED COMPONENT 38
NODE	IFNL1
NODE	ifnlr1
EDGE	IFNL1	ifnlr1	1.0

# CONNECTED COMPONENT 39
NODE	rln3
NODE	RXFP4
EDGE	RXFP4	rln3	1.0

# CONNECTED COMPONENT 40
NODE	C14orf93
NODE	MRFAP1
EDGE	C14orf93	MRFAP1	1.0

# CONNECTED COMPONENT 41
NODE	PGLYRP4
NODE	PGLYRP3
EDGE	PGLYRP3	PGLYRP4	1.0

# CONNECTED COMPONENT 42
NODE	CLEC2D
NODE	KLRB1
EDGE	CLEC2D	KLRB1	1.0

# CONNECTED COMPONENT 43
NODE	cacna1c
NODE	cabp1
EDGE	cabp1	cacna1c	1.0
