edge	C1QTNF9B	ADIPOQ_2	B2RNN3	Q15848	human	human
edge	bnip3l	lmna	O60238	P02545-2	human	human
edge	bnip3l	ADIPOQ_2	O60238	Q15848	human	human
edge	lmna	bdkrb2	P02545-2	P30411-2	human	human
edge	lmna	SYCE1	P02545-2	Q8N0S2	human	human
edge	lmna	LEMD2	P02545-2	Q8NC56	human	human
edge	ADIPOQ_2	SYNE4_2	Q15848	Q8N205-2	human	human
