ret	NOTCH2NL
spg7	NOTCH2NL
ACY3	NOTCH2NL
CRCT1	NOTCH2NL
spry1	NOTCH2NL
POLR2G	NOTCH2NL
Ctsg	NOTCH2NL
hpcal1	NOTCH2NL
Naxd	NOTCH2NL
NECTIN2	NOTCH2NL
thap7	NOTCH2NL
CSF1	NOTCH2NL
chic2	NOTCH2NL
nppb	NOTCH2NL
KRTAP12-4	NOTCH2NL
gata2	NOTCH2NL
KRTAP9-2	NOTCH2NL
TNP2	NOTCH2NL
FAAH	NOTCH2NL
CHRD	NOTCH2NL
ZNF417	NOTCH2NL
CXCL5	NOTCH2NL
R3HDM2_2	NOTCH2NL
TRIM27	NOTCH2NL
efna3	NOTCH2NL
mxd3	NOTCH2NL
ephb6	NOTCH2NL
AQP5	NOTCH2NL
hbz	NOTCH2NL
faslg	NOTCH2NL
bmp7_2	NOTCH2NL
SELENOM	NOTCH2NL
arid3a	NOTCH2NL
reck	NOTCH2NL
AQP1	NOTCH2NL
KRT83	NOTCH2NL
KRTAP10-7	NOTCH2NL
CCDC26	NOTCH2NL
PTPN23	NOTCH2NL
HIST1H2AK	NOTCH2NL
DMRT3	NOTCH2NL
NR1D2	NOTCH2NL
KRTAP4-11	NOTCH2NL
aspscr1	NOTCH2NL
ubqln4	NOTCH2NL
NMUR2	NOTCH2NL
rab3il1	NOTCH2NL
hspd1	NOTCH2NL
mta1_2	NOTCH2NL
WT1-AS	NOTCH2NL
ZNF587	NOTCH2NL
tnk2	NOTCH2NL
MELTF	NOTCH2NL
slc25a6	NOTCH2NL
HEL-S-90n	NOTCH2NL
KRT20	NOTCH2NL
lims2	NOTCH2NL
sema4c	NOTCH2NL
gtf3c5	NOTCH2NL
slc22a23	NOTCH2NL
GLYAT	NOTCH2NL
PCED1A	NOTCH2NL
uxt	NOTCH2NL
KRTAP13-3	NOTCH2NL
rps28	NOTCH2NL
stk16	NOTCH2NL
GEM	NOTCH2NL
FAM71C	NOTCH2NL
ICAM4_2	NOTCH2NL
sdcbp	NOTCH2NL
GLP1R	NOTCH2NL
cdk5r1	NOTCH2NL
pde9a	NOTCH2NL
utp23	NOTCH2NL
CatSper1	NOTCH2NL
zfyve21	NOTCH2NL
cdk5r1_2	NOTCH2NL
SMCP	NOTCH2NL
PLPP2	NOTCH2NL
KRTAP12-2	NOTCH2NL
KRTAP10-8	NOTCH2NL
LCE3C	NOTCH2NL
CRACR2A	NOTCH2NL
lrch4	NOTCH2NL
klhl38	NOTCH2NL
SPATA8	NOTCH2NL
FOXB1	NOTCH2NL
CST2	NOTCH2NL
KRTAP9-4	NOTCH2NL
CREB5	NOTCH2NL
fbxw5	NOTCH2NL
HEL-S-182mP	NOTCH2NL
RAMP3	NOTCH2NL
psma1_2	NOTCH2NL
adamtsl5_2	NOTCH2NL
atg9a	NOTCH2NL
smoc1	NOTCH2NL
dhrs1	NOTCH2NL
npdc1	NOTCH2NL
nmu	NOTCH2NL
aes	NOTCH2NL
LONRF3	NOTCH2NL
trpv6	NOTCH2NL
C5orf60	NOTCH2NL
adamtsl3	NOTCH2NL
ret_2	NOTCH2NL
ifi30	NOTCH2NL
NUBP2	NOTCH2NL
themis2	NOTCH2NL
CLEC18A	NOTCH2NL
MATN3	NOTCH2NL
KRTAP4-2	NOTCH2NL
cldn2	NOTCH2NL
PLSCR4	NOTCH2NL
ZNF32	NOTCH2NL
HOXA1	NOTCH2NL
TMEM41A	NOTCH2NL
ctsz	NOTCH2NL
fam124b	NOTCH2NL
MGC13033	NOTCH2NL
DOCK2	NOTCH2NL
hspbp1	NOTCH2NL
cerk	NOTCH2NL
bcl6b	NOTCH2NL
aldh3b1	NOTCH2NL
eif4e2	NOTCH2NL
KRTAP4-7	NOTCH2NL
tspan4	NOTCH2NL
KRTAP4-12	NOTCH2NL
LCE2D	NOTCH2NL
lin7a	NOTCH2NL
rtn4rl1	NOTCH2NL
ptpmt1	NOTCH2NL
prkaa2	NOTCH2NL
PCSK5	NOTCH2NL
PCED1B	NOTCH2NL
ZNF439	NOTCH2NL
hspa12b	NOTCH2NL
ptger3	NOTCH2NL
DNAL4	NOTCH2NL
mxi1	NOTCH2NL
TNIP3	NOTCH2NL
hck	NOTCH2NL
fbxl18	NOTCH2NL
gstp1	NOTCH2NL
KRTAP5-6	NOTCH2NL
LMO2	NOTCH2NL
carhsp1	NOTCH2NL
LCE1B	NOTCH2NL
pigs	NOTCH2NL
C16orf59	NOTCH2NL
ca6	NOTCH2NL
frs3	NOTCH2NL
NEU2	NOTCH2NL
nab2	NOTCH2NL
NECTIN3	NOTCH2NL
fars2	NOTCH2NL
gip	NOTCH2NL
P2RX4	NOTCH2NL
TRIM42	NOTCH2NL
KRTAP10-11	NOTCH2NL
cd164	NOTCH2NL
tbc1d10c	NOTCH2NL
adck5	NOTCH2NL
chdh	NOTCH2NL
ZNF581	NOTCH2NL
tinagl1	NOTCH2NL
slc25a10	NOTCH2NL
gabrd	NOTCH2NL
PRPS2	NOTCH2NL
prpf31	NOTCH2NL
gne	NOTCH2NL
josd1	NOTCH2NL
MARK4	NOTCH2NL
ZNF446_2	NOTCH2NL
CST9L	NOTCH2NL
KRTAP10-5	NOTCH2NL
glrx3	NOTCH2NL
KRTAP3-1	NOTCH2NL
ITGB2	NOTCH2NL
pomgnt2	NOTCH2NL
rgl2	NOTCH2NL
ZNF124	NOTCH2NL
gnai2	NOTCH2NL
WDR25	NOTCH2NL
KLK8	NOTCH2NL
tmem231	NOTCH2NL
slc23a1	NOTCH2NL
inpp5d	NOTCH2NL
LINC00526	NOTCH2NL
tmem150a	NOTCH2NL
alpi	NOTCH2NL
Ryden	NOTCH2NL
IL2RG	NOTCH2NL
XCL2	NOTCH2NL
txndc5	NOTCH2NL
LOC200261	NOTCH2NL
SLC6A20	NOTCH2NL
mrgbp	NOTCH2NL
chrng_2	NOTCH2NL
GFOD1	NOTCH2NL
ZNF440	NOTCH2NL
SPINK2	NOTCH2NL
chrng	NOTCH2NL
chchd3	NOTCH2NL
mapkbp1	NOTCH2NL
ITGB5_3	NOTCH2NL
LRFN4	NOTCH2NL
SCNM1	NOTCH2NL
yipf3	NOTCH2NL
CCER1	NOTCH2NL
mrpl40	NOTCH2NL
PVR	NOTCH2NL
KRTAP10-9	NOTCH2NL
BLCAP	NOTCH2NL
KRTAP5-9	NOTCH2NL
C11orf87	NOTCH2NL
pid1	NOTCH2NL
hsd3b7	NOTCH2NL
KCTD15	NOTCH2NL
LCE3E	NOTCH2NL
lnx1	NOTCH2NL
Snai1	NOTCH2NL
hsbp1	NOTCH2NL
FAM74A4	NOTCH2NL
KRTAP26-1	NOTCH2NL
rchy1	NOTCH2NL
Collagen-VIII_2	NOTCH2NL
NPBWR2	NOTCH2NL
PSMG2	NOTCH2NL
smarce1	NOTCH2NL
