KRT6C	KRT31
PKN1	KRT31
LCE4A	KRT31
lmf2	KRT31
ttc23	KRT31
Ctsg	KRT31
Naxd	KRT31
RPUSD3	KRT31
thap7	KRT31
WDYHV1	KRT31
LMO4	KRT31
card9	KRT31
gng10	KRT31
fkbp1b	KRT31
AQP5	KRT31
lyar	KRT31
ccdc120	KRT31
AQP1	KRT31
USP15	KRT31
KRT83	KRT31
AMOTL2_2	KRT31
tmsb4x_2	KRT31
FBF1_2	KRT31
DMRT3	KRT31
SPATA24_2	KRT31
C12orf49	KRT31
kifc3	KRT31
ZNF69	KRT31
SPON2	KRT31
znf148	KRT31
pin1	KRT31
C2CD6	KRT31
aspscr1	KRT31
hspd1	KRT31
ABI2	KRT31
fam110a	KRT31
BEX2	KRT31
ZNF20	KRT31
ppp2r2b	KRT31
TROAP	KRT31
slc25a6	KRT31
sema4c	KRT31
CDC20B	KRT31
FAM90A1	KRT31
uxt	KRT31
SLC15A3	KRT31
ANKRD36BP1	KRT31
rab24	KRT31
lats1	KRT31
cep70	KRT31
GEM	KRT31
FAM71C	KRT31
cdk12	KRT31
ICAM4_2	KRT31
YWHAG	KRT31
C1orf216	KRT31
lonrf1	KRT31
utp23	KRT31
CDK18	KRT31
elf3	KRT31
traf4	KRT31
bysl	KRT31
zfyve21	KRT31
map3k7cl	KRT31
SMCP	KRT31
atn1	KRT31
stk38l	KRT31
FOXB1	KRT31
klhl38	KRT31
cep57l1	KRT31
lin37	KRT31
fbxw5	KRT31
haus1	KRT31
psma1_2	KRT31
atg9a	KRT31
OTUB2	KRT31
cdc20	KRT31
KRT79	KRT31
aes	KRT31
C5orf60	KRT31
cfap206	KRT31
tsg101	KRT31
BAK1	KRT31
cep57	KRT31
PRR19	KRT31
cldn2	KRT31
klc1	KRT31
pspc1	KRT31
HOXA1	KRT31
ribc1	KRT31
fam124b	KRT31
MGC13033	KRT31
cep57l1_2	KRT31
NAV1_2	KRT31
Atg12	KRT31
aldh3b1	KRT31
cdc25b_2	KRT31
eif4e2	KRT31
ushbp1	KRT31
CCHCR1	KRT31
arsj	KRT31
KRT77	KRT31
otud4	KRT31
PDE4DIP_3	KRT31
PRF1	KRT31
CCDC112	KRT31
ptpmt1	KRT31
prkaa2	KRT31
hspa12b	KRT31
ptger3	KRT31
TWF2	KRT31
KRT6A	KRT31
COMT_2	KRT31
gstp1	KRT31
DGCR6L	KRT31
COX5B	KRT31
ca6	KRT31
hdac4	KRT31
ZNF572	KRT31
ZNF569	KRT31
crh	KRT31
fars2	KRT31
ssx2ip	KRT31
asmtl	KRT31
btc	KRT31
gng5	KRT31
snrnp25	KRT31
KRT81	KRT31
smg9	KRT31
rsph14	KRT31
INPP5K	KRT31
sfrs2	KRT31
AGR2	KRT31
krt71	KRT31
dtnb	KRT31
armc7	KRT31
usp8	KRT31
krt5	KRT31
GABARAPL2	KRT31
CD33_2	KRT31
gne	KRT31
josd1	KRT31
cdkn1a	KRT31
MARK4	KRT31
glrx3	KRT31
ppp1r18	KRT31
tlr9	KRT31
C1orf109	KRT31
ATG2A_2	KRT31
hgs	KRT31
leng1	KRT31
ZNF124	KRT31
gnai2	KRT31
dnpep	KRT31
dlg3_2	KRT31
ccnc	KRT31
tmem231	KRT31
klc4	KRT31
slc23a1	KRT31
WDR25	KRT31
dgkb	KRT31
LINC00526	KRT31
inpp5d	KRT31
txlna	KRT31
coa5	KRT31
INSR_2	KRT31
gps2	KRT31
C19orf73	KRT31
amot_2	KRT31
tmem106c	KRT31
nek6_2	KRT31
SHC3	KRT31
chrng_2	KRT31
catip	KRT31
cox5a	KRT31
GFOD1	KRT31
exoc8	KRT31
chrng	KRT31
mapkbp1	KRT31
krt8	KRT31
plekhb2	KRT31
SCNM1	KRT31
CCER1	KRT31
mrpl40	KRT31
CCDC196	KRT31
chchd2	KRT31
KRT2	KRT31
p2rx7_2	KRT31
rcor3	KRT31
MARK4_3	KRT31
radil	KRT31
Snai1	KRT31
FAM103A1	KRT31
FAM74A4	KRT31
atxn7l1	KRT31
KRT6B	KRT31
NPBWR2	KRT31
PSMG2	KRT31
smarce1	KRT31
ccdc17	KRT31
