# CONNECTED COMPONENT 1
NODE	IZUMO1R
NODE	IZUMO1
EDGE	IZUMO1	IZUMO1R	1.0

# CONNECTED COMPONENT 2
NODE	CLEC2A
NODE	KLRF2
EDGE	CLEC2A	KLRF2	1.0

# CONNECTED COMPONENT 3
NODE	ITGB1_2
NODE	Arresten
EDGE	Arresten	ITGB1_2	1.0

# CONNECTED COMPONENT 4
NODE	DLL1
NODE	synj2bp
EDGE	DLL1	synj2bp	1.0

# CONNECTED COMPONENT 5
NODE	Meis2
NODE	ANXA1_2
EDGE	ANXA1_2	Meis2	1.0

# CONNECTED COMPONENT 6
NODE	DEFB127
NODE	tfec
EDGE	DEFB127	tfec	1.0

# CONNECTED COMPONENT 7
NODE	C9orf16
NODE	cep290
EDGE	C9orf16	cep290	1.0

# CONNECTED COMPONENT 8
NODE	myo10
NODE	PLA2G10
EDGE	PLA2G10	myo10	1.0

# CONNECTED COMPONENT 9
NODE	flrt2
NODE	FLRT1
EDGE	FLRT1	flrt2	1.0

# CONNECTED COMPONENT 10
NODE	sh3d19
NODE	adam12_2
EDGE	adam12_2	sh3d19	1.0

# CONNECTED COMPONENT 11
NODE	cdkl1
NODE	edil3
EDGE	cdkl1	edil3	1.0

# CONNECTED COMPONENT 12
NODE	cubn
NODE	GIF
EDGE	GIF	cubn	1.0

# CONNECTED COMPONENT 13
NODE	gfra3
NODE	ARTN
EDGE	ARTN	gfra3	1.0

# CONNECTED COMPONENT 14
NODE	DSPP
NODE	MMP20
EDGE	DSPP	MMP20	1.0

# CONNECTED COMPONENT 15
NODE	lrrn2
NODE	neurod4
EDGE	lrrn2	neurod4	1.0

# CONNECTED COMPONENT 16
NODE	ppp1r15a
NODE	PPP1R1A
EDGE	PPP1R1A	ppp1r15a	1.0

# CONNECTED COMPONENT 17
NODE	MMP23A
NODE	glrx
EDGE	MMP23A	glrx	1.0

# CONNECTED COMPONENT 18
NODE	C1QTNF8
NODE	C1QL1
EDGE	C1QL1	C1QTNF8	1.0

# CONNECTED COMPONENT 19
NODE	bmp10
NODE	SERINC3
EDGE	SERINC3	bmp10	1.0

# CONNECTED COMPONENT 20
NODE	FCER1A
NODE	IGHE
EDGE	FCER1A	IGHE	1.0

# CONNECTED COMPONENT 21
NODE	c9
NODE	c8a
EDGE	c8a	c9	1.0

# CONNECTED COMPONENT 22
NODE	bpgm
NODE	CEL
EDGE	CEL	bpgm	1.0

# CONNECTED COMPONENT 23
NODE	GSTA1
NODE	st3gal1
EDGE	GSTA1	st3gal1	1.0

# CONNECTED COMPONENT 24
NODE	ADAMTSL1
NODE	MMP10
EDGE	ADAMTSL1	MMP10	1.0

# CONNECTED COMPONENT 25
NODE	lipc
NODE	adhfe1
EDGE	adhfe1	lipc	1.0

# CONNECTED COMPONENT 26
NODE	gp9
NODE	GP5
EDGE	GP5	gp9	1.0

# CONNECTED COMPONENT 27
NODE	TNFSF8
NODE	TNFRSF8
EDGE	TNFRSF8	TNFSF8	1.0

# CONNECTED COMPONENT 28
NODE	fcer1g
NODE	CLEC4C
EDGE	CLEC4C	fcer1g	1.0

# CONNECTED COMPONENT 29
NODE	TWEAK
NODE	ddit3_2
EDGE	TWEAK	ddit3_2	1.0

# CONNECTED COMPONENT 30
NODE	arr3
NODE	RNASE6
EDGE	RNASE6	arr3	1.0

# CONNECTED COMPONENT 31
NODE	oprl1
NODE	pnoc
EDGE	oprl1	pnoc	1.0

# CONNECTED COMPONENT 32
NODE	CD200
NODE	CD200R1
EDGE	CD200	CD200R1	1.0

# CONNECTED COMPONENT 33
NODE	XCR1
NODE	XCL1
EDGE	XCL1	XCR1	1.0

# CONNECTED COMPONENT 34
NODE	adamts1
NODE	USP17L24
EDGE	USP17L24	adamts1	1.0

# CONNECTED COMPONENT 35
NODE	LDLRAP1
NODE	Leg1
EDGE	LDLRAP1	Leg1	1.0

# CONNECTED COMPONENT 36
NODE	NAV2
NODE	cfap58
EDGE	NAV2	cfap58	1.0

# CONNECTED COMPONENT 37
NODE	XAGE3
NODE	LYZL1
EDGE	LYZL1	XAGE3	1.0

# CONNECTED COMPONENT 38
NODE	IFNL1
NODE	ifnlr1
EDGE	IFNL1	ifnlr1	1.0

# CONNECTED COMPONENT 39
NODE	RXFP4
NODE	rln3
EDGE	RXFP4	rln3	1.0

# CONNECTED COMPONENT 40
NODE	MRFAP1
NODE	C14orf93
EDGE	C14orf93	MRFAP1	1.0

# CONNECTED COMPONENT 41
NODE	PGLYRP3
NODE	PGLYRP4
EDGE	PGLYRP3	PGLYRP4	1.0

# CONNECTED COMPONENT 42
NODE	KLRB1
NODE	CLEC2D
EDGE	CLEC2D	KLRB1	1.0

# CONNECTED COMPONENT 43
NODE	cabp1
NODE	cacna1c
EDGE	cabp1	cacna1c	1.0
