edge	krit1	itgb1bp1	O00522	O14713	human	human
edge	krit1	ccm2	O00522	Q9BSQ5	human	human
edge	krit1	PDCD10	O00522	Q9BUL8	human	human
edge	krit1	heg1	O00522	Q9ULI3	human	human
edge	vstm2l	ccm2	Q96N03	Q9BSQ5	human	human
