edge	ndufs6	gdnf_2	O75380	P39905	human	human
edge	ptpra	gdnf_2	P18433-4	P39905	human	human
edge	gdnf_2	GFRA1_2	P39905	P56159-2	human	human
edge	gdnf_2	GFRA1	P39905	P56159	human	human
edge	gdnf_2	agtrap	P39905	Q6RW13	human	human
edge	gdnf	agtrap_2	P39905-3	Q6RW13-2	human	human
edge	gdnf_2	agtrap_2	P39905	Q6RW13-2	human	human
edge	agtrap	BPIFA2	Q6RW13	Q96DR5	human	human
