edge	SNCG	timp2	O76070	P16035	human	human
edge	hspa4l	timp2	O95757	P16035	human	human
edge	apc2	timp2	O95996	P16035	human	human
edge	proc	MMP15	P04070	P51511	human	human
edge	timp2	rab3a	P16035	P20336	human	human
edge	timp2	PCMT1	P16035	P22061	human	human
edge	timp2	paics	P16035	P22234	human	human
edge	timp2	rpl29	P16035	P47914	human	human
edge	timp2	MMP15	P16035	P51511	human	human
edge	timp2	MMP16	P16035	P51512	human	human
edge	timp2	npepps	P16035	P55786	human	human
edge	timp2	PEX	P16035	P08253-PRO_0000391626	human	human
edge	timp2	psat1	P16035	Q9Y617	human	human
edge	TIMP4	PEX	Q99727	P08253-PRO_0000391626	human	human
