edge	MRPS12	SPINK7	O15235	P58062	human	human
edge	MT2A	SPINK7	P02795	P58062	human	human
edge	MT1G	SPINK7	P13640	P58062	human	human
edge	EPB42	SPINK7	P16452	P58062	human	human
edge	SPINK7	MT1H	P58062	P80294	human	human
edge	SPINK7	RABL6	P58062	Q3YEC7	human	human
