edge	nap1l1	qsox2	F8VY35	Q6ZRP7	human	human
edge	ZCCHC6	qsox2	Q5VYS8	Q6ZRP7	human	human
edge	nbeal2	qsox2	Q6ZNJ1-3	Q6ZRP7	human	human
edge	qsox2	xrn1_2	Q6ZRP7	Q8IZH2-2	human	human
edge	qsox2	fbxo30	Q6ZRP7	Q8TB52	human	human
edge	qsox2	cep44	Q6ZRP7	Q9C0F1	human	human
edge	qsox2	impact	Q6ZRP7	Q9P2X3	human	human
edge	qsox2	orc3	Q6ZRP7	Q9UBD5-2	human	human
edge	qsox2	cept1	Q6ZRP7	Q9Y6K0	human	human
edge	qsox2	c2cd5	Q6ZRP7	Q86YS7	human	human
edge	qsox2	ttc1	Q6ZRP7	Q99614	human	human
