edge	zbtb24	CDA	O43167	P32320	human	human
edge	KRT34	plekhb2	O76011	Q96CS7	human	human
edge	CDA	ptger3	P32320	P43115-12	human	human
edge	CDA	FNDC11	P32320	Q9BVV2	human	human
edge	CDA	plekhb2	P32320	Q96CS7	human	human
