#BBL-1.0
#File written by the powergrasp.info module (0.7.0)
# CONNECTED COMPONENT 0: "RNASE6" (density=1.0)
EDGE	RNASE6	arr3	1.0
# CONNECTED COMPONENT 1: "TWEAK" (density=1.0)
EDGE	TWEAK	ddit3_2	1.0
# CONNECTED COMPONENT 2: "ANXA1_2" (density=1.0)
EDGE	ANXA1_2	Meis2	1.0
# CONNECTED COMPONENT 3: "CLEC4C" (density=1.0)
EDGE	CLEC4C	fcer1g	1.0
# CONNECTED COMPONENT 4: "GP5" (density=1.0)
EDGE	GP5	gp9	1.0
# CONNECTED COMPONENT 5: "Arresten" (density=1.0)
EDGE	Arresten	ITGB1_2	1.0
# CONNECTED COMPONENT 6: "USP17L24" (density=1.0)
EDGE	USP17L24	adamts1	1.0
# CONNECTED COMPONENT 7: "adhfe1" (density=1.0)
EDGE	adhfe1	lipc	1.0
# CONNECTED COMPONENT 8: "ADAMTSL1" (density=1.0)
EDGE	ADAMTSL1	MMP10	1.0
# CONNECTED COMPONENT 9: "CLEC2A" (density=1.0)
EDGE	CLEC2A	KLRF2	1.0
# CONNECTED COMPONENT 10: "CEL" (density=1.0)
EDGE	CEL	bpgm	1.0
# CONNECTED COMPONENT 11: "c8a" (density=1.0)
EDGE	c8a	c9	1.0
# CONNECTED COMPONENT 12: "IZUMO1" (density=1.0)
EDGE	IZUMO1	IZUMO1R	1.0
# CONNECTED COMPONENT 13: "CD200" (density=1.0)
EDGE	CD200	CD200R1	1.0
# CONNECTED COMPONENT 14: "MMP23A" (density=1.0)
EDGE	MMP23A	glrx	1.0
# CONNECTED COMPONENT 15: "FCER1A" (density=1.0)
EDGE	FCER1A	IGHE	1.0
# CONNECTED COMPONENT 16: "SERINC3" (density=1.0)
EDGE	SERINC3	bmp10	1.0
# CONNECTED COMPONENT 17: "C14orf93" (density=1.0)
EDGE	C14orf93	MRFAP1	1.0
# CONNECTED COMPONENT 18: "DSPP" (density=1.0)
EDGE	DSPP	MMP20	1.0
# CONNECTED COMPONENT 19: "ARTN" (density=1.0)
EDGE	ARTN	gfra3	1.0
# CONNECTED COMPONENT 20: "IFNL1" (density=1.0)
EDGE	IFNL1	ifnlr1	1.0
# CONNECTED COMPONENT 21: "TNFRSF8" (density=1.0)
EDGE	TNFRSF8	TNFSF8	1.0
# CONNECTED COMPONENT 22: "GIF" (density=1.0)
EDGE	GIF	cubn	1.0
# CONNECTED COMPONENT 23: "cabp1" (density=1.0)
EDGE	cabp1	cacna1c	1.0
# CONNECTED COMPONENT 24: "cdkl1" (density=1.0)
EDGE	cdkl1	edil3	1.0
# CONNECTED COMPONENT 25: "LYZL1" (density=1.0)
EDGE	LYZL1	XAGE3	1.0
# CONNECTED COMPONENT 26: "CLEC2D" (density=1.0)
EDGE	CLEC2D	KLRB1	1.0
# CONNECTED COMPONENT 27: "PGLYRP3" (density=1.0)
EDGE	PGLYRP3	PGLYRP4	1.0
# CONNECTED COMPONENT 28: "FLRT1" (density=1.0)
EDGE	FLRT1	flrt2	1.0
# CONNECTED COMPONENT 29: "NAV2" (density=1.0)
EDGE	NAV2	cfap58	1.0
# CONNECTED COMPONENT 30: "XCL1" (density=1.0)
EDGE	XCL1	XCR1	1.0
# CONNECTED COMPONENT 31: "C9orf16" (density=1.0)
EDGE	C9orf16	cep290	1.0
# CONNECTED COMPONENT 32: "LDLRAP1" (density=1.0)
EDGE	LDLRAP1	Leg1	1.0
# CONNECTED COMPONENT 33: "C1QL1" (density=1.0)
EDGE	C1QL1	C1QTNF8	1.0
# CONNECTED COMPONENT 34: "lrrn2" (density=1.0)
EDGE	lrrn2	neurod4	1.0
# CONNECTED COMPONENT 35: "PLA2G10" (density=1.0)
EDGE	PLA2G10	myo10	1.0